{
    "type": "FeatureCollection",
    "features": [
        {
            "type": "Feature",
            "geometry": {
                "type": "Point",
                "coordinates": [
                    8.20653711,
                    49.63530281
                ]
            },
            "properties": {
                "RSU coordinates": [
                    8.2107652,
                    49.6355184
                ],
                "Distance": 305.78,
                "Frequency": 5.9,
                "RSSI": -85.17,
                "LOS": "False"
            }
        },
        {
            "type": "Feature",
            "geometry": {
                "type": "Point",
                "coordinates": [
                    8.2067293,
                    49.63530281
                ]
            },
            "properties": {
                "RSU coordinates": [
                    8.2107652,
                    49.6355184
                ],
                "Distance": 291.97,
                "Frequency": 5.9,
                "RSSI": -84.77,
                "LOS": "False"
            }
        },
        {
            "type": "Feature",
            "geometry": {
                "type": "Point",
                "coordinates": [
                    8.2068254,
                    49.63519502
                ]
            },
            "properties": {
                "RSU coordinates": [
                    8.2107652,
                    49.6355184
                ],
                "Distance": 286.33,
                "Frequency": 5.9,
                "RSSI": -99.61,
                "LOS": "False"
            }
        },
        {
            "type": "Feature",
            "geometry": {
                "type": "Point",
                "coordinates": [
                    8.20692148,
                    49.63530281
                ]
            },
            "properties": {
                "RSU coordinates": [
                    8.2107652,
                    49.6355184
                ],
                "Distance": 278.17,
                "Frequency": 5.9,
                "RSSI": -84.36,
                "LOS": "False"
            }
        },
        {
            "type": "Feature",
            "geometry": {
                "type": "Point",
                "coordinates": [
                    8.20701758,
                    49.63519502
                ]
            },
            "properties": {
                "RSU coordinates": [
                    8.2107652,
                    49.6355184
                ],
                "Distance": 272.59,
                "Frequency": 5.9,
                "RSSI": -99.18,
                "LOS": "False"
            }
        },
        {
            "type": "Feature",
            "geometry": {
                "type": "Point",
                "coordinates": [
                    8.20711367,
                    49.63530281
                ]
            },
            "properties": {
                "RSU coordinates": [
                    8.2107652,
                    49.6355184
                ],
                "Distance": 264.36,
                "Frequency": 5.9,
                "RSSI": -83.92,
                "LOS": "False"
            }
        },
        {
            "type": "Feature",
            "geometry": {
                "type": "Point",
                "coordinates": [
                    8.20720975,
                    49.63541061
                ]
            },
            "properties": {
                "RSU coordinates": [
                    8.2107652,
                    49.6355184
                ],
                "Distance": 256.62,
                "Frequency": 5.9,
                "RSSI": -98.67,
                "LOS": "False"
            }
        },
        {
            "type": "Feature",
            "geometry": {
                "type": "Point",
                "coordinates": [
                    8.20720977,
                    49.63519502
                ]
            },
            "properties": {
                "RSU coordinates": [
                    8.2107652,
                    49.6355184
                ],
                "Distance": 258.86,
                "Frequency": 5.9,
                "RSSI": -98.74,
                "LOS": "False"
            }
        },
        {
            "type": "Feature",
            "geometry": {
                "type": "Point",
                "coordinates": [
                    8.20730585,
                    49.63530281
                ]
            },
            "properties": {
                "RSU coordinates": [
                    8.2107652,
                    49.6355184
                ],
                "Distance": 250.57,
                "Frequency": 5.9,
                "RSSI": -98.46,
                "LOS": "False"
            }
        },
        {
            "type": "Feature",
            "geometry": {
                "type": "Point",
                "coordinates": [
                    8.20740194,
                    49.63541061
                ]
            },
            "properties": {
                "RSU coordinates": [
                    8.2107652,
                    49.6355184
                ],
                "Distance": 242.78,
                "Frequency": 5.9,
                "RSSI": -98.19,
                "LOS": "False"
            }
        },
        {
            "type": "Feature",
            "geometry": {
                "type": "Point",
                "coordinates": [
                    8.20740195,
                    49.63519502
                ]
            },
            "properties": {
                "RSU coordinates": [
                    8.2107652,
                    49.6355184
                ],
                "Distance": 245.14,
                "Frequency": 5.9,
                "RSSI": -98.27,
                "LOS": "False"
            }
        },
        {
            "type": "Feature",
            "geometry": {
                "type": "Point",
                "coordinates": [
                    8.20749804,
                    49.63530281
                ]
            },
            "properties": {
                "RSU coordinates": [
                    8.2107652,
                    49.6355184
                ],
                "Distance": 236.78,
                "Frequency": 5.9,
                "RSSI": -97.98,
                "LOS": "False"
            }
        },
        {
            "type": "Feature",
            "geometry": {
                "type": "Point",
                "coordinates": [
                    8.20759413,
                    49.63541061
                ]
            },
            "properties": {
                "RSU coordinates": [
                    8.2107652,
                    49.6355184
                ],
                "Distance": 228.95,
                "Frequency": 5.9,
                "RSSI": -97.69,
                "LOS": "False"
            }
        },
        {
            "type": "Feature",
            "geometry": {
                "type": "Point",
                "coordinates": [
                    8.20759414,
                    49.63519502
                ]
            },
            "properties": {
                "RSU coordinates": [
                    8.2107652,
                    49.6355184
                ],
                "Distance": 231.45,
                "Frequency": 5.9,
                "RSSI": -97.78,
                "LOS": "False"
            }
        },
        {
            "type": "Feature",
            "geometry": {
                "type": "Point",
                "coordinates": [
                    8.20769023,
                    49.63530281
                ]
            },
            "properties": {
                "RSU coordinates": [
                    8.2107652,
                    49.6355184
                ],
                "Distance": 223.0,
                "Frequency": 5.9,
                "RSSI": -97.46,
                "LOS": "False"
            }
        },
        {
            "type": "Feature",
            "geometry": {
                "type": "Point",
                "coordinates": [
                    8.20778631,
                    49.63541061
                ]
            },
            "properties": {
                "RSU coordinates": [
                    8.2107652,
                    49.6355184
                ],
                "Distance": 215.11,
                "Frequency": 5.9,
                "RSSI": -97.15,
                "LOS": "False"
            }
        },
        {
            "type": "Feature",
            "geometry": {
                "type": "Point",
                "coordinates": [
                    8.2078824,
                    49.6355184
                ]
            },
            "properties": {
                "RSU coordinates": [
                    8.2107652,
                    49.6355184
                ],
                "Distance": 207.85,
                "Frequency": 5.9,
                "RSSI": -96.86,
                "LOS": "False"
            }
        },
        {
            "type": "Feature",
            "geometry": {
                "type": "Point",
                "coordinates": [
                    8.20778632,
                    49.63519502
                ]
            },
            "properties": {
                "RSU coordinates": [
                    8.2107652,
                    49.6355184
                ],
                "Distance": 217.77,
                "Frequency": 5.9,
                "RSSI": -97.26,
                "LOS": "False"
            }
        },
        {
            "type": "Feature",
            "geometry": {
                "type": "Point",
                "coordinates": [
                    8.20788241,
                    49.63530281
                ]
            },
            "properties": {
                "RSU coordinates": [
                    8.2107652,
                    49.6355184
                ],
                "Distance": 209.23,
                "Frequency": 5.9,
                "RSSI": -96.92,
                "LOS": "False"
            }
        },
        {
            "type": "Feature",
            "geometry": {
                "type": "Point",
                "coordinates": [
                    8.2079785,
                    49.63541061
                ]
            },
            "properties": {
                "RSU coordinates": [
                    8.2107652,
                    49.6355184
                ],
                "Distance": 201.28,
                "Frequency": 5.9,
                "RSSI": -96.58,
                "LOS": "False"
            }
        },
        {
            "type": "Feature",
            "geometry": {
                "type": "Point",
                "coordinates": [
                    8.20807459,
                    49.6355184
                ]
            },
            "properties": {
                "RSU coordinates": [
                    8.2107652,
                    49.6355184
                ],
                "Distance": 193.99,
                "Frequency": 5.9,
                "RSSI": -96.27,
                "LOS": "False"
            }
        },
        {
            "type": "Feature",
            "geometry": {
                "type": "Point",
                "coordinates": [
                    8.2080746,
                    49.63530281
                ]
            },
            "properties": {
                "RSU coordinates": [
                    8.2107652,
                    49.6355184
                ],
                "Distance": 195.47,
                "Frequency": 5.9,
                "RSSI": -96.33,
                "LOS": "False"
            }
        },
        {
            "type": "Feature",
            "geometry": {
                "type": "Point",
                "coordinates": [
                    8.20817068,
                    49.63541061
                ]
            },
            "properties": {
                "RSU coordinates": [
                    8.2107652,
                    49.6355184
                ],
                "Distance": 187.45,
                "Frequency": 5.9,
                "RSSI": -95.97,
                "LOS": "False"
            }
        },
        {
            "type": "Feature",
            "geometry": {
                "type": "Point",
                "coordinates": [
                    8.20826677,
                    49.6355184
                ]
            },
            "properties": {
                "RSU coordinates": [
                    8.2107652,
                    49.6355184
                ],
                "Distance": 180.13,
                "Frequency": 5.9,
                "RSSI": -95.63,
                "LOS": "False"
            }
        },
        {
            "type": "Feature",
            "geometry": {
                "type": "Point",
                "coordinates": [
                    8.2081707,
                    49.63519502
                ]
            },
            "properties": {
                "RSU coordinates": [
                    8.2107652,
                    49.6355184
                ],
                "Distance": 190.49,
                "Frequency": 5.9,
                "RSSI": -96.11,
                "LOS": "False"
            }
        },
        {
            "type": "Feature",
            "geometry": {
                "type": "Point",
                "coordinates": [
                    8.20826678,
                    49.63530281
                ]
            },
            "properties": {
                "RSU coordinates": [
                    8.2107652,
                    49.6355184
                ],
                "Distance": 181.73,
                "Frequency": 5.9,
                "RSSI": -95.71,
                "LOS": "False"
            }
        },
        {
            "type": "Feature",
            "geometry": {
                "type": "Point",
                "coordinates": [
                    8.20836287,
                    49.63541061
                ]
            },
            "properties": {
                "RSU coordinates": [
                    8.2107652,
                    49.6355184
                ],
                "Distance": 173.62,
                "Frequency": 5.9,
                "RSSI": -95.32,
                "LOS": "False"
            }
        },
        {
            "type": "Feature",
            "geometry": {
                "type": "Point",
                "coordinates": [
                    8.20845896,
                    49.6355184
                ]
            },
            "properties": {
                "RSU coordinates": [
                    8.2107652,
                    49.6355184
                ],
                "Distance": 166.28,
                "Frequency": 5.9,
                "RSSI": -94.94,
                "LOS": "False"
            }
        },
        {
            "type": "Feature",
            "geometry": {
                "type": "Point",
                "coordinates": [
                    8.20836288,
                    49.63519502
                ]
            },
            "properties": {
                "RSU coordinates": [
                    8.2107652,
                    49.6355184
                ],
                "Distance": 176.91,
                "Frequency": 5.9,
                "RSSI": -95.48,
                "LOS": "False"
            }
        },
        {
            "type": "Feature",
            "geometry": {
                "type": "Point",
                "coordinates": [
                    8.20845897,
                    49.63530281
                ]
            },
            "properties": {
                "RSU coordinates": [
                    8.2107652,
                    49.6355184
                ],
                "Distance": 168.0,
                "Frequency": 5.9,
                "RSSI": -95.03,
                "LOS": "False"
            }
        },
        {
            "type": "Feature",
            "geometry": {
                "type": "Point",
                "coordinates": [
                    8.20855506,
                    49.63541061
                ]
            },
            "properties": {
                "RSU coordinates": [
                    8.2107652,
                    49.6355184
                ],
                "Distance": 159.8,
                "Frequency": 5.9,
                "RSSI": -94.6,
                "LOS": "False"
            }
        },
        {
            "type": "Feature",
            "geometry": {
                "type": "Point",
                "coordinates": [
                    8.20874724,
                    49.63541061
                ]
            },
            "properties": {
                "RSU coordinates": [
                    8.2107652,
                    49.6355184
                ],
                "Distance": 145.99,
                "Frequency": 5.9,
                "RSSI": -78.83,
                "LOS": "False"
            }
        },
        {
            "type": "Feature",
            "geometry": {
                "type": "Point",
                "coordinates": [
                    8.20884333,
                    49.6355184
                ]
            },
            "properties": {
                "RSU coordinates": [
                    8.2107652,
                    49.6355184
                ],
                "Distance": 138.56,
                "Frequency": 5.9,
                "RSSI": -78.38,
                "LOS": "False"
            }
        },
        {
            "type": "Feature",
            "geometry": {
                "type": "Point",
                "coordinates": [
                    8.20893942,
                    49.63562619
                ]
            },
            "properties": {
                "RSU coordinates": [
                    8.2107652,
                    49.6355184
                ],
                "Distance": 132.18,
                "Frequency": 5.9,
                "RSSI": -92.97999999999999,
                "LOS": "False"
            }
        },
        {
            "type": "Feature",
            "geometry": {
                "type": "Point",
                "coordinates": [
                    8.20845899,
                    49.63487164
                ]
            },
            "properties": {
                "RSU coordinates": [
                    8.2107652,
                    49.6355184
                ],
                "Distance": 181.2,
                "Frequency": 5.9,
                "RSSI": -95.68,
                "LOS": "False"
            }
        },
        {
            "type": "Feature",
            "geometry": {
                "type": "Point",
                "coordinates": [
                    8.20874725,
                    49.63519502
                ]
            },
            "properties": {
                "RSU coordinates": [
                    8.2107652,
                    49.6355184
                ],
                "Distance": 149.88,
                "Frequency": 5.9,
                "RSSI": -94.05,
                "LOS": "False"
            }
        },
        {
            "type": "Feature",
            "geometry": {
                "type": "Point",
                "coordinates": [
                    8.20884334,
                    49.63530281
                ]
            },
            "properties": {
                "RSU coordinates": [
                    8.2107652,
                    49.6355184
                ],
                "Distance": 140.63,
                "Frequency": 5.9,
                "RSSI": -78.50999999999999,
                "LOS": "False"
            }
        },
        {
            "type": "Feature",
            "geometry": {
                "type": "Point",
                "coordinates": [
                    8.20893943,
                    49.63541061
                ]
            },
            "properties": {
                "RSU coordinates": [
                    8.2107652,
                    49.6355184
                ],
                "Distance": 132.18,
                "Frequency": 5.9,
                "RSSI": -77.97999999999999,
                "LOS": "False"
            }
        },
        {
            "type": "Feature",
            "geometry": {
                "type": "Point",
                "coordinates": [
                    8.20903552,
                    49.6355184
                ]
            },
            "properties": {
                "RSU coordinates": [
                    8.2107652,
                    49.6355184
                ],
                "Distance": 124.71,
                "Frequency": 5.9,
                "RSSI": -77.47999999999999,
                "LOS": "False"
            }
        },
        {
            "type": "Feature",
            "geometry": {
                "type": "Point",
                "coordinates": [
                    8.2092277,
                    49.63573399
                ]
            },
            "properties": {
                "RSU coordinates": [
                    8.2107652,
                    49.6355184
                ],
                "Distance": 113.42,
                "Frequency": 5.9,
                "RSSI": -91.66,
                "LOS": "False"
            }
        },
        {
            "type": "Feature",
            "geometry": {
                "type": "Point",
                "coordinates": [
                    8.20874726,
                    49.63497943
                ]
            },
            "properties": {
                "RSU coordinates": [
                    8.2107652,
                    49.6355184
                ],
                "Distance": 157.38,
                "Frequency": 5.9,
                "RSSI": -94.47,
                "LOS": "False"
            }
        },
        {
            "type": "Feature",
            "geometry": {
                "type": "Point",
                "coordinates": [
                    8.20903553,
                    49.63530281
                ]
            },
            "properties": {
                "RSU coordinates": [
                    8.2107652,
                    49.6355184
                ],
                "Distance": 127.0,
                "Frequency": 5.9,
                "RSSI": -77.63,
                "LOS": "False"
            }
        },
        {
            "type": "Feature",
            "geometry": {
                "type": "Point",
                "coordinates": [
                    8.20913162,
                    49.63541061
                ]
            },
            "properties": {
                "RSU coordinates": [
                    8.2107652,
                    49.6355184
                ],
                "Distance": 118.39,
                "Frequency": 5.9,
                "RSSI": -77.03,
                "LOS": "False"
            }
        },
        {
            "type": "Feature",
            "geometry": {
                "type": "Point",
                "coordinates": [
                    8.20922771,
                    49.6355184
                ]
            },
            "properties": {
                "RSU coordinates": [
                    8.2107652,
                    49.6355184
                ],
                "Distance": 110.85,
                "Frequency": 5.9,
                "RSSI": -76.47,
                "LOS": "False"
            }
        },
        {
            "type": "Feature",
            "geometry": {
                "type": "Point",
                "coordinates": [
                    8.20941989,
                    49.63573399
                ]
            },
            "properties": {
                "RSU coordinates": [
                    8.2107652,
                    49.6355184
                ],
                "Distance": 99.92,
                "Frequency": 5.9,
                "RSSI": -75.58,
                "LOS": "False"
            }
        },
        {
            "type": "Feature",
            "geometry": {
                "type": "Point",
                "coordinates": [
                    8.20893945,
                    49.63497943
                ]
            },
            "properties": {
                "RSU coordinates": [
                    8.2107652,
                    49.6355184
                ],
                "Distance": 144.67,
                "Frequency": 5.9,
                "RSSI": -93.75,
                "LOS": "False"
            }
        },
        {
            "type": "Feature",
            "geometry": {
                "type": "Point",
                "coordinates": [
                    8.20913162,
                    49.63519502
                ]
            },
            "properties": {
                "RSU coordinates": [
                    8.2107652,
                    49.6355184
                ],
                "Distance": 123.16,
                "Frequency": 5.9,
                "RSSI": -92.37,
                "LOS": "False"
            }
        },
        {
            "type": "Feature",
            "geometry": {
                "type": "Point",
                "coordinates": [
                    8.20922771,
                    49.63530281
                ]
            },
            "properties": {
                "RSU coordinates": [
                    8.2107652,
                    49.6355184
                ],
                "Distance": 113.42,
                "Frequency": 5.9,
                "RSSI": -76.66,
                "LOS": "False"
            }
        },
        {
            "type": "Feature",
            "geometry": {
                "type": "Point",
                "coordinates": [
                    8.2093238,
                    49.63541061
                ]
            },
            "properties": {
                "RSU coordinates": [
                    8.2107652,
                    49.6355184
                ],
                "Distance": 104.61,
                "Frequency": 5.9,
                "RSSI": -75.97,
                "LOS": "False"
            }
        },
        {
            "type": "Feature",
            "geometry": {
                "type": "Point",
                "coordinates": [
                    8.20941989,
                    49.6355184
                ]
            },
            "properties": {
                "RSU coordinates": [
                    8.2107652,
                    49.6355184
                ],
                "Distance": 96.99,
                "Frequency": 5.9,
                "RSSI": -75.32,
                "LOS": "False"
            }
        },
        {
            "type": "Feature",
            "geometry": {
                "type": "Point",
                "coordinates": [
                    8.20922772,
                    49.63508723
                ]
            },
            "properties": {
                "RSU coordinates": [
                    8.2107652,
                    49.6355184
                ],
                "Distance": 120.8,
                "Frequency": 5.9,
                "RSSI": -77.2,
                "LOS": "False"
            }
        },
        {
            "type": "Feature",
            "geometry": {
                "type": "Point",
                "coordinates": [
                    8.20932381,
                    49.63519502
                ]
            },
            "properties": {
                "RSU coordinates": [
                    8.2107652,
                    49.6355184
                ],
                "Distance": 109.98,
                "Frequency": 5.9,
                "RSSI": -91.4,
                "LOS": "False"
            }
        },
        {
            "type": "Feature",
            "geometry": {
                "type": "Point",
                "coordinates": [
                    8.2094199,
                    49.63530281
                ]
            },
            "properties": {
                "RSU coordinates": [
                    8.2107652,
                    49.6355184
                ],
                "Distance": 99.92,
                "Frequency": 5.9,
                "RSSI": -75.58,
                "LOS": "False"
            }
        },
        {
            "type": "Feature",
            "geometry": {
                "type": "Point",
                "coordinates": [
                    8.20951599,
                    49.63541061
                ]
            },
            "properties": {
                "RSU coordinates": [
                    8.2107652,
                    49.6355184
                ],
                "Distance": 90.86,
                "Frequency": 5.9,
                "RSSI": -74.75999999999999,
                "LOS": "False"
            }
        },
        {
            "type": "Feature",
            "geometry": {
                "type": "Point",
                "coordinates": [
                    8.20961208,
                    49.6355184
                ]
            },
            "properties": {
                "RSU coordinates": [
                    8.2107652,
                    49.6355184
                ],
                "Distance": 83.14,
                "Frequency": 5.9,
                "RSSI": -74.0,
                "LOS": "False"
            }
        },
        {
            "type": "Feature",
            "geometry": {
                "type": "Point",
                "coordinates": [
                    8.20970817,
                    49.63562619
                ]
            },
            "properties": {
                "RSU coordinates": [
                    8.2107652,
                    49.6355184
                ],
                "Distance": 77.15,
                "Frequency": 5.9,
                "RSSI": -73.36,
                "LOS": "False"
            }
        },
        {
            "type": "Feature",
            "geometry": {
                "type": "Point",
                "coordinates": [
                    8.20980426,
                    49.63573399
                ]
            },
            "properties": {
                "RSU coordinates": [
                    8.2107652,
                    49.6355184
                ],
                "Distance": 73.32,
                "Frequency": 5.9,
                "RSSI": -87.92,
                "LOS": "False"
            }
        },
        {
            "type": "Feature",
            "geometry": {
                "type": "Point",
                "coordinates": [
                    8.20990035,
                    49.63584178
                ]
            },
            "properties": {
                "RSU coordinates": [
                    8.2107652,
                    49.6355184
                ],
                "Distance": 72.0,
                "Frequency": 5.9,
                "RSSI": -72.77000000000001,
                "LOS": "False"
            }
        },
        {
            "type": "Feature",
            "geometry": {
                "type": "Point",
                "coordinates": [
                    8.20999645,
                    49.63594957
                ]
            },
            "properties": {
                "RSU coordinates": [
                    8.2107652,
                    49.6355184
                ],
                "Distance": 73.32,
                "Frequency": 5.9,
                "RSSI": -57.92,
                "LOS": "True"
            }
        },
        {
            "type": "Feature",
            "geometry": {
                "type": "Point",
                "coordinates": [
                    8.20884337,
                    49.63444046
                ]
            },
            "properties": {
                "RSU coordinates": [
                    8.2107652,
                    49.6355184
                ],
                "Distance": 183.3,
                "Frequency": 5.9,
                "RSSI": -95.78,
                "LOS": "False"
            }
        },
        {
            "type": "Feature",
            "geometry": {
                "type": "Point",
                "coordinates": [
                    8.20922773,
                    49.63487164
                ]
            },
            "properties": {
                "RSU coordinates": [
                    8.2107652,
                    49.6355184
                ],
                "Distance": 132.18,
                "Frequency": 5.9,
                "RSSI": -92.97999999999999,
                "LOS": "False"
            }
        },
        {
            "type": "Feature",
            "geometry": {
                "type": "Point",
                "coordinates": [
                    8.2094199,
                    49.63508723
                ]
            },
            "properties": {
                "RSU coordinates": [
                    8.2107652,
                    49.6355184
                ],
                "Distance": 108.22,
                "Frequency": 5.9,
                "RSSI": -91.25999999999999,
                "LOS": "False"
            }
        },
        {
            "type": "Feature",
            "geometry": {
                "type": "Point",
                "coordinates": [
                    8.20951599,
                    49.63519502
                ]
            },
            "properties": {
                "RSU coordinates": [
                    8.2107652,
                    49.6355184
                ],
                "Distance": 96.99,
                "Frequency": 5.9,
                "RSSI": -90.32,
                "LOS": "False"
            }
        },
        {
            "type": "Feature",
            "geometry": {
                "type": "Point",
                "coordinates": [
                    8.20961208,
                    49.63530281
                ]
            },
            "properties": {
                "RSU coordinates": [
                    8.2107652,
                    49.6355184
                ],
                "Distance": 86.53,
                "Frequency": 5.9,
                "RSSI": -74.34,
                "LOS": "False"
            }
        },
        {
            "type": "Feature",
            "geometry": {
                "type": "Point",
                "coordinates": [
                    8.20970818,
                    49.63541061
                ]
            },
            "properties": {
                "RSU coordinates": [
                    8.2107652,
                    49.6355184
                ],
                "Distance": 77.15,
                "Frequency": 5.9,
                "RSSI": -73.36,
                "LOS": "False"
            }
        },
        {
            "type": "Feature",
            "geometry": {
                "type": "Point",
                "coordinates": [
                    8.20980427,
                    49.6355184
                ]
            },
            "properties": {
                "RSU coordinates": [
                    8.2107652,
                    49.6355184
                ],
                "Distance": 69.28,
                "Frequency": 5.9,
                "RSSI": -72.44,
                "LOS": "False"
            }
        },
        {
            "type": "Feature",
            "geometry": {
                "type": "Point",
                "coordinates": [
                    8.21009254,
                    49.63584178
                ]
            },
            "properties": {
                "RSU coordinates": [
                    8.2107652,
                    49.6355184
                ],
                "Distance": 60.4,
                "Frequency": 5.9,
                "RSSI": -71.25999999999999,
                "LOS": "False"
            }
        },
        {
            "type": "Feature",
            "geometry": {
                "type": "Point",
                "coordinates": [
                    8.20903556,
                    49.63444046
                ]
            },
            "properties": {
                "RSU coordinates": [
                    8.2107652,
                    49.6355184
                ],
                "Distance": 173.07,
                "Frequency": 5.9,
                "RSSI": -95.29,
                "LOS": "False"
            }
        },
        {
            "type": "Feature",
            "geometry": {
                "type": "Point",
                "coordinates": [
                    8.20913164,
                    49.63454826
                ]
            },
            "properties": {
                "RSU coordinates": [
                    8.2107652,
                    49.6355184
                ],
                "Distance": 159.8,
                "Frequency": 5.9,
                "RSSI": -94.6,
                "LOS": "False"
            }
        },
        {
            "type": "Feature",
            "geometry": {
                "type": "Point",
                "coordinates": [
                    8.20922773,
                    49.63465605
                ]
            },
            "properties": {
                "RSU coordinates": [
                    8.2107652,
                    49.6355184
                ],
                "Distance": 146.64,
                "Frequency": 5.9,
                "RSSI": -93.87,
                "LOS": "False"
            }
        },
        {
            "type": "Feature",
            "geometry": {
                "type": "Point",
                "coordinates": [
                    8.20980427,
                    49.63530281
                ]
            },
            "properties": {
                "RSU coordinates": [
                    8.2107652,
                    49.6355184
                ],
                "Distance": 73.32,
                "Frequency": 5.9,
                "RSSI": -72.92,
                "LOS": "False"
            }
        },
        {
            "type": "Feature",
            "geometry": {
                "type": "Point",
                "coordinates": [
                    8.20990036,
                    49.63541061
                ]
            },
            "properties": {
                "RSU coordinates": [
                    8.2107652,
                    49.6355184
                ],
                "Distance": 63.5,
                "Frequency": 5.9,
                "RSSI": -71.69,
                "LOS": "False"
            }
        },
        {
            "type": "Feature",
            "geometry": {
                "type": "Point",
                "coordinates": [
                    8.20999645,
                    49.6355184
                ]
            },
            "properties": {
                "RSU coordinates": [
                    8.2107652,
                    49.6355184
                ],
                "Distance": 55.43,
                "Frequency": 5.9,
                "RSSI": -70.52000000000001,
                "LOS": "False"
            }
        },
        {
            "type": "Feature",
            "geometry": {
                "type": "Point",
                "coordinates": [
                    8.21009254,
                    49.63562619
                ]
            },
            "properties": {
                "RSU coordinates": [
                    8.2107652,
                    49.6355184
                ],
                "Distance": 49.96,
                "Frequency": 5.9,
                "RSSI": -54.63,
                "LOS": "True"
            }
        },
        {
            "type": "Feature",
            "geometry": {
                "type": "Point",
                "coordinates": [
                    8.21028473,
                    49.63584178
                ]
            },
            "properties": {
                "RSU coordinates": [
                    8.2107652,
                    49.6355184
                ],
                "Distance": 49.96,
                "Frequency": 5.9,
                "RSSI": -54.63,
                "LOS": "True"
            }
        },
        {
            "type": "Feature",
            "geometry": {
                "type": "Point",
                "coordinates": [
                    8.20932383,
                    49.63454826
                ]
            },
            "properties": {
                "RSU coordinates": [
                    8.2107652,
                    49.6355184
                ],
                "Distance": 149.88,
                "Frequency": 5.9,
                "RSSI": -94.05,
                "LOS": "False"
            }
        },
        {
            "type": "Feature",
            "geometry": {
                "type": "Point",
                "coordinates": [
                    8.20941992,
                    49.63465605
                ]
            },
            "properties": {
                "RSU coordinates": [
                    8.2107652,
                    49.6355184
                ],
                "Distance": 136.47,
                "Frequency": 5.9,
                "RSSI": -93.25,
                "LOS": "False"
            }
        },
        {
            "type": "Feature",
            "geometry": {
                "type": "Point",
                "coordinates": [
                    8.20951601,
                    49.63476384
                ]
            },
            "properties": {
                "RSU coordinates": [
                    8.2107652,
                    49.6355184
                ],
                "Distance": 123.16,
                "Frequency": 5.9,
                "RSSI": -92.37,
                "LOS": "False"
            }
        },
        {
            "type": "Feature",
            "geometry": {
                "type": "Point",
                "coordinates": [
                    8.20961209,
                    49.63487164
                ]
            },
            "properties": {
                "RSU coordinates": [
                    8.2107652,
                    49.6355184
                ],
                "Distance": 109.98,
                "Frequency": 5.9,
                "RSSI": -91.4,
                "LOS": "False"
            }
        },
        {
            "type": "Feature",
            "geometry": {
                "type": "Point",
                "coordinates": [
                    8.20980427,
                    49.63508723
                ]
            },
            "properties": {
                "RSU coordinates": [
                    8.2107652,
                    49.6355184
                ],
                "Distance": 84.29,
                "Frequency": 5.9,
                "RSSI": -74.12,
                "LOS": "False"
            }
        },
        {
            "type": "Feature",
            "geometry": {
                "type": "Point",
                "coordinates": [
                    8.20999646,
                    49.63530281
                ]
            },
            "properties": {
                "RSU coordinates": [
                    8.2107652,
                    49.6355184
                ],
                "Distance": 60.4,
                "Frequency": 5.9,
                "RSSI": -71.25999999999999,
                "LOS": "False"
            }
        },
        {
            "type": "Feature",
            "geometry": {
                "type": "Point",
                "coordinates": [
                    8.21038082,
                    49.63573399
                ]
            },
            "properties": {
                "RSU coordinates": [
                    8.2107652,
                    49.6355184
                ],
                "Distance": 36.66,
                "Frequency": 5.9,
                "RSSI": -51.98,
                "LOS": "True"
            }
        },
        {
            "type": "Feature",
            "geometry": {
                "type": "Point",
                "coordinates": [
                    8.21057301,
                    49.63594957
                ]
            },
            "properties": {
                "RSU coordinates": [
                    8.2107652,
                    49.6355184
                ],
                "Distance": 49.96,
                "Frequency": 5.9,
                "RSSI": -99.63,
                "LOS": "False"
            }
        },
        {
            "type": "Feature",
            "geometry": {
                "type": "Point",
                "coordinates": [
                    8.20951601,
                    49.63454826
                ]
            },
            "properties": {
                "RSU coordinates": [
                    8.2107652,
                    49.6355184
                ],
                "Distance": 140.63,
                "Frequency": 5.9,
                "RSSI": -93.50999999999999,
                "LOS": "False"
            }
        },
        {
            "type": "Feature",
            "geometry": {
                "type": "Point",
                "coordinates": [
                    8.2096121,
                    49.63465605
                ]
            },
            "properties": {
                "RSU coordinates": [
                    8.2107652,
                    49.6355184
                ],
                "Distance": 127.0,
                "Frequency": 5.9,
                "RSSI": -92.63,
                "LOS": "False"
            }
        },
        {
            "type": "Feature",
            "geometry": {
                "type": "Point",
                "coordinates": [
                    8.20970819,
                    49.63476384
                ]
            },
            "properties": {
                "RSU coordinates": [
                    8.2107652,
                    49.6355184
                ],
                "Distance": 113.42,
                "Frequency": 5.9,
                "RSSI": -91.66,
                "LOS": "False"
            }
        },
        {
            "type": "Feature",
            "geometry": {
                "type": "Point",
                "coordinates": [
                    8.20980428,
                    49.63487164
                ]
            },
            "properties": {
                "RSU coordinates": [
                    8.2107652,
                    49.6355184
                ],
                "Distance": 99.92,
                "Frequency": 5.9,
                "RSSI": -90.58,
                "LOS": "False"
            }
        },
        {
            "type": "Feature",
            "geometry": {
                "type": "Point",
                "coordinates": [
                    8.20990037,
                    49.63497943
                ]
            },
            "properties": {
                "RSU coordinates": [
                    8.2107652,
                    49.6355184
                ],
                "Distance": 86.53,
                "Frequency": 5.9,
                "RSSI": -89.34,
                "LOS": "False"
            }
        },
        {
            "type": "Feature",
            "geometry": {
                "type": "Point",
                "coordinates": [
                    8.20999646,
                    49.63508723
                ]
            },
            "properties": {
                "RSU coordinates": [
                    8.2107652,
                    49.6355184
                ],
                "Distance": 73.32,
                "Frequency": 5.9,
                "RSSI": -72.92,
                "LOS": "False"
            }
        },
        {
            "type": "Feature",
            "geometry": {
                "type": "Point",
                "coordinates": [
                    8.21009255,
                    49.63519502
                ]
            },
            "properties": {
                "RSU coordinates": [
                    8.2107652,
                    49.6355184
                ],
                "Distance": 60.4,
                "Frequency": 5.9,
                "RSSI": -56.26,
                "LOS": "True"
            }
        },
        {
            "type": "Feature",
            "geometry": {
                "type": "Point",
                "coordinates": [
                    8.21018864,
                    49.63530281
                ]
            },
            "properties": {
                "RSU coordinates": [
                    8.2107652,
                    49.6355184
                ],
                "Distance": 48.0,
                "Frequency": 5.9,
                "RSSI": -69.28999999999999,
                "LOS": "False"
            }
        },
        {
            "type": "Feature",
            "geometry": {
                "type": "Point",
                "coordinates": [
                    8.21038083,
                    49.6355184
                ]
            },
            "properties": {
                "RSU coordinates": [
                    8.2107652,
                    49.6355184
                ],
                "Distance": 27.71,
                "Frequency": 5.9,
                "RSSI": -49.58,
                "LOS": "True"
            }
        },
        {
            "type": "Feature",
            "geometry": {
                "type": "Point",
                "coordinates": [
                    8.21047692,
                    49.63562619
                ]
            },
            "properties": {
                "RSU coordinates": [
                    8.2107652,
                    49.6355184
                ],
                "Distance": 24.0,
                "Frequency": 5.9,
                "RSSI": -48.34,
                "LOS": "True"
            }
        },
        {
            "type": "Feature",
            "geometry": {
                "type": "Point",
                "coordinates": [
                    8.21018864,
                    49.63508723
                ]
            },
            "properties": {
                "RSU coordinates": [
                    8.2107652,
                    49.6355184
                ],
                "Distance": 63.5,
                "Frequency": 5.9,
                "RSSI": -71.69,
                "LOS": "False"
            }
        },
        {
            "type": "Feature",
            "geometry": {
                "type": "Point",
                "coordinates": [
                    8.21028474,
                    49.63519502
                ]
            },
            "properties": {
                "RSU coordinates": [
                    8.2107652,
                    49.6355184
                ],
                "Distance": 49.96,
                "Frequency": 5.9,
                "RSSI": -69.63,
                "LOS": "False"
            }
        },
        {
            "type": "Feature",
            "geometry": {
                "type": "Point",
                "coordinates": [
                    8.21038083,
                    49.63530281
                ]
            },
            "properties": {
                "RSU coordinates": [
                    8.2107652,
                    49.6355184
                ],
                "Distance": 36.66,
                "Frequency": 5.9,
                "RSSI": -51.98,
                "LOS": "True"
            }
        },
        {
            "type": "Feature",
            "geometry": {
                "type": "Point",
                "coordinates": [
                    8.21047692,
                    49.63541061
                ]
            },
            "properties": {
                "RSU coordinates": [
                    8.2107652,
                    49.6355184
                ],
                "Distance": 24.0,
                "Frequency": 5.9,
                "RSSI": -48.34,
                "LOS": "True"
            }
        },
        {
            "type": "Feature",
            "geometry": {
                "type": "Point",
                "coordinates": [
                    8.21057301,
                    49.6355184
                ]
            },
            "properties": {
                "RSU coordinates": [
                    8.2107652,
                    49.6355184
                ],
                "Distance": 13.86,
                "Frequency": 5.9,
                "RSSI": -43.63,
                "LOS": "True"
            }
        },
        {
            "type": "Feature",
            "geometry": {
                "type": "Point",
                "coordinates": [
                    8.2107652,
                    49.63573399
                ]
            },
            "properties": {
                "RSU coordinates": [
                    8.2107652,
                    49.6355184
                ],
                "Distance": 24.0,
                "Frequency": 5.9,
                "RSSI": -78.34,
                "LOS": "False"
            }
        },
        {
            "type": "Feature",
            "geometry": {
                "type": "Point",
                "coordinates": [
                    8.21086129,
                    49.63584178
                ]
            },
            "properties": {
                "RSU coordinates": [
                    8.2107652,
                    49.6355184
                ],
                "Distance": 36.66,
                "Frequency": 5.9,
                "RSSI": -96.97999999999999,
                "LOS": "False"
            }
        },
        {
            "type": "Feature",
            "geometry": {
                "type": "Point",
                "coordinates": [
                    8.21095739,
                    49.63594957
                ]
            },
            "properties": {
                "RSU coordinates": [
                    8.2107652,
                    49.6355184
                ],
                "Distance": 49.96,
                "Frequency": 5.9,
                "RSSI": -99.63,
                "LOS": "False"
            }
        },
        {
            "type": "Feature",
            "geometry": {
                "type": "Point",
                "coordinates": [
                    8.21057301,
                    49.63530281
                ]
            },
            "properties": {
                "RSU coordinates": [
                    8.2107652,
                    49.6355184
                ],
                "Distance": 27.71,
                "Frequency": 5.9,
                "RSSI": -49.58,
                "LOS": "True"
            }
        },
        {
            "type": "Feature",
            "geometry": {
                "type": "Point",
                "coordinates": [
                    8.21066911,
                    49.63541061
                ]
            },
            "properties": {
                "RSU coordinates": [
                    8.2107652,
                    49.6355184
                ],
                "Distance": 13.86,
                "Frequency": 5.9,
                "RSSI": -43.63,
                "LOS": "True"
            }
        },
        {
            "type": "Feature",
            "geometry": {
                "type": "Point",
                "coordinates": [
                    8.21095739,
                    49.63573399
                ]
            },
            "properties": {
                "RSU coordinates": [
                    8.2107652,
                    49.6355184
                ],
                "Distance": 27.71,
                "Frequency": 5.9,
                "RSSI": -64.58,
                "LOS": "False"
            }
        },
        {
            "type": "Feature",
            "geometry": {
                "type": "Point",
                "coordinates": [
                    8.21105348,
                    49.63584178
                ]
            },
            "properties": {
                "RSU coordinates": [
                    8.2107652,
                    49.6355184
                ],
                "Distance": 41.57,
                "Frequency": 5.9,
                "RSSI": -68.06,
                "LOS": "False"
            }
        },
        {
            "type": "Feature",
            "geometry": {
                "type": "Point",
                "coordinates": [
                    8.21114958,
                    49.63594957
                ]
            },
            "properties": {
                "RSU coordinates": [
                    8.2107652,
                    49.6355184
                ],
                "Distance": 55.43,
                "Frequency": 5.9,
                "RSSI": -70.52000000000001,
                "LOS": "False"
            }
        },
        {
            "type": "Feature",
            "geometry": {
                "type": "Point",
                "coordinates": [
                    8.21134177,
                    49.63616516
                ]
            },
            "properties": {
                "RSU coordinates": [
                    8.2107652,
                    49.6355184
                ],
                "Distance": 83.14,
                "Frequency": 5.9,
                "RSSI": -89.0,
                "LOS": "False"
            }
        },
        {
            "type": "Feature",
            "geometry": {
                "type": "Point",
                "coordinates": [
                    8.21143786,
                    49.63627296
                ]
            },
            "properties": {
                "RSU coordinates": [
                    8.2107652,
                    49.6355184
                ],
                "Distance": 96.99,
                "Frequency": 5.9,
                "RSSI": -90.32,
                "LOS": "False"
            }
        },
        {
            "type": "Feature",
            "geometry": {
                "type": "Point",
                "coordinates": [
                    8.20999647,
                    49.63444046
                ]
            },
            "properties": {
                "RSU coordinates": [
                    8.2107652,
                    49.6355184
                ],
                "Distance": 132.18,
                "Frequency": 5.9,
                "RSSI": -92.97999999999999,
                "LOS": "False"
            }
        },
        {
            "type": "Feature",
            "geometry": {
                "type": "Point",
                "coordinates": [
                    8.21009256,
                    49.63454826
                ]
            },
            "properties": {
                "RSU coordinates": [
                    8.2107652,
                    49.6355184
                ],
                "Distance": 118.39,
                "Frequency": 5.9,
                "RSSI": -92.03,
                "LOS": "False"
            }
        },
        {
            "type": "Feature",
            "geometry": {
                "type": "Point",
                "coordinates": [
                    8.21018865,
                    49.63465605
                ]
            },
            "properties": {
                "RSU coordinates": [
                    8.2107652,
                    49.6355184
                ],
                "Distance": 104.61,
                "Frequency": 5.9,
                "RSSI": -75.97,
                "LOS": "False"
            }
        },
        {
            "type": "Feature",
            "geometry": {
                "type": "Point",
                "coordinates": [
                    8.21028474,
                    49.63476384
                ]
            },
            "properties": {
                "RSU coordinates": [
                    8.2107652,
                    49.6355184
                ],
                "Distance": 90.86,
                "Frequency": 5.9,
                "RSSI": -74.75999999999999,
                "LOS": "False"
            }
        },
        {
            "type": "Feature",
            "geometry": {
                "type": "Point",
                "coordinates": [
                    8.21047692,
                    49.63497943
                ]
            },
            "properties": {
                "RSU coordinates": [
                    8.2107652,
                    49.6355184
                ],
                "Distance": 63.5,
                "Frequency": 5.9,
                "RSSI": -86.69,
                "LOS": "False"
            }
        },
        {
            "type": "Feature",
            "geometry": {
                "type": "Point",
                "coordinates": [
                    8.21066911,
                    49.63519502
                ]
            },
            "properties": {
                "RSU coordinates": [
                    8.2107652,
                    49.6355184
                ],
                "Distance": 36.66,
                "Frequency": 5.9,
                "RSSI": -66.97999999999999,
                "LOS": "False"
            }
        },
        {
            "type": "Feature",
            "geometry": {
                "type": "Point",
                "coordinates": [
                    8.21086129,
                    49.63541061
                ]
            },
            "properties": {
                "RSU coordinates": [
                    8.2107652,
                    49.6355184
                ],
                "Distance": 13.86,
                "Frequency": 5.9,
                "RSSI": -43.63,
                "LOS": "True"
            }
        },
        {
            "type": "Feature",
            "geometry": {
                "type": "Point",
                "coordinates": [
                    8.21095739,
                    49.6355184
                ]
            },
            "properties": {
                "RSU coordinates": [
                    8.2107652,
                    49.6355184
                ],
                "Distance": 13.86,
                "Frequency": 5.9,
                "RSSI": -58.63,
                "LOS": "False"
            }
        },
        {
            "type": "Feature",
            "geometry": {
                "type": "Point",
                "coordinates": [
                    8.21105348,
                    49.63562619
                ]
            },
            "properties": {
                "RSU coordinates": [
                    8.2107652,
                    49.6355184
                ],
                "Distance": 24.0,
                "Frequency": 5.9,
                "RSSI": -63.34,
                "LOS": "False"
            }
        },
        {
            "type": "Feature",
            "geometry": {
                "type": "Point",
                "coordinates": [
                    8.21114958,
                    49.63573399
                ]
            },
            "properties": {
                "RSU coordinates": [
                    8.2107652,
                    49.6355184
                ],
                "Distance": 36.66,
                "Frequency": 5.9,
                "RSSI": -81.97999999999999,
                "LOS": "False"
            }
        },
        {
            "type": "Feature",
            "geometry": {
                "type": "Point",
                "coordinates": [
                    8.21124567,
                    49.63584178
                ]
            },
            "properties": {
                "RSU coordinates": [
                    8.2107652,
                    49.6355184
                ],
                "Distance": 49.96,
                "Frequency": 5.9,
                "RSSI": -69.63,
                "LOS": "False"
            }
        },
        {
            "type": "Feature",
            "geometry": {
                "type": "Point",
                "coordinates": [
                    8.21134177,
                    49.63594957
                ]
            },
            "properties": {
                "RSU coordinates": [
                    8.2107652,
                    49.6355184
                ],
                "Distance": 63.5,
                "Frequency": 5.9,
                "RSSI": -71.69,
                "LOS": "False"
            }
        },
        {
            "type": "Feature",
            "geometry": {
                "type": "Point",
                "coordinates": [
                    8.21143786,
                    49.63605737
                ]
            },
            "properties": {
                "RSU coordinates": [
                    8.2107652,
                    49.6355184
                ],
                "Distance": 77.15,
                "Frequency": 5.9,
                "RSSI": -73.36,
                "LOS": "False"
            }
        },
        {
            "type": "Feature",
            "geometry": {
                "type": "Point",
                "coordinates": [
                    8.21057302,
                    49.63487164
                ]
            },
            "properties": {
                "RSU coordinates": [
                    8.2107652,
                    49.6355184
                ],
                "Distance": 73.32,
                "Frequency": 5.9,
                "RSSI": -87.92,
                "LOS": "False"
            }
        },
        {
            "type": "Feature",
            "geometry": {
                "type": "Point",
                "coordinates": [
                    8.21086129,
                    49.63519502
                ]
            },
            "properties": {
                "RSU coordinates": [
                    8.2107652,
                    49.6355184
                ],
                "Distance": 36.66,
                "Frequency": 5.9,
                "RSSI": -66.97999999999999,
                "LOS": "False"
            }
        },
        {
            "type": "Feature",
            "geometry": {
                "type": "Point",
                "coordinates": [
                    8.21134176,
                    49.63573399
                ]
            },
            "properties": {
                "RSU coordinates": [
                    8.2107652,
                    49.6355184
                ],
                "Distance": 48.0,
                "Frequency": 5.9,
                "RSSI": -84.28999999999999,
                "LOS": "False"
            }
        },
        {
            "type": "Feature",
            "geometry": {
                "type": "Point",
                "coordinates": [
                    8.21143786,
                    49.63584178
                ]
            },
            "properties": {
                "RSU coordinates": [
                    8.2107652,
                    49.6355184
                ],
                "Distance": 60.4,
                "Frequency": 5.9,
                "RSSI": -86.25999999999999,
                "LOS": "False"
            }
        },
        {
            "type": "Feature",
            "geometry": {
                "type": "Point",
                "coordinates": [
                    8.21172615,
                    49.63616516
                ]
            },
            "properties": {
                "RSU coordinates": [
                    8.2107652,
                    49.6355184
                ],
                "Distance": 99.92,
                "Frequency": 5.9,
                "RSSI": -90.58,
                "LOS": "False"
            }
        },
        {
            "type": "Feature",
            "geometry": {
                "type": "Point",
                "coordinates": [
                    8.21182224,
                    49.63627296
                ]
            },
            "properties": {
                "RSU coordinates": [
                    8.2107652,
                    49.6355184
                ],
                "Distance": 113.42,
                "Frequency": 5.9,
                "RSSI": -91.66,
                "LOS": "False"
            }
        },
        {
            "type": "Feature",
            "geometry": {
                "type": "Point",
                "coordinates": [
                    8.21095739,
                    49.63508723
                ]
            },
            "properties": {
                "RSU coordinates": [
                    8.2107652,
                    49.6355184
                ],
                "Distance": 49.96,
                "Frequency": 5.9,
                "RSSI": -69.63,
                "LOS": "False"
            }
        },
        {
            "type": "Feature",
            "geometry": {
                "type": "Point",
                "coordinates": [
                    8.21105348,
                    49.63519502
                ]
            },
            "properties": {
                "RSU coordinates": [
                    8.2107652,
                    49.6355184
                ],
                "Distance": 41.57,
                "Frequency": 5.9,
                "RSSI": -68.06,
                "LOS": "False"
            }
        },
        {
            "type": "Feature",
            "geometry": {
                "type": "Point",
                "coordinates": [
                    8.21124567,
                    49.63541061
                ]
            },
            "properties": {
                "RSU coordinates": [
                    8.2107652,
                    49.6355184
                ],
                "Distance": 36.66,
                "Frequency": 5.9,
                "RSSI": -81.97999999999999,
                "LOS": "False"
            }
        },
        {
            "type": "Feature",
            "geometry": {
                "type": "Point",
                "coordinates": [
                    8.21143786,
                    49.63562619
                ]
            },
            "properties": {
                "RSU coordinates": [
                    8.2107652,
                    49.6355184
                ],
                "Distance": 49.96,
                "Frequency": 5.9,
                "RSSI": -84.63,
                "LOS": "False"
            }
        },
        {
            "type": "Feature",
            "geometry": {
                "type": "Point",
                "coordinates": [
                    8.21095738,
                    49.63487164
                ]
            },
            "properties": {
                "RSU coordinates": [
                    8.2107652,
                    49.6355184
                ],
                "Distance": 73.32,
                "Frequency": 5.9,
                "RSSI": -87.92,
                "LOS": "False"
            }
        },
        {
            "type": "Feature",
            "geometry": {
                "type": "Point",
                "coordinates": [
                    8.21124566,
                    49.63519502
                ]
            },
            "properties": {
                "RSU coordinates": [
                    8.2107652,
                    49.6355184
                ],
                "Distance": 49.96,
                "Frequency": 5.9,
                "RSSI": -69.63,
                "LOS": "False"
            }
        },
        {
            "type": "Feature",
            "geometry": {
                "type": "Point",
                "coordinates": [
                    8.21134176,
                    49.63530281
                ]
            },
            "properties": {
                "RSU coordinates": [
                    8.2107652,
                    49.6355184
                ],
                "Distance": 48.0,
                "Frequency": 5.9,
                "RSSI": -84.28999999999999,
                "LOS": "False"
            }
        },
        {
            "type": "Feature",
            "geometry": {
                "type": "Point",
                "coordinates": [
                    8.21143785,
                    49.63541061
                ]
            },
            "properties": {
                "RSU coordinates": [
                    8.2107652,
                    49.6355184
                ],
                "Distance": 49.96,
                "Frequency": 5.9,
                "RSSI": -99.63,
                "LOS": "False"
            }
        },
        {
            "type": "Feature",
            "geometry": {
                "type": "Point",
                "coordinates": [
                    8.21105348,
                    49.63476384
                ]
            },
            "properties": {
                "RSU coordinates": [
                    8.2107652,
                    49.6355184
                ],
                "Distance": 86.53,
                "Frequency": 5.9,
                "RSSI": -74.34,
                "LOS": "False"
            }
        },
        {
            "type": "Feature",
            "geometry": {
                "type": "Point",
                "coordinates": [
                    8.21114957,
                    49.63487164
                ]
            },
            "properties": {
                "RSU coordinates": [
                    8.2107652,
                    49.6355184
                ],
                "Distance": 77.15,
                "Frequency": 5.9,
                "RSSI": -88.36,
                "LOS": "False"
            }
        },
        {
            "type": "Feature",
            "geometry": {
                "type": "Point",
                "coordinates": [
                    8.21134176,
                    49.63508723
                ]
            },
            "properties": {
                "RSU coordinates": [
                    8.2107652,
                    49.6355184
                ],
                "Distance": 63.5,
                "Frequency": 5.9,
                "RSSI": -71.69,
                "LOS": "False"
            }
        },
        {
            "type": "Feature",
            "geometry": {
                "type": "Point",
                "coordinates": [
                    8.21143785,
                    49.63519502
                ]
            },
            "properties": {
                "RSU coordinates": [
                    8.2107652,
                    49.6355184
                ],
                "Distance": 60.4,
                "Frequency": 5.9,
                "RSSI": -56.26,
                "LOS": "True"
            }
        },
        {
            "type": "Feature",
            "geometry": {
                "type": "Point",
                "coordinates": [
                    8.21105347,
                    49.63454826
                ]
            },
            "properties": {
                "RSU coordinates": [
                    8.2107652,
                    49.6355184
                ],
                "Distance": 109.98,
                "Frequency": 5.9,
                "RSSI": -91.4,
                "LOS": "False"
            }
        },
        {
            "type": "Feature",
            "geometry": {
                "type": "Point",
                "coordinates": [
                    8.21124566,
                    49.63476384
                ]
            },
            "properties": {
                "RSU coordinates": [
                    8.2107652,
                    49.6355184
                ],
                "Distance": 90.86,
                "Frequency": 5.9,
                "RSSI": -89.75999999999999,
                "LOS": "False"
            }
        },
        {
            "type": "Feature",
            "geometry": {
                "type": "Point",
                "coordinates": [
                    8.21143785,
                    49.63497943
                ]
            },
            "properties": {
                "RSU coordinates": [
                    8.2107652,
                    49.6355184
                ],
                "Distance": 77.15,
                "Frequency": 5.9,
                "RSSI": -88.36,
                "LOS": "False"
            }
        },
        {
            "type": "Feature",
            "geometry": {
                "type": "Point",
                "coordinates": [
                    8.21163003,
                    49.63519502
                ]
            },
            "properties": {
                "RSU coordinates": [
                    8.2107652,
                    49.6355184
                ],
                "Distance": 72.0,
                "Frequency": 5.9,
                "RSSI": -87.77000000000001,
                "LOS": "False"
            }
        },
        {
            "type": "Feature",
            "geometry": {
                "type": "Point",
                "coordinates": [
                    8.21114957,
                    49.63444046
                ]
            },
            "properties": {
                "RSU coordinates": [
                    8.2107652,
                    49.6355184
                ],
                "Distance": 123.16,
                "Frequency": 5.9,
                "RSSI": -92.37,
                "LOS": "False"
            }
        },
        {
            "type": "Feature",
            "geometry": {
                "type": "Point",
                "coordinates": [
                    8.21124566,
                    49.63454826
                ]
            },
            "properties": {
                "RSU coordinates": [
                    8.2107652,
                    49.6355184
                ],
                "Distance": 113.42,
                "Frequency": 5.9,
                "RSSI": -91.66,
                "LOS": "False"
            }
        },
        {
            "type": "Feature",
            "geometry": {
                "type": "Point",
                "coordinates": [
                    8.21153394,
                    49.63487164
                ]
            },
            "properties": {
                "RSU coordinates": [
                    8.2107652,
                    49.6355184
                ],
                "Distance": 90.86,
                "Frequency": 5.9,
                "RSSI": -74.75999999999999,
                "LOS": "False"
            }
        },
        {
            "type": "Feature",
            "geometry": {
                "type": "Point",
                "coordinates": [
                    8.21163003,
                    49.63497943
                ]
            },
            "properties": {
                "RSU coordinates": [
                    8.2107652,
                    49.6355184
                ],
                "Distance": 86.53,
                "Frequency": 5.9,
                "RSSI": -89.34,
                "LOS": "False"
            }
        },
        {
            "type": "Feature",
            "geometry": {
                "type": "Point",
                "coordinates": [
                    8.21172613,
                    49.63508723
                ]
            },
            "properties": {
                "RSU coordinates": [
                    8.2107652,
                    49.6355184
                ],
                "Distance": 84.29,
                "Frequency": 5.9,
                "RSSI": -74.12,
                "LOS": "False"
            }
        },
        {
            "type": "Feature",
            "geometry": {
                "type": "Point",
                "coordinates": [
                    8.21124566,
                    49.63433267
                ]
            },
            "properties": {
                "RSU coordinates": [
                    8.2107652,
                    49.6355184
                ],
                "Distance": 136.47,
                "Frequency": 5.9,
                "RSSI": -93.25,
                "LOS": "False"
            }
        },
        {
            "type": "Feature",
            "geometry": {
                "type": "Point",
                "coordinates": [
                    8.21134175,
                    49.63444046
                ]
            },
            "properties": {
                "RSU coordinates": [
                    8.2107652,
                    49.6355184
                ],
                "Distance": 127.0,
                "Frequency": 5.9,
                "RSSI": -92.63,
                "LOS": "False"
            }
        },
        {
            "type": "Feature",
            "geometry": {
                "type": "Point",
                "coordinates": [
                    8.21172612,
                    49.63487164
                ]
            },
            "properties": {
                "RSU coordinates": [
                    8.2107652,
                    49.6355184
                ],
                "Distance": 99.92,
                "Frequency": 5.9,
                "RSSI": -90.58,
                "LOS": "False"
            }
        },
        {
            "type": "Feature",
            "geometry": {
                "type": "Point",
                "coordinates": [
                    8.21182222,
                    49.63497943
                ]
            },
            "properties": {
                "RSU coordinates": [
                    8.2107652,
                    49.6355184
                ],
                "Distance": 96.99,
                "Frequency": 5.9,
                "RSSI": -75.32,
                "LOS": "False"
            }
        },
        {
            "type": "Feature",
            "geometry": {
                "type": "Point",
                "coordinates": [
                    8.21191831,
                    49.63508723
                ]
            },
            "properties": {
                "RSU coordinates": [
                    8.2107652,
                    49.6355184
                ],
                "Distance": 96.0,
                "Frequency": 5.9,
                "RSSI": -90.22999999999999,
                "LOS": "False"
            }
        },
        {
            "type": "Feature",
            "geometry": {
                "type": "Point",
                "coordinates": [
                    8.21182221,
                    49.63476384
                ]
            },
            "properties": {
                "RSU coordinates": [
                    8.2107652,
                    49.6355184
                ],
                "Distance": 113.42,
                "Frequency": 5.9,
                "RSSI": -91.66,
                "LOS": "False"
            }
        },
        {
            "type": "Feature",
            "geometry": {
                "type": "Point",
                "coordinates": [
                    8.21211048,
                    49.63465605
                ]
            },
            "properties": {
                "RSU coordinates": [
                    8.2107652,
                    49.6355184
                ],
                "Distance": 136.47,
                "Frequency": 5.9,
                "RSSI": -93.25,
                "LOS": "False"
            }
        },
        {
            "type": "Feature",
            "geometry": {
                "type": "Point",
                "coordinates": [
                    8.21249484,
                    49.63444046
                ]
            },
            "properties": {
                "RSU coordinates": [
                    8.2107652,
                    49.6355184
                ],
                "Distance": 173.07,
                "Frequency": 5.9,
                "RSSI": -95.29,
                "LOS": "False"
            }
        }
    ]
}