{
    "type": "FeatureCollection",
    "features": [
        {
            "type": "Feature",
            "geometry": {
                "type": "Point",
                "coordinates": [
                    8.21898999,
                    49.44759128
                ]
            },
            "properties": {
                "RSU coordinates": [
                    8.2225318,
                    49.4472679
                ],
                "Distance": 258.86,
                "Frequency": 5.9,
                "RSSI": -98.74,
                "LOS": "False"
            }
        },
        {
            "type": "Feature",
            "geometry": {
                "type": "Point",
                "coordinates": [
                    8.22262753,
                    49.45168744
                ]
            },
            "properties": {
                "RSU coordinates": [
                    8.2225318,
                    49.4472679
                ],
                "Distance": 492.05,
                "Frequency": 5.9,
                "RSSI": -74.25,
                "LOS": "True"
            }
        },
        {
            "type": "Feature",
            "geometry": {
                "type": "Point",
                "coordinates": [
                    8.21918144,
                    49.44759128
                ]
            },
            "properties": {
                "RSU coordinates": [
                    8.2225318,
                    49.4472679
                ],
                "Distance": 245.14,
                "Frequency": 5.9,
                "RSSI": -98.27,
                "LOS": "False"
            }
        },
        {
            "type": "Feature",
            "geometry": {
                "type": "Point",
                "coordinates": [
                    8.22262753,
                    49.45147185
                ]
            },
            "properties": {
                "RSU coordinates": [
                    8.2225318,
                    49.4472679
                ],
                "Distance": 468.05,
                "Frequency": 5.9,
                "RSSI": -73.82,
                "LOS": "True"
            }
        },
        {
            "type": "Feature",
            "geometry": {
                "type": "Point",
                "coordinates": [
                    8.22262753,
                    49.45125626
                ]
            },
            "properties": {
                "RSU coordinates": [
                    8.2225318,
                    49.4472679
                ],
                "Distance": 444.05,
                "Frequency": 5.9,
                "RSSI": -73.37,
                "LOS": "True"
            }
        },
        {
            "type": "Feature",
            "geometry": {
                "type": "Point",
                "coordinates": [
                    8.22262753,
                    49.45104068
                ]
            },
            "properties": {
                "RSU coordinates": [
                    8.2225318,
                    49.4472679
                ],
                "Distance": 420.06,
                "Frequency": 5.9,
                "RSSI": -72.89,
                "LOS": "True"
            }
        },
        {
            "type": "Feature",
            "geometry": {
                "type": "Point",
                "coordinates": [
                    8.21966007,
                    49.44748349
                ]
            },
            "properties": {
                "RSU coordinates": [
                    8.2225318,
                    49.4472679
                ],
                "Distance": 209.23,
                "Frequency": 5.9,
                "RSSI": -96.92,
                "LOS": "False"
            }
        },
        {
            "type": "Feature",
            "geometry": {
                "type": "Point",
                "coordinates": [
                    8.22262753,
                    49.45082509
                ]
            },
            "properties": {
                "RSU coordinates": [
                    8.2225318,
                    49.4472679
                ],
                "Distance": 396.06,
                "Frequency": 5.9,
                "RSSI": -87.39,
                "LOS": "False"
            }
        },
        {
            "type": "Feature",
            "geometry": {
                "type": "Point",
                "coordinates": [
                    8.21985152,
                    49.44748349
                ]
            },
            "properties": {
                "RSU coordinates": [
                    8.2225318,
                    49.4472679
                ],
                "Distance": 195.47,
                "Frequency": 5.9,
                "RSSI": -96.33,
                "LOS": "False"
            }
        },
        {
            "type": "Feature",
            "geometry": {
                "type": "Point",
                "coordinates": [
                    8.22272326,
                    49.45071729
                ]
            },
            "properties": {
                "RSU coordinates": [
                    8.2225318,
                    49.4472679
                ],
                "Distance": 384.25,
                "Frequency": 5.9,
                "RSSI": -87.13,
                "LOS": "False"
            }
        },
        {
            "type": "Feature",
            "geometry": {
                "type": "Point",
                "coordinates": [
                    8.22004297,
                    49.44748349
                ]
            },
            "properties": {
                "RSU coordinates": [
                    8.2225318,
                    49.4472679
                ],
                "Distance": 181.73,
                "Frequency": 5.9,
                "RSSI": -95.71,
                "LOS": "False"
            }
        },
        {
            "type": "Feature",
            "geometry": {
                "type": "Point",
                "coordinates": [
                    8.22262753,
                    49.45039391
                ]
            },
            "properties": {
                "RSU coordinates": [
                    8.2225318,
                    49.4472679
                ],
                "Distance": 348.07,
                "Frequency": 5.9,
                "RSSI": -71.28,
                "LOS": "True"
            }
        },
        {
            "type": "Feature",
            "geometry": {
                "type": "Point",
                "coordinates": [
                    8.22023442,
                    49.44748349
                ]
            },
            "properties": {
                "RSU coordinates": [
                    8.2225318,
                    49.4472679
                ],
                "Distance": 168.0,
                "Frequency": 5.9,
                "RSSI": -80.03,
                "LOS": "False"
            }
        },
        {
            "type": "Feature",
            "geometry": {
                "type": "Point",
                "coordinates": [
                    8.22262753,
                    49.45017833
                ]
            },
            "properties": {
                "RSU coordinates": [
                    8.2225318,
                    49.4472679
                ],
                "Distance": 324.07,
                "Frequency": 5.9,
                "RSSI": -70.67,
                "LOS": "True"
            }
        },
        {
            "type": "Feature",
            "geometry": {
                "type": "Point",
                "coordinates": [
                    8.22042587,
                    49.44748349
                ]
            },
            "properties": {
                "RSU coordinates": [
                    8.2225318,
                    49.4472679
                ],
                "Distance": 154.3,
                "Frequency": 5.9,
                "RSSI": -94.3,
                "LOS": "False"
            }
        },
        {
            "type": "Feature",
            "geometry": {
                "type": "Point",
                "coordinates": [
                    8.2225318,
                    49.44985495
                ]
            },
            "properties": {
                "RSU coordinates": [
                    8.2225318,
                    49.4472679
                ],
                "Distance": 288.0,
                "Frequency": 5.9,
                "RSSI": -99.66,
                "LOS": "False"
            }
        },
        {
            "type": "Feature",
            "geometry": {
                "type": "Point",
                "coordinates": [
                    8.22262753,
                    49.44996274
                ]
            },
            "properties": {
                "RSU coordinates": [
                    8.2225318,
                    49.4472679
                ],
                "Distance": 300.08,
                "Frequency": 5.9,
                "RSSI": -70.01,
                "LOS": "True"
            }
        },
        {
            "type": "Feature",
            "geometry": {
                "type": "Point",
                "coordinates": [
                    8.22061731,
                    49.44748349
                ]
            },
            "properties": {
                "RSU coordinates": [
                    8.2225318,
                    49.4472679
                ],
                "Distance": 140.63,
                "Frequency": 5.9,
                "RSSI": -93.50999999999999,
                "LOS": "False"
            }
        },
        {
            "type": "Feature",
            "geometry": {
                "type": "Point",
                "coordinates": [
                    8.2225318,
                    49.44963936
                ]
            },
            "properties": {
                "RSU coordinates": [
                    8.2225318,
                    49.4472679
                ],
                "Distance": 264.0,
                "Frequency": 5.9,
                "RSSI": -98.91,
                "LOS": "False"
            }
        },
        {
            "type": "Feature",
            "geometry": {
                "type": "Point",
                "coordinates": [
                    8.22262753,
                    49.44974715
                ]
            },
            "properties": {
                "RSU coordinates": [
                    8.2225318,
                    49.4472679
                ],
                "Distance": 276.09,
                "Frequency": 5.9,
                "RSSI": -69.29,
                "LOS": "True"
            }
        },
        {
            "type": "Feature",
            "geometry": {
                "type": "Point",
                "coordinates": [
                    8.22071304,
                    49.44737569
                ]
            },
            "properties": {
                "RSU coordinates": [
                    8.2225318,
                    49.4472679
                ],
                "Distance": 132.18,
                "Frequency": 5.9,
                "RSSI": -92.97999999999999,
                "LOS": "False"
            }
        },
        {
            "type": "Feature",
            "geometry": {
                "type": "Point",
                "coordinates": [
                    8.22080876,
                    49.44748349
                ]
            },
            "properties": {
                "RSU coordinates": [
                    8.2225318,
                    49.4472679
                ],
                "Distance": 127.0,
                "Frequency": 5.9,
                "RSSI": -92.63,
                "LOS": "False"
            }
        },
        {
            "type": "Feature",
            "geometry": {
                "type": "Point",
                "coordinates": [
                    8.2225318,
                    49.44942377
                ]
            },
            "properties": {
                "RSU coordinates": [
                    8.2225318,
                    49.4472679
                ],
                "Distance": 240.0,
                "Frequency": 5.9,
                "RSSI": -98.09,
                "LOS": "False"
            }
        },
        {
            "type": "Feature",
            "geometry": {
                "type": "Point",
                "coordinates": [
                    8.22262753,
                    49.44953157
                ]
            },
            "properties": {
                "RSU coordinates": [
                    8.2225318,
                    49.4472679
                ],
                "Distance": 252.1,
                "Frequency": 5.9,
                "RSSI": -68.51,
                "LOS": "True"
            }
        },
        {
            "type": "Feature",
            "geometry": {
                "type": "Point",
                "coordinates": [
                    8.22090449,
                    49.44737569
                ]
            },
            "properties": {
                "RSU coordinates": [
                    8.2225318,
                    49.4472679
                ],
                "Distance": 118.39,
                "Frequency": 5.9,
                "RSSI": -77.03,
                "LOS": "False"
            }
        },
        {
            "type": "Feature",
            "geometry": {
                "type": "Point",
                "coordinates": [
                    8.22262753,
                    49.44931598
                ]
            },
            "properties": {
                "RSU coordinates": [
                    8.2225318,
                    49.4472679
                ],
                "Distance": 228.11,
                "Frequency": 5.9,
                "RSSI": -67.66,
                "LOS": "True"
            }
        },
        {
            "type": "Feature",
            "geometry": {
                "type": "Point",
                "coordinates": [
                    8.22109594,
                    49.44737569
                ]
            },
            "properties": {
                "RSU coordinates": [
                    8.2225318,
                    49.4472679
                ],
                "Distance": 104.61,
                "Frequency": 5.9,
                "RSSI": -75.97,
                "LOS": "False"
            }
        },
        {
            "type": "Feature",
            "geometry": {
                "type": "Point",
                "coordinates": [
                    8.2225318,
                    49.4489926
                ]
            },
            "properties": {
                "RSU coordinates": [
                    8.2225318,
                    49.4472679
                ],
                "Distance": 192.0,
                "Frequency": 5.9,
                "RSSI": -81.18,
                "LOS": "False"
            }
        },
        {
            "type": "Feature",
            "geometry": {
                "type": "Point",
                "coordinates": [
                    8.22262753,
                    49.44910039
                ]
            },
            "properties": {
                "RSU coordinates": [
                    8.2225318,
                    49.4472679
                ],
                "Distance": 204.12,
                "Frequency": 5.9,
                "RSSI": -81.7,
                "LOS": "False"
            }
        },
        {
            "type": "Feature",
            "geometry": {
                "type": "Point",
                "coordinates": [
                    8.22128739,
                    49.44737569
                ]
            },
            "properties": {
                "RSU coordinates": [
                    8.2225318,
                    49.4472679
                ],
                "Distance": 90.86,
                "Frequency": 5.9,
                "RSSI": -74.75999999999999,
                "LOS": "False"
            }
        },
        {
            "type": "Feature",
            "geometry": {
                "type": "Point",
                "coordinates": [
                    8.2225318,
                    49.44877701
                ]
            },
            "properties": {
                "RSU coordinates": [
                    8.2225318,
                    49.4472679
                ],
                "Distance": 168.0,
                "Frequency": 5.9,
                "RSSI": -65.03,
                "LOS": "True"
            }
        },
        {
            "type": "Feature",
            "geometry": {
                "type": "Point",
                "coordinates": [
                    8.22262753,
                    49.4488848
                ]
            },
            "properties": {
                "RSU coordinates": [
                    8.2225318,
                    49.4472679
                ],
                "Distance": 180.13,
                "Frequency": 5.9,
                "RSSI": -95.63,
                "LOS": "False"
            }
        },
        {
            "type": "Feature",
            "geometry": {
                "type": "Point",
                "coordinates": [
                    8.22147883,
                    49.44737569
                ]
            },
            "properties": {
                "RSU coordinates": [
                    8.2225318,
                    49.4472679
                ],
                "Distance": 77.15,
                "Frequency": 5.9,
                "RSSI": -73.36,
                "LOS": "False"
            }
        },
        {
            "type": "Feature",
            "geometry": {
                "type": "Point",
                "coordinates": [
                    8.2221489,
                    49.44813025
                ]
            },
            "properties": {
                "RSU coordinates": [
                    8.2225318,
                    49.4472679
                ],
                "Distance": 99.92,
                "Frequency": 5.9,
                "RSSI": -90.58,
                "LOS": "False"
            }
        },
        {
            "type": "Feature",
            "geometry": {
                "type": "Point",
                "coordinates": [
                    8.22234035,
                    49.44834584
                ]
            },
            "properties": {
                "RSU coordinates": [
                    8.2225318,
                    49.4472679
                ],
                "Distance": 120.8,
                "Frequency": 5.9,
                "RSSI": -77.2,
                "LOS": "False"
            }
        },
        {
            "type": "Feature",
            "geometry": {
                "type": "Point",
                "coordinates": [
                    8.2225318,
                    49.44856142
                ]
            },
            "properties": {
                "RSU coordinates": [
                    8.2225318,
                    49.4472679
                ],
                "Distance": 144.0,
                "Frequency": 5.9,
                "RSSI": -63.71,
                "LOS": "True"
            }
        },
        {
            "type": "Feature",
            "geometry": {
                "type": "Point",
                "coordinates": [
                    8.22167028,
                    49.44737569
                ]
            },
            "properties": {
                "RSU coordinates": [
                    8.2225318,
                    49.4472679
                ],
                "Distance": 63.5,
                "Frequency": 5.9,
                "RSSI": -71.69,
                "LOS": "False"
            }
        },
        {
            "type": "Feature",
            "geometry": {
                "type": "Point",
                "coordinates": [
                    8.22224462,
                    49.44802246
                ]
            },
            "properties": {
                "RSU coordinates": [
                    8.2225318,
                    49.4472679
                ],
                "Distance": 86.53,
                "Frequency": 5.9,
                "RSSI": -89.34,
                "LOS": "False"
            }
        },
        {
            "type": "Feature",
            "geometry": {
                "type": "Point",
                "coordinates": [
                    8.22234035,
                    49.44813025
                ]
            },
            "properties": {
                "RSU coordinates": [
                    8.2225318,
                    49.4472679
                ],
                "Distance": 96.99,
                "Frequency": 5.9,
                "RSSI": -75.32,
                "LOS": "False"
            }
        },
        {
            "type": "Feature",
            "geometry": {
                "type": "Point",
                "coordinates": [
                    8.2225318,
                    49.44834584
                ]
            },
            "properties": {
                "RSU coordinates": [
                    8.2225318,
                    49.4472679
                ],
                "Distance": 120.0,
                "Frequency": 5.9,
                "RSSI": -62.15,
                "LOS": "True"
            }
        },
        {
            "type": "Feature",
            "geometry": {
                "type": "Point",
                "coordinates": [
                    8.22147884,
                    49.44694452
                ]
            },
            "properties": {
                "RSU coordinates": [
                    8.2225318,
                    49.4472679
                ],
                "Distance": 84.29,
                "Frequency": 5.9,
                "RSSI": -59.12,
                "LOS": "True"
            }
        },
        {
            "type": "Feature",
            "geometry": {
                "type": "Point",
                "coordinates": [
                    8.22186173,
                    49.44737569
                ]
            },
            "properties": {
                "RSU coordinates": [
                    8.2225318,
                    49.4472679
                ],
                "Distance": 49.96,
                "Frequency": 5.9,
                "RSSI": -69.63,
                "LOS": "False"
            }
        },
        {
            "type": "Feature",
            "geometry": {
                "type": "Point",
                "coordinates": [
                    8.22195745,
                    49.44748349
                ]
            },
            "properties": {
                "RSU coordinates": [
                    8.2225318,
                    49.4472679
                ],
                "Distance": 48.0,
                "Frequency": 5.9,
                "RSSI": -84.28999999999999,
                "LOS": "False"
            }
        },
        {
            "type": "Feature",
            "geometry": {
                "type": "Point",
                "coordinates": [
                    8.22234035,
                    49.44791466
                ]
            },
            "properties": {
                "RSU coordinates": [
                    8.2225318,
                    49.4472679
                ],
                "Distance": 73.32,
                "Frequency": 5.9,
                "RSSI": -87.92,
                "LOS": "False"
            }
        },
        {
            "type": "Feature",
            "geometry": {
                "type": "Point",
                "coordinates": [
                    8.22243607,
                    49.44802246
                ]
            },
            "properties": {
                "RSU coordinates": [
                    8.2225318,
                    49.4472679
                ],
                "Distance": 84.29,
                "Frequency": 5.9,
                "RSSI": -59.12,
                "LOS": "True"
            }
        },
        {
            "type": "Feature",
            "geometry": {
                "type": "Point",
                "coordinates": [
                    8.2225318,
                    49.44813025
                ]
            },
            "properties": {
                "RSU coordinates": [
                    8.2225318,
                    49.4472679
                ],
                "Distance": 96.0,
                "Frequency": 5.9,
                "RSSI": -60.23,
                "LOS": "True"
            }
        },
        {
            "type": "Feature",
            "geometry": {
                "type": "Point",
                "coordinates": [
                    8.22167029,
                    49.44694452
                ]
            },
            "properties": {
                "RSU coordinates": [
                    8.2225318,
                    49.4472679
                ],
                "Distance": 72.0,
                "Frequency": 5.9,
                "RSSI": -57.77,
                "LOS": "True"
            }
        },
        {
            "type": "Feature",
            "geometry": {
                "type": "Point",
                "coordinates": [
                    8.22176601,
                    49.44705231
                ]
            },
            "properties": {
                "RSU coordinates": [
                    8.2225318,
                    49.4472679
                ],
                "Distance": 60.4,
                "Frequency": 5.9,
                "RSSI": -56.26,
                "LOS": "True"
            }
        },
        {
            "type": "Feature",
            "geometry": {
                "type": "Point",
                "coordinates": [
                    8.22195746,
                    49.4472679
                ]
            },
            "properties": {
                "RSU coordinates": [
                    8.2225318,
                    49.4472679
                ],
                "Distance": 41.57,
                "Frequency": 5.9,
                "RSSI": -98.06,
                "LOS": "False"
            }
        },
        {
            "type": "Feature",
            "geometry": {
                "type": "Point",
                "coordinates": [
                    8.22205318,
                    49.44737569
                ]
            },
            "properties": {
                "RSU coordinates": [
                    8.2225318,
                    49.4472679
                ],
                "Distance": 36.66,
                "Frequency": 5.9,
                "RSSI": -66.97999999999999,
                "LOS": "False"
            }
        },
        {
            "type": "Feature",
            "geometry": {
                "type": "Point",
                "coordinates": [
                    8.2221489,
                    49.44748349
                ]
            },
            "properties": {
                "RSU coordinates": [
                    8.2225318,
                    49.4472679
                ],
                "Distance": 36.66,
                "Frequency": 5.9,
                "RSSI": -81.97999999999999,
                "LOS": "False"
            }
        },
        {
            "type": "Feature",
            "geometry": {
                "type": "Point",
                "coordinates": [
                    8.22234035,
                    49.44769907
                ]
            },
            "properties": {
                "RSU coordinates": [
                    8.2225318,
                    49.4472679
                ],
                "Distance": 49.96,
                "Frequency": 5.9,
                "RSSI": -84.63,
                "LOS": "False"
            }
        },
        {
            "type": "Feature",
            "geometry": {
                "type": "Point",
                "coordinates": [
                    8.22243608,
                    49.44780687
                ]
            },
            "properties": {
                "RSU coordinates": [
                    8.2225318,
                    49.4472679
                ],
                "Distance": 60.4,
                "Frequency": 5.9,
                "RSSI": -56.26,
                "LOS": "True"
            }
        },
        {
            "type": "Feature",
            "geometry": {
                "type": "Point",
                "coordinates": [
                    8.2225318,
                    49.44791466
                ]
            },
            "properties": {
                "RSU coordinates": [
                    8.2225318,
                    49.4472679
                ],
                "Distance": 72.0,
                "Frequency": 5.9,
                "RSSI": -57.77,
                "LOS": "True"
            }
        },
        {
            "type": "Feature",
            "geometry": {
                "type": "Point",
                "coordinates": [
                    8.22262753,
                    49.44802246
                ]
            },
            "properties": {
                "RSU coordinates": [
                    8.2225318,
                    49.4472679
                ],
                "Distance": 84.29,
                "Frequency": 5.9,
                "RSSI": -89.12,
                "LOS": "False"
            }
        },
        {
            "type": "Feature",
            "geometry": {
                "type": "Point",
                "coordinates": [
                    8.22195746,
                    49.44705231
                ]
            },
            "properties": {
                "RSU coordinates": [
                    8.2225318,
                    49.4472679
                ],
                "Distance": 48.0,
                "Frequency": 5.9,
                "RSSI": -54.29,
                "LOS": "True"
            }
        },
        {
            "type": "Feature",
            "geometry": {
                "type": "Point",
                "coordinates": [
                    8.22205318,
                    49.44716011
                ]
            },
            "properties": {
                "RSU coordinates": [
                    8.2225318,
                    49.4472679
                ],
                "Distance": 36.66,
                "Frequency": 5.9,
                "RSSI": -51.98,
                "LOS": "True"
            }
        },
        {
            "type": "Feature",
            "geometry": {
                "type": "Point",
                "coordinates": [
                    8.22224463,
                    49.44737569
                ]
            },
            "properties": {
                "RSU coordinates": [
                    8.2225318,
                    49.4472679
                ],
                "Distance": 24.0,
                "Frequency": 5.9,
                "RSSI": -63.34,
                "LOS": "False"
            }
        },
        {
            "type": "Feature",
            "geometry": {
                "type": "Point",
                "coordinates": [
                    8.2225318,
                    49.44769907
                ]
            },
            "properties": {
                "RSU coordinates": [
                    8.2225318,
                    49.4472679
                ],
                "Distance": 48.0,
                "Frequency": 5.9,
                "RSSI": -54.29,
                "LOS": "True"
            }
        },
        {
            "type": "Feature",
            "geometry": {
                "type": "Point",
                "coordinates": [
                    8.22214891,
                    49.44705231
                ]
            },
            "properties": {
                "RSU coordinates": [
                    8.2225318,
                    49.4472679
                ],
                "Distance": 36.66,
                "Frequency": 5.9,
                "RSSI": -66.97999999999999,
                "LOS": "False"
            }
        },
        {
            "type": "Feature",
            "geometry": {
                "type": "Point",
                "coordinates": [
                    8.22224463,
                    49.44716011
                ]
            },
            "properties": {
                "RSU coordinates": [
                    8.2225318,
                    49.4472679
                ],
                "Distance": 24.0,
                "Frequency": 5.9,
                "RSSI": -48.34,
                "LOS": "True"
            }
        },
        {
            "type": "Feature",
            "geometry": {
                "type": "Point",
                "coordinates": [
                    8.2225318,
                    49.44748349
                ]
            },
            "properties": {
                "RSU coordinates": [
                    8.2225318,
                    49.4472679
                ],
                "Distance": 24.0,
                "Frequency": 5.9,
                "RSSI": -48.34,
                "LOS": "True"
            }
        },
        {
            "type": "Feature",
            "geometry": {
                "type": "Point",
                "coordinates": [
                    8.22262752,
                    49.44759128
                ]
            },
            "properties": {
                "RSU coordinates": [
                    8.2225318,
                    49.4472679
                ],
                "Distance": 36.66,
                "Frequency": 5.9,
                "RSSI": -81.97999999999999,
                "LOS": "False"
            }
        },
        {
            "type": "Feature",
            "geometry": {
                "type": "Point",
                "coordinates": [
                    8.22272325,
                    49.44769907
                ]
            },
            "properties": {
                "RSU coordinates": [
                    8.2225318,
                    49.4472679
                ],
                "Distance": 49.96,
                "Frequency": 5.9,
                "RSSI": -99.63,
                "LOS": "False"
            }
        },
        {
            "type": "Feature",
            "geometry": {
                "type": "Point",
                "coordinates": [
                    8.22224463,
                    49.44694452
                ]
            },
            "properties": {
                "RSU coordinates": [
                    8.2225318,
                    49.4472679
                ],
                "Distance": 41.57,
                "Frequency": 5.9,
                "RSSI": -83.06,
                "LOS": "False"
            }
        },
        {
            "type": "Feature",
            "geometry": {
                "type": "Point",
                "coordinates": [
                    8.22243608,
                    49.44716011
                ]
            },
            "properties": {
                "RSU coordinates": [
                    8.2225318,
                    49.4472679
                ],
                "Distance": 13.86,
                "Frequency": 5.9,
                "RSSI": -43.63,
                "LOS": "True"
            }
        },
        {
            "type": "Feature",
            "geometry": {
                "type": "Point",
                "coordinates": [
                    8.22272325,
                    49.44748349
                ]
            },
            "properties": {
                "RSU coordinates": [
                    8.2225318,
                    49.4472679
                ],
                "Distance": 27.71,
                "Frequency": 5.9,
                "RSSI": -64.58,
                "LOS": "False"
            }
        },
        {
            "type": "Feature",
            "geometry": {
                "type": "Point",
                "coordinates": [
                    8.22234035,
                    49.44683673
                ]
            },
            "properties": {
                "RSU coordinates": [
                    8.2225318,
                    49.4472679
                ],
                "Distance": 49.96,
                "Frequency": 5.9,
                "RSSI": -69.63,
                "LOS": "False"
            }
        },
        {
            "type": "Feature",
            "geometry": {
                "type": "Point",
                "coordinates": [
                    8.2225318,
                    49.44705231
                ]
            },
            "properties": {
                "RSU coordinates": [
                    8.2225318,
                    49.4472679
                ],
                "Distance": 24.0,
                "Frequency": 5.9,
                "RSSI": -48.34,
                "LOS": "True"
            }
        },
        {
            "type": "Feature",
            "geometry": {
                "type": "Point",
                "coordinates": [
                    8.2229147,
                    49.44748349
                ]
            },
            "properties": {
                "RSU coordinates": [
                    8.2225318,
                    49.4472679
                ],
                "Distance": 36.66,
                "Frequency": 5.9,
                "RSSI": -81.97999999999999,
                "LOS": "False"
            }
        },
        {
            "type": "Feature",
            "geometry": {
                "type": "Point",
                "coordinates": [
                    8.22301042,
                    49.44759128
                ]
            },
            "properties": {
                "RSU coordinates": [
                    8.2225318,
                    49.4472679
                ],
                "Distance": 49.96,
                "Frequency": 5.9,
                "RSSI": -99.63,
                "LOS": "False"
            }
        },
        {
            "type": "Feature",
            "geometry": {
                "type": "Point",
                "coordinates": [
                    8.22243608,
                    49.44672893
                ]
            },
            "properties": {
                "RSU coordinates": [
                    8.2225318,
                    49.4472679
                ],
                "Distance": 60.4,
                "Frequency": 5.9,
                "RSSI": -86.25999999999999,
                "LOS": "False"
            }
        },
        {
            "type": "Feature",
            "geometry": {
                "type": "Point",
                "coordinates": [
                    8.2225318,
                    49.44683673
                ]
            },
            "properties": {
                "RSU coordinates": [
                    8.2225318,
                    49.4472679
                ],
                "Distance": 48.0,
                "Frequency": 5.9,
                "RSSI": -54.29,
                "LOS": "True"
            }
        },
        {
            "type": "Feature",
            "geometry": {
                "type": "Point",
                "coordinates": [
                    8.22262752,
                    49.44694452
                ]
            },
            "properties": {
                "RSU coordinates": [
                    8.2225318,
                    49.4472679
                ],
                "Distance": 36.66,
                "Frequency": 5.9,
                "RSSI": -96.97999999999999,
                "LOS": "False"
            }
        },
        {
            "type": "Feature",
            "geometry": {
                "type": "Point",
                "coordinates": [
                    8.22272325,
                    49.44705231
                ]
            },
            "properties": {
                "RSU coordinates": [
                    8.2225318,
                    49.4472679
                ],
                "Distance": 27.71,
                "Frequency": 5.9,
                "RSSI": -79.58,
                "LOS": "False"
            }
        },
        {
            "type": "Feature",
            "geometry": {
                "type": "Point",
                "coordinates": [
                    8.2229147,
                    49.4472679
                ]
            },
            "properties": {
                "RSU coordinates": [
                    8.2225318,
                    49.4472679
                ],
                "Distance": 27.71,
                "Frequency": 5.9,
                "RSSI": -79.58,
                "LOS": "False"
            }
        },
        {
            "type": "Feature",
            "geometry": {
                "type": "Point",
                "coordinates": [
                    8.22301042,
                    49.44737569
                ]
            },
            "properties": {
                "RSU coordinates": [
                    8.2225318,
                    49.4472679
                ],
                "Distance": 36.66,
                "Frequency": 5.9,
                "RSSI": -66.97999999999999,
                "LOS": "False"
            }
        },
        {
            "type": "Feature",
            "geometry": {
                "type": "Point",
                "coordinates": [
                    8.2225318,
                    49.44662114
                ]
            },
            "properties": {
                "RSU coordinates": [
                    8.2225318,
                    49.4472679
                ],
                "Distance": 72.0,
                "Frequency": 5.9,
                "RSSI": -57.77,
                "LOS": "True"
            }
        },
        {
            "type": "Feature",
            "geometry": {
                "type": "Point",
                "coordinates": [
                    8.22291469,
                    49.44705231
                ]
            },
            "properties": {
                "RSU coordinates": [
                    8.2225318,
                    49.4472679
                ],
                "Distance": 36.66,
                "Frequency": 5.9,
                "RSSI": -81.97999999999999,
                "LOS": "False"
            }
        },
        {
            "type": "Feature",
            "geometry": {
                "type": "Point",
                "coordinates": [
                    8.22301042,
                    49.44716011
                ]
            },
            "properties": {
                "RSU coordinates": [
                    8.2225318,
                    49.4472679
                ],
                "Distance": 36.66,
                "Frequency": 5.9,
                "RSSI": -96.97999999999999,
                "LOS": "False"
            }
        },
        {
            "type": "Feature",
            "geometry": {
                "type": "Point",
                "coordinates": [
                    8.22320187,
                    49.44737569
                ]
            },
            "properties": {
                "RSU coordinates": [
                    8.2225318,
                    49.4472679
                ],
                "Distance": 49.96,
                "Frequency": 5.9,
                "RSSI": -84.63,
                "LOS": "False"
            }
        },
        {
            "type": "Feature",
            "geometry": {
                "type": "Point",
                "coordinates": [
                    8.22243608,
                    49.44629776
                ]
            },
            "properties": {
                "RSU coordinates": [
                    8.2225318,
                    49.4472679
                ],
                "Distance": 108.22,
                "Frequency": 5.9,
                "RSSI": -91.25999999999999,
                "LOS": "False"
            }
        },
        {
            "type": "Feature",
            "geometry": {
                "type": "Point",
                "coordinates": [
                    8.2225318,
                    49.44640555
                ]
            },
            "properties": {
                "RSU coordinates": [
                    8.2225318,
                    49.4472679
                ],
                "Distance": 96.0,
                "Frequency": 5.9,
                "RSSI": -90.22999999999999,
                "LOS": "False"
            }
        },
        {
            "type": "Feature",
            "geometry": {
                "type": "Point",
                "coordinates": [
                    8.22262752,
                    49.44651334
                ]
            },
            "properties": {
                "RSU coordinates": [
                    8.2225318,
                    49.4472679
                ],
                "Distance": 84.29,
                "Frequency": 5.9,
                "RSSI": -59.12,
                "LOS": "True"
            }
        },
        {
            "type": "Feature",
            "geometry": {
                "type": "Point",
                "coordinates": [
                    8.22310614,
                    49.44705231
                ]
            },
            "properties": {
                "RSU coordinates": [
                    8.2225318,
                    49.4472679
                ],
                "Distance": 48.0,
                "Frequency": 5.9,
                "RSSI": -84.28999999999999,
                "LOS": "False"
            }
        },
        {
            "type": "Feature",
            "geometry": {
                "type": "Point",
                "coordinates": [
                    8.22339332,
                    49.44737569
                ]
            },
            "properties": {
                "RSU coordinates": [
                    8.2225318,
                    49.4472679
                ],
                "Distance": 63.5,
                "Frequency": 5.9,
                "RSSI": -86.69,
                "LOS": "False"
            }
        },
        {
            "type": "Feature",
            "geometry": {
                "type": "Point",
                "coordinates": [
                    8.22243608,
                    49.44608217
                ]
            },
            "properties": {
                "RSU coordinates": [
                    8.2225318,
                    49.4472679
                ],
                "Distance": 132.18,
                "Frequency": 5.9,
                "RSSI": -92.97999999999999,
                "LOS": "False"
            }
        },
        {
            "type": "Feature",
            "geometry": {
                "type": "Point",
                "coordinates": [
                    8.22262752,
                    49.44629776
                ]
            },
            "properties": {
                "RSU coordinates": [
                    8.2225318,
                    49.4472679
                ],
                "Distance": 108.22,
                "Frequency": 5.9,
                "RSSI": -61.26,
                "LOS": "True"
            }
        },
        {
            "type": "Feature",
            "geometry": {
                "type": "Point",
                "coordinates": [
                    8.22358477,
                    49.44737569
                ]
            },
            "properties": {
                "RSU coordinates": [
                    8.2225318,
                    49.4472679
                ],
                "Distance": 77.15,
                "Frequency": 5.9,
                "RSSI": -88.36,
                "LOS": "False"
            }
        },
        {
            "type": "Feature",
            "geometry": {
                "type": "Point",
                "coordinates": [
                    8.22262752,
                    49.44608217
                ]
            },
            "properties": {
                "RSU coordinates": [
                    8.2225318,
                    49.4472679
                ],
                "Distance": 132.18,
                "Frequency": 5.9,
                "RSSI": -62.98,
                "LOS": "True"
            }
        },
        {
            "type": "Feature",
            "geometry": {
                "type": "Point",
                "coordinates": [
                    8.22262752,
                    49.44586658
                ]
            },
            "properties": {
                "RSU coordinates": [
                    8.2225318,
                    49.4472679
                ],
                "Distance": 156.15,
                "Frequency": 5.9,
                "RSSI": -64.41,
                "LOS": "True"
            }
        },
        {
            "type": "Feature",
            "geometry": {
                "type": "Point",
                "coordinates": [
                    8.22272324,
                    49.44597438
                ]
            },
            "properties": {
                "RSU coordinates": [
                    8.2225318,
                    49.4472679
                ],
                "Distance": 144.67,
                "Frequency": 5.9,
                "RSSI": -78.75,
                "LOS": "False"
            }
        },
        {
            "type": "Feature",
            "geometry": {
                "type": "Point",
                "coordinates": [
                    8.22406339,
                    49.44748349
                ]
            },
            "properties": {
                "RSU coordinates": [
                    8.2225318,
                    49.4472679
                ],
                "Distance": 113.42,
                "Frequency": 5.9,
                "RSSI": -91.66,
                "LOS": "False"
            }
        },
        {
            "type": "Feature",
            "geometry": {
                "type": "Point",
                "coordinates": [
                    8.22234036,
                    49.44532762
                ]
            },
            "properties": {
                "RSU coordinates": [
                    8.2225318,
                    49.4472679
                ],
                "Distance": 216.44,
                "Frequency": 5.9,
                "RSSI": -97.21,
                "LOS": "False"
            }
        },
        {
            "type": "Feature",
            "geometry": {
                "type": "Point",
                "coordinates": [
                    8.22262752,
                    49.445651
                ]
            },
            "properties": {
                "RSU coordinates": [
                    8.2225318,
                    49.4472679
                ],
                "Distance": 180.13,
                "Frequency": 5.9,
                "RSSI": -95.63,
                "LOS": "False"
            }
        },
        {
            "type": "Feature",
            "geometry": {
                "type": "Point",
                "coordinates": [
                    8.22272324,
                    49.44575879
                ]
            },
            "properties": {
                "RSU coordinates": [
                    8.2225318,
                    49.4472679
                ],
                "Distance": 168.57,
                "Frequency": 5.9,
                "RSSI": -65.06,
                "LOS": "True"
            }
        },
        {
            "type": "Feature",
            "geometry": {
                "type": "Point",
                "coordinates": [
                    8.22425484,
                    49.44748349
                ]
            },
            "properties": {
                "RSU coordinates": [
                    8.2225318,
                    49.4472679
                ],
                "Distance": 127.0,
                "Frequency": 5.9,
                "RSSI": -92.63,
                "LOS": "False"
            }
        },
        {
            "type": "Feature",
            "geometry": {
                "type": "Point",
                "coordinates": [
                    8.22234036,
                    49.44511203
                ]
            },
            "properties": {
                "RSU coordinates": [
                    8.2225318,
                    49.4472679
                ],
                "Distance": 240.4,
                "Frequency": 5.9,
                "RSSI": -98.11,
                "LOS": "False"
            }
        },
        {
            "type": "Feature",
            "geometry": {
                "type": "Point",
                "coordinates": [
                    8.22272324,
                    49.4455432
                ]
            },
            "properties": {
                "RSU coordinates": [
                    8.2225318,
                    49.4472679
                ],
                "Distance": 192.5,
                "Frequency": 5.9,
                "RSSI": -66.2,
                "LOS": "True"
            }
        },
        {
            "type": "Feature",
            "geometry": {
                "type": "Point",
                "coordinates": [
                    8.22444629,
                    49.44748349
                ]
            },
            "properties": {
                "RSU coordinates": [
                    8.2225318,
                    49.4472679
                ],
                "Distance": 140.63,
                "Frequency": 5.9,
                "RSSI": -93.50999999999999,
                "LOS": "False"
            }
        },
        {
            "type": "Feature",
            "geometry": {
                "type": "Point",
                "coordinates": [
                    8.22463773,
                    49.44748349
                ]
            },
            "properties": {
                "RSU coordinates": [
                    8.2225318,
                    49.4472679
                ],
                "Distance": 154.3,
                "Frequency": 5.9,
                "RSSI": -94.3,
                "LOS": "False"
            }
        },
        {
            "type": "Feature",
            "geometry": {
                "type": "Point",
                "coordinates": [
                    8.22272324,
                    49.44511203
                ]
            },
            "properties": {
                "RSU coordinates": [
                    8.2225318,
                    49.4472679
                ],
                "Distance": 240.4,
                "Frequency": 5.9,
                "RSSI": -83.11,
                "LOS": "False"
            }
        },
        {
            "type": "Feature",
            "geometry": {
                "type": "Point",
                "coordinates": [
                    8.22281896,
                    49.44521982
                ]
            },
            "properties": {
                "RSU coordinates": [
                    8.2225318,
                    49.4472679
                ],
                "Distance": 228.95,
                "Frequency": 5.9,
                "RSSI": -97.69,
                "LOS": "False"
            }
        },
        {
            "type": "Feature",
            "geometry": {
                "type": "Point",
                "coordinates": [
                    8.22281896,
                    49.44500423
                ]
            },
            "properties": {
                "RSU coordinates": [
                    8.2225318,
                    49.4472679
                ],
                "Distance": 252.86,
                "Frequency": 5.9,
                "RSSI": -98.54,
                "LOS": "False"
            }
        },
        {
            "type": "Feature",
            "geometry": {
                "type": "Point",
                "coordinates": [
                    8.22530781,
                    49.44759128
                ]
            },
            "properties": {
                "RSU coordinates": [
                    8.2225318,
                    49.4472679
                ],
                "Distance": 204.12,
                "Frequency": 5.9,
                "RSSI": -96.7,
                "LOS": "False"
            }
        },
        {
            "type": "Feature",
            "geometry": {
                "type": "Point",
                "coordinates": [
                    8.22549926,
                    49.44759128
                ]
            },
            "properties": {
                "RSU coordinates": [
                    8.2225318,
                    49.4472679
                ],
                "Distance": 217.77,
                "Frequency": 5.9,
                "RSSI": -97.26,
                "LOS": "False"
            }
        },
        {
            "type": "Feature",
            "geometry": {
                "type": "Point",
                "coordinates": [
                    8.22569071,
                    49.44759128
                ]
            },
            "properties": {
                "RSU coordinates": [
                    8.2225318,
                    49.4472679
                ],
                "Distance": 231.45,
                "Frequency": 5.9,
                "RSSI": -97.78,
                "LOS": "False"
            }
        }
    ]
}