{
    "type": "FeatureCollection",
    "features": [
        {
            "type": "Feature",
            "geometry": {
                "type": "Point",
                "coordinates": [
                    7.44298801,
                    53.22937093
                ]
            },
            "properties": {
                "RSU coordinates": [
                    7.4471466,
                    53.2298021
                ],
                "Distance": 281.25,
                "Frequency": 5.9,
                "RSSI": -99.45,
                "LOS": "False"
            }
        },
        {
            "type": "Feature",
            "geometry": {
                "type": "Point",
                "coordinates": [
                    7.44319594,
                    53.22937093
                ]
            },
            "properties": {
                "RSU coordinates": [
                    7.4471466,
                    53.2298021
                ],
                "Distance": 267.61,
                "Frequency": 5.9,
                "RSSI": -99.03,
                "LOS": "False"
            }
        },
        {
            "type": "Feature",
            "geometry": {
                "type": "Point",
                "coordinates": [
                    7.44392364,
                    53.23012548
                ]
            },
            "properties": {
                "RSU coordinates": [
                    7.4471466,
                    53.2298021
                ],
                "Distance": 217.77,
                "Frequency": 5.9,
                "RSSI": -97.26,
                "LOS": "False"
            }
        },
        {
            "type": "Feature",
            "geometry": {
                "type": "Point",
                "coordinates": [
                    7.44589894,
                    53.23217356
                ]
            },
            "properties": {
                "RSU coordinates": [
                    7.4471466,
                    53.2298021
                ],
                "Distance": 276.78,
                "Frequency": 5.9,
                "RSSI": -99.31,
                "LOS": "False"
            }
        },
        {
            "type": "Feature",
            "geometry": {
                "type": "Point",
                "coordinates": [
                    7.44402761,
                    53.23001769
                ]
            },
            "properties": {
                "RSU coordinates": [
                    7.4471466,
                    53.2298021
                ],
                "Distance": 209.23,
                "Frequency": 5.9,
                "RSSI": -96.92,
                "LOS": "False"
            }
        },
        {
            "type": "Feature",
            "geometry": {
                "type": "Point",
                "coordinates": [
                    7.44423554,
                    53.23001769
                ]
            },
            "properties": {
                "RSU coordinates": [
                    7.4471466,
                    53.2298021
                ],
                "Distance": 195.47,
                "Frequency": 5.9,
                "RSSI": -96.33,
                "LOS": "False"
            }
        },
        {
            "type": "Feature",
            "geometry": {
                "type": "Point",
                "coordinates": [
                    7.44558705,
                    53.231419
                ]
            },
            "properties": {
                "RSU coordinates": [
                    7.4471466,
                    53.2298021
                ],
                "Distance": 207.85,
                "Frequency": 5.9,
                "RSSI": -96.86,
                "LOS": "False"
            }
        },
        {
            "type": "Feature",
            "geometry": {
                "type": "Point",
                "coordinates": [
                    7.44392368,
                    53.22947872
                ]
            },
            "properties": {
                "RSU coordinates": [
                    7.4471466,
                    53.2298021
                ],
                "Distance": 217.77,
                "Frequency": 5.9,
                "RSSI": -97.26,
                "LOS": "False"
            }
        },
        {
            "type": "Feature",
            "geometry": {
                "type": "Point",
                "coordinates": [
                    7.44402764,
                    53.22958651
                ]
            },
            "properties": {
                "RSU coordinates": [
                    7.4471466,
                    53.2298021
                ],
                "Distance": 209.23,
                "Frequency": 5.9,
                "RSSI": -81.92,
                "LOS": "False"
            }
        },
        {
            "type": "Feature",
            "geometry": {
                "type": "Point",
                "coordinates": [
                    7.44444348,
                    53.23001769
                ]
            },
            "properties": {
                "RSU coordinates": [
                    7.4471466,
                    53.2298021
                ],
                "Distance": 181.73,
                "Frequency": 5.9,
                "RSSI": -95.71,
                "LOS": "False"
            }
        },
        {
            "type": "Feature",
            "geometry": {
                "type": "Point",
                "coordinates": [
                    7.44569103,
                    53.23131121
                ]
            },
            "properties": {
                "RSU coordinates": [
                    7.4471466,
                    53.2298021
                ],
                "Distance": 193.99,
                "Frequency": 5.9,
                "RSSI": -96.27,
                "LOS": "False"
            }
        },
        {
            "type": "Feature",
            "geometry": {
                "type": "Point",
                "coordinates": [
                    7.44423557,
                    53.22958651
                ]
            },
            "properties": {
                "RSU coordinates": [
                    7.4471466,
                    53.2298021
                ],
                "Distance": 195.47,
                "Frequency": 5.9,
                "RSSI": -66.33,
                "LOS": "True"
            }
        },
        {
            "type": "Feature",
            "geometry": {
                "type": "Point",
                "coordinates": [
                    7.44465141,
                    53.23001769
                ]
            },
            "properties": {
                "RSU coordinates": [
                    7.4471466,
                    53.2298021
                ],
                "Distance": 168.0,
                "Frequency": 5.9,
                "RSSI": -95.03,
                "LOS": "False"
            }
        },
        {
            "type": "Feature",
            "geometry": {
                "type": "Point",
                "coordinates": [
                    7.445795,
                    53.23120342
                ]
            },
            "properties": {
                "RSU coordinates": [
                    7.4471466,
                    53.2298021
                ],
                "Distance": 180.13,
                "Frequency": 5.9,
                "RSSI": -95.63,
                "LOS": "False"
            }
        },
        {
            "type": "Feature",
            "geometry": {
                "type": "Point",
                "coordinates": [
                    7.4444435,
                    53.22958651
                ]
            },
            "properties": {
                "RSU coordinates": [
                    7.4471466,
                    53.2298021
                ],
                "Distance": 181.73,
                "Frequency": 5.9,
                "RSSI": -65.71,
                "LOS": "True"
            }
        },
        {
            "type": "Feature",
            "geometry": {
                "type": "Point",
                "coordinates": [
                    7.44589897,
                    53.23109562
                ]
            },
            "properties": {
                "RSU coordinates": [
                    7.4471466,
                    53.2298021
                ],
                "Distance": 166.28,
                "Frequency": 5.9,
                "RSSI": -94.94,
                "LOS": "False"
            }
        },
        {
            "type": "Feature",
            "geometry": {
                "type": "Point",
                "coordinates": [
                    7.44631484,
                    53.2315268
                ]
            },
            "properties": {
                "RSU coordinates": [
                    7.4471466,
                    53.2298021
                ],
                "Distance": 199.84,
                "Frequency": 5.9,
                "RSSI": -96.52,
                "LOS": "False"
            }
        },
        {
            "type": "Feature",
            "geometry": {
                "type": "Point",
                "coordinates": [
                    7.44465143,
                    53.22958651
                ]
            },
            "properties": {
                "RSU coordinates": [
                    7.4471466,
                    53.2298021
                ],
                "Distance": 168.0,
                "Frequency": 5.9,
                "RSSI": -65.03,
                "LOS": "True"
            }
        },
        {
            "type": "Feature",
            "geometry": {
                "type": "Point",
                "coordinates": [
                    7.44496331,
                    53.22990989
                ]
            },
            "properties": {
                "RSU coordinates": [
                    7.4471466,
                    53.2298021
                ],
                "Distance": 145.99,
                "Frequency": 5.9,
                "RSSI": -93.83,
                "LOS": "False"
            }
        },
        {
            "type": "Feature",
            "geometry": {
                "type": "Point",
                "coordinates": [
                    7.44506727,
                    53.23001769
                ]
            },
            "properties": {
                "RSU coordinates": [
                    7.4471466,
                    53.2298021
                ],
                "Distance": 140.63,
                "Frequency": 5.9,
                "RSSI": -93.50999999999999,
                "LOS": "False"
            }
        },
        {
            "type": "Feature",
            "geometry": {
                "type": "Point",
                "coordinates": [
                    7.44600294,
                    53.23098783
                ]
            },
            "properties": {
                "RSU coordinates": [
                    7.4471466,
                    53.2298021
                ],
                "Distance": 152.42,
                "Frequency": 5.9,
                "RSSI": -94.2,
                "LOS": "False"
            }
        },
        {
            "type": "Feature",
            "geometry": {
                "type": "Point",
                "coordinates": [
                    7.44610691,
                    53.23109562
                ]
            },
            "properties": {
                "RSU coordinates": [
                    7.4471466,
                    53.2298021
                ],
                "Distance": 159.8,
                "Frequency": 5.9,
                "RSSI": -94.6,
                "LOS": "False"
            }
        },
        {
            "type": "Feature",
            "geometry": {
                "type": "Point",
                "coordinates": [
                    7.44631484,
                    53.23131121
                ]
            },
            "properties": {
                "RSU coordinates": [
                    7.4471466,
                    53.2298021
                ],
                "Distance": 176.91,
                "Frequency": 5.9,
                "RSSI": -95.48,
                "LOS": "False"
            }
        },
        {
            "type": "Feature",
            "geometry": {
                "type": "Point",
                "coordinates": [
                    7.44485936,
                    53.22958651
                ]
            },
            "properties": {
                "RSU coordinates": [
                    7.4471466,
                    53.2298021
                ],
                "Distance": 154.3,
                "Frequency": 5.9,
                "RSSI": -64.3,
                "LOS": "True"
            }
        },
        {
            "type": "Feature",
            "geometry": {
                "type": "Point",
                "coordinates": [
                    7.44517124,
                    53.22990989
                ]
            },
            "properties": {
                "RSU coordinates": [
                    7.4471466,
                    53.2298021
                ],
                "Distance": 132.18,
                "Frequency": 5.9,
                "RSSI": -92.97999999999999,
                "LOS": "False"
            }
        },
        {
            "type": "Feature",
            "geometry": {
                "type": "Point",
                "coordinates": [
                    7.44610692,
                    53.23088004
                ]
            },
            "properties": {
                "RSU coordinates": [
                    7.4471466,
                    53.2298021
                ],
                "Distance": 138.56,
                "Frequency": 5.9,
                "RSSI": -93.38,
                "LOS": "False"
            }
        },
        {
            "type": "Feature",
            "geometry": {
                "type": "Point",
                "coordinates": [
                    7.44621088,
                    53.23098783
                ]
            },
            "properties": {
                "RSU coordinates": [
                    7.4471466,
                    53.2298021
                ],
                "Distance": 145.99,
                "Frequency": 5.9,
                "RSSI": -93.83,
                "LOS": "False"
            }
        },
        {
            "type": "Feature",
            "geometry": {
                "type": "Point",
                "coordinates": [
                    7.44631485,
                    53.23109562
                ]
            },
            "properties": {
                "RSU coordinates": [
                    7.4471466,
                    53.2298021
                ],
                "Distance": 154.3,
                "Frequency": 5.9,
                "RSSI": -94.3,
                "LOS": "False"
            }
        },
        {
            "type": "Feature",
            "geometry": {
                "type": "Point",
                "coordinates": [
                    7.44641882,
                    53.23120342
                ]
            },
            "properties": {
                "RSU coordinates": [
                    7.4471466,
                    53.2298021
                ],
                "Distance": 163.36,
                "Frequency": 5.9,
                "RSSI": -94.79,
                "LOS": "False"
            }
        },
        {
            "type": "Feature",
            "geometry": {
                "type": "Point",
                "coordinates": [
                    7.44506729,
                    53.22958651
                ]
            },
            "properties": {
                "RSU coordinates": [
                    7.4471466,
                    53.2298021
                ],
                "Distance": 140.63,
                "Frequency": 5.9,
                "RSSI": -63.51,
                "LOS": "True"
            }
        },
        {
            "type": "Feature",
            "geometry": {
                "type": "Point",
                "coordinates": [
                    7.44537918,
                    53.22990989
                ]
            },
            "properties": {
                "RSU coordinates": [
                    7.4471466,
                    53.2298021
                ],
                "Distance": 118.39,
                "Frequency": 5.9,
                "RSSI": -77.03,
                "LOS": "False"
            }
        },
        {
            "type": "Feature",
            "geometry": {
                "type": "Point",
                "coordinates": [
                    7.44631485,
                    53.23088004
                ]
            },
            "properties": {
                "RSU coordinates": [
                    7.4471466,
                    53.2298021
                ],
                "Distance": 132.18,
                "Frequency": 5.9,
                "RSSI": -92.97999999999999,
                "LOS": "False"
            }
        },
        {
            "type": "Feature",
            "geometry": {
                "type": "Point",
                "coordinates": [
                    7.44641882,
                    53.23098783
                ]
            },
            "properties": {
                "RSU coordinates": [
                    7.4471466,
                    53.2298021
                ],
                "Distance": 140.63,
                "Frequency": 5.9,
                "RSSI": -93.50999999999999,
                "LOS": "False"
            }
        },
        {
            "type": "Feature",
            "geometry": {
                "type": "Point",
                "coordinates": [
                    7.44652279,
                    53.23109562
                ]
            },
            "properties": {
                "RSU coordinates": [
                    7.4471466,
                    53.2298021
                ],
                "Distance": 149.88,
                "Frequency": 5.9,
                "RSSI": -94.05,
                "LOS": "False"
            }
        },
        {
            "type": "Feature",
            "geometry": {
                "type": "Point",
                "coordinates": [
                    7.44527522,
                    53.22958651
                ]
            },
            "properties": {
                "RSU coordinates": [
                    7.4471466,
                    53.2298021
                ],
                "Distance": 127.0,
                "Frequency": 5.9,
                "RSSI": -92.63,
                "LOS": "False"
            }
        },
        {
            "type": "Feature",
            "geometry": {
                "type": "Point",
                "coordinates": [
                    7.44558711,
                    53.22990989
                ]
            },
            "properties": {
                "RSU coordinates": [
                    7.4471466,
                    53.2298021
                ],
                "Distance": 104.61,
                "Frequency": 5.9,
                "RSSI": -75.97,
                "LOS": "False"
            }
        },
        {
            "type": "Feature",
            "geometry": {
                "type": "Point",
                "coordinates": [
                    7.44652279,
                    53.23088004
                ]
            },
            "properties": {
                "RSU coordinates": [
                    7.4471466,
                    53.2298021
                ],
                "Distance": 127.0,
                "Frequency": 5.9,
                "RSSI": -92.63,
                "LOS": "False"
            }
        },
        {
            "type": "Feature",
            "geometry": {
                "type": "Point",
                "coordinates": [
                    7.44693866,
                    53.23131121
                ]
            },
            "properties": {
                "RSU coordinates": [
                    7.4471466,
                    53.2298021
                ],
                "Distance": 168.57,
                "Frequency": 5.9,
                "RSSI": -95.06,
                "LOS": "False"
            }
        },
        {
            "type": "Feature",
            "geometry": {
                "type": "Point",
                "coordinates": [
                    7.44777043,
                    53.23217356
                ]
            },
            "properties": {
                "RSU coordinates": [
                    7.4471466,
                    53.2298021
                ],
                "Distance": 267.25,
                "Frequency": 5.9,
                "RSSI": -99.01,
                "LOS": "False"
            }
        },
        {
            "type": "Feature",
            "geometry": {
                "type": "Point",
                "coordinates": [
                    7.4478744,
                    53.23228135
                ]
            },
            "properties": {
                "RSU coordinates": [
                    7.4471466,
                    53.2298021
                ],
                "Distance": 280.23,
                "Frequency": 5.9,
                "RSSI": -99.42,
                "LOS": "False"
            }
        },
        {
            "type": "Feature",
            "geometry": {
                "type": "Point",
                "coordinates": [
                    7.44558712,
                    53.22969431
                ]
            },
            "properties": {
                "RSU coordinates": [
                    7.4471466,
                    53.2298021
                ],
                "Distance": 104.61,
                "Frequency": 5.9,
                "RSSI": -60.97,
                "LOS": "True"
            }
        },
        {
            "type": "Feature",
            "geometry": {
                "type": "Point",
                "coordinates": [
                    7.44631486,
                    53.23044886
                ]
            },
            "properties": {
                "RSU coordinates": [
                    7.4471466,
                    53.2298021
                ],
                "Distance": 90.86,
                "Frequency": 5.9,
                "RSSI": -89.75999999999999,
                "LOS": "False"
            }
        },
        {
            "type": "Feature",
            "geometry": {
                "type": "Point",
                "coordinates": [
                    7.44704263,
                    53.23120342
                ]
            },
            "properties": {
                "RSU coordinates": [
                    7.4471466,
                    53.2298021
                ],
                "Distance": 156.15,
                "Frequency": 5.9,
                "RSSI": -94.41,
                "LOS": "False"
            }
        },
        {
            "type": "Feature",
            "geometry": {
                "type": "Point",
                "coordinates": [
                    7.4471466,
                    53.23131121
                ]
            },
            "properties": {
                "RSU coordinates": [
                    7.4471466,
                    53.2298021
                ],
                "Distance": 168.0,
                "Frequency": 5.9,
                "RSSI": -95.03,
                "LOS": "False"
            }
        },
        {
            "type": "Feature",
            "geometry": {
                "type": "Point",
                "coordinates": [
                    7.44777043,
                    53.23195797
                ]
            },
            "properties": {
                "RSU coordinates": [
                    7.4471466,
                    53.2298021
                ],
                "Distance": 243.57,
                "Frequency": 5.9,
                "RSSI": -98.22,
                "LOS": "False"
            }
        },
        {
            "type": "Feature",
            "geometry": {
                "type": "Point",
                "coordinates": [
                    7.44579505,
                    53.22969431
                ]
            },
            "properties": {
                "RSU coordinates": [
                    7.4471466,
                    53.2298021
                ],
                "Distance": 90.86,
                "Frequency": 5.9,
                "RSSI": -59.76,
                "LOS": "True"
            }
        },
        {
            "type": "Feature",
            "geometry": {
                "type": "Point",
                "coordinates": [
                    7.44600297,
                    53.22990989
                ]
            },
            "properties": {
                "RSU coordinates": [
                    7.4471466,
                    53.2298021
                ],
                "Distance": 77.15,
                "Frequency": 5.9,
                "RSSI": -58.36,
                "LOS": "True"
            }
        },
        {
            "type": "Feature",
            "geometry": {
                "type": "Point",
                "coordinates": [
                    7.44641883,
                    53.23034107
                ]
            },
            "properties": {
                "RSU coordinates": [
                    7.4471466,
                    53.2298021
                ],
                "Distance": 77.15,
                "Frequency": 5.9,
                "RSSI": -88.36,
                "LOS": "False"
            }
        },
        {
            "type": "Feature",
            "geometry": {
                "type": "Point",
                "coordinates": [
                    7.44704263,
                    53.23098783
                ]
            },
            "properties": {
                "RSU coordinates": [
                    7.4471466,
                    53.2298021
                ],
                "Distance": 132.18,
                "Frequency": 5.9,
                "RSSI": -92.97999999999999,
                "LOS": "False"
            }
        },
        {
            "type": "Feature",
            "geometry": {
                "type": "Point",
                "coordinates": [
                    7.4471466,
                    53.23109562
                ]
            },
            "properties": {
                "RSU coordinates": [
                    7.4471466,
                    53.2298021
                ],
                "Distance": 144.0,
                "Frequency": 5.9,
                "RSSI": -93.71000000000001,
                "LOS": "False"
            }
        },
        {
            "type": "Feature",
            "geometry": {
                "type": "Point",
                "coordinates": [
                    7.44725057,
                    53.23120342
                ]
            },
            "properties": {
                "RSU coordinates": [
                    7.4471466,
                    53.2298021
                ],
                "Distance": 156.15,
                "Frequency": 5.9,
                "RSSI": -94.41,
                "LOS": "False"
            }
        },
        {
            "type": "Feature",
            "geometry": {
                "type": "Point",
                "coordinates": [
                    7.44766645,
                    53.23163459
                ]
            },
            "properties": {
                "RSU coordinates": [
                    7.4471466,
                    53.2298021
                ],
                "Distance": 206.92,
                "Frequency": 5.9,
                "RSSI": -96.82,
                "LOS": "False"
            }
        },
        {
            "type": "Feature",
            "geometry": {
                "type": "Point",
                "coordinates": [
                    7.44589902,
                    53.22958651
                ]
            },
            "properties": {
                "RSU coordinates": [
                    7.4471466,
                    53.2298021
                ],
                "Distance": 86.53,
                "Frequency": 5.9,
                "RSSI": -89.34,
                "LOS": "False"
            }
        },
        {
            "type": "Feature",
            "geometry": {
                "type": "Point",
                "coordinates": [
                    7.44600298,
                    53.22969431
                ]
            },
            "properties": {
                "RSU coordinates": [
                    7.4471466,
                    53.2298021
                ],
                "Distance": 77.15,
                "Frequency": 5.9,
                "RSSI": -58.36,
                "LOS": "True"
            }
        },
        {
            "type": "Feature",
            "geometry": {
                "type": "Point",
                "coordinates": [
                    7.44610694,
                    53.2298021
                ]
            },
            "properties": {
                "RSU coordinates": [
                    7.4471466,
                    53.2298021
                ],
                "Distance": 69.28,
                "Frequency": 5.9,
                "RSSI": -57.44,
                "LOS": "True"
            }
        },
        {
            "type": "Feature",
            "geometry": {
                "type": "Point",
                "coordinates": [
                    7.44621091,
                    53.22990989
                ]
            },
            "properties": {
                "RSU coordinates": [
                    7.4471466,
                    53.2298021
                ],
                "Distance": 63.5,
                "Frequency": 5.9,
                "RSSI": -56.69,
                "LOS": "True"
            }
        },
        {
            "type": "Feature",
            "geometry": {
                "type": "Point",
                "coordinates": [
                    7.44662676,
                    53.23034107
                ]
            },
            "properties": {
                "RSU coordinates": [
                    7.4471466,
                    53.2298021
                ],
                "Distance": 69.28,
                "Frequency": 5.9,
                "RSSI": -72.44,
                "LOS": "False"
            }
        },
        {
            "type": "Feature",
            "geometry": {
                "type": "Point",
                "coordinates": [
                    7.44704263,
                    53.23077224
                ]
            },
            "properties": {
                "RSU coordinates": [
                    7.4471466,
                    53.2298021
                ],
                "Distance": 108.22,
                "Frequency": 5.9,
                "RSSI": -91.25999999999999,
                "LOS": "False"
            }
        },
        {
            "type": "Feature",
            "geometry": {
                "type": "Point",
                "coordinates": [
                    7.4471466,
                    53.23088004
                ]
            },
            "properties": {
                "RSU coordinates": [
                    7.4471466,
                    53.2298021
                ],
                "Distance": 120.0,
                "Frequency": 5.9,
                "RSSI": -92.15,
                "LOS": "False"
            }
        },
        {
            "type": "Feature",
            "geometry": {
                "type": "Point",
                "coordinates": [
                    7.44725057,
                    53.23098783
                ]
            },
            "properties": {
                "RSU coordinates": [
                    7.4471466,
                    53.2298021
                ],
                "Distance": 132.18,
                "Frequency": 5.9,
                "RSSI": -92.97999999999999,
                "LOS": "False"
            }
        },
        {
            "type": "Feature",
            "geometry": {
                "type": "Point",
                "coordinates": [
                    7.44735454,
                    53.23109562
                ]
            },
            "properties": {
                "RSU coordinates": [
                    7.4471466,
                    53.2298021
                ],
                "Distance": 144.67,
                "Frequency": 5.9,
                "RSSI": -93.75,
                "LOS": "False"
            }
        },
        {
            "type": "Feature",
            "geometry": {
                "type": "Point",
                "coordinates": [
                    7.44745851,
                    53.23120342
                ]
            },
            "properties": {
                "RSU coordinates": [
                    7.4471466,
                    53.2298021
                ],
                "Distance": 157.38,
                "Frequency": 5.9,
                "RSSI": -94.47,
                "LOS": "False"
            }
        },
        {
            "type": "Feature",
            "geometry": {
                "type": "Point",
                "coordinates": [
                    7.44756248,
                    53.23131121
                ]
            },
            "properties": {
                "RSU coordinates": [
                    7.4471466,
                    53.2298021
                ],
                "Distance": 170.27,
                "Frequency": 5.9,
                "RSSI": -80.15,
                "LOS": "False"
            }
        },
        {
            "type": "Feature",
            "geometry": {
                "type": "Point",
                "coordinates": [
                    7.44621091,
                    53.22969431
                ]
            },
            "properties": {
                "RSU coordinates": [
                    7.4471466,
                    53.2298021
                ],
                "Distance": 63.5,
                "Frequency": 5.9,
                "RSSI": -71.69,
                "LOS": "False"
            }
        },
        {
            "type": "Feature",
            "geometry": {
                "type": "Point",
                "coordinates": [
                    7.44631487,
                    53.2298021
                ]
            },
            "properties": {
                "RSU coordinates": [
                    7.4471466,
                    53.2298021
                ],
                "Distance": 55.43,
                "Frequency": 5.9,
                "RSSI": -55.52,
                "LOS": "True"
            }
        },
        {
            "type": "Feature",
            "geometry": {
                "type": "Point",
                "coordinates": [
                    7.4465228,
                    53.23001769
                ]
            },
            "properties": {
                "RSU coordinates": [
                    7.4471466,
                    53.2298021
                ],
                "Distance": 48.0,
                "Frequency": 5.9,
                "RSSI": -99.28999999999999,
                "LOS": "False"
            }
        },
        {
            "type": "Feature",
            "geometry": {
                "type": "Point",
                "coordinates": [
                    7.44673073,
                    53.23023327
                ]
            },
            "properties": {
                "RSU coordinates": [
                    7.4471466,
                    53.2298021
                ],
                "Distance": 55.43,
                "Frequency": 5.9,
                "RSSI": -70.52000000000001,
                "LOS": "False"
            }
        },
        {
            "type": "Feature",
            "geometry": {
                "type": "Point",
                "coordinates": [
                    7.4468347,
                    53.23034107
                ]
            },
            "properties": {
                "RSU coordinates": [
                    7.4471466,
                    53.2298021
                ],
                "Distance": 63.5,
                "Frequency": 5.9,
                "RSSI": -71.69,
                "LOS": "False"
            }
        },
        {
            "type": "Feature",
            "geometry": {
                "type": "Point",
                "coordinates": [
                    7.44693867,
                    53.23044886
                ]
            },
            "properties": {
                "RSU coordinates": [
                    7.4471466,
                    53.2298021
                ],
                "Distance": 73.32,
                "Frequency": 5.9,
                "RSSI": -87.92,
                "LOS": "False"
            }
        },
        {
            "type": "Feature",
            "geometry": {
                "type": "Point",
                "coordinates": [
                    7.44704263,
                    53.23055666
                ]
            },
            "properties": {
                "RSU coordinates": [
                    7.4471466,
                    53.2298021
                ],
                "Distance": 84.29,
                "Frequency": 5.9,
                "RSSI": -89.12,
                "LOS": "False"
            }
        },
        {
            "type": "Feature",
            "geometry": {
                "type": "Point",
                "coordinates": [
                    7.4471466,
                    53.23066445
                ]
            },
            "properties": {
                "RSU coordinates": [
                    7.4471466,
                    53.2298021
                ],
                "Distance": 96.0,
                "Frequency": 5.9,
                "RSSI": -90.22999999999999,
                "LOS": "False"
            }
        },
        {
            "type": "Feature",
            "geometry": {
                "type": "Point",
                "coordinates": [
                    7.44725057,
                    53.23077224
                ]
            },
            "properties": {
                "RSU coordinates": [
                    7.4471466,
                    53.2298021
                ],
                "Distance": 108.22,
                "Frequency": 5.9,
                "RSSI": -91.25999999999999,
                "LOS": "False"
            }
        },
        {
            "type": "Feature",
            "geometry": {
                "type": "Point",
                "coordinates": [
                    7.44735454,
                    53.23088004
                ]
            },
            "properties": {
                "RSU coordinates": [
                    7.4471466,
                    53.2298021
                ],
                "Distance": 120.8,
                "Frequency": 5.9,
                "RSSI": -92.2,
                "LOS": "False"
            }
        },
        {
            "type": "Feature",
            "geometry": {
                "type": "Point",
                "coordinates": [
                    7.44745851,
                    53.23098783
                ]
            },
            "properties": {
                "RSU coordinates": [
                    7.4471466,
                    53.2298021
                ],
                "Distance": 133.63,
                "Frequency": 5.9,
                "RSSI": -78.07,
                "LOS": "False"
            }
        },
        {
            "type": "Feature",
            "geometry": {
                "type": "Point",
                "coordinates": [
                    7.44641884,
                    53.22969431
                ]
            },
            "properties": {
                "RSU coordinates": [
                    7.4471466,
                    53.2298021
                ],
                "Distance": 49.96,
                "Frequency": 5.9,
                "RSSI": -69.63,
                "LOS": "False"
            }
        },
        {
            "type": "Feature",
            "geometry": {
                "type": "Point",
                "coordinates": [
                    7.44652281,
                    53.2298021
                ]
            },
            "properties": {
                "RSU coordinates": [
                    7.4471466,
                    53.2298021
                ],
                "Distance": 41.57,
                "Frequency": 5.9,
                "RSSI": -53.06,
                "LOS": "True"
            }
        },
        {
            "type": "Feature",
            "geometry": {
                "type": "Point",
                "coordinates": [
                    7.44673073,
                    53.23001769
                ]
            },
            "properties": {
                "RSU coordinates": [
                    7.4471466,
                    53.2298021
                ],
                "Distance": 36.66,
                "Frequency": 5.9,
                "RSSI": -96.97999999999999,
                "LOS": "False"
            }
        },
        {
            "type": "Feature",
            "geometry": {
                "type": "Point",
                "coordinates": [
                    7.4468347,
                    53.23012548
                ]
            },
            "properties": {
                "RSU coordinates": [
                    7.4471466,
                    53.2298021
                ],
                "Distance": 41.57,
                "Frequency": 5.9,
                "RSSI": -68.06,
                "LOS": "False"
            }
        },
        {
            "type": "Feature",
            "geometry": {
                "type": "Point",
                "coordinates": [
                    7.44693867,
                    53.23023327
                ]
            },
            "properties": {
                "RSU coordinates": [
                    7.4471466,
                    53.2298021
                ],
                "Distance": 49.96,
                "Frequency": 5.9,
                "RSSI": -69.63,
                "LOS": "False"
            }
        },
        {
            "type": "Feature",
            "geometry": {
                "type": "Point",
                "coordinates": [
                    7.44704263,
                    53.23034107
                ]
            },
            "properties": {
                "RSU coordinates": [
                    7.4471466,
                    53.2298021
                ],
                "Distance": 60.4,
                "Frequency": 5.9,
                "RSSI": -86.25999999999999,
                "LOS": "False"
            }
        },
        {
            "type": "Feature",
            "geometry": {
                "type": "Point",
                "coordinates": [
                    7.4471466,
                    53.23044886
                ]
            },
            "properties": {
                "RSU coordinates": [
                    7.4471466,
                    53.2298021
                ],
                "Distance": 72.0,
                "Frequency": 5.9,
                "RSSI": -87.77000000000001,
                "LOS": "False"
            }
        },
        {
            "type": "Feature",
            "geometry": {
                "type": "Point",
                "coordinates": [
                    7.44725057,
                    53.23055666
                ]
            },
            "properties": {
                "RSU coordinates": [
                    7.4471466,
                    53.2298021
                ],
                "Distance": 84.29,
                "Frequency": 5.9,
                "RSSI": -89.12,
                "LOS": "False"
            }
        },
        {
            "type": "Feature",
            "geometry": {
                "type": "Point",
                "coordinates": [
                    7.44735454,
                    53.23066445
                ]
            },
            "properties": {
                "RSU coordinates": [
                    7.4471466,
                    53.2298021
                ],
                "Distance": 96.99,
                "Frequency": 5.9,
                "RSSI": -75.32,
                "LOS": "False"
            }
        },
        {
            "type": "Feature",
            "geometry": {
                "type": "Point",
                "coordinates": [
                    7.44621092,
                    53.22926313
                ]
            },
            "properties": {
                "RSU coordinates": [
                    7.4471466,
                    53.2298021
                ],
                "Distance": 86.53,
                "Frequency": 5.9,
                "RSSI": -89.34,
                "LOS": "False"
            }
        },
        {
            "type": "Feature",
            "geometry": {
                "type": "Point",
                "coordinates": [
                    7.44662677,
                    53.22969431
                ]
            },
            "properties": {
                "RSU coordinates": [
                    7.4471466,
                    53.2298021
                ],
                "Distance": 36.66,
                "Frequency": 5.9,
                "RSSI": -66.97999999999999,
                "LOS": "False"
            }
        },
        {
            "type": "Feature",
            "geometry": {
                "type": "Point",
                "coordinates": [
                    7.44673074,
                    53.2298021
                ]
            },
            "properties": {
                "RSU coordinates": [
                    7.4471466,
                    53.2298021
                ],
                "Distance": 27.71,
                "Frequency": 5.9,
                "RSSI": -49.58,
                "LOS": "True"
            }
        },
        {
            "type": "Feature",
            "geometry": {
                "type": "Point",
                "coordinates": [
                    7.4468347,
                    53.22990989
                ]
            },
            "properties": {
                "RSU coordinates": [
                    7.4471466,
                    53.2298021
                ],
                "Distance": 24.0,
                "Frequency": 5.9,
                "RSSI": -63.34,
                "LOS": "False"
            }
        },
        {
            "type": "Feature",
            "geometry": {
                "type": "Point",
                "coordinates": [
                    7.44693867,
                    53.23001769
                ]
            },
            "properties": {
                "RSU coordinates": [
                    7.4471466,
                    53.2298021
                ],
                "Distance": 27.71,
                "Frequency": 5.9,
                "RSSI": -64.58,
                "LOS": "False"
            }
        },
        {
            "type": "Feature",
            "geometry": {
                "type": "Point",
                "coordinates": [
                    7.44704263,
                    53.23012548
                ]
            },
            "properties": {
                "RSU coordinates": [
                    7.4471466,
                    53.2298021
                ],
                "Distance": 36.66,
                "Frequency": 5.9,
                "RSSI": -81.97999999999999,
                "LOS": "False"
            }
        },
        {
            "type": "Feature",
            "geometry": {
                "type": "Point",
                "coordinates": [
                    7.4471466,
                    53.23023327
                ]
            },
            "properties": {
                "RSU coordinates": [
                    7.4471466,
                    53.2298021
                ],
                "Distance": 48.0,
                "Frequency": 5.9,
                "RSSI": -84.28999999999999,
                "LOS": "False"
            }
        },
        {
            "type": "Feature",
            "geometry": {
                "type": "Point",
                "coordinates": [
                    7.44725057,
                    53.23034107
                ]
            },
            "properties": {
                "RSU coordinates": [
                    7.4471466,
                    53.2298021
                ],
                "Distance": 60.4,
                "Frequency": 5.9,
                "RSSI": -86.25999999999999,
                "LOS": "False"
            }
        },
        {
            "type": "Feature",
            "geometry": {
                "type": "Point",
                "coordinates": [
                    7.44631489,
                    53.22915534
                ]
            },
            "properties": {
                "RSU coordinates": [
                    7.4471466,
                    53.2298021
                ],
                "Distance": 90.86,
                "Frequency": 5.9,
                "RSSI": -89.75999999999999,
                "LOS": "False"
            }
        },
        {
            "type": "Feature",
            "geometry": {
                "type": "Point",
                "coordinates": [
                    7.44641885,
                    53.22926313
                ]
            },
            "properties": {
                "RSU coordinates": [
                    7.4471466,
                    53.2298021
                ],
                "Distance": 77.15,
                "Frequency": 5.9,
                "RSSI": -88.36,
                "LOS": "False"
            }
        },
        {
            "type": "Feature",
            "geometry": {
                "type": "Point",
                "coordinates": [
                    7.44652281,
                    53.22937093
                ]
            },
            "properties": {
                "RSU coordinates": [
                    7.4471466,
                    53.2298021
                ],
                "Distance": 63.5,
                "Frequency": 5.9,
                "RSSI": -86.69,
                "LOS": "False"
            }
        },
        {
            "type": "Feature",
            "geometry": {
                "type": "Point",
                "coordinates": [
                    7.44662677,
                    53.22947872
                ]
            },
            "properties": {
                "RSU coordinates": [
                    7.4471466,
                    53.2298021
                ],
                "Distance": 49.96,
                "Frequency": 5.9,
                "RSSI": -84.63,
                "LOS": "False"
            }
        },
        {
            "type": "Feature",
            "geometry": {
                "type": "Point",
                "coordinates": [
                    7.44673074,
                    53.22958651
                ]
            },
            "properties": {
                "RSU coordinates": [
                    7.4471466,
                    53.2298021
                ],
                "Distance": 36.66,
                "Frequency": 5.9,
                "RSSI": -96.97999999999999,
                "LOS": "False"
            }
        },
        {
            "type": "Feature",
            "geometry": {
                "type": "Point",
                "coordinates": [
                    7.4468347,
                    53.22969431
                ]
            },
            "properties": {
                "RSU coordinates": [
                    7.4471466,
                    53.2298021
                ],
                "Distance": 24.0,
                "Frequency": 5.9,
                "RSSI": -78.34,
                "LOS": "False"
            }
        },
        {
            "type": "Feature",
            "geometry": {
                "type": "Point",
                "coordinates": [
                    7.44693867,
                    53.2298021
                ]
            },
            "properties": {
                "RSU coordinates": [
                    7.4471466,
                    53.2298021
                ],
                "Distance": 13.86,
                "Frequency": 5.9,
                "RSSI": -43.63,
                "LOS": "True"
            }
        },
        {
            "type": "Feature",
            "geometry": {
                "type": "Point",
                "coordinates": [
                    7.44704263,
                    53.22990989
                ]
            },
            "properties": {
                "RSU coordinates": [
                    7.4471466,
                    53.2298021
                ],
                "Distance": 13.86,
                "Frequency": 5.9,
                "RSSI": -58.63,
                "LOS": "False"
            }
        },
        {
            "type": "Feature",
            "geometry": {
                "type": "Point",
                "coordinates": [
                    7.44725057,
                    53.23012548
                ]
            },
            "properties": {
                "RSU coordinates": [
                    7.4471466,
                    53.2298021
                ],
                "Distance": 36.66,
                "Frequency": 5.9,
                "RSSI": -81.97999999999999,
                "LOS": "False"
            }
        },
        {
            "type": "Feature",
            "geometry": {
                "type": "Point",
                "coordinates": [
                    7.44735453,
                    53.23023327
                ]
            },
            "properties": {
                "RSU coordinates": [
                    7.4471466,
                    53.2298021
                ],
                "Distance": 49.96,
                "Frequency": 5.9,
                "RSSI": -84.63,
                "LOS": "False"
            }
        },
        {
            "type": "Feature",
            "geometry": {
                "type": "Point",
                "coordinates": [
                    7.4474585,
                    53.23034107
                ]
            },
            "properties": {
                "RSU coordinates": [
                    7.4471466,
                    53.2298021
                ],
                "Distance": 63.5,
                "Frequency": 5.9,
                "RSSI": -86.69,
                "LOS": "False"
            }
        },
        {
            "type": "Feature",
            "geometry": {
                "type": "Point",
                "coordinates": [
                    7.44652281,
                    53.22915534
                ]
            },
            "properties": {
                "RSU coordinates": [
                    7.4471466,
                    53.2298021
                ],
                "Distance": 83.14,
                "Frequency": 5.9,
                "RSSI": -89.0,
                "LOS": "False"
            }
        },
        {
            "type": "Feature",
            "geometry": {
                "type": "Point",
                "coordinates": [
                    7.44662678,
                    53.22926313
                ]
            },
            "properties": {
                "RSU coordinates": [
                    7.4471466,
                    53.2298021
                ],
                "Distance": 69.28,
                "Frequency": 5.9,
                "RSSI": -87.44,
                "LOS": "False"
            }
        },
        {
            "type": "Feature",
            "geometry": {
                "type": "Point",
                "coordinates": [
                    7.44673074,
                    53.22937093
                ]
            },
            "properties": {
                "RSU coordinates": [
                    7.4471466,
                    53.2298021
                ],
                "Distance": 55.43,
                "Frequency": 5.9,
                "RSSI": -85.52000000000001,
                "LOS": "False"
            }
        },
        {
            "type": "Feature",
            "geometry": {
                "type": "Point",
                "coordinates": [
                    7.4468347,
                    53.22947872
                ]
            },
            "properties": {
                "RSU coordinates": [
                    7.4471466,
                    53.2298021
                ],
                "Distance": 41.57,
                "Frequency": 5.9,
                "RSSI": -83.06,
                "LOS": "False"
            }
        },
        {
            "type": "Feature",
            "geometry": {
                "type": "Point",
                "coordinates": [
                    7.44693867,
                    53.22958651
                ]
            },
            "properties": {
                "RSU coordinates": [
                    7.4471466,
                    53.2298021
                ],
                "Distance": 27.71,
                "Frequency": 5.9,
                "RSSI": -79.58,
                "LOS": "False"
            }
        },
        {
            "type": "Feature",
            "geometry": {
                "type": "Point",
                "coordinates": [
                    7.44735453,
                    53.23001769
                ]
            },
            "properties": {
                "RSU coordinates": [
                    7.4471466,
                    53.2298021
                ],
                "Distance": 27.71,
                "Frequency": 5.9,
                "RSSI": -79.58,
                "LOS": "False"
            }
        },
        {
            "type": "Feature",
            "geometry": {
                "type": "Point",
                "coordinates": [
                    7.4474585,
                    53.23012548
                ]
            },
            "properties": {
                "RSU coordinates": [
                    7.4471466,
                    53.2298021
                ],
                "Distance": 41.57,
                "Frequency": 5.9,
                "RSSI": -83.06,
                "LOS": "False"
            }
        },
        {
            "type": "Feature",
            "geometry": {
                "type": "Point",
                "coordinates": [
                    7.44756247,
                    53.23023327
                ]
            },
            "properties": {
                "RSU coordinates": [
                    7.4471466,
                    53.2298021
                ],
                "Distance": 55.43,
                "Frequency": 5.9,
                "RSSI": -85.52000000000001,
                "LOS": "False"
            }
        },
        {
            "type": "Feature",
            "geometry": {
                "type": "Point",
                "coordinates": [
                    7.44766644,
                    53.23034107
                ]
            },
            "properties": {
                "RSU coordinates": [
                    7.4471466,
                    53.2298021
                ],
                "Distance": 69.28,
                "Frequency": 5.9,
                "RSSI": -87.44,
                "LOS": "False"
            }
        },
        {
            "type": "Feature",
            "geometry": {
                "type": "Point",
                "coordinates": [
                    7.44693867,
                    53.22937093
                ]
            },
            "properties": {
                "RSU coordinates": [
                    7.4471466,
                    53.2298021
                ],
                "Distance": 49.96,
                "Frequency": 5.9,
                "RSSI": -84.63,
                "LOS": "False"
            }
        },
        {
            "type": "Feature",
            "geometry": {
                "type": "Point",
                "coordinates": [
                    7.44704263,
                    53.22947872
                ]
            },
            "properties": {
                "RSU coordinates": [
                    7.4471466,
                    53.2298021
                ],
                "Distance": 36.66,
                "Frequency": 5.9,
                "RSSI": -81.97999999999999,
                "LOS": "False"
            }
        },
        {
            "type": "Feature",
            "geometry": {
                "type": "Point",
                "coordinates": [
                    7.4471466,
                    53.22958651
                ]
            },
            "properties": {
                "RSU coordinates": [
                    7.4471466,
                    53.2298021
                ],
                "Distance": 24.0,
                "Frequency": 5.9,
                "RSSI": -63.34,
                "LOS": "False"
            }
        },
        {
            "type": "Feature",
            "geometry": {
                "type": "Point",
                "coordinates": [
                    7.44735453,
                    53.2298021
                ]
            },
            "properties": {
                "RSU coordinates": [
                    7.4471466,
                    53.2298021
                ],
                "Distance": 13.86,
                "Frequency": 5.9,
                "RSSI": -43.63,
                "LOS": "True"
            }
        },
        {
            "type": "Feature",
            "geometry": {
                "type": "Point",
                "coordinates": [
                    7.44756247,
                    53.23001769
                ]
            },
            "properties": {
                "RSU coordinates": [
                    7.4471466,
                    53.2298021
                ],
                "Distance": 36.66,
                "Frequency": 5.9,
                "RSSI": -66.97999999999999,
                "LOS": "False"
            }
        },
        {
            "type": "Feature",
            "geometry": {
                "type": "Point",
                "coordinates": [
                    7.44766643,
                    53.23012548
                ]
            },
            "properties": {
                "RSU coordinates": [
                    7.4471466,
                    53.2298021
                ],
                "Distance": 49.96,
                "Frequency": 5.9,
                "RSSI": -84.63,
                "LOS": "False"
            }
        },
        {
            "type": "Feature",
            "geometry": {
                "type": "Point",
                "coordinates": [
                    7.4477704,
                    53.23023327
                ]
            },
            "properties": {
                "RSU coordinates": [
                    7.4471466,
                    53.2298021
                ],
                "Distance": 63.5,
                "Frequency": 5.9,
                "RSSI": -86.69,
                "LOS": "False"
            }
        },
        {
            "type": "Feature",
            "geometry": {
                "type": "Point",
                "coordinates": [
                    7.4471466,
                    53.22937093
                ]
            },
            "properties": {
                "RSU coordinates": [
                    7.4471466,
                    53.2298021
                ],
                "Distance": 48.0,
                "Frequency": 5.9,
                "RSSI": -69.28999999999999,
                "LOS": "False"
            }
        },
        {
            "type": "Feature",
            "geometry": {
                "type": "Point",
                "coordinates": [
                    7.44725057,
                    53.22947872
                ]
            },
            "properties": {
                "RSU coordinates": [
                    7.4471466,
                    53.2298021
                ],
                "Distance": 36.66,
                "Frequency": 5.9,
                "RSSI": -66.97999999999999,
                "LOS": "False"
            }
        },
        {
            "type": "Feature",
            "geometry": {
                "type": "Point",
                "coordinates": [
                    7.44735453,
                    53.22958651
                ]
            },
            "properties": {
                "RSU coordinates": [
                    7.4471466,
                    53.2298021
                ],
                "Distance": 27.71,
                "Frequency": 5.9,
                "RSSI": -64.58,
                "LOS": "False"
            }
        },
        {
            "type": "Feature",
            "geometry": {
                "type": "Point",
                "coordinates": [
                    7.44756246,
                    53.2298021
                ]
            },
            "properties": {
                "RSU coordinates": [
                    7.4471466,
                    53.2298021
                ],
                "Distance": 27.71,
                "Frequency": 5.9,
                "RSSI": -49.58,
                "LOS": "True"
            }
        },
        {
            "type": "Feature",
            "geometry": {
                "type": "Point",
                "coordinates": [
                    7.4477704,
                    53.23001769
                ]
            },
            "properties": {
                "RSU coordinates": [
                    7.4471466,
                    53.2298021
                ],
                "Distance": 48.0,
                "Frequency": 5.9,
                "RSSI": -84.28999999999999,
                "LOS": "False"
            }
        },
        {
            "type": "Feature",
            "geometry": {
                "type": "Point",
                "coordinates": [
                    7.44787437,
                    53.23012548
                ]
            },
            "properties": {
                "RSU coordinates": [
                    7.4471466,
                    53.2298021
                ],
                "Distance": 60.4,
                "Frequency": 5.9,
                "RSSI": -86.25999999999999,
                "LOS": "False"
            }
        },
        {
            "type": "Feature",
            "geometry": {
                "type": "Point",
                "coordinates": [
                    7.44693867,
                    53.22893975
                ]
            },
            "properties": {
                "RSU coordinates": [
                    7.4471466,
                    53.2298021
                ],
                "Distance": 96.99,
                "Frequency": 5.9,
                "RSSI": -90.32,
                "LOS": "False"
            }
        },
        {
            "type": "Feature",
            "geometry": {
                "type": "Point",
                "coordinates": [
                    7.44704264,
                    53.22904754
                ]
            },
            "properties": {
                "RSU coordinates": [
                    7.4471466,
                    53.2298021
                ],
                "Distance": 84.29,
                "Frequency": 5.9,
                "RSSI": -89.12,
                "LOS": "False"
            }
        },
        {
            "type": "Feature",
            "geometry": {
                "type": "Point",
                "coordinates": [
                    7.4471466,
                    53.22915534
                ]
            },
            "properties": {
                "RSU coordinates": [
                    7.4471466,
                    53.2298021
                ],
                "Distance": 72.0,
                "Frequency": 5.9,
                "RSSI": -72.77000000000001,
                "LOS": "False"
            }
        },
        {
            "type": "Feature",
            "geometry": {
                "type": "Point",
                "coordinates": [
                    7.44725056,
                    53.22926313
                ]
            },
            "properties": {
                "RSU coordinates": [
                    7.4471466,
                    53.2298021
                ],
                "Distance": 60.4,
                "Frequency": 5.9,
                "RSSI": -71.25999999999999,
                "LOS": "False"
            }
        },
        {
            "type": "Feature",
            "geometry": {
                "type": "Point",
                "coordinates": [
                    7.44777039,
                    53.2298021
                ]
            },
            "properties": {
                "RSU coordinates": [
                    7.4471466,
                    53.2298021
                ],
                "Distance": 41.57,
                "Frequency": 5.9,
                "RSSI": -53.06,
                "LOS": "True"
            }
        },
        {
            "type": "Feature",
            "geometry": {
                "type": "Point",
                "coordinates": [
                    7.44787436,
                    53.22990989
                ]
            },
            "properties": {
                "RSU coordinates": [
                    7.4471466,
                    53.2298021
                ],
                "Distance": 49.96,
                "Frequency": 5.9,
                "RSSI": -99.63,
                "LOS": "False"
            }
        },
        {
            "type": "Feature",
            "geometry": {
                "type": "Point",
                "coordinates": [
                    7.44839421,
                    53.23044886
                ]
            },
            "properties": {
                "RSU coordinates": [
                    7.4471466,
                    53.2298021
                ],
                "Distance": 109.98,
                "Frequency": 5.9,
                "RSSI": -91.4,
                "LOS": "False"
            }
        },
        {
            "type": "Feature",
            "geometry": {
                "type": "Point",
                "coordinates": [
                    7.44693867,
                    53.22872416
                ]
            },
            "properties": {
                "RSU coordinates": [
                    7.4471466,
                    53.2298021
                ],
                "Distance": 120.8,
                "Frequency": 5.9,
                "RSSI": -92.2,
                "LOS": "False"
            }
        },
        {
            "type": "Feature",
            "geometry": {
                "type": "Point",
                "coordinates": [
                    7.44704264,
                    53.22883196
                ]
            },
            "properties": {
                "RSU coordinates": [
                    7.4471466,
                    53.2298021
                ],
                "Distance": 108.22,
                "Frequency": 5.9,
                "RSSI": -91.25999999999999,
                "LOS": "False"
            }
        },
        {
            "type": "Feature",
            "geometry": {
                "type": "Point",
                "coordinates": [
                    7.4471466,
                    53.22893975
                ]
            },
            "properties": {
                "RSU coordinates": [
                    7.4471466,
                    53.2298021
                ],
                "Distance": 96.0,
                "Frequency": 5.9,
                "RSSI": -75.22999999999999,
                "LOS": "False"
            }
        },
        {
            "type": "Feature",
            "geometry": {
                "type": "Point",
                "coordinates": [
                    7.44725056,
                    53.22904754
                ]
            },
            "properties": {
                "RSU coordinates": [
                    7.4471466,
                    53.2298021
                ],
                "Distance": 84.29,
                "Frequency": 5.9,
                "RSSI": -74.12,
                "LOS": "False"
            }
        },
        {
            "type": "Feature",
            "geometry": {
                "type": "Point",
                "coordinates": [
                    7.44797833,
                    53.2298021
                ]
            },
            "properties": {
                "RSU coordinates": [
                    7.4471466,
                    53.2298021
                ],
                "Distance": 55.43,
                "Frequency": 5.9,
                "RSSI": -55.52,
                "LOS": "True"
            }
        },
        {
            "type": "Feature",
            "geometry": {
                "type": "Point",
                "coordinates": [
                    7.44704264,
                    53.22861637
                ]
            },
            "properties": {
                "RSU coordinates": [
                    7.4471466,
                    53.2298021
                ],
                "Distance": 132.18,
                "Frequency": 5.9,
                "RSSI": -92.97999999999999,
                "LOS": "False"
            }
        },
        {
            "type": "Feature",
            "geometry": {
                "type": "Point",
                "coordinates": [
                    7.44725056,
                    53.22883196
                ]
            },
            "properties": {
                "RSU coordinates": [
                    7.4471466,
                    53.2298021
                ],
                "Distance": 108.22,
                "Frequency": 5.9,
                "RSSI": -76.25999999999999,
                "LOS": "False"
            }
        },
        {
            "type": "Feature",
            "geometry": {
                "type": "Point",
                "coordinates": [
                    7.44808229,
                    53.22969431
                ]
            },
            "properties": {
                "RSU coordinates": [
                    7.4471466,
                    53.2298021
                ],
                "Distance": 63.5,
                "Frequency": 5.9,
                "RSSI": -86.69,
                "LOS": "False"
            }
        },
        {
            "type": "Feature",
            "geometry": {
                "type": "Point",
                "coordinates": [
                    7.44818626,
                    53.2298021
                ]
            },
            "properties": {
                "RSU coordinates": [
                    7.4471466,
                    53.2298021
                ],
                "Distance": 69.28,
                "Frequency": 5.9,
                "RSSI": -57.44,
                "LOS": "True"
            }
        },
        {
            "type": "Feature",
            "geometry": {
                "type": "Point",
                "coordinates": [
                    7.44829023,
                    53.22990989
                ]
            },
            "properties": {
                "RSU coordinates": [
                    7.4471466,
                    53.2298021
                ],
                "Distance": 77.15,
                "Frequency": 5.9,
                "RSSI": -73.36,
                "LOS": "False"
            }
        },
        {
            "type": "Feature",
            "geometry": {
                "type": "Point",
                "coordinates": [
                    7.44829022,
                    53.22969431
                ]
            },
            "properties": {
                "RSU coordinates": [
                    7.4471466,
                    53.2298021
                ],
                "Distance": 77.15,
                "Frequency": 5.9,
                "RSSI": -73.36,
                "LOS": "False"
            }
        },
        {
            "type": "Feature",
            "geometry": {
                "type": "Point",
                "coordinates": [
                    7.44839419,
                    53.2298021
                ]
            },
            "properties": {
                "RSU coordinates": [
                    7.4471466,
                    53.2298021
                ],
                "Distance": 83.14,
                "Frequency": 5.9,
                "RSSI": -59.0,
                "LOS": "True"
            }
        },
        {
            "type": "Feature",
            "geometry": {
                "type": "Point",
                "coordinates": [
                    7.44849816,
                    53.22990989
                ]
            },
            "properties": {
                "RSU coordinates": [
                    7.4471466,
                    53.2298021
                ],
                "Distance": 90.86,
                "Frequency": 5.9,
                "RSSI": -59.76,
                "LOS": "True"
            }
        },
        {
            "type": "Feature",
            "geometry": {
                "type": "Point",
                "coordinates": [
                    7.44725056,
                    53.22840078
                ]
            },
            "properties": {
                "RSU coordinates": [
                    7.4471466,
                    53.2298021
                ],
                "Distance": 156.15,
                "Frequency": 5.9,
                "RSSI": -94.41,
                "LOS": "False"
            }
        },
        {
            "type": "Feature",
            "geometry": {
                "type": "Point",
                "coordinates": [
                    7.44849815,
                    53.22969431
                ]
            },
            "properties": {
                "RSU coordinates": [
                    7.4471466,
                    53.2298021
                ],
                "Distance": 90.86,
                "Frequency": 5.9,
                "RSSI": -74.75999999999999,
                "LOS": "False"
            }
        },
        {
            "type": "Feature",
            "geometry": {
                "type": "Point",
                "coordinates": [
                    7.44860212,
                    53.2298021
                ]
            },
            "properties": {
                "RSU coordinates": [
                    7.4471466,
                    53.2298021
                ],
                "Distance": 96.99,
                "Frequency": 5.9,
                "RSSI": -60.32,
                "LOS": "True"
            }
        },
        {
            "type": "Feature",
            "geometry": {
                "type": "Point",
                "coordinates": [
                    7.44870609,
                    53.22990989
                ]
            },
            "properties": {
                "RSU coordinates": [
                    7.4471466,
                    53.2298021
                ],
                "Distance": 104.61,
                "Frequency": 5.9,
                "RSSI": -60.97,
                "LOS": "True"
            }
        },
        {
            "type": "Feature",
            "geometry": {
                "type": "Point",
                "coordinates": [
                    7.44870608,
                    53.22969431
                ]
            },
            "properties": {
                "RSU coordinates": [
                    7.4471466,
                    53.2298021
                ],
                "Distance": 104.61,
                "Frequency": 5.9,
                "RSSI": -75.97,
                "LOS": "False"
            }
        },
        {
            "type": "Feature",
            "geometry": {
                "type": "Point",
                "coordinates": [
                    7.44881005,
                    53.2298021
                ]
            },
            "properties": {
                "RSU coordinates": [
                    7.4471466,
                    53.2298021
                ],
                "Distance": 110.85,
                "Frequency": 5.9,
                "RSSI": -61.47,
                "LOS": "True"
            }
        },
        {
            "type": "Feature",
            "geometry": {
                "type": "Point",
                "coordinates": [
                    7.44891402,
                    53.22990989
                ]
            },
            "properties": {
                "RSU coordinates": [
                    7.4471466,
                    53.2298021
                ],
                "Distance": 118.39,
                "Frequency": 5.9,
                "RSSI": -62.03,
                "LOS": "True"
            }
        },
        {
            "type": "Feature",
            "geometry": {
                "type": "Point",
                "coordinates": [
                    7.44881004,
                    53.22958651
                ]
            },
            "properties": {
                "RSU coordinates": [
                    7.4471466,
                    53.2298021
                ],
                "Distance": 113.42,
                "Frequency": 5.9,
                "RSSI": -91.66,
                "LOS": "False"
            }
        },
        {
            "type": "Feature",
            "geometry": {
                "type": "Point",
                "coordinates": [
                    7.44891401,
                    53.22969431
                ]
            },
            "properties": {
                "RSU coordinates": [
                    7.4471466,
                    53.2298021
                ],
                "Distance": 118.39,
                "Frequency": 5.9,
                "RSSI": -77.03,
                "LOS": "False"
            }
        },
        {
            "type": "Feature",
            "geometry": {
                "type": "Point",
                "coordinates": [
                    7.44901798,
                    53.2298021
                ]
            },
            "properties": {
                "RSU coordinates": [
                    7.4471466,
                    53.2298021
                ],
                "Distance": 124.71,
                "Frequency": 5.9,
                "RSSI": -62.48,
                "LOS": "True"
            }
        },
        {
            "type": "Feature",
            "geometry": {
                "type": "Point",
                "coordinates": [
                    7.44912196,
                    53.22990989
                ]
            },
            "properties": {
                "RSU coordinates": [
                    7.4471466,
                    53.2298021
                ],
                "Distance": 132.18,
                "Frequency": 5.9,
                "RSSI": -62.98,
                "LOS": "True"
            }
        },
        {
            "type": "Feature",
            "geometry": {
                "type": "Point",
                "coordinates": [
                    7.44901798,
                    53.22958651
                ]
            },
            "properties": {
                "RSU coordinates": [
                    7.4471466,
                    53.2298021
                ],
                "Distance": 127.0,
                "Frequency": 5.9,
                "RSSI": -92.63,
                "LOS": "False"
            }
        },
        {
            "type": "Feature",
            "geometry": {
                "type": "Point",
                "coordinates": [
                    7.44912195,
                    53.22969431
                ]
            },
            "properties": {
                "RSU coordinates": [
                    7.4471466,
                    53.2298021
                ],
                "Distance": 132.18,
                "Frequency": 5.9,
                "RSSI": -77.97999999999999,
                "LOS": "False"
            }
        },
        {
            "type": "Feature",
            "geometry": {
                "type": "Point",
                "coordinates": [
                    7.44922592,
                    53.2298021
                ]
            },
            "properties": {
                "RSU coordinates": [
                    7.4471466,
                    53.2298021
                ],
                "Distance": 138.56,
                "Frequency": 5.9,
                "RSSI": -63.38,
                "LOS": "True"
            }
        },
        {
            "type": "Feature",
            "geometry": {
                "type": "Point",
                "coordinates": [
                    7.44932989,
                    53.22990989
                ]
            },
            "properties": {
                "RSU coordinates": [
                    7.4471466,
                    53.2298021
                ],
                "Distance": 145.99,
                "Frequency": 5.9,
                "RSSI": -63.83,
                "LOS": "True"
            }
        },
        {
            "type": "Feature",
            "geometry": {
                "type": "Point",
                "coordinates": [
                    7.44943386,
                    53.23001769
                ]
            },
            "properties": {
                "RSU coordinates": [
                    7.4471466,
                    53.2298021
                ],
                "Distance": 154.3,
                "Frequency": 5.9,
                "RSSI": -94.3,
                "LOS": "False"
            }
        },
        {
            "type": "Feature",
            "geometry": {
                "type": "Point",
                "coordinates": [
                    7.44932988,
                    53.22969431
                ]
            },
            "properties": {
                "RSU coordinates": [
                    7.4471466,
                    53.2298021
                ],
                "Distance": 145.99,
                "Frequency": 5.9,
                "RSSI": -93.83,
                "LOS": "False"
            }
        },
        {
            "type": "Feature",
            "geometry": {
                "type": "Point",
                "coordinates": [
                    7.44943385,
                    53.2298021
                ]
            },
            "properties": {
                "RSU coordinates": [
                    7.4471466,
                    53.2298021
                ],
                "Distance": 152.42,
                "Frequency": 5.9,
                "RSSI": -64.2,
                "LOS": "True"
            }
        },
        {
            "type": "Feature",
            "geometry": {
                "type": "Point",
                "coordinates": [
                    7.44953782,
                    53.22990989
                ]
            },
            "properties": {
                "RSU coordinates": [
                    7.4471466,
                    53.2298021
                ],
                "Distance": 159.8,
                "Frequency": 5.9,
                "RSSI": -64.6,
                "LOS": "True"
            }
        },
        {
            "type": "Feature",
            "geometry": {
                "type": "Point",
                "coordinates": [
                    7.44943384,
                    53.22958651
                ]
            },
            "properties": {
                "RSU coordinates": [
                    7.4471466,
                    53.2298021
                ],
                "Distance": 154.3,
                "Frequency": 5.9,
                "RSSI": -94.3,
                "LOS": "False"
            }
        },
        {
            "type": "Feature",
            "geometry": {
                "type": "Point",
                "coordinates": [
                    7.44964178,
                    53.2298021
                ]
            },
            "properties": {
                "RSU coordinates": [
                    7.4471466,
                    53.2298021
                ],
                "Distance": 166.28,
                "Frequency": 5.9,
                "RSSI": -64.94,
                "LOS": "True"
            }
        },
        {
            "type": "Feature",
            "geometry": {
                "type": "Point",
                "coordinates": [
                    7.44974575,
                    53.22990989
                ]
            },
            "properties": {
                "RSU coordinates": [
                    7.4471466,
                    53.2298021
                ],
                "Distance": 173.62,
                "Frequency": 5.9,
                "RSSI": -65.32,
                "LOS": "True"
            }
        },
        {
            "type": "Feature",
            "geometry": {
                "type": "Point",
                "coordinates": [
                    7.44964177,
                    53.22958651
                ]
            },
            "properties": {
                "RSU coordinates": [
                    7.4471466,
                    53.2298021
                ],
                "Distance": 168.0,
                "Frequency": 5.9,
                "RSSI": -95.03,
                "LOS": "False"
            }
        },
        {
            "type": "Feature",
            "geometry": {
                "type": "Point",
                "coordinates": [
                    7.44984971,
                    53.2298021
                ]
            },
            "properties": {
                "RSU coordinates": [
                    7.4471466,
                    53.2298021
                ],
                "Distance": 180.13,
                "Frequency": 5.9,
                "RSSI": -65.63,
                "LOS": "True"
            }
        },
        {
            "type": "Feature",
            "geometry": {
                "type": "Point",
                "coordinates": [
                    7.44995368,
                    53.22990989
                ]
            },
            "properties": {
                "RSU coordinates": [
                    7.4471466,
                    53.2298021
                ],
                "Distance": 187.45,
                "Frequency": 5.9,
                "RSSI": -65.97,
                "LOS": "True"
            }
        },
        {
            "type": "Feature",
            "geometry": {
                "type": "Point",
                "coordinates": [
                    7.4498497,
                    53.22958651
                ]
            },
            "properties": {
                "RSU coordinates": [
                    7.4471466,
                    53.2298021
                ],
                "Distance": 181.73,
                "Frequency": 5.9,
                "RSSI": -95.71,
                "LOS": "False"
            }
        },
        {
            "type": "Feature",
            "geometry": {
                "type": "Point",
                "coordinates": [
                    7.45005764,
                    53.2298021
                ]
            },
            "properties": {
                "RSU coordinates": [
                    7.4471466,
                    53.2298021
                ],
                "Distance": 193.99,
                "Frequency": 5.9,
                "RSSI": -66.27,
                "LOS": "True"
            }
        },
        {
            "type": "Feature",
            "geometry": {
                "type": "Point",
                "coordinates": [
                    7.45016162,
                    53.22990989
                ]
            },
            "properties": {
                "RSU coordinates": [
                    7.4471466,
                    53.2298021
                ],
                "Distance": 201.28,
                "Frequency": 5.9,
                "RSSI": -66.58,
                "LOS": "True"
            }
        },
        {
            "type": "Feature",
            "geometry": {
                "type": "Point",
                "coordinates": [
                    7.45026557,
                    53.2298021
                ]
            },
            "properties": {
                "RSU coordinates": [
                    7.4471466,
                    53.2298021
                ],
                "Distance": 207.85,
                "Frequency": 5.9,
                "RSSI": -66.86,
                "LOS": "True"
            }
        },
        {
            "type": "Feature",
            "geometry": {
                "type": "Point",
                "coordinates": [
                    7.45036955,
                    53.22990989
                ]
            },
            "properties": {
                "RSU coordinates": [
                    7.4471466,
                    53.2298021
                ],
                "Distance": 215.11,
                "Frequency": 5.9,
                "RSSI": -67.15,
                "LOS": "True"
            }
        },
        {
            "type": "Feature",
            "geometry": {
                "type": "Point",
                "coordinates": [
                    7.45047351,
                    53.2298021
                ]
            },
            "properties": {
                "RSU coordinates": [
                    7.4471466,
                    53.2298021
                ],
                "Distance": 221.7,
                "Frequency": 5.9,
                "RSSI": -67.41,
                "LOS": "True"
            }
        },
        {
            "type": "Feature",
            "geometry": {
                "type": "Point",
                "coordinates": [
                    7.45057748,
                    53.22990989
                ]
            },
            "properties": {
                "RSU coordinates": [
                    7.4471466,
                    53.2298021
                ],
                "Distance": 228.95,
                "Frequency": 5.9,
                "RSSI": -67.69,
                "LOS": "True"
            }
        },
        {
            "type": "Feature",
            "geometry": {
                "type": "Point",
                "coordinates": [
                    7.45068146,
                    53.23001769
                ]
            },
            "properties": {
                "RSU coordinates": [
                    7.4471466,
                    53.2298021
                ],
                "Distance": 236.78,
                "Frequency": 5.9,
                "RSSI": -82.98,
                "LOS": "False"
            }
        },
        {
            "type": "Feature",
            "geometry": {
                "type": "Point",
                "coordinates": [
                    7.45068144,
                    53.2298021
                ]
            },
            "properties": {
                "RSU coordinates": [
                    7.4471466,
                    53.2298021
                ],
                "Distance": 235.56,
                "Frequency": 5.9,
                "RSSI": -67.93,
                "LOS": "True"
            }
        },
        {
            "type": "Feature",
            "geometry": {
                "type": "Point",
                "coordinates": [
                    7.45078541,
                    53.22990989
                ]
            },
            "properties": {
                "RSU coordinates": [
                    7.4471466,
                    53.2298021
                ],
                "Distance": 242.78,
                "Frequency": 5.9,
                "RSSI": -68.19,
                "LOS": "True"
            }
        },
        {
            "type": "Feature",
            "geometry": {
                "type": "Point",
                "coordinates": [
                    7.45088939,
                    53.23001769
                ]
            },
            "properties": {
                "RSU coordinates": [
                    7.4471466,
                    53.2298021
                ],
                "Distance": 250.57,
                "Frequency": 5.9,
                "RSSI": -83.46,
                "LOS": "False"
            }
        },
        {
            "type": "Feature",
            "geometry": {
                "type": "Point",
                "coordinates": [
                    7.45099336,
                    53.23012548
                ]
            },
            "properties": {
                "RSU coordinates": [
                    7.4471466,
                    53.2298021
                ],
                "Distance": 258.86,
                "Frequency": 5.9,
                "RSSI": -83.74,
                "LOS": "False"
            }
        },
        {
            "type": "Feature",
            "geometry": {
                "type": "Point",
                "coordinates": [
                    7.45088937,
                    53.2298021
                ]
            },
            "properties": {
                "RSU coordinates": [
                    7.4471466,
                    53.2298021
                ],
                "Distance": 249.42,
                "Frequency": 5.9,
                "RSSI": -68.42,
                "LOS": "True"
            }
        },
        {
            "type": "Feature",
            "geometry": {
                "type": "Point",
                "coordinates": [
                    7.45099334,
                    53.22990989
                ]
            },
            "properties": {
                "RSU coordinates": [
                    7.4471466,
                    53.2298021
                ],
                "Distance": 256.62,
                "Frequency": 5.9,
                "RSSI": -68.67,
                "LOS": "True"
            }
        },
        {
            "type": "Feature",
            "geometry": {
                "type": "Point",
                "coordinates": [
                    7.45109732,
                    53.23001769
                ]
            },
            "properties": {
                "RSU coordinates": [
                    7.4471466,
                    53.2298021
                ],
                "Distance": 264.36,
                "Frequency": 5.9,
                "RSSI": -83.92,
                "LOS": "False"
            }
        }
    ]
}