{
    "type": "FeatureCollection",
    "features": [
        {
            "type": "Feature",
            "geometry": {
                "type": "Point",
                "coordinates": [
                    8.34268054,
                    49.91746204
                ]
            },
            "properties": {
                "RSU coordinates": [
                    8.3429705,
                    49.9164919
                ],
                "Distance": 109.98,
                "Frequency": 5.9,
                "RSSI": -91.4,
                "LOS": "False"
            }
        },
        {
            "type": "Feature",
            "geometry": {
                "type": "Point",
                "coordinates": [
                    8.34248723,
                    49.91703087
                ]
            },
            "properties": {
                "RSU coordinates": [
                    8.3429705,
                    49.9164919
                ],
                "Distance": 69.28,
                "Frequency": 5.9,
                "RSSI": -87.44,
                "LOS": "False"
            }
        },
        {
            "type": "Feature",
            "geometry": {
                "type": "Point",
                "coordinates": [
                    8.34268054,
                    49.91724646
                ]
            },
            "properties": {
                "RSU coordinates": [
                    8.3429705,
                    49.9164919
                ],
                "Distance": 86.53,
                "Frequency": 5.9,
                "RSSI": -74.34,
                "LOS": "False"
            }
        },
        {
            "type": "Feature",
            "geometry": {
                "type": "Point",
                "coordinates": [
                    8.34277719,
                    49.91735425
                ]
            },
            "properties": {
                "RSU coordinates": [
                    8.3429705,
                    49.9164919
                ],
                "Distance": 96.99,
                "Frequency": 5.9,
                "RSSI": -75.32,
                "LOS": "False"
            }
        },
        {
            "type": "Feature",
            "geometry": {
                "type": "Point",
                "coordinates": [
                    8.34248724,
                    49.91681528
                ]
            },
            "properties": {
                "RSU coordinates": [
                    8.3429705,
                    49.9164919
                ],
                "Distance": 49.96,
                "Frequency": 5.9,
                "RSSI": -99.63,
                "LOS": "False"
            }
        },
        {
            "type": "Feature",
            "geometry": {
                "type": "Point",
                "coordinates": [
                    8.34268054,
                    49.91703087
                ]
            },
            "properties": {
                "RSU coordinates": [
                    8.3429705,
                    49.9164919
                ],
                "Distance": 63.5,
                "Frequency": 5.9,
                "RSSI": -86.69,
                "LOS": "False"
            }
        },
        {
            "type": "Feature",
            "geometry": {
                "type": "Point",
                "coordinates": [
                    8.34277719,
                    49.91713866
                ]
            },
            "properties": {
                "RSU coordinates": [
                    8.3429705,
                    49.9164919
                ],
                "Distance": 73.32,
                "Frequency": 5.9,
                "RSSI": -72.92,
                "LOS": "False"
            }
        },
        {
            "type": "Feature",
            "geometry": {
                "type": "Point",
                "coordinates": [
                    8.34287385,
                    49.91724646
                ]
            },
            "properties": {
                "RSU coordinates": [
                    8.3429705,
                    49.9164919
                ],
                "Distance": 84.29,
                "Frequency": 5.9,
                "RSSI": -74.12,
                "LOS": "False"
            }
        },
        {
            "type": "Feature",
            "geometry": {
                "type": "Point",
                "coordinates": [
                    8.3429705,
                    49.91735425
                ]
            },
            "properties": {
                "RSU coordinates": [
                    8.3429705,
                    49.9164919
                ],
                "Distance": 96.0,
                "Frequency": 5.9,
                "RSSI": -90.22999999999999,
                "LOS": "False"
            }
        },
        {
            "type": "Feature",
            "geometry": {
                "type": "Point",
                "coordinates": [
                    8.34248724,
                    49.91659969
                ]
            },
            "properties": {
                "RSU coordinates": [
                    8.3429705,
                    49.9164919
                ],
                "Distance": 36.66,
                "Frequency": 5.9,
                "RSSI": -81.97999999999999,
                "LOS": "False"
            }
        },
        {
            "type": "Feature",
            "geometry": {
                "type": "Point",
                "coordinates": [
                    8.34258389,
                    49.91670749
                ]
            },
            "properties": {
                "RSU coordinates": [
                    8.3429705,
                    49.9164919
                ],
                "Distance": 36.66,
                "Frequency": 5.9,
                "RSSI": -96.97999999999999,
                "LOS": "False"
            }
        },
        {
            "type": "Feature",
            "geometry": {
                "type": "Point",
                "coordinates": [
                    8.34268054,
                    49.91681528
                ]
            },
            "properties": {
                "RSU coordinates": [
                    8.3429705,
                    49.9164919
                ],
                "Distance": 41.57,
                "Frequency": 5.9,
                "RSSI": -68.06,
                "LOS": "False"
            }
        },
        {
            "type": "Feature",
            "geometry": {
                "type": "Point",
                "coordinates": [
                    8.34287385,
                    49.91703087
                ]
            },
            "properties": {
                "RSU coordinates": [
                    8.3429705,
                    49.9164919
                ],
                "Distance": 60.4,
                "Frequency": 5.9,
                "RSSI": -71.25999999999999,
                "LOS": "False"
            }
        },
        {
            "type": "Feature",
            "geometry": {
                "type": "Point",
                "coordinates": [
                    8.3429705,
                    49.91713866
                ]
            },
            "properties": {
                "RSU coordinates": [
                    8.3429705,
                    49.9164919
                ],
                "Distance": 72.0,
                "Frequency": 5.9,
                "RSSI": -87.77000000000001,
                "LOS": "False"
            }
        },
        {
            "type": "Feature",
            "geometry": {
                "type": "Point",
                "coordinates": [
                    8.34239059,
                    49.91627631
                ]
            },
            "properties": {
                "RSU coordinates": [
                    8.3429705,
                    49.9164919
                ],
                "Distance": 48.0,
                "Frequency": 5.9,
                "RSSI": -99.28999999999999,
                "LOS": "False"
            }
        },
        {
            "type": "Feature",
            "geometry": {
                "type": "Point",
                "coordinates": [
                    8.34248724,
                    49.91638411
                ]
            },
            "properties": {
                "RSU coordinates": [
                    8.3429705,
                    49.9164919
                ],
                "Distance": 36.66,
                "Frequency": 5.9,
                "RSSI": -81.97999999999999,
                "LOS": "False"
            }
        },
        {
            "type": "Feature",
            "geometry": {
                "type": "Point",
                "coordinates": [
                    8.34258389,
                    49.9164919
                ]
            },
            "properties": {
                "RSU coordinates": [
                    8.3429705,
                    49.9164919
                ],
                "Distance": 27.71,
                "Frequency": 5.9,
                "RSSI": -79.58,
                "LOS": "False"
            }
        },
        {
            "type": "Feature",
            "geometry": {
                "type": "Point",
                "coordinates": [
                    8.34277719,
                    49.91670749
                ]
            },
            "properties": {
                "RSU coordinates": [
                    8.3429705,
                    49.9164919
                ],
                "Distance": 27.71,
                "Frequency": 5.9,
                "RSSI": -64.58,
                "LOS": "False"
            }
        },
        {
            "type": "Feature",
            "geometry": {
                "type": "Point",
                "coordinates": [
                    8.34306715,
                    49.91703087
                ]
            },
            "properties": {
                "RSU coordinates": [
                    8.3429705,
                    49.9164919
                ],
                "Distance": 60.4,
                "Frequency": 5.9,
                "RSSI": -86.25999999999999,
                "LOS": "False"
            }
        },
        {
            "type": "Feature",
            "geometry": {
                "type": "Point",
                "coordinates": [
                    8.34210064,
                    49.91573734
                ]
            },
            "properties": {
                "RSU coordinates": [
                    8.3429705,
                    49.9164919
                ],
                "Distance": 104.61,
                "Frequency": 5.9,
                "RSSI": -90.97,
                "LOS": "False"
            }
        },
        {
            "type": "Feature",
            "geometry": {
                "type": "Point",
                "coordinates": [
                    8.34219729,
                    49.91584514
                ]
            },
            "properties": {
                "RSU coordinates": [
                    8.3429705,
                    49.9164919
                ],
                "Distance": 90.86,
                "Frequency": 5.9,
                "RSSI": -74.75999999999999,
                "LOS": "False"
            }
        },
        {
            "type": "Feature",
            "geometry": {
                "type": "Point",
                "coordinates": [
                    8.34229394,
                    49.91595293
                ]
            },
            "properties": {
                "RSU coordinates": [
                    8.3429705,
                    49.9164919
                ],
                "Distance": 77.15,
                "Frequency": 5.9,
                "RSSI": -58.36,
                "LOS": "True"
            }
        },
        {
            "type": "Feature",
            "geometry": {
                "type": "Point",
                "coordinates": [
                    8.34239059,
                    49.91606073
                ]
            },
            "properties": {
                "RSU coordinates": [
                    8.3429705,
                    49.9164919
                ],
                "Distance": 63.5,
                "Frequency": 5.9,
                "RSSI": -71.69,
                "LOS": "False"
            }
        },
        {
            "type": "Feature",
            "geometry": {
                "type": "Point",
                "coordinates": [
                    8.34287385,
                    49.91659969
                ]
            },
            "properties": {
                "RSU coordinates": [
                    8.3429705,
                    49.9164919
                ],
                "Distance": 13.86,
                "Frequency": 5.9,
                "RSSI": -43.63,
                "LOS": "True"
            }
        },
        {
            "type": "Feature",
            "geometry": {
                "type": "Point",
                "coordinates": [
                    8.3429705,
                    49.91670749
                ]
            },
            "properties": {
                "RSU coordinates": [
                    8.3429705,
                    49.9164919
                ],
                "Distance": 24.0,
                "Frequency": 5.9,
                "RSSI": -48.34,
                "LOS": "True"
            }
        },
        {
            "type": "Feature",
            "geometry": {
                "type": "Point",
                "coordinates": [
                    8.34268055,
                    49.91616852
                ]
            },
            "properties": {
                "RSU coordinates": [
                    8.3429705,
                    49.9164919
                ],
                "Distance": 41.57,
                "Frequency": 5.9,
                "RSSI": -68.06,
                "LOS": "False"
            }
        },
        {
            "type": "Feature",
            "geometry": {
                "type": "Point",
                "coordinates": [
                    8.34287385,
                    49.91638411
                ]
            },
            "properties": {
                "RSU coordinates": [
                    8.3429705,
                    49.9164919
                ],
                "Distance": 13.86,
                "Frequency": 5.9,
                "RSSI": -43.63,
                "LOS": "True"
            }
        },
        {
            "type": "Feature",
            "geometry": {
                "type": "Point",
                "coordinates": [
                    8.3427772,
                    49.91606073
                ]
            },
            "properties": {
                "RSU coordinates": [
                    8.3429705,
                    49.9164919
                ],
                "Distance": 49.96,
                "Frequency": 5.9,
                "RSSI": -99.63,
                "LOS": "False"
            }
        },
        {
            "type": "Feature",
            "geometry": {
                "type": "Point",
                "coordinates": [
                    8.34306715,
                    49.91638411
                ]
            },
            "properties": {
                "RSU coordinates": [
                    8.3429705,
                    49.9164919
                ],
                "Distance": 13.86,
                "Frequency": 5.9,
                "RSSI": -43.63,
                "LOS": "True"
            }
        },
        {
            "type": "Feature",
            "geometry": {
                "type": "Point",
                "coordinates": [
                    8.3431638,
                    49.9164919
                ]
            },
            "properties": {
                "RSU coordinates": [
                    8.3429705,
                    49.9164919
                ],
                "Distance": 13.86,
                "Frequency": 5.9,
                "RSSI": -43.63,
                "LOS": "True"
            }
        },
        {
            "type": "Feature",
            "geometry": {
                "type": "Point",
                "coordinates": [
                    8.34326046,
                    49.91659969
                ]
            },
            "properties": {
                "RSU coordinates": [
                    8.3429705,
                    49.9164919
                ],
                "Distance": 24.0,
                "Frequency": 5.9,
                "RSSI": -63.34,
                "LOS": "False"
            }
        },
        {
            "type": "Feature",
            "geometry": {
                "type": "Point",
                "coordinates": [
                    8.34335711,
                    49.91670749
                ]
            },
            "properties": {
                "RSU coordinates": [
                    8.3429705,
                    49.9164919
                ],
                "Distance": 36.66,
                "Frequency": 5.9,
                "RSSI": -66.97999999999999,
                "LOS": "False"
            }
        },
        {
            "type": "Feature",
            "geometry": {
                "type": "Point",
                "coordinates": [
                    8.34306715,
                    49.91616852
                ]
            },
            "properties": {
                "RSU coordinates": [
                    8.3429705,
                    49.9164919
                ],
                "Distance": 36.66,
                "Frequency": 5.9,
                "RSSI": -81.97999999999999,
                "LOS": "False"
            }
        },
        {
            "type": "Feature",
            "geometry": {
                "type": "Point",
                "coordinates": [
                    8.3431638,
                    49.91627631
                ]
            },
            "properties": {
                "RSU coordinates": [
                    8.3429705,
                    49.9164919
                ],
                "Distance": 27.71,
                "Frequency": 5.9,
                "RSSI": -49.58,
                "LOS": "True"
            }
        },
        {
            "type": "Feature",
            "geometry": {
                "type": "Point",
                "coordinates": [
                    8.34335711,
                    49.9164919
                ]
            },
            "properties": {
                "RSU coordinates": [
                    8.3429705,
                    49.9164919
                ],
                "Distance": 27.71,
                "Frequency": 5.9,
                "RSSI": -49.58,
                "LOS": "True"
            }
        },
        {
            "type": "Feature",
            "geometry": {
                "type": "Point",
                "coordinates": [
                    8.34345376,
                    49.91659969
                ]
            },
            "properties": {
                "RSU coordinates": [
                    8.3429705,
                    49.9164919
                ],
                "Distance": 36.66,
                "Frequency": 5.9,
                "RSSI": -51.98,
                "LOS": "True"
            }
        },
        {
            "type": "Feature",
            "geometry": {
                "type": "Point",
                "coordinates": [
                    8.34355042,
                    49.91670749
                ]
            },
            "properties": {
                "RSU coordinates": [
                    8.3429705,
                    49.9164919
                ],
                "Distance": 48.0,
                "Frequency": 5.9,
                "RSSI": -84.28999999999999,
                "LOS": "False"
            }
        },
        {
            "type": "Feature",
            "geometry": {
                "type": "Point",
                "coordinates": [
                    8.3431638,
                    49.91606073
                ]
            },
            "properties": {
                "RSU coordinates": [
                    8.3429705,
                    49.9164919
                ],
                "Distance": 49.96,
                "Frequency": 5.9,
                "RSSI": -54.63,
                "LOS": "True"
            }
        },
        {
            "type": "Feature",
            "geometry": {
                "type": "Point",
                "coordinates": [
                    8.34335711,
                    49.91627631
                ]
            },
            "properties": {
                "RSU coordinates": [
                    8.3429705,
                    49.9164919
                ],
                "Distance": 36.66,
                "Frequency": 5.9,
                "RSSI": -81.97999999999999,
                "LOS": "False"
            }
        },
        {
            "type": "Feature",
            "geometry": {
                "type": "Point",
                "coordinates": [
                    8.34345376,
                    49.91638411
                ]
            },
            "properties": {
                "RSU coordinates": [
                    8.3429705,
                    49.9164919
                ],
                "Distance": 36.66,
                "Frequency": 5.9,
                "RSSI": -81.97999999999999,
                "LOS": "False"
            }
        },
        {
            "type": "Feature",
            "geometry": {
                "type": "Point",
                "coordinates": [
                    8.34355041,
                    49.9164919
                ]
            },
            "properties": {
                "RSU coordinates": [
                    8.3429705,
                    49.9164919
                ],
                "Distance": 41.57,
                "Frequency": 5.9,
                "RSSI": -53.06,
                "LOS": "True"
            }
        },
        {
            "type": "Feature",
            "geometry": {
                "type": "Point",
                "coordinates": [
                    8.34364707,
                    49.91659969
                ]
            },
            "properties": {
                "RSU coordinates": [
                    8.3429705,
                    49.9164919
                ],
                "Distance": 49.96,
                "Frequency": 5.9,
                "RSSI": -54.63,
                "LOS": "True"
            }
        },
        {
            "type": "Feature",
            "geometry": {
                "type": "Point",
                "coordinates": [
                    8.34374372,
                    49.91670749
                ]
            },
            "properties": {
                "RSU coordinates": [
                    8.3429705,
                    49.9164919
                ],
                "Distance": 60.4,
                "Frequency": 5.9,
                "RSSI": -71.25999999999999,
                "LOS": "False"
            }
        },
        {
            "type": "Feature",
            "geometry": {
                "type": "Point",
                "coordinates": [
                    8.34326045,
                    49.91595293
                ]
            },
            "properties": {
                "RSU coordinates": [
                    8.3429705,
                    49.9164919
                ],
                "Distance": 63.5,
                "Frequency": 5.9,
                "RSSI": -56.69,
                "LOS": "True"
            }
        },
        {
            "type": "Feature",
            "geometry": {
                "type": "Point",
                "coordinates": [
                    8.34345376,
                    49.91616852
                ]
            },
            "properties": {
                "RSU coordinates": [
                    8.3429705,
                    49.9164919
                ],
                "Distance": 49.96,
                "Frequency": 5.9,
                "RSSI": -84.63,
                "LOS": "False"
            }
        },
        {
            "type": "Feature",
            "geometry": {
                "type": "Point",
                "coordinates": [
                    8.34364706,
                    49.91638411
                ]
            },
            "properties": {
                "RSU coordinates": [
                    8.3429705,
                    49.9164919
                ],
                "Distance": 49.96,
                "Frequency": 5.9,
                "RSSI": -84.63,
                "LOS": "False"
            }
        },
        {
            "type": "Feature",
            "geometry": {
                "type": "Point",
                "coordinates": [
                    8.34374372,
                    49.9164919
                ]
            },
            "properties": {
                "RSU coordinates": [
                    8.3429705,
                    49.9164919
                ],
                "Distance": 55.43,
                "Frequency": 5.9,
                "RSSI": -55.52,
                "LOS": "True"
            }
        },
        {
            "type": "Feature",
            "geometry": {
                "type": "Point",
                "coordinates": [
                    8.34384037,
                    49.91659969
                ]
            },
            "properties": {
                "RSU coordinates": [
                    8.3429705,
                    49.9164919
                ],
                "Distance": 63.5,
                "Frequency": 5.9,
                "RSSI": -56.69,
                "LOS": "True"
            }
        },
        {
            "type": "Feature",
            "geometry": {
                "type": "Point",
                "coordinates": [
                    8.34393703,
                    49.91670749
                ]
            },
            "properties": {
                "RSU coordinates": [
                    8.3429705,
                    49.9164919
                ],
                "Distance": 73.32,
                "Frequency": 5.9,
                "RSSI": -57.92,
                "LOS": "True"
            }
        },
        {
            "type": "Feature",
            "geometry": {
                "type": "Point",
                "coordinates": [
                    8.3433571,
                    49.91584514
                ]
            },
            "properties": {
                "RSU coordinates": [
                    8.3429705,
                    49.9164919
                ],
                "Distance": 77.15,
                "Frequency": 5.9,
                "RSSI": -58.36,
                "LOS": "True"
            }
        },
        {
            "type": "Feature",
            "geometry": {
                "type": "Point",
                "coordinates": [
                    8.34345376,
                    49.91595293
                ]
            },
            "properties": {
                "RSU coordinates": [
                    8.3429705,
                    49.9164919
                ],
                "Distance": 69.28,
                "Frequency": 5.9,
                "RSSI": -87.44,
                "LOS": "False"
            }
        },
        {
            "type": "Feature",
            "geometry": {
                "type": "Point",
                "coordinates": [
                    8.34384037,
                    49.91638411
                ]
            },
            "properties": {
                "RSU coordinates": [
                    8.3429705,
                    49.9164919
                ],
                "Distance": 63.5,
                "Frequency": 5.9,
                "RSSI": -71.69,
                "LOS": "False"
            }
        },
        {
            "type": "Feature",
            "geometry": {
                "type": "Point",
                "coordinates": [
                    8.34403368,
                    49.91659969
                ]
            },
            "properties": {
                "RSU coordinates": [
                    8.3429705,
                    49.9164919
                ],
                "Distance": 77.15,
                "Frequency": 5.9,
                "RSSI": -73.36,
                "LOS": "False"
            }
        },
        {
            "type": "Feature",
            "geometry": {
                "type": "Point",
                "coordinates": [
                    8.34413033,
                    49.91670749
                ]
            },
            "properties": {
                "RSU coordinates": [
                    8.3429705,
                    49.9164919
                ],
                "Distance": 86.53,
                "Frequency": 5.9,
                "RSSI": -74.34,
                "LOS": "False"
            }
        },
        {
            "type": "Feature",
            "geometry": {
                "type": "Point",
                "coordinates": [
                    8.3433571,
                    49.91562955
                ]
            },
            "properties": {
                "RSU coordinates": [
                    8.3429705,
                    49.9164919
                ],
                "Distance": 99.92,
                "Frequency": 5.9,
                "RSSI": -60.58,
                "LOS": "True"
            }
        },
        {
            "type": "Feature",
            "geometry": {
                "type": "Point",
                "coordinates": [
                    8.34345375,
                    49.91573734
                ]
            },
            "properties": {
                "RSU coordinates": [
                    8.3429705,
                    49.9164919
                ],
                "Distance": 90.86,
                "Frequency": 5.9,
                "RSSI": -74.75999999999999,
                "LOS": "False"
            }
        },
        {
            "type": "Feature",
            "geometry": {
                "type": "Point",
                "coordinates": [
                    8.34374371,
                    49.91606073
                ]
            },
            "properties": {
                "RSU coordinates": [
                    8.3429705,
                    49.9164919
                ],
                "Distance": 73.32,
                "Frequency": 5.9,
                "RSSI": -87.92,
                "LOS": "False"
            }
        },
        {
            "type": "Feature",
            "geometry": {
                "type": "Point",
                "coordinates": [
                    8.34403367,
                    49.91638411
                ]
            },
            "properties": {
                "RSU coordinates": [
                    8.3429705,
                    49.9164919
                ],
                "Distance": 77.15,
                "Frequency": 5.9,
                "RSSI": -73.36,
                "LOS": "False"
            }
        },
        {
            "type": "Feature",
            "geometry": {
                "type": "Point",
                "coordinates": [
                    8.34413033,
                    49.9164919
                ]
            },
            "properties": {
                "RSU coordinates": [
                    8.3429705,
                    49.9164919
                ],
                "Distance": 83.14,
                "Frequency": 5.9,
                "RSSI": -74.0,
                "LOS": "False"
            }
        },
        {
            "type": "Feature",
            "geometry": {
                "type": "Point",
                "coordinates": [
                    8.34422698,
                    49.91659969
                ]
            },
            "properties": {
                "RSU coordinates": [
                    8.3429705,
                    49.9164919
                ],
                "Distance": 90.86,
                "Frequency": 5.9,
                "RSSI": -74.75999999999999,
                "LOS": "False"
            }
        },
        {
            "type": "Feature",
            "geometry": {
                "type": "Point",
                "coordinates": [
                    8.34432364,
                    49.91670749
                ]
            },
            "properties": {
                "RSU coordinates": [
                    8.3429705,
                    49.9164919
                ],
                "Distance": 99.92,
                "Frequency": 5.9,
                "RSSI": -60.58,
                "LOS": "True"
            }
        },
        {
            "type": "Feature",
            "geometry": {
                "type": "Point",
                "coordinates": [
                    8.34345375,
                    49.91552176
                ]
            },
            "properties": {
                "RSU coordinates": [
                    8.3429705,
                    49.9164919
                ],
                "Distance": 113.42,
                "Frequency": 5.9,
                "RSSI": -61.66,
                "LOS": "True"
            }
        },
        {
            "type": "Feature",
            "geometry": {
                "type": "Point",
                "coordinates": [
                    8.34422698,
                    49.91638411
                ]
            },
            "properties": {
                "RSU coordinates": [
                    8.3429705,
                    49.9164919
                ],
                "Distance": 90.86,
                "Frequency": 5.9,
                "RSSI": -74.75999999999999,
                "LOS": "False"
            }
        },
        {
            "type": "Feature",
            "geometry": {
                "type": "Point",
                "coordinates": [
                    8.34432363,
                    49.9164919
                ]
            },
            "properties": {
                "RSU coordinates": [
                    8.3429705,
                    49.9164919
                ],
                "Distance": 96.99,
                "Frequency": 5.9,
                "RSSI": -75.32,
                "LOS": "False"
            }
        },
        {
            "type": "Feature",
            "geometry": {
                "type": "Point",
                "coordinates": [
                    8.34442029,
                    49.91659969
                ]
            },
            "properties": {
                "RSU coordinates": [
                    8.3429705,
                    49.9164919
                ],
                "Distance": 104.61,
                "Frequency": 5.9,
                "RSSI": -75.97,
                "LOS": "False"
            }
        },
        {
            "type": "Feature",
            "geometry": {
                "type": "Point",
                "coordinates": [
                    8.3446136,
                    49.91681528
                ]
            },
            "properties": {
                "RSU coordinates": [
                    8.3429705,
                    49.9164919
                ],
                "Distance": 123.16,
                "Frequency": 5.9,
                "RSSI": -92.37,
                "LOS": "False"
            }
        },
        {
            "type": "Feature",
            "geometry": {
                "type": "Point",
                "coordinates": [
                    8.3435504,
                    49.91541396
                ]
            },
            "properties": {
                "RSU coordinates": [
                    8.3429705,
                    49.9164919
                ],
                "Distance": 127.0,
                "Frequency": 5.9,
                "RSSI": -62.63,
                "LOS": "True"
            }
        },
        {
            "type": "Feature",
            "geometry": {
                "type": "Point",
                "coordinates": [
                    8.34451693,
                    49.9164919
                ]
            },
            "properties": {
                "RSU coordinates": [
                    8.3429705,
                    49.9164919
                ],
                "Distance": 110.85,
                "Frequency": 5.9,
                "RSSI": -76.47,
                "LOS": "False"
            }
        },
        {
            "type": "Feature",
            "geometry": {
                "type": "Point",
                "coordinates": [
                    8.34461359,
                    49.91659969
                ]
            },
            "properties": {
                "RSU coordinates": [
                    8.3429705,
                    49.9164919
                ],
                "Distance": 118.39,
                "Frequency": 5.9,
                "RSSI": -62.03,
                "LOS": "True"
            }
        },
        {
            "type": "Feature",
            "geometry": {
                "type": "Point",
                "coordinates": [
                    8.3448069,
                    49.91681528
                ]
            },
            "properties": {
                "RSU coordinates": [
                    8.3429705,
                    49.9164919
                ],
                "Distance": 136.47,
                "Frequency": 5.9,
                "RSSI": -78.25,
                "LOS": "False"
            }
        },
        {
            "type": "Feature",
            "geometry": {
                "type": "Point",
                "coordinates": [
                    8.34364705,
                    49.91530617
                ]
            },
            "properties": {
                "RSU coordinates": [
                    8.3429705,
                    49.9164919
                ],
                "Distance": 140.63,
                "Frequency": 5.9,
                "RSSI": -78.50999999999999,
                "LOS": "False"
            }
        },
        {
            "type": "Feature",
            "geometry": {
                "type": "Point",
                "coordinates": [
                    8.34451693,
                    49.91627631
                ]
            },
            "properties": {
                "RSU coordinates": [
                    8.3429705,
                    49.9164919
                ],
                "Distance": 113.42,
                "Frequency": 5.9,
                "RSSI": -91.66,
                "LOS": "False"
            }
        },
        {
            "type": "Feature",
            "geometry": {
                "type": "Point",
                "coordinates": [
                    8.34471024,
                    49.9164919
                ]
            },
            "properties": {
                "RSU coordinates": [
                    8.3429705,
                    49.9164919
                ],
                "Distance": 124.71,
                "Frequency": 5.9,
                "RSSI": -77.47999999999999,
                "LOS": "False"
            }
        },
        {
            "type": "Feature",
            "geometry": {
                "type": "Point",
                "coordinates": [
                    8.3448069,
                    49.91659969
                ]
            },
            "properties": {
                "RSU coordinates": [
                    8.3429705,
                    49.9164919
                ],
                "Distance": 132.18,
                "Frequency": 5.9,
                "RSSI": -62.98,
                "LOS": "True"
            }
        },
        {
            "type": "Feature",
            "geometry": {
                "type": "Point",
                "coordinates": [
                    8.34471023,
                    49.91627631
                ]
            },
            "properties": {
                "RSU coordinates": [
                    8.3429705,
                    49.9164919
                ],
                "Distance": 127.0,
                "Frequency": 5.9,
                "RSSI": -92.63,
                "LOS": "False"
            }
        },
        {
            "type": "Feature",
            "geometry": {
                "type": "Point",
                "coordinates": [
                    8.34490354,
                    49.9164919
                ]
            },
            "properties": {
                "RSU coordinates": [
                    8.3429705,
                    49.9164919
                ],
                "Distance": 138.56,
                "Frequency": 5.9,
                "RSSI": -78.38,
                "LOS": "False"
            }
        },
        {
            "type": "Feature",
            "geometry": {
                "type": "Point",
                "coordinates": [
                    8.3450002,
                    49.91659969
                ]
            },
            "properties": {
                "RSU coordinates": [
                    8.3429705,
                    49.9164919
                ],
                "Distance": 145.99,
                "Frequency": 5.9,
                "RSSI": -63.83,
                "LOS": "True"
            }
        },
        {
            "type": "Feature",
            "geometry": {
                "type": "Point",
                "coordinates": [
                    8.34509685,
                    49.9164919
                ]
            },
            "properties": {
                "RSU coordinates": [
                    8.3429705,
                    49.9164919
                ],
                "Distance": 152.42,
                "Frequency": 5.9,
                "RSSI": -94.2,
                "LOS": "False"
            }
        },
        {
            "type": "Feature",
            "geometry": {
                "type": "Point",
                "coordinates": [
                    8.3451935,
                    49.91659969
                ]
            },
            "properties": {
                "RSU coordinates": [
                    8.3429705,
                    49.9164919
                ],
                "Distance": 159.8,
                "Frequency": 5.9,
                "RSSI": -64.6,
                "LOS": "True"
            }
        },
        {
            "type": "Feature",
            "geometry": {
                "type": "Point",
                "coordinates": [
                    8.34596675,
                    49.91703087
                ]
            },
            "properties": {
                "RSU coordinates": [
                    8.3429705,
                    49.9164919
                ],
                "Distance": 223.0,
                "Frequency": 5.9,
                "RSSI": -97.46,
                "LOS": "False"
            }
        }
    ]
}