{
    "type": "FeatureCollection",
    "features": [
        {
            "type": "Feature",
            "geometry": {
                "type": "Point",
                "coordinates": [
                    8.21837096,
                    50.08253378
                ]
            },
            "properties": {
                "RSU coordinates": [
                    8.2245781,
                    50.0805935
                ],
                "Distance": 493.22,
                "Frequency": 5.9,
                "RSSI": -74.27,
                "LOS": "True"
            }
        },
        {
            "type": "Feature",
            "geometry": {
                "type": "Point",
                "coordinates": [
                    8.21856493,
                    50.08253378
                ]
            },
            "properties": {
                "RSU coordinates": [
                    8.2245781,
                    50.0805935
                ],
                "Distance": 480.8,
                "Frequency": 5.9,
                "RSSI": -89.05,
                "LOS": "False"
            }
        },
        {
            "type": "Feature",
            "geometry": {
                "type": "Point",
                "coordinates": [
                    8.21866193,
                    50.08242599
                ]
            },
            "properties": {
                "RSU coordinates": [
                    8.2245781,
                    50.0805935
                ],
                "Distance": 469.28,
                "Frequency": 5.9,
                "RSSI": -73.84,
                "LOS": "True"
            }
        },
        {
            "type": "Feature",
            "geometry": {
                "type": "Point",
                "coordinates": [
                    8.21885591,
                    50.08242599
                ]
            },
            "properties": {
                "RSU coordinates": [
                    8.2245781,
                    50.0805935
                ],
                "Distance": 456.84,
                "Frequency": 5.9,
                "RSSI": -73.61,
                "LOS": "True"
            }
        },
        {
            "type": "Feature",
            "geometry": {
                "type": "Point",
                "coordinates": [
                    8.21895291,
                    50.0823182
                ]
            },
            "properties": {
                "RSU coordinates": [
                    8.2245781,
                    50.0805935
                ],
                "Distance": 445.35,
                "Frequency": 5.9,
                "RSSI": -73.39,
                "LOS": "True"
            }
        },
        {
            "type": "Feature",
            "geometry": {
                "type": "Point",
                "coordinates": [
                    8.21914688,
                    50.0823182
                ]
            },
            "properties": {
                "RSU coordinates": [
                    8.2245781,
                    50.0805935
                ],
                "Distance": 432.89,
                "Frequency": 5.9,
                "RSSI": -73.15,
                "LOS": "True"
            }
        },
        {
            "type": "Feature",
            "geometry": {
                "type": "Point",
                "coordinates": [
                    8.21943785,
                    50.0822104
                ]
            },
            "properties": {
                "RSU coordinates": [
                    8.2245781,
                    50.0805935
                ],
                "Distance": 408.94,
                "Frequency": 5.9,
                "RSSI": -72.66,
                "LOS": "True"
            }
        },
        {
            "type": "Feature",
            "geometry": {
                "type": "Point",
                "coordinates": [
                    8.21963182,
                    50.0822104
                ]
            },
            "properties": {
                "RSU coordinates": [
                    8.2245781,
                    50.0805935
                ],
                "Distance": 396.55,
                "Frequency": 5.9,
                "RSSI": -87.4,
                "LOS": "False"
            }
        },
        {
            "type": "Feature",
            "geometry": {
                "type": "Point",
                "coordinates": [
                    8.21972882,
                    50.08210261
                ]
            },
            "properties": {
                "RSU coordinates": [
                    8.2245781,
                    50.0805935
                ],
                "Distance": 385.0,
                "Frequency": 5.9,
                "RSSI": -72.15,
                "LOS": "True"
            }
        },
        {
            "type": "Feature",
            "geometry": {
                "type": "Point",
                "coordinates": [
                    8.21992279,
                    50.08210261
                ]
            },
            "properties": {
                "RSU coordinates": [
                    8.2245781,
                    50.0805935
                ],
                "Distance": 372.58,
                "Frequency": 5.9,
                "RSSI": -86.86,
                "LOS": "False"
            }
        },
        {
            "type": "Feature",
            "geometry": {
                "type": "Point",
                "coordinates": [
                    8.22001978,
                    50.08199482
                ]
            },
            "properties": {
                "RSU coordinates": [
                    8.2245781,
                    50.0805935
                ],
                "Distance": 361.07,
                "Frequency": 5.9,
                "RSSI": -71.59,
                "LOS": "True"
            }
        },
        {
            "type": "Feature",
            "geometry": {
                "type": "Point",
                "coordinates": [
                    8.22021375,
                    50.08199482
                ]
            },
            "properties": {
                "RSU coordinates": [
                    8.2245781,
                    50.0805935
                ],
                "Distance": 348.62,
                "Frequency": 5.9,
                "RSSI": -86.29,
                "LOS": "False"
            }
        },
        {
            "type": "Feature",
            "geometry": {
                "type": "Point",
                "coordinates": [
                    8.22050472,
                    50.08188702
                ]
            },
            "properties": {
                "RSU coordinates": [
                    8.2245781,
                    50.0805935
                ],
                "Distance": 324.67,
                "Frequency": 5.9,
                "RSSI": -70.68,
                "LOS": "True"
            }
        },
        {
            "type": "Feature",
            "geometry": {
                "type": "Point",
                "coordinates": [
                    8.22079568,
                    50.08177923
                ]
            },
            "properties": {
                "RSU coordinates": [
                    8.2245781,
                    50.0805935
                ],
                "Distance": 300.72,
                "Frequency": 5.9,
                "RSSI": -70.03,
                "LOS": "True"
            }
        },
        {
            "type": "Feature",
            "geometry": {
                "type": "Point",
                "coordinates": [
                    8.22098965,
                    50.08177923
                ]
            },
            "properties": {
                "RSU coordinates": [
                    8.2245781,
                    50.0805935
                ],
                "Distance": 288.33,
                "Frequency": 5.9,
                "RSSI": -99.67,
                "LOS": "False"
            }
        },
        {
            "type": "Feature",
            "geometry": {
                "type": "Point",
                "coordinates": [
                    8.22108665,
                    50.08167144
                ]
            },
            "properties": {
                "RSU coordinates": [
                    8.2245781,
                    50.0805935
                ],
                "Distance": 276.78,
                "Frequency": 5.9,
                "RSSI": -69.31,
                "LOS": "True"
            }
        },
        {
            "type": "Feature",
            "geometry": {
                "type": "Point",
                "coordinates": [
                    8.22128062,
                    50.08167144
                ]
            },
            "properties": {
                "RSU coordinates": [
                    8.2245781,
                    50.0805935
                ],
                "Distance": 264.36,
                "Frequency": 5.9,
                "RSSI": -68.92,
                "LOS": "True"
            }
        },
        {
            "type": "Feature",
            "geometry": {
                "type": "Point",
                "coordinates": [
                    8.22137761,
                    50.08156364
                ]
            },
            "properties": {
                "RSU coordinates": [
                    8.2245781,
                    50.0805935
                ],
                "Distance": 252.86,
                "Frequency": 5.9,
                "RSSI": -98.54,
                "LOS": "False"
            }
        },
        {
            "type": "Feature",
            "geometry": {
                "type": "Point",
                "coordinates": [
                    8.22157158,
                    50.08156364
                ]
            },
            "properties": {
                "RSU coordinates": [
                    8.2245781,
                    50.0805935
                ],
                "Distance": 240.4,
                "Frequency": 5.9,
                "RSSI": -68.11,
                "LOS": "True"
            }
        },
        {
            "type": "Feature",
            "geometry": {
                "type": "Point",
                "coordinates": [
                    8.22166857,
                    50.08145585
                ]
            },
            "properties": {
                "RSU coordinates": [
                    8.2245781,
                    50.0805935
                ],
                "Distance": 228.95,
                "Frequency": 5.9,
                "RSSI": -97.69,
                "LOS": "False"
            }
        },
        {
            "type": "Feature",
            "geometry": {
                "type": "Point",
                "coordinates": [
                    8.22186254,
                    50.08145585
                ]
            },
            "properties": {
                "RSU coordinates": [
                    8.2245781,
                    50.0805935
                ],
                "Distance": 216.44,
                "Frequency": 5.9,
                "RSSI": -67.21,
                "LOS": "True"
            }
        },
        {
            "type": "Feature",
            "geometry": {
                "type": "Point",
                "coordinates": [
                    8.22195952,
                    50.08156364
                ]
            },
            "properties": {
                "RSU coordinates": [
                    8.2245781,
                    50.0805935
                ],
                "Distance": 216.0,
                "Frequency": 5.9,
                "RSSI": -67.19,
                "LOS": "True"
            }
        },
        {
            "type": "Feature",
            "geometry": {
                "type": "Point",
                "coordinates": [
                    8.22205651,
                    50.08145585
                ]
            },
            "properties": {
                "RSU coordinates": [
                    8.2245781,
                    50.0805935
                ],
                "Distance": 204.12,
                "Frequency": 5.9,
                "RSSI": -66.7,
                "LOS": "True"
            }
        },
        {
            "type": "Feature",
            "geometry": {
                "type": "Point",
                "coordinates": [
                    8.22215349,
                    50.08156364
                ]
            },
            "properties": {
                "RSU coordinates": [
                    8.2245781,
                    50.0805935
                ],
                "Distance": 204.12,
                "Frequency": 5.9,
                "RSSI": -96.7,
                "LOS": "False"
            }
        },
        {
            "type": "Feature",
            "geometry": {
                "type": "Point",
                "coordinates": [
                    8.2221535,
                    50.08134806
                ]
            },
            "properties": {
                "RSU coordinates": [
                    8.2245781,
                    50.0805935
                ],
                "Distance": 192.5,
                "Frequency": 5.9,
                "RSSI": -66.2,
                "LOS": "True"
            }
        },
        {
            "type": "Feature",
            "geometry": {
                "type": "Point",
                "coordinates": [
                    8.22225048,
                    50.08145585
                ]
            },
            "properties": {
                "RSU coordinates": [
                    8.2245781,
                    50.0805935
                ],
                "Distance": 192.0,
                "Frequency": 5.9,
                "RSSI": -66.18,
                "LOS": "True"
            }
        },
        {
            "type": "Feature",
            "geometry": {
                "type": "Point",
                "coordinates": [
                    8.22234746,
                    50.08134806
                ]
            },
            "properties": {
                "RSU coordinates": [
                    8.2245781,
                    50.0805935
                ],
                "Distance": 180.13,
                "Frequency": 5.9,
                "RSSI": -65.63,
                "LOS": "True"
            }
        },
        {
            "type": "Feature",
            "geometry": {
                "type": "Point",
                "coordinates": [
                    8.22244445,
                    50.08124026
                ]
            },
            "properties": {
                "RSU coordinates": [
                    8.2245781,
                    50.0805935
                ],
                "Distance": 168.57,
                "Frequency": 5.9,
                "RSSI": -80.06,
                "LOS": "False"
            }
        },
        {
            "type": "Feature",
            "geometry": {
                "type": "Point",
                "coordinates": [
                    8.22254143,
                    50.08134806
                ]
            },
            "properties": {
                "RSU coordinates": [
                    8.2245781,
                    50.0805935
                ],
                "Distance": 168.0,
                "Frequency": 5.9,
                "RSSI": -65.03,
                "LOS": "True"
            }
        },
        {
            "type": "Feature",
            "geometry": {
                "type": "Point",
                "coordinates": [
                    8.22263842,
                    50.08124026
                ]
            },
            "properties": {
                "RSU coordinates": [
                    8.2245781,
                    50.0805935
                ],
                "Distance": 156.15,
                "Frequency": 5.9,
                "RSSI": -64.41,
                "LOS": "True"
            }
        },
        {
            "type": "Feature",
            "geometry": {
                "type": "Point",
                "coordinates": [
                    8.2227354,
                    50.08134806
                ]
            },
            "properties": {
                "RSU coordinates": [
                    8.2245781,
                    50.0805935
                ],
                "Distance": 156.15,
                "Frequency": 5.9,
                "RSSI": -64.41,
                "LOS": "True"
            }
        },
        {
            "type": "Feature",
            "geometry": {
                "type": "Point",
                "coordinates": [
                    8.22273541,
                    50.08113247
                ]
            },
            "properties": {
                "RSU coordinates": [
                    8.2245781,
                    50.0805935
                ],
                "Distance": 144.67,
                "Frequency": 5.9,
                "RSSI": -78.75,
                "LOS": "False"
            }
        },
        {
            "type": "Feature",
            "geometry": {
                "type": "Point",
                "coordinates": [
                    8.22283239,
                    50.08124026
                ]
            },
            "properties": {
                "RSU coordinates": [
                    8.2245781,
                    50.0805935
                ],
                "Distance": 144.0,
                "Frequency": 5.9,
                "RSSI": -63.71,
                "LOS": "True"
            }
        },
        {
            "type": "Feature",
            "geometry": {
                "type": "Point",
                "coordinates": [
                    8.22292938,
                    50.08113247
                ]
            },
            "properties": {
                "RSU coordinates": [
                    8.2245781,
                    50.0805935
                ],
                "Distance": 132.18,
                "Frequency": 5.9,
                "RSSI": -62.98,
                "LOS": "True"
            }
        },
        {
            "type": "Feature",
            "geometry": {
                "type": "Point",
                "coordinates": [
                    8.22302636,
                    50.08124026
                ]
            },
            "properties": {
                "RSU coordinates": [
                    8.2245781,
                    50.0805935
                ],
                "Distance": 132.18,
                "Frequency": 5.9,
                "RSSI": -62.98,
                "LOS": "True"
            }
        },
        {
            "type": "Feature",
            "geometry": {
                "type": "Point",
                "coordinates": [
                    8.22292938,
                    50.08091688
                ]
            },
            "properties": {
                "RSU coordinates": [
                    8.2245781,
                    50.0805935
                ],
                "Distance": 123.16,
                "Frequency": 5.9,
                "RSSI": -92.37,
                "LOS": "False"
            }
        },
        {
            "type": "Feature",
            "geometry": {
                "type": "Point",
                "coordinates": [
                    8.22312334,
                    50.08113247
                ]
            },
            "properties": {
                "RSU coordinates": [
                    8.2245781,
                    50.0805935
                ],
                "Distance": 120.0,
                "Frequency": 5.9,
                "RSSI": -62.15,
                "LOS": "True"
            }
        },
        {
            "type": "Feature",
            "geometry": {
                "type": "Point",
                "coordinates": [
                    8.22312335,
                    50.08091688
                ]
            },
            "properties": {
                "RSU coordinates": [
                    8.2245781,
                    50.0805935
                ],
                "Distance": 109.98,
                "Frequency": 5.9,
                "RSSI": -76.4,
                "LOS": "False"
            }
        },
        {
            "type": "Feature",
            "geometry": {
                "type": "Point",
                "coordinates": [
                    8.22322033,
                    50.08102467
                ]
            },
            "properties": {
                "RSU coordinates": [
                    8.2245781,
                    50.0805935
                ],
                "Distance": 108.22,
                "Frequency": 5.9,
                "RSSI": -61.26,
                "LOS": "True"
            }
        },
        {
            "type": "Feature",
            "geometry": {
                "type": "Point",
                "coordinates": [
                    8.22331731,
                    50.08113247
                ]
            },
            "properties": {
                "RSU coordinates": [
                    8.2245781,
                    50.0805935
                ],
                "Distance": 108.22,
                "Frequency": 5.9,
                "RSSI": -61.26,
                "LOS": "True"
            }
        },
        {
            "type": "Feature",
            "geometry": {
                "type": "Point",
                "coordinates": [
                    8.22331732,
                    50.08091688
                ]
            },
            "properties": {
                "RSU coordinates": [
                    8.2245781,
                    50.0805935
                ],
                "Distance": 96.99,
                "Frequency": 5.9,
                "RSSI": -75.32,
                "LOS": "False"
            }
        },
        {
            "type": "Feature",
            "geometry": {
                "type": "Point",
                "coordinates": [
                    8.2234143,
                    50.08102467
                ]
            },
            "properties": {
                "RSU coordinates": [
                    8.2245781,
                    50.0805935
                ],
                "Distance": 96.0,
                "Frequency": 5.9,
                "RSSI": -60.23,
                "LOS": "True"
            }
        },
        {
            "type": "Feature",
            "geometry": {
                "type": "Point",
                "coordinates": [
                    8.22351128,
                    50.08091688
                ]
            },
            "properties": {
                "RSU coordinates": [
                    8.2245781,
                    50.0805935
                ],
                "Distance": 84.29,
                "Frequency": 5.9,
                "RSSI": -59.12,
                "LOS": "True"
            }
        },
        {
            "type": "Feature",
            "geometry": {
                "type": "Point",
                "coordinates": [
                    8.22360827,
                    50.08080909
                ]
            },
            "properties": {
                "RSU coordinates": [
                    8.2245781,
                    50.0805935
                ],
                "Distance": 73.32,
                "Frequency": 5.9,
                "RSSI": -57.92,
                "LOS": "True"
            }
        },
        {
            "type": "Feature",
            "geometry": {
                "type": "Point",
                "coordinates": [
                    8.22370525,
                    50.08091688
                ]
            },
            "properties": {
                "RSU coordinates": [
                    8.2245781,
                    50.0805935
                ],
                "Distance": 72.0,
                "Frequency": 5.9,
                "RSSI": -57.77,
                "LOS": "True"
            }
        },
        {
            "type": "Feature",
            "geometry": {
                "type": "Point",
                "coordinates": [
                    8.22506303,
                    50.08242599
                ]
            },
            "properties": {
                "RSU coordinates": [
                    8.2245781,
                    50.0805935
                ],
                "Distance": 206.92,
                "Frequency": 5.9,
                "RSSI": -96.82,
                "LOS": "False"
            }
        },
        {
            "type": "Feature",
            "geometry": {
                "type": "Point",
                "coordinates": [
                    8.22516002,
                    50.08253378
                ]
            },
            "properties": {
                "RSU coordinates": [
                    8.2245781,
                    50.0805935
                ],
                "Distance": 219.96,
                "Frequency": 5.9,
                "RSSI": -97.34,
                "LOS": "False"
            }
        },
        {
            "type": "Feature",
            "geometry": {
                "type": "Point",
                "coordinates": [
                    8.22380224,
                    50.08080909
                ]
            },
            "properties": {
                "RSU coordinates": [
                    8.2245781,
                    50.0805935
                ],
                "Distance": 60.4,
                "Frequency": 5.9,
                "RSSI": -56.26,
                "LOS": "True"
            }
        },
        {
            "type": "Feature",
            "geometry": {
                "type": "Point",
                "coordinates": [
                    8.22506303,
                    50.0822104
                ]
            },
            "properties": {
                "RSU coordinates": [
                    8.2245781,
                    50.0805935
                ],
                "Distance": 183.3,
                "Frequency": 5.9,
                "RSSI": -80.78,
                "LOS": "False"
            }
        },
        {
            "type": "Feature",
            "geometry": {
                "type": "Point",
                "coordinates": [
                    8.22389922,
                    50.08070129
                ]
            },
            "properties": {
                "RSU coordinates": [
                    8.2245781,
                    50.0805935
                ],
                "Distance": 49.96,
                "Frequency": 5.9,
                "RSSI": -54.63,
                "LOS": "True"
            }
        },
        {
            "type": "Feature",
            "geometry": {
                "type": "Point",
                "coordinates": [
                    8.2239962,
                    50.08080909
                ]
            },
            "properties": {
                "RSU coordinates": [
                    8.2245781,
                    50.0805935
                ],
                "Distance": 48.0,
                "Frequency": 5.9,
                "RSSI": -54.29,
                "LOS": "True"
            }
        },
        {
            "type": "Feature",
            "geometry": {
                "type": "Point",
                "coordinates": [
                    8.22496604,
                    50.08188702
                ]
            },
            "properties": {
                "RSU coordinates": [
                    8.2245781,
                    50.0805935
                ],
                "Distance": 146.64,
                "Frequency": 5.9,
                "RSSI": -78.87,
                "LOS": "False"
            }
        },
        {
            "type": "Feature",
            "geometry": {
                "type": "Point",
                "coordinates": [
                    8.22506303,
                    50.08199482
                ]
            },
            "properties": {
                "RSU coordinates": [
                    8.2245781,
                    50.0805935
                ],
                "Distance": 159.8,
                "Frequency": 5.9,
                "RSSI": -64.6,
                "LOS": "True"
            }
        },
        {
            "type": "Feature",
            "geometry": {
                "type": "Point",
                "coordinates": [
                    8.22389922,
                    50.08048571
                ]
            },
            "properties": {
                "RSU coordinates": [
                    8.2245781,
                    50.0805935
                ],
                "Distance": 49.96,
                "Frequency": 5.9,
                "RSSI": -84.63,
                "LOS": "False"
            }
        },
        {
            "type": "Feature",
            "geometry": {
                "type": "Point",
                "coordinates": [
                    8.22409319,
                    50.08070129
                ]
            },
            "properties": {
                "RSU coordinates": [
                    8.2245781,
                    50.0805935
                ],
                "Distance": 36.66,
                "Frequency": 5.9,
                "RSSI": -51.98,
                "LOS": "True"
            }
        },
        {
            "type": "Feature",
            "geometry": {
                "type": "Point",
                "coordinates": [
                    8.22428715,
                    50.08091688
                ]
            },
            "properties": {
                "RSU coordinates": [
                    8.2245781,
                    50.0805935
                ],
                "Distance": 41.57,
                "Frequency": 5.9,
                "RSSI": -98.06,
                "LOS": "False"
            }
        },
        {
            "type": "Feature",
            "geometry": {
                "type": "Point",
                "coordinates": [
                    8.22438413,
                    50.08102467
                ]
            },
            "properties": {
                "RSU coordinates": [
                    8.2245781,
                    50.0805935
                ],
                "Distance": 49.96,
                "Frequency": 5.9,
                "RSSI": -99.63,
                "LOS": "False"
            }
        },
        {
            "type": "Feature",
            "geometry": {
                "type": "Point",
                "coordinates": [
                    8.22486905,
                    50.08156364
                ]
            },
            "properties": {
                "RSU coordinates": [
                    8.2245781,
                    50.0805935
                ],
                "Distance": 109.98,
                "Frequency": 5.9,
                "RSSI": -76.4,
                "LOS": "False"
            }
        },
        {
            "type": "Feature",
            "geometry": {
                "type": "Point",
                "coordinates": [
                    8.22496604,
                    50.08167144
                ]
            },
            "properties": {
                "RSU coordinates": [
                    8.2245781,
                    50.0805935
                ],
                "Distance": 123.16,
                "Frequency": 5.9,
                "RSSI": -62.37,
                "LOS": "True"
            }
        },
        {
            "type": "Feature",
            "geometry": {
                "type": "Point",
                "coordinates": [
                    8.22506303,
                    50.08177923
                ]
            },
            "properties": {
                "RSU coordinates": [
                    8.2245781,
                    50.0805935
                ],
                "Distance": 136.47,
                "Frequency": 5.9,
                "RSSI": -63.25,
                "LOS": "True"
            }
        },
        {
            "type": "Feature",
            "geometry": {
                "type": "Point",
                "coordinates": [
                    8.22409319,
                    50.08048571
                ]
            },
            "properties": {
                "RSU coordinates": [
                    8.2245781,
                    50.0805935
                ],
                "Distance": 36.66,
                "Frequency": 5.9,
                "RSSI": -81.97999999999999,
                "LOS": "False"
            }
        },
        {
            "type": "Feature",
            "geometry": {
                "type": "Point",
                "coordinates": [
                    8.22419017,
                    50.0805935
                ]
            },
            "properties": {
                "RSU coordinates": [
                    8.2245781,
                    50.0805935
                ],
                "Distance": 27.71,
                "Frequency": 5.9,
                "RSSI": -49.58,
                "LOS": "True"
            }
        },
        {
            "type": "Feature",
            "geometry": {
                "type": "Point",
                "coordinates": [
                    8.22428715,
                    50.08070129
                ]
            },
            "properties": {
                "RSU coordinates": [
                    8.2245781,
                    50.0805935
                ],
                "Distance": 24.0,
                "Frequency": 5.9,
                "RSSI": -48.34,
                "LOS": "True"
            }
        },
        {
            "type": "Feature",
            "geometry": {
                "type": "Point",
                "coordinates": [
                    8.22477207,
                    50.08124026
                ]
            },
            "properties": {
                "RSU coordinates": [
                    8.2245781,
                    50.0805935
                ],
                "Distance": 73.32,
                "Frequency": 5.9,
                "RSSI": -57.92,
                "LOS": "True"
            }
        },
        {
            "type": "Feature",
            "geometry": {
                "type": "Point",
                "coordinates": [
                    8.22486905,
                    50.08134806
                ]
            },
            "properties": {
                "RSU coordinates": [
                    8.2245781,
                    50.0805935
                ],
                "Distance": 86.53,
                "Frequency": 5.9,
                "RSSI": -59.34,
                "LOS": "True"
            }
        },
        {
            "type": "Feature",
            "geometry": {
                "type": "Point",
                "coordinates": [
                    8.22496604,
                    50.08145585
                ]
            },
            "properties": {
                "RSU coordinates": [
                    8.2245781,
                    50.0805935
                ],
                "Distance": 99.92,
                "Frequency": 5.9,
                "RSSI": -60.58,
                "LOS": "True"
            }
        },
        {
            "type": "Feature",
            "geometry": {
                "type": "Point",
                "coordinates": [
                    8.22506302,
                    50.08156364
                ]
            },
            "properties": {
                "RSU coordinates": [
                    8.2245781,
                    50.0805935
                ],
                "Distance": 113.42,
                "Frequency": 5.9,
                "RSSI": -61.66,
                "LOS": "True"
            }
        },
        {
            "type": "Feature",
            "geometry": {
                "type": "Point",
                "coordinates": [
                    8.22409319,
                    50.08027012
                ]
            },
            "properties": {
                "RSU coordinates": [
                    8.2245781,
                    50.0805935
                ],
                "Distance": 49.96,
                "Frequency": 5.9,
                "RSSI": -84.63,
                "LOS": "False"
            }
        },
        {
            "type": "Feature",
            "geometry": {
                "type": "Point",
                "coordinates": [
                    8.22438413,
                    50.0805935
                ]
            },
            "properties": {
                "RSU coordinates": [
                    8.2245781,
                    50.0805935
                ],
                "Distance": 13.86,
                "Frequency": 5.9,
                "RSSI": -43.63,
                "LOS": "True"
            }
        },
        {
            "type": "Feature",
            "geometry": {
                "type": "Point",
                "coordinates": [
                    8.22448112,
                    50.08070129
                ]
            },
            "properties": {
                "RSU coordinates": [
                    8.2245781,
                    50.0805935
                ],
                "Distance": 13.86,
                "Frequency": 5.9,
                "RSSI": -43.63,
                "LOS": "True"
            }
        },
        {
            "type": "Feature",
            "geometry": {
                "type": "Point",
                "coordinates": [
                    8.2245781,
                    50.08080909
                ]
            },
            "properties": {
                "RSU coordinates": [
                    8.2245781,
                    50.0805935
                ],
                "Distance": 24.0,
                "Frequency": 5.9,
                "RSSI": -48.34,
                "LOS": "True"
            }
        },
        {
            "type": "Feature",
            "geometry": {
                "type": "Point",
                "coordinates": [
                    8.22467508,
                    50.08091688
                ]
            },
            "properties": {
                "RSU coordinates": [
                    8.2245781,
                    50.0805935
                ],
                "Distance": 36.66,
                "Frequency": 5.9,
                "RSSI": -51.98,
                "LOS": "True"
            }
        },
        {
            "type": "Feature",
            "geometry": {
                "type": "Point",
                "coordinates": [
                    8.22477207,
                    50.08102467
                ]
            },
            "properties": {
                "RSU coordinates": [
                    8.2245781,
                    50.0805935
                ],
                "Distance": 49.96,
                "Frequency": 5.9,
                "RSSI": -54.63,
                "LOS": "True"
            }
        },
        {
            "type": "Feature",
            "geometry": {
                "type": "Point",
                "coordinates": [
                    8.22486905,
                    50.08113247
                ]
            },
            "properties": {
                "RSU coordinates": [
                    8.2245781,
                    50.0805935
                ],
                "Distance": 63.5,
                "Frequency": 5.9,
                "RSSI": -56.69,
                "LOS": "True"
            }
        },
        {
            "type": "Feature",
            "geometry": {
                "type": "Point",
                "coordinates": [
                    8.22496604,
                    50.08124026
                ]
            },
            "properties": {
                "RSU coordinates": [
                    8.2245781,
                    50.0805935
                ],
                "Distance": 77.15,
                "Frequency": 5.9,
                "RSSI": -58.36,
                "LOS": "True"
            }
        },
        {
            "type": "Feature",
            "geometry": {
                "type": "Point",
                "coordinates": [
                    8.22525699,
                    50.08156364
                ]
            },
            "properties": {
                "RSU coordinates": [
                    8.2245781,
                    50.0805935
                ],
                "Distance": 118.39,
                "Frequency": 5.9,
                "RSSI": -92.03,
                "LOS": "False"
            }
        },
        {
            "type": "Feature",
            "geometry": {
                "type": "Point",
                "coordinates": [
                    8.22448112,
                    50.08048571
                ]
            },
            "properties": {
                "RSU coordinates": [
                    8.2245781,
                    50.0805935
                ],
                "Distance": 13.86,
                "Frequency": 5.9,
                "RSSI": -43.63,
                "LOS": "True"
            }
        },
        {
            "type": "Feature",
            "geometry": {
                "type": "Point",
                "coordinates": [
                    8.22467508,
                    50.08070129
                ]
            },
            "properties": {
                "RSU coordinates": [
                    8.2245781,
                    50.0805935
                ],
                "Distance": 13.86,
                "Frequency": 5.9,
                "RSSI": -43.63,
                "LOS": "True"
            }
        },
        {
            "type": "Feature",
            "geometry": {
                "type": "Point",
                "coordinates": [
                    8.22477207,
                    50.08080909
                ]
            },
            "properties": {
                "RSU coordinates": [
                    8.2245781,
                    50.0805935
                ],
                "Distance": 27.71,
                "Frequency": 5.9,
                "RSSI": -49.58,
                "LOS": "True"
            }
        },
        {
            "type": "Feature",
            "geometry": {
                "type": "Point",
                "coordinates": [
                    8.22351132,
                    50.07919218
                ]
            },
            "properties": {
                "RSU coordinates": [
                    8.2245781,
                    50.0805935
                ],
                "Distance": 173.62,
                "Frequency": 5.9,
                "RSSI": -95.32,
                "LOS": "False"
            }
        },
        {
            "type": "Feature",
            "geometry": {
                "type": "Point",
                "coordinates": [
                    8.2236083,
                    50.07929998
                ]
            },
            "properties": {
                "RSU coordinates": [
                    8.2245781,
                    50.0805935
                ],
                "Distance": 159.8,
                "Frequency": 5.9,
                "RSSI": -94.6,
                "LOS": "False"
            }
        },
        {
            "type": "Feature",
            "geometry": {
                "type": "Point",
                "coordinates": [
                    8.22370528,
                    50.07940777
                ]
            },
            "properties": {
                "RSU coordinates": [
                    8.2245781,
                    50.0805935
                ],
                "Distance": 145.99,
                "Frequency": 5.9,
                "RSSI": -93.83,
                "LOS": "False"
            }
        },
        {
            "type": "Feature",
            "geometry": {
                "type": "Point",
                "coordinates": [
                    8.22380226,
                    50.07951556
                ]
            },
            "properties": {
                "RSU coordinates": [
                    8.2245781,
                    50.0805935
                ],
                "Distance": 132.18,
                "Frequency": 5.9,
                "RSSI": -92.97999999999999,
                "LOS": "False"
            }
        },
        {
            "type": "Feature",
            "geometry": {
                "type": "Point",
                "coordinates": [
                    8.22389924,
                    50.07962336
                ]
            },
            "properties": {
                "RSU coordinates": [
                    8.2245781,
                    50.0805935
                ],
                "Distance": 118.39,
                "Frequency": 5.9,
                "RSSI": -92.03,
                "LOS": "False"
            }
        },
        {
            "type": "Feature",
            "geometry": {
                "type": "Point",
                "coordinates": [
                    8.22399621,
                    50.07973115
                ]
            },
            "properties": {
                "RSU coordinates": [
                    8.2245781,
                    50.0805935
                ],
                "Distance": 104.61,
                "Frequency": 5.9,
                "RSSI": -90.97,
                "LOS": "False"
            }
        },
        {
            "type": "Feature",
            "geometry": {
                "type": "Point",
                "coordinates": [
                    8.22409319,
                    50.07983894
                ]
            },
            "properties": {
                "RSU coordinates": [
                    8.2245781,
                    50.0805935
                ],
                "Distance": 90.86,
                "Frequency": 5.9,
                "RSSI": -74.75999999999999,
                "LOS": "False"
            }
        },
        {
            "type": "Feature",
            "geometry": {
                "type": "Point",
                "coordinates": [
                    8.22419017,
                    50.07994674
                ]
            },
            "properties": {
                "RSU coordinates": [
                    8.2245781,
                    50.0805935
                ],
                "Distance": 77.15,
                "Frequency": 5.9,
                "RSSI": -73.36,
                "LOS": "False"
            }
        },
        {
            "type": "Feature",
            "geometry": {
                "type": "Point",
                "coordinates": [
                    8.22428716,
                    50.08005453
                ]
            },
            "properties": {
                "RSU coordinates": [
                    8.2245781,
                    50.0805935
                ],
                "Distance": 63.5,
                "Frequency": 5.9,
                "RSSI": -56.69,
                "LOS": "True"
            }
        },
        {
            "type": "Feature",
            "geometry": {
                "type": "Point",
                "coordinates": [
                    8.22438414,
                    50.08016233
                ]
            },
            "properties": {
                "RSU coordinates": [
                    8.2245781,
                    50.0805935
                ],
                "Distance": 49.96,
                "Frequency": 5.9,
                "RSSI": -54.63,
                "LOS": "True"
            }
        },
        {
            "type": "Feature",
            "geometry": {
                "type": "Point",
                "coordinates": [
                    8.22448112,
                    50.08027012
                ]
            },
            "properties": {
                "RSU coordinates": [
                    8.2245781,
                    50.0805935
                ],
                "Distance": 36.66,
                "Frequency": 5.9,
                "RSSI": -51.98,
                "LOS": "True"
            }
        },
        {
            "type": "Feature",
            "geometry": {
                "type": "Point",
                "coordinates": [
                    8.2245781,
                    50.08037791
                ]
            },
            "properties": {
                "RSU coordinates": [
                    8.2245781,
                    50.0805935
                ],
                "Distance": 24.0,
                "Frequency": 5.9,
                "RSSI": -48.34,
                "LOS": "True"
            }
        },
        {
            "type": "Feature",
            "geometry": {
                "type": "Point",
                "coordinates": [
                    8.22467508,
                    50.08048571
                ]
            },
            "properties": {
                "RSU coordinates": [
                    8.2245781,
                    50.0805935
                ],
                "Distance": 13.86,
                "Frequency": 5.9,
                "RSSI": -43.63,
                "LOS": "True"
            }
        },
        {
            "type": "Feature",
            "geometry": {
                "type": "Point",
                "coordinates": [
                    8.22477207,
                    50.0805935
                ]
            },
            "properties": {
                "RSU coordinates": [
                    8.2245781,
                    50.0805935
                ],
                "Distance": 13.86,
                "Frequency": 5.9,
                "RSSI": -43.63,
                "LOS": "True"
            }
        },
        {
            "type": "Feature",
            "geometry": {
                "type": "Point",
                "coordinates": [
                    8.22351133,
                    50.0789766
                ]
            },
            "properties": {
                "RSU coordinates": [
                    8.2245781,
                    50.0805935
                ],
                "Distance": 195.47,
                "Frequency": 5.9,
                "RSSI": -96.33,
                "LOS": "False"
            }
        },
        {
            "type": "Feature",
            "geometry": {
                "type": "Point",
                "coordinates": [
                    8.2236083,
                    50.07908439
                ]
            },
            "properties": {
                "RSU coordinates": [
                    8.2245781,
                    50.0805935
                ],
                "Distance": 181.73,
                "Frequency": 5.9,
                "RSSI": -80.71,
                "LOS": "False"
            }
        },
        {
            "type": "Feature",
            "geometry": {
                "type": "Point",
                "coordinates": [
                    8.22370528,
                    50.07919218
                ]
            },
            "properties": {
                "RSU coordinates": [
                    8.2245781,
                    50.0805935
                ],
                "Distance": 168.0,
                "Frequency": 5.9,
                "RSSI": -80.03,
                "LOS": "False"
            }
        },
        {
            "type": "Feature",
            "geometry": {
                "type": "Point",
                "coordinates": [
                    8.22380226,
                    50.07929998
                ]
            },
            "properties": {
                "RSU coordinates": [
                    8.2245781,
                    50.0805935
                ],
                "Distance": 154.3,
                "Frequency": 5.9,
                "RSSI": -79.3,
                "LOS": "False"
            }
        },
        {
            "type": "Feature",
            "geometry": {
                "type": "Point",
                "coordinates": [
                    8.22389924,
                    50.07940777
                ]
            },
            "properties": {
                "RSU coordinates": [
                    8.2245781,
                    50.0805935
                ],
                "Distance": 140.63,
                "Frequency": 5.9,
                "RSSI": -63.51,
                "LOS": "True"
            }
        },
        {
            "type": "Feature",
            "geometry": {
                "type": "Point",
                "coordinates": [
                    8.22399622,
                    50.07951556
                ]
            },
            "properties": {
                "RSU coordinates": [
                    8.2245781,
                    50.0805935
                ],
                "Distance": 127.0,
                "Frequency": 5.9,
                "RSSI": -62.63,
                "LOS": "True"
            }
        },
        {
            "type": "Feature",
            "geometry": {
                "type": "Point",
                "coordinates": [
                    8.2240932,
                    50.07962336
                ]
            },
            "properties": {
                "RSU coordinates": [
                    8.2245781,
                    50.0805935
                ],
                "Distance": 113.42,
                "Frequency": 5.9,
                "RSSI": -61.66,
                "LOS": "True"
            }
        },
        {
            "type": "Feature",
            "geometry": {
                "type": "Point",
                "coordinates": [
                    8.22419018,
                    50.07973115
                ]
            },
            "properties": {
                "RSU coordinates": [
                    8.2245781,
                    50.0805935
                ],
                "Distance": 99.92,
                "Frequency": 5.9,
                "RSSI": -60.58,
                "LOS": "True"
            }
        },
        {
            "type": "Feature",
            "geometry": {
                "type": "Point",
                "coordinates": [
                    8.22428716,
                    50.07983894
                ]
            },
            "properties": {
                "RSU coordinates": [
                    8.2245781,
                    50.0805935
                ],
                "Distance": 86.53,
                "Frequency": 5.9,
                "RSSI": -59.34,
                "LOS": "True"
            }
        },
        {
            "type": "Feature",
            "geometry": {
                "type": "Point",
                "coordinates": [
                    8.22438414,
                    50.07994674
                ]
            },
            "properties": {
                "RSU coordinates": [
                    8.2245781,
                    50.0805935
                ],
                "Distance": 73.32,
                "Frequency": 5.9,
                "RSSI": -57.92,
                "LOS": "True"
            }
        },
        {
            "type": "Feature",
            "geometry": {
                "type": "Point",
                "coordinates": [
                    8.22448112,
                    50.08005453
                ]
            },
            "properties": {
                "RSU coordinates": [
                    8.2245781,
                    50.0805935
                ],
                "Distance": 60.4,
                "Frequency": 5.9,
                "RSSI": -56.26,
                "LOS": "True"
            }
        },
        {
            "type": "Feature",
            "geometry": {
                "type": "Point",
                "coordinates": [
                    8.22486905,
                    50.08048571
                ]
            },
            "properties": {
                "RSU coordinates": [
                    8.2245781,
                    50.0805935
                ],
                "Distance": 24.0,
                "Frequency": 5.9,
                "RSSI": -48.34,
                "LOS": "True"
            }
        },
        {
            "type": "Feature",
            "geometry": {
                "type": "Point",
                "coordinates": [
                    8.22496603,
                    50.0805935
                ]
            },
            "properties": {
                "RSU coordinates": [
                    8.2245781,
                    50.0805935
                ],
                "Distance": 27.71,
                "Frequency": 5.9,
                "RSSI": -49.58,
                "LOS": "True"
            }
        },
        {
            "type": "Feature",
            "geometry": {
                "type": "Point",
                "coordinates": [
                    8.22506301,
                    50.08070129
                ]
            },
            "properties": {
                "RSU coordinates": [
                    8.2245781,
                    50.0805935
                ],
                "Distance": 36.66,
                "Frequency": 5.9,
                "RSSI": -66.97999999999999,
                "LOS": "False"
            }
        },
        {
            "type": "Feature",
            "geometry": {
                "type": "Point",
                "coordinates": [
                    8.22312343,
                    50.07832983
                ]
            },
            "properties": {
                "RSU coordinates": [
                    8.2245781,
                    50.0805935
                ],
                "Distance": 272.59,
                "Frequency": 5.9,
                "RSSI": -99.18,
                "LOS": "False"
            }
        },
        {
            "type": "Feature",
            "geometry": {
                "type": "Point",
                "coordinates": [
                    8.2232204,
                    50.07843763
                ]
            },
            "properties": {
                "RSU coordinates": [
                    8.2245781,
                    50.0805935
                ],
                "Distance": 258.86,
                "Frequency": 5.9,
                "RSSI": -98.74,
                "LOS": "False"
            }
        },
        {
            "type": "Feature",
            "geometry": {
                "type": "Point",
                "coordinates": [
                    8.22351133,
                    50.07876101
                ]
            },
            "properties": {
                "RSU coordinates": [
                    8.2245781,
                    50.0805935
                ],
                "Distance": 217.77,
                "Frequency": 5.9,
                "RSSI": -67.26,
                "LOS": "True"
            }
        },
        {
            "type": "Feature",
            "geometry": {
                "type": "Point",
                "coordinates": [
                    8.22360831,
                    50.0788688
                ]
            },
            "properties": {
                "RSU coordinates": [
                    8.2245781,
                    50.0805935
                ],
                "Distance": 204.12,
                "Frequency": 5.9,
                "RSSI": -66.7,
                "LOS": "True"
            }
        },
        {
            "type": "Feature",
            "geometry": {
                "type": "Point",
                "coordinates": [
                    8.22370529,
                    50.0789766
                ]
            },
            "properties": {
                "RSU coordinates": [
                    8.2245781,
                    50.0805935
                ],
                "Distance": 190.49,
                "Frequency": 5.9,
                "RSSI": -66.11,
                "LOS": "True"
            }
        },
        {
            "type": "Feature",
            "geometry": {
                "type": "Point",
                "coordinates": [
                    8.22380226,
                    50.07908439
                ]
            },
            "properties": {
                "RSU coordinates": [
                    8.2245781,
                    50.0805935
                ],
                "Distance": 176.91,
                "Frequency": 5.9,
                "RSSI": -65.48,
                "LOS": "True"
            }
        },
        {
            "type": "Feature",
            "geometry": {
                "type": "Point",
                "coordinates": [
                    8.22389924,
                    50.07919218
                ]
            },
            "properties": {
                "RSU coordinates": [
                    8.2245781,
                    50.0805935
                ],
                "Distance": 163.36,
                "Frequency": 5.9,
                "RSSI": -64.79,
                "LOS": "True"
            }
        },
        {
            "type": "Feature",
            "geometry": {
                "type": "Point",
                "coordinates": [
                    8.22399622,
                    50.07929998
                ]
            },
            "properties": {
                "RSU coordinates": [
                    8.2245781,
                    50.0805935
                ],
                "Distance": 149.88,
                "Frequency": 5.9,
                "RSSI": -64.05,
                "LOS": "True"
            }
        },
        {
            "type": "Feature",
            "geometry": {
                "type": "Point",
                "coordinates": [
                    8.2240932,
                    50.07940777
                ]
            },
            "properties": {
                "RSU coordinates": [
                    8.2245781,
                    50.0805935
                ],
                "Distance": 136.47,
                "Frequency": 5.9,
                "RSSI": -63.25,
                "LOS": "True"
            }
        },
        {
            "type": "Feature",
            "geometry": {
                "type": "Point",
                "coordinates": [
                    8.22419018,
                    50.07951556
                ]
            },
            "properties": {
                "RSU coordinates": [
                    8.2245781,
                    50.0805935
                ],
                "Distance": 123.16,
                "Frequency": 5.9,
                "RSSI": -62.37,
                "LOS": "True"
            }
        },
        {
            "type": "Feature",
            "geometry": {
                "type": "Point",
                "coordinates": [
                    8.22428716,
                    50.07962336
                ]
            },
            "properties": {
                "RSU coordinates": [
                    8.2245781,
                    50.0805935
                ],
                "Distance": 109.98,
                "Frequency": 5.9,
                "RSSI": -61.4,
                "LOS": "True"
            }
        },
        {
            "type": "Feature",
            "geometry": {
                "type": "Point",
                "coordinates": [
                    8.22477206,
                    50.08016233
                ]
            },
            "properties": {
                "RSU coordinates": [
                    8.2245781,
                    50.0805935
                ],
                "Distance": 49.96,
                "Frequency": 5.9,
                "RSSI": -84.63,
                "LOS": "False"
            }
        },
        {
            "type": "Feature",
            "geometry": {
                "type": "Point",
                "coordinates": [
                    8.22486905,
                    50.08027012
                ]
            },
            "properties": {
                "RSU coordinates": [
                    8.2245781,
                    50.0805935
                ],
                "Distance": 41.57,
                "Frequency": 5.9,
                "RSSI": -68.06,
                "LOS": "False"
            }
        },
        {
            "type": "Feature",
            "geometry": {
                "type": "Point",
                "coordinates": [
                    8.22506301,
                    50.08048571
                ]
            },
            "properties": {
                "RSU coordinates": [
                    8.2245781,
                    50.0805935
                ],
                "Distance": 36.66,
                "Frequency": 5.9,
                "RSSI": -51.98,
                "LOS": "True"
            }
        },
        {
            "type": "Feature",
            "geometry": {
                "type": "Point",
                "coordinates": [
                    8.22525698,
                    50.08070129
                ]
            },
            "properties": {
                "RSU coordinates": [
                    8.2245781,
                    50.0805935
                ],
                "Distance": 49.96,
                "Frequency": 5.9,
                "RSSI": -84.63,
                "LOS": "False"
            }
        },
        {
            "type": "Feature",
            "geometry": {
                "type": "Point",
                "coordinates": [
                    8.22312344,
                    50.07811425
                ]
            },
            "properties": {
                "RSU coordinates": [
                    8.2245781,
                    50.0805935
                ],
                "Distance": 294.92,
                "Frequency": 5.9,
                "RSSI": -84.86,
                "LOS": "False"
            }
        },
        {
            "type": "Feature",
            "geometry": {
                "type": "Point",
                "coordinates": [
                    8.22322041,
                    50.07822204
                ]
            },
            "properties": {
                "RSU coordinates": [
                    8.2245781,
                    50.0805935
                ],
                "Distance": 281.25,
                "Frequency": 5.9,
                "RSSI": -99.45,
                "LOS": "False"
            }
        },
        {
            "type": "Feature",
            "geometry": {
                "type": "Point",
                "coordinates": [
                    8.22331739,
                    50.07832983
                ]
            },
            "properties": {
                "RSU coordinates": [
                    8.2245781,
                    50.0805935
                ],
                "Distance": 267.61,
                "Frequency": 5.9,
                "RSSI": -84.03,
                "LOS": "False"
            }
        },
        {
            "type": "Feature",
            "geometry": {
                "type": "Point",
                "coordinates": [
                    8.22351134,
                    50.07854542
                ]
            },
            "properties": {
                "RSU coordinates": [
                    8.2245781,
                    50.0805935
                ],
                "Distance": 240.4,
                "Frequency": 5.9,
                "RSSI": -68.11,
                "LOS": "True"
            }
        },
        {
            "type": "Feature",
            "geometry": {
                "type": "Point",
                "coordinates": [
                    8.22360831,
                    50.07865322
                ]
            },
            "properties": {
                "RSU coordinates": [
                    8.2245781,
                    50.0805935
                ],
                "Distance": 226.84,
                "Frequency": 5.9,
                "RSSI": -67.61,
                "LOS": "True"
            }
        },
        {
            "type": "Feature",
            "geometry": {
                "type": "Point",
                "coordinates": [
                    8.22370529,
                    50.07876101
                ]
            },
            "properties": {
                "RSU coordinates": [
                    8.2245781,
                    50.0805935
                ],
                "Distance": 213.32,
                "Frequency": 5.9,
                "RSSI": -82.08,
                "LOS": "False"
            }
        },
        {
            "type": "Feature",
            "geometry": {
                "type": "Point",
                "coordinates": [
                    8.22380227,
                    50.0788688
                ]
            },
            "properties": {
                "RSU coordinates": [
                    8.2245781,
                    50.0805935
                ],
                "Distance": 199.84,
                "Frequency": 5.9,
                "RSSI": -66.52,
                "LOS": "True"
            }
        },
        {
            "type": "Feature",
            "geometry": {
                "type": "Point",
                "coordinates": [
                    8.22389924,
                    50.0789766
                ]
            },
            "properties": {
                "RSU coordinates": [
                    8.2245781,
                    50.0805935
                ],
                "Distance": 186.42,
                "Frequency": 5.9,
                "RSSI": -65.93,
                "LOS": "True"
            }
        },
        {
            "type": "Feature",
            "geometry": {
                "type": "Point",
                "coordinates": [
                    8.22399622,
                    50.07908439
                ]
            },
            "properties": {
                "RSU coordinates": [
                    8.2245781,
                    50.0805935
                ],
                "Distance": 173.07,
                "Frequency": 5.9,
                "RSSI": -65.29,
                "LOS": "True"
            }
        },
        {
            "type": "Feature",
            "geometry": {
                "type": "Point",
                "coordinates": [
                    8.2240932,
                    50.07919218
                ]
            },
            "properties": {
                "RSU coordinates": [
                    8.2245781,
                    50.0805935
                ],
                "Distance": 159.8,
                "Frequency": 5.9,
                "RSSI": -79.6,
                "LOS": "False"
            }
        },
        {
            "type": "Feature",
            "geometry": {
                "type": "Point",
                "coordinates": [
                    8.22486904,
                    50.08005453
                ]
            },
            "properties": {
                "RSU coordinates": [
                    8.2245781,
                    50.0805935
                ],
                "Distance": 63.5,
                "Frequency": 5.9,
                "RSSI": -86.69,
                "LOS": "False"
            }
        },
        {
            "type": "Feature",
            "geometry": {
                "type": "Point",
                "coordinates": [
                    8.22496603,
                    50.08016233
                ]
            },
            "properties": {
                "RSU coordinates": [
                    8.2245781,
                    50.0805935
                ],
                "Distance": 55.43,
                "Frequency": 5.9,
                "RSSI": -85.52000000000001,
                "LOS": "False"
            }
        },
        {
            "type": "Feature",
            "geometry": {
                "type": "Point",
                "coordinates": [
                    8.22515999,
                    50.08037791
                ]
            },
            "properties": {
                "RSU coordinates": [
                    8.2245781,
                    50.0805935
                ],
                "Distance": 48.0,
                "Frequency": 5.9,
                "RSSI": -54.29,
                "LOS": "True"
            }
        },
        {
            "type": "Feature",
            "geometry": {
                "type": "Point",
                "coordinates": [
                    8.22525698,
                    50.08048571
                ]
            },
            "properties": {
                "RSU coordinates": [
                    8.2245781,
                    50.0805935
                ],
                "Distance": 49.96,
                "Frequency": 5.9,
                "RSSI": -54.63,
                "LOS": "True"
            }
        },
        {
            "type": "Feature",
            "geometry": {
                "type": "Point",
                "coordinates": [
                    8.22351134,
                    50.07832983
                ]
            },
            "properties": {
                "RSU coordinates": [
                    8.2245781,
                    50.0805935
                ],
                "Distance": 263.27,
                "Frequency": 5.9,
                "RSSI": -83.89,
                "LOS": "False"
            }
        },
        {
            "type": "Feature",
            "geometry": {
                "type": "Point",
                "coordinates": [
                    8.22360832,
                    50.07843763
                ]
            },
            "properties": {
                "RSU coordinates": [
                    8.2245781,
                    50.0805935
                ],
                "Distance": 249.8,
                "Frequency": 5.9,
                "RSSI": -83.44,
                "LOS": "False"
            }
        },
        {
            "type": "Feature",
            "geometry": {
                "type": "Point",
                "coordinates": [
                    8.22370529,
                    50.07854542
                ]
            },
            "properties": {
                "RSU coordinates": [
                    8.2245781,
                    50.0805935
                ],
                "Distance": 236.37,
                "Frequency": 5.9,
                "RSSI": -82.96,
                "LOS": "False"
            }
        },
        {
            "type": "Feature",
            "geometry": {
                "type": "Point",
                "coordinates": [
                    8.22399623,
                    50.0788688
                ]
            },
            "properties": {
                "RSU coordinates": [
                    8.2245781,
                    50.0805935
                ],
                "Distance": 196.45,
                "Frequency": 5.9,
                "RSSI": -81.37,
                "LOS": "False"
            }
        },
        {
            "type": "Feature",
            "geometry": {
                "type": "Point",
                "coordinates": [
                    8.2240932,
                    50.0789766
                ]
            },
            "properties": {
                "RSU coordinates": [
                    8.2245781,
                    50.0805935
                ],
                "Distance": 183.3,
                "Frequency": 5.9,
                "RSSI": -80.78,
                "LOS": "False"
            }
        },
        {
            "type": "Feature",
            "geometry": {
                "type": "Point",
                "coordinates": [
                    8.22419018,
                    50.07908439
                ]
            },
            "properties": {
                "RSU coordinates": [
                    8.2245781,
                    50.0805935
                ],
                "Distance": 170.27,
                "Frequency": 5.9,
                "RSSI": -80.15,
                "LOS": "False"
            }
        },
        {
            "type": "Feature",
            "geometry": {
                "type": "Point",
                "coordinates": [
                    8.22515999,
                    50.08016233
                ]
            },
            "properties": {
                "RSU coordinates": [
                    8.2245781,
                    50.0805935
                ],
                "Distance": 63.5,
                "Frequency": 5.9,
                "RSSI": -86.69,
                "LOS": "False"
            }
        },
        {
            "type": "Feature",
            "geometry": {
                "type": "Point",
                "coordinates": [
                    8.22535396,
                    50.08037791
                ]
            },
            "properties": {
                "RSU coordinates": [
                    8.2245781,
                    50.0805935
                ],
                "Distance": 60.4,
                "Frequency": 5.9,
                "RSSI": -56.26,
                "LOS": "True"
            }
        },
        {
            "type": "Feature",
            "geometry": {
                "type": "Point",
                "coordinates": [
                    8.22545094,
                    50.08048571
                ]
            },
            "properties": {
                "RSU coordinates": [
                    8.2245781,
                    50.0805935
                ],
                "Distance": 63.5,
                "Frequency": 5.9,
                "RSSI": -56.69,
                "LOS": "True"
            }
        },
        {
            "type": "Feature",
            "geometry": {
                "type": "Point",
                "coordinates": [
                    8.22360832,
                    50.07822204
                ]
            },
            "properties": {
                "RSU coordinates": [
                    8.2245781,
                    50.0805935
                ],
                "Distance": 272.94,
                "Frequency": 5.9,
                "RSSI": -84.2,
                "LOS": "False"
            }
        },
        {
            "type": "Feature",
            "geometry": {
                "type": "Point",
                "coordinates": [
                    8.2237053,
                    50.07832983
                ]
            },
            "properties": {
                "RSU coordinates": [
                    8.2245781,
                    50.0805935
                ],
                "Distance": 259.6,
                "Frequency": 5.9,
                "RSSI": -83.77,
                "LOS": "False"
            }
        },
        {
            "type": "Feature",
            "geometry": {
                "type": "Point",
                "coordinates": [
                    8.22380227,
                    50.07843763
                ]
            },
            "properties": {
                "RSU coordinates": [
                    8.2245781,
                    50.0805935
                ],
                "Distance": 246.32,
                "Frequency": 5.9,
                "RSSI": -98.31,
                "LOS": "False"
            }
        },
        {
            "type": "Feature",
            "geometry": {
                "type": "Point",
                "coordinates": [
                    8.22389925,
                    50.07854542
                ]
            },
            "properties": {
                "RSU coordinates": [
                    8.2245781,
                    50.0805935
                ],
                "Distance": 233.1,
                "Frequency": 5.9,
                "RSSI": -97.84,
                "LOS": "False"
            }
        },
        {
            "type": "Feature",
            "geometry": {
                "type": "Point",
                "coordinates": [
                    8.22409321,
                    50.07876101
                ]
            },
            "properties": {
                "RSU coordinates": [
                    8.2245781,
                    50.0805935
                ],
                "Distance": 206.92,
                "Frequency": 5.9,
                "RSSI": -81.82,
                "LOS": "False"
            }
        },
        {
            "type": "Feature",
            "geometry": {
                "type": "Point",
                "coordinates": [
                    8.22419018,
                    50.0788688
                ]
            },
            "properties": {
                "RSU coordinates": [
                    8.2245781,
                    50.0805935
                ],
                "Distance": 193.99,
                "Frequency": 5.9,
                "RSSI": -96.27,
                "LOS": "False"
            }
        },
        {
            "type": "Feature",
            "geometry": {
                "type": "Point",
                "coordinates": [
                    8.22554792,
                    50.08037791
                ]
            },
            "properties": {
                "RSU coordinates": [
                    8.2245781,
                    50.0805935
                ],
                "Distance": 73.32,
                "Frequency": 5.9,
                "RSSI": -57.92,
                "LOS": "True"
            }
        },
        {
            "type": "Feature",
            "geometry": {
                "type": "Point",
                "coordinates": [
                    8.22360833,
                    50.07800645
                ]
            },
            "properties": {
                "RSU coordinates": [
                    8.2245781,
                    50.0805935
                ],
                "Distance": 296.22,
                "Frequency": 5.9,
                "RSSI": -99.9,
                "LOS": "False"
            }
        },
        {
            "type": "Feature",
            "geometry": {
                "type": "Point",
                "coordinates": [
                    8.2237053,
                    50.07811425
                ]
            },
            "properties": {
                "RSU coordinates": [
                    8.2245781,
                    50.0805935
                ],
                "Distance": 282.96,
                "Frequency": 5.9,
                "RSSI": -99.5,
                "LOS": "False"
            }
        },
        {
            "type": "Feature",
            "geometry": {
                "type": "Point",
                "coordinates": [
                    8.22574189,
                    50.08037791
                ]
            },
            "properties": {
                "RSU coordinates": [
                    8.2245781,
                    50.0805935
                ],
                "Distance": 86.53,
                "Frequency": 5.9,
                "RSSI": -59.34,
                "LOS": "True"
            }
        },
        {
            "type": "Feature",
            "geometry": {
                "type": "Point",
                "coordinates": [
                    8.22583887,
                    50.08027012
                ]
            },
            "properties": {
                "RSU coordinates": [
                    8.2245781,
                    50.0805935
                ],
                "Distance": 96.99,
                "Frequency": 5.9,
                "RSSI": -60.32,
                "LOS": "True"
            }
        },
        {
            "type": "Feature",
            "geometry": {
                "type": "Point",
                "coordinates": [
                    8.22593585,
                    50.08037791
                ]
            },
            "properties": {
                "RSU coordinates": [
                    8.2245781,
                    50.0805935
                ],
                "Distance": 99.92,
                "Frequency": 5.9,
                "RSSI": -60.58,
                "LOS": "True"
            }
        },
        {
            "type": "Feature",
            "geometry": {
                "type": "Point",
                "coordinates": [
                    8.22603283,
                    50.08027012
                ]
            },
            "properties": {
                "RSU coordinates": [
                    8.2245781,
                    50.0805935
                ],
                "Distance": 109.98,
                "Frequency": 5.9,
                "RSSI": -61.4,
                "LOS": "True"
            }
        },
        {
            "type": "Feature",
            "geometry": {
                "type": "Point",
                "coordinates": [
                    8.22612981,
                    50.08037791
                ]
            },
            "properties": {
                "RSU coordinates": [
                    8.2245781,
                    50.0805935
                ],
                "Distance": 113.42,
                "Frequency": 5.9,
                "RSSI": -61.66,
                "LOS": "True"
            }
        },
        {
            "type": "Feature",
            "geometry": {
                "type": "Point",
                "coordinates": [
                    8.22612981,
                    50.08016233
                ]
            },
            "properties": {
                "RSU coordinates": [
                    8.2245781,
                    50.0805935
                ],
                "Distance": 120.8,
                "Frequency": 5.9,
                "RSSI": -92.2,
                "LOS": "False"
            }
        },
        {
            "type": "Feature",
            "geometry": {
                "type": "Point",
                "coordinates": [
                    8.22632378,
                    50.08037791
                ]
            },
            "properties": {
                "RSU coordinates": [
                    8.2245781,
                    50.0805935
                ],
                "Distance": 127.0,
                "Frequency": 5.9,
                "RSSI": -62.63,
                "LOS": "True"
            }
        },
        {
            "type": "Feature",
            "geometry": {
                "type": "Point",
                "coordinates": [
                    8.22632377,
                    50.08016233
                ]
            },
            "properties": {
                "RSU coordinates": [
                    8.2245781,
                    50.0805935
                ],
                "Distance": 133.63,
                "Frequency": 5.9,
                "RSSI": -93.07,
                "LOS": "False"
            }
        },
        {
            "type": "Feature",
            "geometry": {
                "type": "Point",
                "coordinates": [
                    8.22651774,
                    50.08037791
                ]
            },
            "properties": {
                "RSU coordinates": [
                    8.2245781,
                    50.0805935
                ],
                "Distance": 140.63,
                "Frequency": 5.9,
                "RSSI": -78.50999999999999,
                "LOS": "False"
            }
        },
        {
            "type": "Feature",
            "geometry": {
                "type": "Point",
                "coordinates": [
                    8.22651773,
                    50.08016233
                ]
            },
            "properties": {
                "RSU coordinates": [
                    8.2245781,
                    50.0805935
                ],
                "Distance": 146.64,
                "Frequency": 5.9,
                "RSSI": -93.87,
                "LOS": "False"
            }
        },
        {
            "type": "Feature",
            "geometry": {
                "type": "Point",
                "coordinates": [
                    8.22671171,
                    50.08037791
                ]
            },
            "properties": {
                "RSU coordinates": [
                    8.2245781,
                    50.0805935
                ],
                "Distance": 154.3,
                "Frequency": 5.9,
                "RSSI": -94.3,
                "LOS": "False"
            }
        }
    ]
}