{
    "type": "FeatureCollection",
    "features": [
        {
            "type": "Feature",
            "geometry": {
                "type": "Point",
                "coordinates": [
                    10.85061761,
                    49.90647909
                ]
            },
            "properties": {
                "RSU coordinates": [
                    10.8563189,
                    49.9046466
                ],
                "Distance": 456.84,
                "Frequency": 5.9,
                "RSSI": -88.61,
                "LOS": "False"
            }
        },
        {
            "type": "Feature",
            "geometry": {
                "type": "Point",
                "coordinates": [
                    10.85090751,
                    49.9063713
                ]
            },
            "properties": {
                "RSU coordinates": [
                    10.8563189,
                    49.9046466
                ],
                "Distance": 432.89,
                "Frequency": 5.9,
                "RSSI": -88.15,
                "LOS": "False"
            }
        },
        {
            "type": "Feature",
            "geometry": {
                "type": "Point",
                "coordinates": [
                    10.85119742,
                    49.9062635
                ]
            },
            "properties": {
                "RSU coordinates": [
                    10.8563189,
                    49.9046466
                ],
                "Distance": 408.94,
                "Frequency": 5.9,
                "RSSI": -87.66,
                "LOS": "False"
            }
        },
        {
            "type": "Feature",
            "geometry": {
                "type": "Point",
                "coordinates": [
                    10.8522604,
                    49.90594012
                ]
            },
            "properties": {
                "RSU coordinates": [
                    10.8563189,
                    49.9046466
                ],
                "Distance": 324.67,
                "Frequency": 5.9,
                "RSSI": -85.68,
                "LOS": "False"
            }
        },
        {
            "type": "Feature",
            "geometry": {
                "type": "Point",
                "coordinates": [
                    10.85264694,
                    49.90572454
                ]
            },
            "properties": {
                "RSU coordinates": [
                    10.8563189,
                    49.9046466
                ],
                "Distance": 289.33,
                "Frequency": 5.9,
                "RSSI": -99.7,
                "LOS": "False"
            }
        },
        {
            "type": "Feature",
            "geometry": {
                "type": "Point",
                "coordinates": [
                    10.85274356,
                    49.90583233
                ]
            },
            "properties": {
                "RSU coordinates": [
                    10.8563189,
                    49.9046466
                ],
                "Distance": 288.33,
                "Frequency": 5.9,
                "RSSI": -99.67,
                "LOS": "False"
            }
        },
        {
            "type": "Feature",
            "geometry": {
                "type": "Point",
                "coordinates": [
                    10.85293684,
                    49.90561674
                ]
            },
            "properties": {
                "RSU coordinates": [
                    10.8563189,
                    49.9046466
                ],
                "Distance": 265.45,
                "Frequency": 5.9,
                "RSSI": -98.96,
                "LOS": "False"
            }
        },
        {
            "type": "Feature",
            "geometry": {
                "type": "Point",
                "coordinates": [
                    10.85303346,
                    49.90572454
                ]
            },
            "properties": {
                "RSU coordinates": [
                    10.8563189,
                    49.9046466
                ],
                "Distance": 264.36,
                "Frequency": 5.9,
                "RSSI": -98.92,
                "LOS": "False"
            }
        },
        {
            "type": "Feature",
            "geometry": {
                "type": "Point",
                "coordinates": [
                    10.8531301,
                    49.90561674
                ]
            },
            "properties": {
                "RSU coordinates": [
                    10.8563189,
                    49.9046466
                ],
                "Distance": 252.86,
                "Frequency": 5.9,
                "RSSI": -98.54,
                "LOS": "False"
            }
        },
        {
            "type": "Feature",
            "geometry": {
                "type": "Point",
                "coordinates": [
                    10.85332336,
                    49.90561674
                ]
            },
            "properties": {
                "RSU coordinates": [
                    10.8563189,
                    49.9046466
                ],
                "Distance": 240.4,
                "Frequency": 5.9,
                "RSSI": -98.11,
                "LOS": "False"
            }
        },
        {
            "type": "Feature",
            "geometry": {
                "type": "Point",
                "coordinates": [
                    10.85342,
                    49.90550895
                ]
            },
            "properties": {
                "RSU coordinates": [
                    10.8563189,
                    49.9046466
                ],
                "Distance": 228.95,
                "Frequency": 5.9,
                "RSSI": -97.69,
                "LOS": "False"
            }
        },
        {
            "type": "Feature",
            "geometry": {
                "type": "Point",
                "coordinates": [
                    10.85361326,
                    49.90550895
                ]
            },
            "properties": {
                "RSU coordinates": [
                    10.8563189,
                    49.9046466
                ],
                "Distance": 216.44,
                "Frequency": 5.9,
                "RSSI": -82.21,
                "LOS": "False"
            }
        },
        {
            "type": "Feature",
            "geometry": {
                "type": "Point",
                "coordinates": [
                    10.85370989,
                    49.90540116
                ]
            },
            "properties": {
                "RSU coordinates": [
                    10.8563189,
                    49.9046466
                ],
                "Distance": 205.06,
                "Frequency": 5.9,
                "RSSI": -96.74,
                "LOS": "False"
            }
        },
        {
            "type": "Feature",
            "geometry": {
                "type": "Point",
                "coordinates": [
                    10.85390315,
                    49.90540116
                ]
            },
            "properties": {
                "RSU coordinates": [
                    10.8563189,
                    49.9046466
                ],
                "Distance": 192.5,
                "Frequency": 5.9,
                "RSSI": -96.2,
                "LOS": "False"
            }
        },
        {
            "type": "Feature",
            "geometry": {
                "type": "Point",
                "coordinates": [
                    10.85419305,
                    49.90529336
                ]
            },
            "properties": {
                "RSU coordinates": [
                    10.8563189,
                    49.9046466
                ],
                "Distance": 168.57,
                "Frequency": 5.9,
                "RSSI": -95.06,
                "LOS": "False"
            }
        },
        {
            "type": "Feature",
            "geometry": {
                "type": "Point",
                "coordinates": [
                    10.85448294,
                    49.90518557
                ]
            },
            "properties": {
                "RSU coordinates": [
                    10.8563189,
                    49.9046466
                ],
                "Distance": 144.67,
                "Frequency": 5.9,
                "RSSI": -93.75,
                "LOS": "False"
            }
        },
        {
            "type": "Feature",
            "geometry": {
                "type": "Point",
                "coordinates": [
                    10.8542897,
                    49.90475439
                ]
            },
            "properties": {
                "RSU coordinates": [
                    10.8563189,
                    49.9046466
                ],
                "Distance": 145.99,
                "Frequency": 5.9,
                "RSSI": -93.83,
                "LOS": "False"
            }
        },
        {
            "type": "Feature",
            "geometry": {
                "type": "Point",
                "coordinates": [
                    10.8546762,
                    49.90518557
                ]
            },
            "properties": {
                "RSU coordinates": [
                    10.8563189,
                    49.9046466
                ],
                "Distance": 132.18,
                "Frequency": 5.9,
                "RSSI": -62.98,
                "LOS": "True"
            }
        },
        {
            "type": "Feature",
            "geometry": {
                "type": "Point",
                "coordinates": [
                    10.85448296,
                    49.90475439
                ]
            },
            "properties": {
                "RSU coordinates": [
                    10.8563189,
                    49.9046466
                ],
                "Distance": 132.18,
                "Frequency": 5.9,
                "RSSI": -92.97999999999999,
                "LOS": "False"
            }
        },
        {
            "type": "Feature",
            "geometry": {
                "type": "Point",
                "coordinates": [
                    10.85467621,
                    49.90496998
                ]
            },
            "properties": {
                "RSU coordinates": [
                    10.8563189,
                    49.9046466
                ],
                "Distance": 123.16,
                "Frequency": 5.9,
                "RSSI": -92.37,
                "LOS": "False"
            }
        },
        {
            "type": "Feature",
            "geometry": {
                "type": "Point",
                "coordinates": [
                    10.85477283,
                    49.90507777
                ]
            },
            "properties": {
                "RSU coordinates": [
                    10.8563189,
                    49.9046466
                ],
                "Distance": 120.8,
                "Frequency": 5.9,
                "RSSI": -92.2,
                "LOS": "False"
            }
        },
        {
            "type": "Feature",
            "geometry": {
                "type": "Point",
                "coordinates": [
                    10.85467621,
                    49.90475439
                ]
            },
            "properties": {
                "RSU coordinates": [
                    10.8563189,
                    49.9046466
                ],
                "Distance": 118.39,
                "Frequency": 5.9,
                "RSSI": -92.03,
                "LOS": "False"
            }
        },
        {
            "type": "Feature",
            "geometry": {
                "type": "Point",
                "coordinates": [
                    10.85486946,
                    49.90496998
                ]
            },
            "properties": {
                "RSU coordinates": [
                    10.8563189,
                    49.9046466
                ],
                "Distance": 109.98,
                "Frequency": 5.9,
                "RSSI": -91.4,
                "LOS": "False"
            }
        },
        {
            "type": "Feature",
            "geometry": {
                "type": "Point",
                "coordinates": [
                    10.85496609,
                    49.90507777
                ]
            },
            "properties": {
                "RSU coordinates": [
                    10.8563189,
                    49.9046466
                ],
                "Distance": 108.22,
                "Frequency": 5.9,
                "RSSI": -61.26,
                "LOS": "True"
            }
        },
        {
            "type": "Feature",
            "geometry": {
                "type": "Point",
                "coordinates": [
                    10.85486947,
                    49.90475439
                ]
            },
            "properties": {
                "RSU coordinates": [
                    10.8563189,
                    49.9046466
                ],
                "Distance": 104.61,
                "Frequency": 5.9,
                "RSSI": -90.97,
                "LOS": "False"
            }
        },
        {
            "type": "Feature",
            "geometry": {
                "type": "Point",
                "coordinates": [
                    10.85612564,
                    49.90615571
                ]
            },
            "properties": {
                "RSU coordinates": [
                    10.8563189,
                    49.9046466
                ],
                "Distance": 168.57,
                "Frequency": 5.9,
                "RSSI": -95.06,
                "LOS": "False"
            }
        },
        {
            "type": "Feature",
            "geometry": {
                "type": "Point",
                "coordinates": [
                    10.8549661,
                    49.9046466
                ]
            },
            "properties": {
                "RSU coordinates": [
                    10.8563189,
                    49.9046466
                ],
                "Distance": 96.99,
                "Frequency": 5.9,
                "RSSI": -90.32,
                "LOS": "False"
            }
        },
        {
            "type": "Feature",
            "geometry": {
                "type": "Point",
                "coordinates": [
                    10.85506273,
                    49.90475439
                ]
            },
            "properties": {
                "RSU coordinates": [
                    10.8563189,
                    49.9046466
                ],
                "Distance": 90.86,
                "Frequency": 5.9,
                "RSSI": -89.75999999999999,
                "LOS": "False"
            }
        },
        {
            "type": "Feature",
            "geometry": {
                "type": "Point",
                "coordinates": [
                    10.85515935,
                    49.90486219
                ]
            },
            "properties": {
                "RSU coordinates": [
                    10.8563189,
                    49.9046466
                ],
                "Distance": 86.53,
                "Frequency": 5.9,
                "RSSI": -74.34,
                "LOS": "False"
            }
        },
        {
            "type": "Feature",
            "geometry": {
                "type": "Point",
                "coordinates": [
                    10.85525598,
                    49.90496998
                ]
            },
            "properties": {
                "RSU coordinates": [
                    10.8563189,
                    49.9046466
                ],
                "Distance": 84.29,
                "Frequency": 5.9,
                "RSSI": -59.12,
                "LOS": "True"
            }
        },
        {
            "type": "Feature",
            "geometry": {
                "type": "Point",
                "coordinates": [
                    10.85602901,
                    49.90583233
                ]
            },
            "properties": {
                "RSU coordinates": [
                    10.8563189,
                    49.9046466
                ],
                "Distance": 133.63,
                "Frequency": 5.9,
                "RSSI": -93.07,
                "LOS": "False"
            }
        },
        {
            "type": "Feature",
            "geometry": {
                "type": "Point",
                "coordinates": [
                    10.85612564,
                    49.90594012
                ]
            },
            "properties": {
                "RSU coordinates": [
                    10.8563189,
                    49.9046466
                ],
                "Distance": 144.67,
                "Frequency": 5.9,
                "RSSI": -93.75,
                "LOS": "False"
            }
        },
        {
            "type": "Feature",
            "geometry": {
                "type": "Point",
                "coordinates": [
                    10.85622227,
                    49.90604792
                ]
            },
            "properties": {
                "RSU coordinates": [
                    10.8563189,
                    49.9046466
                ],
                "Distance": 156.15,
                "Frequency": 5.9,
                "RSSI": -94.41,
                "LOS": "False"
            }
        },
        {
            "type": "Feature",
            "geometry": {
                "type": "Point",
                "coordinates": [
                    10.85515936,
                    49.9046466
                ]
            },
            "properties": {
                "RSU coordinates": [
                    10.8563189,
                    49.9046466
                ],
                "Distance": 83.14,
                "Frequency": 5.9,
                "RSSI": -89.0,
                "LOS": "False"
            }
        },
        {
            "type": "Feature",
            "geometry": {
                "type": "Point",
                "coordinates": [
                    10.85525598,
                    49.90475439
                ]
            },
            "properties": {
                "RSU coordinates": [
                    10.8563189,
                    49.9046466
                ],
                "Distance": 77.15,
                "Frequency": 5.9,
                "RSSI": -88.36,
                "LOS": "False"
            }
        },
        {
            "type": "Feature",
            "geometry": {
                "type": "Point",
                "coordinates": [
                    10.85535261,
                    49.90486219
                ]
            },
            "properties": {
                "RSU coordinates": [
                    10.8563189,
                    49.9046466
                ],
                "Distance": 73.32,
                "Frequency": 5.9,
                "RSSI": -57.92,
                "LOS": "True"
            }
        },
        {
            "type": "Feature",
            "geometry": {
                "type": "Point",
                "coordinates": [
                    10.85612564,
                    49.90572454
                ]
            },
            "properties": {
                "RSU coordinates": [
                    10.8563189,
                    49.9046466
                ],
                "Distance": 120.8,
                "Frequency": 5.9,
                "RSSI": -92.2,
                "LOS": "False"
            }
        },
        {
            "type": "Feature",
            "geometry": {
                "type": "Point",
                "coordinates": [
                    10.85622227,
                    49.90583233
                ]
            },
            "properties": {
                "RSU coordinates": [
                    10.8563189,
                    49.9046466
                ],
                "Distance": 132.18,
                "Frequency": 5.9,
                "RSSI": -92.97999999999999,
                "LOS": "False"
            }
        },
        {
            "type": "Feature",
            "geometry": {
                "type": "Point",
                "coordinates": [
                    10.85535262,
                    49.9046466
                ]
            },
            "properties": {
                "RSU coordinates": [
                    10.8563189,
                    49.9046466
                ],
                "Distance": 69.28,
                "Frequency": 5.9,
                "RSSI": -87.44,
                "LOS": "False"
            }
        },
        {
            "type": "Feature",
            "geometry": {
                "type": "Point",
                "coordinates": [
                    10.85554587,
                    49.90486219
                ]
            },
            "properties": {
                "RSU coordinates": [
                    10.8563189,
                    49.9046466
                ],
                "Distance": 60.4,
                "Frequency": 5.9,
                "RSSI": -56.26,
                "LOS": "True"
            }
        },
        {
            "type": "Feature",
            "geometry": {
                "type": "Point",
                "coordinates": [
                    10.85573912,
                    49.90507777
                ]
            },
            "properties": {
                "RSU coordinates": [
                    10.8563189,
                    49.9046466
                ],
                "Distance": 63.5,
                "Frequency": 5.9,
                "RSSI": -86.69,
                "LOS": "False"
            }
        },
        {
            "type": "Feature",
            "geometry": {
                "type": "Point",
                "coordinates": [
                    10.85612564,
                    49.90550895
                ]
            },
            "properties": {
                "RSU coordinates": [
                    10.8563189,
                    49.9046466
                ],
                "Distance": 96.99,
                "Frequency": 5.9,
                "RSSI": -90.32,
                "LOS": "False"
            }
        },
        {
            "type": "Feature",
            "geometry": {
                "type": "Point",
                "coordinates": [
                    10.85622227,
                    49.90561674
                ]
            },
            "properties": {
                "RSU coordinates": [
                    10.8563189,
                    49.9046466
                ],
                "Distance": 108.22,
                "Frequency": 5.9,
                "RSSI": -91.25999999999999,
                "LOS": "False"
            }
        },
        {
            "type": "Feature",
            "geometry": {
                "type": "Point",
                "coordinates": [
                    10.8556425,
                    49.90475439
                ]
            },
            "properties": {
                "RSU coordinates": [
                    10.8563189,
                    49.9046466
                ],
                "Distance": 49.96,
                "Frequency": 5.9,
                "RSSI": -54.63,
                "LOS": "True"
            }
        },
        {
            "type": "Feature",
            "geometry": {
                "type": "Point",
                "coordinates": [
                    10.85573913,
                    49.90486219
                ]
            },
            "properties": {
                "RSU coordinates": [
                    10.8563189,
                    49.9046466
                ],
                "Distance": 48.0,
                "Frequency": 5.9,
                "RSSI": -99.28999999999999,
                "LOS": "False"
            }
        },
        {
            "type": "Feature",
            "geometry": {
                "type": "Point",
                "coordinates": [
                    10.85583575,
                    49.90496998
                ]
            },
            "properties": {
                "RSU coordinates": [
                    10.8563189,
                    49.9046466
                ],
                "Distance": 49.96,
                "Frequency": 5.9,
                "RSSI": -84.63,
                "LOS": "False"
            }
        },
        {
            "type": "Feature",
            "geometry": {
                "type": "Point",
                "coordinates": [
                    10.85602901,
                    49.90518557
                ]
            },
            "properties": {
                "RSU coordinates": [
                    10.8563189,
                    49.9046466
                ],
                "Distance": 63.5,
                "Frequency": 5.9,
                "RSSI": -86.69,
                "LOS": "False"
            }
        },
        {
            "type": "Feature",
            "geometry": {
                "type": "Point",
                "coordinates": [
                    10.85622227,
                    49.90540116
                ]
            },
            "properties": {
                "RSU coordinates": [
                    10.8563189,
                    49.9046466
                ],
                "Distance": 84.29,
                "Frequency": 5.9,
                "RSSI": -74.12,
                "LOS": "False"
            }
        },
        {
            "type": "Feature",
            "geometry": {
                "type": "Point",
                "coordinates": [
                    10.8556425,
                    49.90453881
                ]
            },
            "properties": {
                "RSU coordinates": [
                    10.8563189,
                    49.9046466
                ],
                "Distance": 49.96,
                "Frequency": 5.9,
                "RSSI": -99.63,
                "LOS": "False"
            }
        },
        {
            "type": "Feature",
            "geometry": {
                "type": "Point",
                "coordinates": [
                    10.85573913,
                    49.9046466
                ]
            },
            "properties": {
                "RSU coordinates": [
                    10.8563189,
                    49.9046466
                ],
                "Distance": 41.57,
                "Frequency": 5.9,
                "RSSI": -68.06,
                "LOS": "False"
            }
        },
        {
            "type": "Feature",
            "geometry": {
                "type": "Point",
                "coordinates": [
                    10.85583576,
                    49.90475439
                ]
            },
            "properties": {
                "RSU coordinates": [
                    10.8563189,
                    49.9046466
                ],
                "Distance": 36.66,
                "Frequency": 5.9,
                "RSSI": -51.98,
                "LOS": "True"
            }
        },
        {
            "type": "Feature",
            "geometry": {
                "type": "Point",
                "coordinates": [
                    10.85612564,
                    49.90507777
                ]
            },
            "properties": {
                "RSU coordinates": [
                    10.8563189,
                    49.9046466
                ],
                "Distance": 49.96,
                "Frequency": 5.9,
                "RSSI": -84.63,
                "LOS": "False"
            }
        },
        {
            "type": "Feature",
            "geometry": {
                "type": "Point",
                "coordinates": [
                    10.85622227,
                    49.90518557
                ]
            },
            "properties": {
                "RSU coordinates": [
                    10.8563189,
                    49.9046466
                ],
                "Distance": 60.4,
                "Frequency": 5.9,
                "RSSI": -71.25999999999999,
                "LOS": "False"
            }
        },
        {
            "type": "Feature",
            "geometry": {
                "type": "Point",
                "coordinates": [
                    10.85573913,
                    49.90443101
                ]
            },
            "properties": {
                "RSU coordinates": [
                    10.8563189,
                    49.9046466
                ],
                "Distance": 48.0,
                "Frequency": 5.9,
                "RSSI": -99.28999999999999,
                "LOS": "False"
            }
        },
        {
            "type": "Feature",
            "geometry": {
                "type": "Point",
                "coordinates": [
                    10.85593239,
                    49.9046466
                ]
            },
            "properties": {
                "RSU coordinates": [
                    10.8563189,
                    49.9046466
                ],
                "Distance": 27.71,
                "Frequency": 5.9,
                "RSSI": -64.58,
                "LOS": "False"
            }
        },
        {
            "type": "Feature",
            "geometry": {
                "type": "Point",
                "coordinates": [
                    10.85602901,
                    49.90475439
                ]
            },
            "properties": {
                "RSU coordinates": [
                    10.8563189,
                    49.9046466
                ],
                "Distance": 24.0,
                "Frequency": 5.9,
                "RSSI": -48.34,
                "LOS": "True"
            }
        },
        {
            "type": "Feature",
            "geometry": {
                "type": "Point",
                "coordinates": [
                    10.85612564,
                    49.90486219
                ]
            },
            "properties": {
                "RSU coordinates": [
                    10.8563189,
                    49.9046466
                ],
                "Distance": 27.71,
                "Frequency": 5.9,
                "RSSI": -64.58,
                "LOS": "False"
            }
        },
        {
            "type": "Feature",
            "geometry": {
                "type": "Point",
                "coordinates": [
                    10.85689868,
                    49.90572454
                ]
            },
            "properties": {
                "RSU coordinates": [
                    10.8563189,
                    49.9046466
                ],
                "Distance": 127.0,
                "Frequency": 5.9,
                "RSSI": -92.63,
                "LOS": "False"
            }
        },
        {
            "type": "Feature",
            "geometry": {
                "type": "Point",
                "coordinates": [
                    10.85709195,
                    49.90594012
                ]
            },
            "properties": {
                "RSU coordinates": [
                    10.8563189,
                    49.9046466
                ],
                "Distance": 154.3,
                "Frequency": 5.9,
                "RSSI": -94.3,
                "LOS": "False"
            }
        },
        {
            "type": "Feature",
            "geometry": {
                "type": "Point",
                "coordinates": [
                    10.85583576,
                    49.90432322
                ]
            },
            "properties": {
                "RSU coordinates": [
                    10.8563189,
                    49.9046466
                ],
                "Distance": 49.96,
                "Frequency": 5.9,
                "RSSI": -99.63,
                "LOS": "False"
            }
        },
        {
            "type": "Feature",
            "geometry": {
                "type": "Point",
                "coordinates": [
                    10.85622227,
                    49.90475439
                ]
            },
            "properties": {
                "RSU coordinates": [
                    10.8563189,
                    49.9046466
                ],
                "Distance": 13.86,
                "Frequency": 5.9,
                "RSSI": -43.63,
                "LOS": "True"
            }
        },
        {
            "type": "Feature",
            "geometry": {
                "type": "Point",
                "coordinates": [
                    10.8563189,
                    49.90486219
                ]
            },
            "properties": {
                "RSU coordinates": [
                    10.8563189,
                    49.9046466
                ],
                "Distance": 24.0,
                "Frequency": 5.9,
                "RSSI": -63.34,
                "LOS": "False"
            }
        },
        {
            "type": "Feature",
            "geometry": {
                "type": "Point",
                "coordinates": [
                    10.85660879,
                    49.90518557
                ]
            },
            "properties": {
                "RSU coordinates": [
                    10.8563189,
                    49.9046466
                ],
                "Distance": 63.5,
                "Frequency": 5.9,
                "RSSI": -71.69,
                "LOS": "False"
            }
        },
        {
            "type": "Feature",
            "geometry": {
                "type": "Point",
                "coordinates": [
                    10.85622227,
                    49.90453881
                ]
            },
            "properties": {
                "RSU coordinates": [
                    10.8563189,
                    49.9046466
                ],
                "Distance": 13.86,
                "Frequency": 5.9,
                "RSSI": -58.63,
                "LOS": "False"
            }
        },
        {
            "type": "Feature",
            "geometry": {
                "type": "Point",
                "coordinates": [
                    10.85641553,
                    49.90475439
                ]
            },
            "properties": {
                "RSU coordinates": [
                    10.8563189,
                    49.9046466
                ],
                "Distance": 13.86,
                "Frequency": 5.9,
                "RSSI": -58.63,
                "LOS": "False"
            }
        },
        {
            "type": "Feature",
            "geometry": {
                "type": "Point",
                "coordinates": [
                    10.85651216,
                    49.90486219
                ]
            },
            "properties": {
                "RSU coordinates": [
                    10.8563189,
                    49.9046466
                ],
                "Distance": 27.71,
                "Frequency": 5.9,
                "RSSI": -64.58,
                "LOS": "False"
            }
        },
        {
            "type": "Feature",
            "geometry": {
                "type": "Point",
                "coordinates": [
                    10.85622227,
                    49.90432322
                ]
            },
            "properties": {
                "RSU coordinates": [
                    10.8563189,
                    49.9046466
                ],
                "Distance": 36.66,
                "Frequency": 5.9,
                "RSSI": -51.98,
                "LOS": "True"
            }
        },
        {
            "type": "Feature",
            "geometry": {
                "type": "Point",
                "coordinates": [
                    10.8563189,
                    49.90443101
                ]
            },
            "properties": {
                "RSU coordinates": [
                    10.8563189,
                    49.9046466
                ],
                "Distance": 24.0,
                "Frequency": 5.9,
                "RSSI": -48.34,
                "LOS": "True"
            }
        },
        {
            "type": "Feature",
            "geometry": {
                "type": "Point",
                "coordinates": [
                    10.85641553,
                    49.90453881
                ]
            },
            "properties": {
                "RSU coordinates": [
                    10.8563189,
                    49.9046466
                ],
                "Distance": 13.86,
                "Frequency": 5.9,
                "RSSI": -43.63,
                "LOS": "True"
            }
        },
        {
            "type": "Feature",
            "geometry": {
                "type": "Point",
                "coordinates": [
                    10.85651216,
                    49.9046466
                ]
            },
            "properties": {
                "RSU coordinates": [
                    10.8563189,
                    49.9046466
                ],
                "Distance": 13.86,
                "Frequency": 5.9,
                "RSSI": -43.63,
                "LOS": "True"
            }
        },
        {
            "type": "Feature",
            "geometry": {
                "type": "Point",
                "coordinates": [
                    10.85670542,
                    49.90486219
                ]
            },
            "properties": {
                "RSU coordinates": [
                    10.8563189,
                    49.9046466
                ],
                "Distance": 36.66,
                "Frequency": 5.9,
                "RSSI": -96.97999999999999,
                "LOS": "False"
            }
        },
        {
            "type": "Feature",
            "geometry": {
                "type": "Point",
                "coordinates": [
                    10.85680205,
                    49.90496998
                ]
            },
            "properties": {
                "RSU coordinates": [
                    10.8563189,
                    49.9046466
                ],
                "Distance": 49.96,
                "Frequency": 5.9,
                "RSSI": -84.63,
                "LOS": "False"
            }
        },
        {
            "type": "Feature",
            "geometry": {
                "type": "Point",
                "coordinates": [
                    10.85689868,
                    49.90507777
                ]
            },
            "properties": {
                "RSU coordinates": [
                    10.8563189,
                    49.9046466
                ],
                "Distance": 63.5,
                "Frequency": 5.9,
                "RSSI": -86.69,
                "LOS": "False"
            }
        },
        {
            "type": "Feature",
            "geometry": {
                "type": "Point",
                "coordinates": [
                    10.85699531,
                    49.90518557
                ]
            },
            "properties": {
                "RSU coordinates": [
                    10.8563189,
                    49.9046466
                ],
                "Distance": 77.15,
                "Frequency": 5.9,
                "RSSI": -88.36,
                "LOS": "False"
            }
        },
        {
            "type": "Feature",
            "geometry": {
                "type": "Point",
                "coordinates": [
                    10.85709194,
                    49.90529336
                ]
            },
            "properties": {
                "RSU coordinates": [
                    10.8563189,
                    49.9046466
                ],
                "Distance": 90.86,
                "Frequency": 5.9,
                "RSSI": -89.75999999999999,
                "LOS": "False"
            }
        },
        {
            "type": "Feature",
            "geometry": {
                "type": "Point",
                "coordinates": [
                    10.85718857,
                    49.90540116
                ]
            },
            "properties": {
                "RSU coordinates": [
                    10.8563189,
                    49.9046466
                ],
                "Distance": 104.61,
                "Frequency": 5.9,
                "RSSI": -90.97,
                "LOS": "False"
            }
        },
        {
            "type": "Feature",
            "geometry": {
                "type": "Point",
                "coordinates": [
                    10.85612565,
                    49.90399984
                ]
            },
            "properties": {
                "RSU coordinates": [
                    10.8563189,
                    49.9046466
                ],
                "Distance": 73.32,
                "Frequency": 5.9,
                "RSSI": -57.92,
                "LOS": "True"
            }
        },
        {
            "type": "Feature",
            "geometry": {
                "type": "Point",
                "coordinates": [
                    10.85622227,
                    49.90410763
                ]
            },
            "properties": {
                "RSU coordinates": [
                    10.8563189,
                    49.9046466
                ],
                "Distance": 60.4,
                "Frequency": 5.9,
                "RSSI": -56.26,
                "LOS": "True"
            }
        },
        {
            "type": "Feature",
            "geometry": {
                "type": "Point",
                "coordinates": [
                    10.85660878,
                    49.90453881
                ]
            },
            "properties": {
                "RSU coordinates": [
                    10.8563189,
                    49.9046466
                ],
                "Distance": 24.0,
                "Frequency": 5.9,
                "RSSI": -48.34,
                "LOS": "True"
            }
        },
        {
            "type": "Feature",
            "geometry": {
                "type": "Point",
                "coordinates": [
                    10.85602902,
                    49.90367646
                ]
            },
            "properties": {
                "RSU coordinates": [
                    10.8563189,
                    49.9046466
                ],
                "Distance": 109.98,
                "Frequency": 5.9,
                "RSSI": -76.4,
                "LOS": "False"
            }
        },
        {
            "type": "Feature",
            "geometry": {
                "type": "Point",
                "coordinates": [
                    10.85612565,
                    49.90378425
                ]
            },
            "properties": {
                "RSU coordinates": [
                    10.8563189,
                    49.9046466
                ],
                "Distance": 96.99,
                "Frequency": 5.9,
                "RSSI": -60.32,
                "LOS": "True"
            }
        },
        {
            "type": "Feature",
            "geometry": {
                "type": "Point",
                "coordinates": [
                    10.85622227,
                    49.90389204
                ]
            },
            "properties": {
                "RSU coordinates": [
                    10.8563189,
                    49.9046466
                ],
                "Distance": 84.29,
                "Frequency": 5.9,
                "RSSI": -59.12,
                "LOS": "True"
            }
        },
        {
            "type": "Feature",
            "geometry": {
                "type": "Point",
                "coordinates": [
                    10.85651216,
                    49.90421543
                ]
            },
            "properties": {
                "RSU coordinates": [
                    10.8563189,
                    49.9046466
                ],
                "Distance": 49.96,
                "Frequency": 5.9,
                "RSSI": -84.63,
                "LOS": "False"
            }
        },
        {
            "type": "Feature",
            "geometry": {
                "type": "Point",
                "coordinates": [
                    10.85660878,
                    49.90432322
                ]
            },
            "properties": {
                "RSU coordinates": [
                    10.8563189,
                    49.9046466
                ],
                "Distance": 41.57,
                "Frequency": 5.9,
                "RSSI": -68.06,
                "LOS": "False"
            }
        },
        {
            "type": "Feature",
            "geometry": {
                "type": "Point",
                "coordinates": [
                    10.85680204,
                    49.90453881
                ]
            },
            "properties": {
                "RSU coordinates": [
                    10.8563189,
                    49.9046466
                ],
                "Distance": 36.66,
                "Frequency": 5.9,
                "RSSI": -51.98,
                "LOS": "True"
            }
        },
        {
            "type": "Feature",
            "geometry": {
                "type": "Point",
                "coordinates": [
                    10.8559324,
                    49.90335308
                ]
            },
            "properties": {
                "RSU coordinates": [
                    10.8563189,
                    49.9046466
                ],
                "Distance": 146.64,
                "Frequency": 5.9,
                "RSSI": -78.87,
                "LOS": "False"
            }
        },
        {
            "type": "Feature",
            "geometry": {
                "type": "Point",
                "coordinates": [
                    10.85602902,
                    49.90346087
                ]
            },
            "properties": {
                "RSU coordinates": [
                    10.8563189,
                    49.9046466
                ],
                "Distance": 133.63,
                "Frequency": 5.9,
                "RSSI": -63.07,
                "LOS": "True"
            }
        },
        {
            "type": "Feature",
            "geometry": {
                "type": "Point",
                "coordinates": [
                    10.85612565,
                    49.90356866
                ]
            },
            "properties": {
                "RSU coordinates": [
                    10.8563189,
                    49.9046466
                ],
                "Distance": 120.8,
                "Frequency": 5.9,
                "RSSI": -62.2,
                "LOS": "True"
            }
        },
        {
            "type": "Feature",
            "geometry": {
                "type": "Point",
                "coordinates": [
                    10.85660878,
                    49.90410763
                ]
            },
            "properties": {
                "RSU coordinates": [
                    10.8563189,
                    49.9046466
                ],
                "Distance": 63.5,
                "Frequency": 5.9,
                "RSSI": -71.69,
                "LOS": "False"
            }
        },
        {
            "type": "Feature",
            "geometry": {
                "type": "Point",
                "coordinates": [
                    10.85670541,
                    49.90421543
                ]
            },
            "properties": {
                "RSU coordinates": [
                    10.8563189,
                    49.9046466
                ],
                "Distance": 55.43,
                "Frequency": 5.9,
                "RSSI": -85.52000000000001,
                "LOS": "False"
            }
        },
        {
            "type": "Feature",
            "geometry": {
                "type": "Point",
                "coordinates": [
                    10.85680204,
                    49.90432322
                ]
            },
            "properties": {
                "RSU coordinates": [
                    10.8563189,
                    49.9046466
                ],
                "Distance": 49.96,
                "Frequency": 5.9,
                "RSSI": -69.63,
                "LOS": "False"
            }
        },
        {
            "type": "Feature",
            "geometry": {
                "type": "Point",
                "coordinates": [
                    10.8569953,
                    49.90453881
                ]
            },
            "properties": {
                "RSU coordinates": [
                    10.8563189,
                    49.9046466
                ],
                "Distance": 49.96,
                "Frequency": 5.9,
                "RSSI": -54.63,
                "LOS": "True"
            }
        },
        {
            "type": "Feature",
            "geometry": {
                "type": "Point",
                "coordinates": [
                    10.85583577,
                    49.9030297
                ]
            },
            "properties": {
                "RSU coordinates": [
                    10.8563189,
                    49.9046466
                ],
                "Distance": 183.3,
                "Frequency": 5.9,
                "RSSI": -95.78,
                "LOS": "False"
            }
        },
        {
            "type": "Feature",
            "geometry": {
                "type": "Point",
                "coordinates": [
                    10.8559324,
                    49.90313749
                ]
            },
            "properties": {
                "RSU coordinates": [
                    10.8563189,
                    49.9046466
                ],
                "Distance": 170.27,
                "Frequency": 5.9,
                "RSSI": -80.15,
                "LOS": "False"
            }
        },
        {
            "type": "Feature",
            "geometry": {
                "type": "Point",
                "coordinates": [
                    10.85660878,
                    49.90389204
                ]
            },
            "properties": {
                "RSU coordinates": [
                    10.8563189,
                    49.9046466
                ],
                "Distance": 86.53,
                "Frequency": 5.9,
                "RSSI": -89.34,
                "LOS": "False"
            }
        },
        {
            "type": "Feature",
            "geometry": {
                "type": "Point",
                "coordinates": [
                    10.85670541,
                    49.90399984
                ]
            },
            "properties": {
                "RSU coordinates": [
                    10.8563189,
                    49.9046466
                ],
                "Distance": 77.15,
                "Frequency": 5.9,
                "RSSI": -73.36,
                "LOS": "False"
            }
        },
        {
            "type": "Feature",
            "geometry": {
                "type": "Point",
                "coordinates": [
                    10.85689867,
                    49.90421543
                ]
            },
            "properties": {
                "RSU coordinates": [
                    10.8563189,
                    49.9046466
                ],
                "Distance": 63.5,
                "Frequency": 5.9,
                "RSSI": -86.69,
                "LOS": "False"
            }
        },
        {
            "type": "Feature",
            "geometry": {
                "type": "Point",
                "coordinates": [
                    10.85699529,
                    49.90432322
                ]
            },
            "properties": {
                "RSU coordinates": [
                    10.8563189,
                    49.9046466
                ],
                "Distance": 60.4,
                "Frequency": 5.9,
                "RSSI": -86.25999999999999,
                "LOS": "False"
            }
        },
        {
            "type": "Feature",
            "geometry": {
                "type": "Point",
                "coordinates": [
                    10.85718855,
                    49.90453881
                ]
            },
            "properties": {
                "RSU coordinates": [
                    10.8563189,
                    49.9046466
                ],
                "Distance": 63.5,
                "Frequency": 5.9,
                "RSSI": -56.69,
                "LOS": "True"
            }
        },
        {
            "type": "Feature",
            "geometry": {
                "type": "Point",
                "coordinates": [
                    10.85583578,
                    49.90281411
                ]
            },
            "properties": {
                "RSU coordinates": [
                    10.8563189,
                    49.9046466
                ],
                "Distance": 206.92,
                "Frequency": 5.9,
                "RSSI": -96.82,
                "LOS": "False"
            }
        },
        {
            "type": "Feature",
            "geometry": {
                "type": "Point",
                "coordinates": [
                    10.85699529,
                    49.90410763
                ]
            },
            "properties": {
                "RSU coordinates": [
                    10.8563189,
                    49.9046466
                ],
                "Distance": 77.15,
                "Frequency": 5.9,
                "RSSI": -88.36,
                "LOS": "False"
            }
        },
        {
            "type": "Feature",
            "geometry": {
                "type": "Point",
                "coordinates": [
                    10.85709192,
                    49.90421543
                ]
            },
            "properties": {
                "RSU coordinates": [
                    10.8563189,
                    49.9046466
                ],
                "Distance": 73.32,
                "Frequency": 5.9,
                "RSSI": -87.92,
                "LOS": "False"
            }
        },
        {
            "type": "Feature",
            "geometry": {
                "type": "Point",
                "coordinates": [
                    10.85718855,
                    49.90432322
                ]
            },
            "properties": {
                "RSU coordinates": [
                    10.8563189,
                    49.9046466
                ],
                "Distance": 72.0,
                "Frequency": 5.9,
                "RSSI": -72.77000000000001,
                "LOS": "False"
            }
        },
        {
            "type": "Feature",
            "geometry": {
                "type": "Point",
                "coordinates": [
                    10.85728518,
                    49.90443101
                ]
            },
            "properties": {
                "RSU coordinates": [
                    10.8563189,
                    49.9046466
                ],
                "Distance": 73.32,
                "Frequency": 5.9,
                "RSSI": -72.92,
                "LOS": "False"
            }
        },
        {
            "type": "Feature",
            "geometry": {
                "type": "Point",
                "coordinates": [
                    10.85738181,
                    49.90453881
                ]
            },
            "properties": {
                "RSU coordinates": [
                    10.8563189,
                    49.9046466
                ],
                "Distance": 77.15,
                "Frequency": 5.9,
                "RSSI": -58.36,
                "LOS": "True"
            }
        },
        {
            "type": "Feature",
            "geometry": {
                "type": "Point",
                "coordinates": [
                    10.85680203,
                    49.90367646
                ]
            },
            "properties": {
                "RSU coordinates": [
                    10.8563189,
                    49.9046466
                ],
                "Distance": 113.42,
                "Frequency": 5.9,
                "RSSI": -91.66,
                "LOS": "False"
            }
        },
        {
            "type": "Feature",
            "geometry": {
                "type": "Point",
                "coordinates": [
                    10.85709192,
                    49.90399984
                ]
            },
            "properties": {
                "RSU coordinates": [
                    10.8563189,
                    49.9046466
                ],
                "Distance": 90.86,
                "Frequency": 5.9,
                "RSSI": -89.75999999999999,
                "LOS": "False"
            }
        },
        {
            "type": "Feature",
            "geometry": {
                "type": "Point",
                "coordinates": [
                    10.85718855,
                    49.90410763
                ]
            },
            "properties": {
                "RSU coordinates": [
                    10.8563189,
                    49.9046466
                ],
                "Distance": 86.53,
                "Frequency": 5.9,
                "RSSI": -89.34,
                "LOS": "False"
            }
        },
        {
            "type": "Feature",
            "geometry": {
                "type": "Point",
                "coordinates": [
                    10.85728518,
                    49.90421543
                ]
            },
            "properties": {
                "RSU coordinates": [
                    10.8563189,
                    49.9046466
                ],
                "Distance": 84.29,
                "Frequency": 5.9,
                "RSSI": -89.12,
                "LOS": "False"
            }
        },
        {
            "type": "Feature",
            "geometry": {
                "type": "Point",
                "coordinates": [
                    10.85747844,
                    49.90443101
                ]
            },
            "properties": {
                "RSU coordinates": [
                    10.8563189,
                    49.9046466
                ],
                "Distance": 86.53,
                "Frequency": 5.9,
                "RSSI": -59.34,
                "LOS": "True"
            }
        },
        {
            "type": "Feature",
            "geometry": {
                "type": "Point",
                "coordinates": [
                    10.85757507,
                    49.90453881
                ]
            },
            "properties": {
                "RSU coordinates": [
                    10.8563189,
                    49.9046466
                ],
                "Distance": 90.86,
                "Frequency": 5.9,
                "RSSI": -89.75999999999999,
                "LOS": "False"
            }
        },
        {
            "type": "Feature",
            "geometry": {
                "type": "Point",
                "coordinates": [
                    10.85689866,
                    49.90356866
                ]
            },
            "properties": {
                "RSU coordinates": [
                    10.8563189,
                    49.9046466
                ],
                "Distance": 127.0,
                "Frequency": 5.9,
                "RSSI": -92.63,
                "LOS": "False"
            }
        },
        {
            "type": "Feature",
            "geometry": {
                "type": "Point",
                "coordinates": [
                    10.8573818,
                    49.90410763
                ]
            },
            "properties": {
                "RSU coordinates": [
                    10.8563189,
                    49.9046466
                ],
                "Distance": 96.99,
                "Frequency": 5.9,
                "RSSI": -90.32,
                "LOS": "False"
            }
        },
        {
            "type": "Feature",
            "geometry": {
                "type": "Point",
                "coordinates": [
                    10.85747843,
                    49.90421543
                ]
            },
            "properties": {
                "RSU coordinates": [
                    10.8563189,
                    49.9046466
                ],
                "Distance": 96.0,
                "Frequency": 5.9,
                "RSSI": -90.22999999999999,
                "LOS": "False"
            }
        },
        {
            "type": "Feature",
            "geometry": {
                "type": "Point",
                "coordinates": [
                    10.85767169,
                    49.90443101
                ]
            },
            "properties": {
                "RSU coordinates": [
                    10.8563189,
                    49.9046466
                ],
                "Distance": 99.92,
                "Frequency": 5.9,
                "RSSI": -60.58,
                "LOS": "True"
            }
        },
        {
            "type": "Feature",
            "geometry": {
                "type": "Point",
                "coordinates": [
                    10.85699528,
                    49.90346087
                ]
            },
            "properties": {
                "RSU coordinates": [
                    10.8563189,
                    49.9046466
                ],
                "Distance": 140.63,
                "Frequency": 5.9,
                "RSSI": -93.50999999999999,
                "LOS": "False"
            }
        },
        {
            "type": "Feature",
            "geometry": {
                "type": "Point",
                "coordinates": [
                    10.85747843,
                    49.90399984
                ]
            },
            "properties": {
                "RSU coordinates": [
                    10.8563189,
                    49.9046466
                ],
                "Distance": 109.98,
                "Frequency": 5.9,
                "RSSI": -91.4,
                "LOS": "False"
            }
        },
        {
            "type": "Feature",
            "geometry": {
                "type": "Point",
                "coordinates": [
                    10.85786495,
                    49.90443101
                ]
            },
            "properties": {
                "RSU coordinates": [
                    10.8563189,
                    49.9046466
                ],
                "Distance": 113.42,
                "Frequency": 5.9,
                "RSSI": -61.66,
                "LOS": "True"
            }
        },
        {
            "type": "Feature",
            "geometry": {
                "type": "Point",
                "coordinates": [
                    10.85699528,
                    49.90324528
                ]
            },
            "properties": {
                "RSU coordinates": [
                    10.8563189,
                    49.9046466
                ],
                "Distance": 163.36,
                "Frequency": 5.9,
                "RSSI": -94.79,
                "LOS": "False"
            }
        },
        {
            "type": "Feature",
            "geometry": {
                "type": "Point",
                "coordinates": [
                    10.85709191,
                    49.90335308
                ]
            },
            "properties": {
                "RSU coordinates": [
                    10.8563189,
                    49.9046466
                ],
                "Distance": 154.3,
                "Frequency": 5.9,
                "RSSI": -94.3,
                "LOS": "False"
            }
        },
        {
            "type": "Feature",
            "geometry": {
                "type": "Point",
                "coordinates": [
                    10.85767168,
                    49.90399984
                ]
            },
            "properties": {
                "RSU coordinates": [
                    10.8563189,
                    49.9046466
                ],
                "Distance": 120.8,
                "Frequency": 5.9,
                "RSSI": -92.2,
                "LOS": "False"
            }
        },
        {
            "type": "Feature",
            "geometry": {
                "type": "Point",
                "coordinates": [
                    10.8580582,
                    49.90443101
                ]
            },
            "properties": {
                "RSU coordinates": [
                    10.8563189,
                    49.9046466
                ],
                "Distance": 127.0,
                "Frequency": 5.9,
                "RSSI": -62.63,
                "LOS": "True"
            }
        },
        {
            "type": "Feature",
            "geometry": {
                "type": "Point",
                "coordinates": [
                    10.8570919,
                    49.90313749
                ]
            },
            "properties": {
                "RSU coordinates": [
                    10.8563189,
                    49.9046466
                ],
                "Distance": 176.91,
                "Frequency": 5.9,
                "RSSI": -95.48,
                "LOS": "False"
            }
        },
        {
            "type": "Feature",
            "geometry": {
                "type": "Point",
                "coordinates": [
                    10.85815483,
                    49.90432322
                ]
            },
            "properties": {
                "RSU coordinates": [
                    10.8563189,
                    49.9046466
                ],
                "Distance": 136.47,
                "Frequency": 5.9,
                "RSSI": -63.25,
                "LOS": "True"
            }
        },
        {
            "type": "Feature",
            "geometry": {
                "type": "Point",
                "coordinates": [
                    10.85825146,
                    49.90443101
                ]
            },
            "properties": {
                "RSU coordinates": [
                    10.8563189,
                    49.9046466
                ],
                "Distance": 140.63,
                "Frequency": 5.9,
                "RSSI": -63.51,
                "LOS": "True"
            }
        },
        {
            "type": "Feature",
            "geometry": {
                "type": "Point",
                "coordinates": [
                    10.8577683,
                    49.90367646
                ]
            },
            "properties": {
                "RSU coordinates": [
                    10.8563189,
                    49.9046466
                ],
                "Distance": 149.88,
                "Frequency": 5.9,
                "RSSI": -94.05,
                "LOS": "False"
            }
        },
        {
            "type": "Feature",
            "geometry": {
                "type": "Point",
                "coordinates": [
                    10.85834808,
                    49.90432322
                ]
            },
            "properties": {
                "RSU coordinates": [
                    10.8563189,
                    49.9046466
                ],
                "Distance": 149.88,
                "Frequency": 5.9,
                "RSSI": -79.05,
                "LOS": "False"
            }
        },
        {
            "type": "Feature",
            "geometry": {
                "type": "Point",
                "coordinates": [
                    10.85844472,
                    49.90443101
                ]
            },
            "properties": {
                "RSU coordinates": [
                    10.8563189,
                    49.9046466
                ],
                "Distance": 154.3,
                "Frequency": 5.9,
                "RSSI": -64.3,
                "LOS": "True"
            }
        },
        {
            "type": "Feature",
            "geometry": {
                "type": "Point",
                "coordinates": [
                    10.85854134,
                    49.90432322
                ]
            },
            "properties": {
                "RSU coordinates": [
                    10.8563189,
                    49.9046466
                ],
                "Distance": 163.36,
                "Frequency": 5.9,
                "RSSI": -64.79,
                "LOS": "True"
            }
        },
        {
            "type": "Feature",
            "geometry": {
                "type": "Point",
                "coordinates": [
                    10.85728515,
                    49.90270632
                ]
            },
            "properties": {
                "RSU coordinates": [
                    10.8563189,
                    49.9046466
                ],
                "Distance": 226.84,
                "Frequency": 5.9,
                "RSSI": -97.61,
                "LOS": "False"
            }
        },
        {
            "type": "Feature",
            "geometry": {
                "type": "Point",
                "coordinates": [
                    10.85873459,
                    49.90432322
                ]
            },
            "properties": {
                "RSU coordinates": [
                    10.8563189,
                    49.9046466
                ],
                "Distance": 176.91,
                "Frequency": 5.9,
                "RSSI": -65.48,
                "LOS": "True"
            }
        },
        {
            "type": "Feature",
            "geometry": {
                "type": "Point",
                "coordinates": [
                    10.85883122,
                    49.90421543
                ]
            },
            "properties": {
                "RSU coordinates": [
                    10.8563189,
                    49.9046466
                ],
                "Distance": 186.42,
                "Frequency": 5.9,
                "RSSI": -80.93,
                "LOS": "False"
            }
        },
        {
            "type": "Feature",
            "geometry": {
                "type": "Point",
                "coordinates": [
                    10.85892785,
                    49.90432322
                ]
            },
            "properties": {
                "RSU coordinates": [
                    10.8563189,
                    49.9046466
                ],
                "Distance": 190.49,
                "Frequency": 5.9,
                "RSSI": -66.11,
                "LOS": "True"
            }
        },
        {
            "type": "Feature",
            "geometry": {
                "type": "Point",
                "coordinates": [
                    10.85902447,
                    49.90421543
                ]
            },
            "properties": {
                "RSU coordinates": [
                    10.8563189,
                    49.9046466
                ],
                "Distance": 199.84,
                "Frequency": 5.9,
                "RSSI": -81.52,
                "LOS": "False"
            }
        },
        {
            "type": "Feature",
            "geometry": {
                "type": "Point",
                "coordinates": [
                    10.85912111,
                    49.90432322
                ]
            },
            "properties": {
                "RSU coordinates": [
                    10.8563189,
                    49.9046466
                ],
                "Distance": 204.12,
                "Frequency": 5.9,
                "RSSI": -81.7,
                "LOS": "False"
            }
        },
        {
            "type": "Feature",
            "geometry": {
                "type": "Point",
                "coordinates": [
                    10.85921773,
                    49.90421543
                ]
            },
            "properties": {
                "RSU coordinates": [
                    10.8563189,
                    49.9046466
                ],
                "Distance": 213.32,
                "Frequency": 5.9,
                "RSSI": -67.08,
                "LOS": "True"
            }
        },
        {
            "type": "Feature",
            "geometry": {
                "type": "Point",
                "coordinates": [
                    10.85757501,
                    49.90216735
                ]
            },
            "properties": {
                "RSU coordinates": [
                    10.8563189,
                    49.9046466
                ],
                "Distance": 290.32,
                "Frequency": 5.9,
                "RSSI": -99.72,
                "LOS": "False"
            }
        },
        {
            "type": "Feature",
            "geometry": {
                "type": "Point",
                "coordinates": [
                    10.85941098,
                    49.90421543
                ]
            },
            "properties": {
                "RSU coordinates": [
                    10.8563189,
                    49.9046466
                ],
                "Distance": 226.84,
                "Frequency": 5.9,
                "RSSI": -67.61,
                "LOS": "True"
            }
        },
        {
            "type": "Feature",
            "geometry": {
                "type": "Point",
                "coordinates": [
                    10.8595076,
                    49.90410763
                ]
            },
            "properties": {
                "RSU coordinates": [
                    10.8563189,
                    49.9046466
                ],
                "Distance": 236.37,
                "Frequency": 5.9,
                "RSSI": -82.96,
                "LOS": "False"
            }
        },
        {
            "type": "Feature",
            "geometry": {
                "type": "Point",
                "coordinates": [
                    10.85970086,
                    49.90410763
                ]
            },
            "properties": {
                "RSU coordinates": [
                    10.8563189,
                    49.9046466
                ],
                "Distance": 249.8,
                "Frequency": 5.9,
                "RSSI": -83.44,
                "LOS": "False"
            }
        },
        {
            "type": "Feature",
            "geometry": {
                "type": "Point",
                "coordinates": [
                    10.85989411,
                    49.90410763
                ]
            },
            "properties": {
                "RSU coordinates": [
                    10.8563189,
                    49.9046466
                ],
                "Distance": 263.27,
                "Frequency": 5.9,
                "RSSI": -68.89,
                "LOS": "True"
            }
        },
        {
            "type": "Feature",
            "geometry": {
                "type": "Point",
                "coordinates": [
                    10.86018399,
                    49.90399984
                ]
            },
            "properties": {
                "RSU coordinates": [
                    10.8563189,
                    49.9046466
                ],
                "Distance": 286.33,
                "Frequency": 5.9,
                "RSSI": -84.61,
                "LOS": "False"
            }
        },
        {
            "type": "Feature",
            "geometry": {
                "type": "Point",
                "coordinates": [
                    10.86037724,
                    49.90399984
                ]
            },
            "properties": {
                "RSU coordinates": [
                    10.8563189,
                    49.9046466
                ],
                "Distance": 299.76,
                "Frequency": 5.9,
                "RSSI": -85.0,
                "LOS": "False"
            }
        },
        {
            "type": "Feature",
            "geometry": {
                "type": "Point",
                "coordinates": [
                    10.86086037,
                    49.90389204
                ]
            },
            "properties": {
                "RSU coordinates": [
                    10.8563189,
                    49.9046466
                ],
                "Distance": 336.29,
                "Frequency": 5.9,
                "RSSI": -85.98,
                "LOS": "False"
            }
        }
    ]
}