{
    "type": "FeatureCollection",
    "features": [
        {
            "type": "Feature",
            "geometry": {
                "type": "Point",
                "coordinates": [
                    10.89665969,
                    48.37126008
                ]
            },
            "properties": {
                "RSU coordinates": [
                    10.8990018,
                    48.3709367
                ],
                "Distance": 176.91,
                "Frequency": 5.9,
                "RSSI": -95.48,
                "LOS": "False"
            }
        },
        {
            "type": "Feature",
            "geometry": {
                "type": "Point",
                "coordinates": [
                    10.89740917,
                    48.37104449
                ]
            },
            "properties": {
                "RSU coordinates": [
                    10.8990018,
                    48.3709367
                ],
                "Distance": 118.39,
                "Frequency": 5.9,
                "RSSI": -77.03,
                "LOS": "False"
            }
        },
        {
            "type": "Feature",
            "geometry": {
                "type": "Point",
                "coordinates": [
                    10.89712814,
                    48.37050553
                ]
            },
            "properties": {
                "RSU coordinates": [
                    10.8990018,
                    48.3709367
                ],
                "Distance": 146.64,
                "Frequency": 5.9,
                "RSSI": -93.87,
                "LOS": "False"
            }
        },
        {
            "type": "Feature",
            "geometry": {
                "type": "Point",
                "coordinates": [
                    10.89769022,
                    48.37115229
                ]
            },
            "properties": {
                "RSU coordinates": [
                    10.8990018,
                    48.3709367
                ],
                "Distance": 99.92,
                "Frequency": 5.9,
                "RSSI": -90.58,
                "LOS": "False"
            }
        },
        {
            "type": "Feature",
            "geometry": {
                "type": "Point",
                "coordinates": [
                    10.89750287,
                    48.37072111
                ]
            },
            "properties": {
                "RSU coordinates": [
                    10.8990018,
                    48.3709367
                ],
                "Distance": 113.42,
                "Frequency": 5.9,
                "RSSI": -91.66,
                "LOS": "False"
            }
        },
        {
            "type": "Feature",
            "geometry": {
                "type": "Point",
                "coordinates": [
                    10.89778391,
                    48.37104449
                ]
            },
            "properties": {
                "RSU coordinates": [
                    10.8990018,
                    48.3709367
                ],
                "Distance": 90.86,
                "Frequency": 5.9,
                "RSSI": -59.76,
                "LOS": "True"
            }
        },
        {
            "type": "Feature",
            "geometry": {
                "type": "Point",
                "coordinates": [
                    10.89759655,
                    48.37061332
                ]
            },
            "properties": {
                "RSU coordinates": [
                    10.8990018,
                    48.3709367
                ],
                "Distance": 109.98,
                "Frequency": 5.9,
                "RSSI": -91.4,
                "LOS": "False"
            }
        },
        {
            "type": "Feature",
            "geometry": {
                "type": "Point",
                "coordinates": [
                    10.89769023,
                    48.37072111
                ]
            },
            "properties": {
                "RSU coordinates": [
                    10.8990018,
                    48.3709367
                ],
                "Distance": 99.92,
                "Frequency": 5.9,
                "RSSI": -75.58,
                "LOS": "False"
            }
        },
        {
            "type": "Feature",
            "geometry": {
                "type": "Point",
                "coordinates": [
                    10.89797128,
                    48.37104449
                ]
            },
            "properties": {
                "RSU coordinates": [
                    10.8990018,
                    48.3709367
                ],
                "Distance": 77.15,
                "Frequency": 5.9,
                "RSSI": -58.36,
                "LOS": "True"
            }
        },
        {
            "type": "Feature",
            "geometry": {
                "type": "Point",
                "coordinates": [
                    10.89815864,
                    48.37126008
                ]
            },
            "properties": {
                "RSU coordinates": [
                    10.8990018,
                    48.3709367
                ],
                "Distance": 72.0,
                "Frequency": 5.9,
                "RSSI": -87.77000000000001,
                "LOS": "False"
            }
        },
        {
            "type": "Feature",
            "geometry": {
                "type": "Point",
                "coordinates": [
                    10.8978776,
                    48.37072111
                ]
            },
            "properties": {
                "RSU coordinates": [
                    10.8990018,
                    48.3709367
                ],
                "Distance": 86.53,
                "Frequency": 5.9,
                "RSSI": -89.34,
                "LOS": "False"
            }
        },
        {
            "type": "Feature",
            "geometry": {
                "type": "Point",
                "coordinates": [
                    10.89797128,
                    48.37082891
                ]
            },
            "properties": {
                "RSU coordinates": [
                    10.8990018,
                    48.3709367
                ],
                "Distance": 77.15,
                "Frequency": 5.9,
                "RSSI": -88.36,
                "LOS": "False"
            }
        },
        {
            "type": "Feature",
            "geometry": {
                "type": "Point",
                "coordinates": [
                    10.89815864,
                    48.37104449
                ]
            },
            "properties": {
                "RSU coordinates": [
                    10.8990018,
                    48.3709367
                ],
                "Distance": 63.5,
                "Frequency": 5.9,
                "RSSI": -56.69,
                "LOS": "True"
            }
        },
        {
            "type": "Feature",
            "geometry": {
                "type": "Point",
                "coordinates": [
                    10.89815865,
                    48.37082891
                ]
            },
            "properties": {
                "RSU coordinates": [
                    10.8990018,
                    48.3709367
                ],
                "Distance": 63.5,
                "Frequency": 5.9,
                "RSSI": -71.69,
                "LOS": "False"
            }
        },
        {
            "type": "Feature",
            "geometry": {
                "type": "Point",
                "coordinates": [
                    10.89834601,
                    48.37104449
                ]
            },
            "properties": {
                "RSU coordinates": [
                    10.8990018,
                    48.3709367
                ],
                "Distance": 49.96,
                "Frequency": 5.9,
                "RSSI": -69.63,
                "LOS": "False"
            }
        },
        {
            "type": "Feature",
            "geometry": {
                "type": "Point",
                "coordinates": [
                    10.89834601,
                    48.37082891
                ]
            },
            "properties": {
                "RSU coordinates": [
                    10.8990018,
                    48.3709367
                ],
                "Distance": 49.96,
                "Frequency": 5.9,
                "RSSI": -69.63,
                "LOS": "False"
            }
        },
        {
            "type": "Feature",
            "geometry": {
                "type": "Point",
                "coordinates": [
                    10.89872075,
                    48.37126008
                ]
            },
            "properties": {
                "RSU coordinates": [
                    10.8990018,
                    48.3709367
                ],
                "Distance": 41.57,
                "Frequency": 5.9,
                "RSSI": -83.06,
                "LOS": "False"
            }
        },
        {
            "type": "Feature",
            "geometry": {
                "type": "Point",
                "coordinates": [
                    10.89881443,
                    48.37136787
                ]
            },
            "properties": {
                "RSU coordinates": [
                    10.8990018,
                    48.3709367
                ],
                "Distance": 49.96,
                "Frequency": 5.9,
                "RSSI": -84.63,
                "LOS": "False"
            }
        },
        {
            "type": "Feature",
            "geometry": {
                "type": "Point",
                "coordinates": [
                    10.8990018,
                    48.37158346
                ]
            },
            "properties": {
                "RSU coordinates": [
                    10.8990018,
                    48.3709367
                ],
                "Distance": 72.0,
                "Frequency": 5.9,
                "RSSI": -87.77000000000001,
                "LOS": "False"
            }
        },
        {
            "type": "Feature",
            "geometry": {
                "type": "Point",
                "coordinates": [
                    10.89909549,
                    48.37169126
                ]
            },
            "properties": {
                "RSU coordinates": [
                    10.8990018,
                    48.3709367
                ],
                "Distance": 84.29,
                "Frequency": 5.9,
                "RSSI": -89.12,
                "LOS": "False"
            }
        },
        {
            "type": "Feature",
            "geometry": {
                "type": "Point",
                "coordinates": [
                    10.89825234,
                    48.37050553
                ]
            },
            "properties": {
                "RSU coordinates": [
                    10.8990018,
                    48.3709367
                ],
                "Distance": 73.32,
                "Frequency": 5.9,
                "RSSI": -87.92,
                "LOS": "False"
            }
        },
        {
            "type": "Feature",
            "geometry": {
                "type": "Point",
                "coordinates": [
                    10.89834602,
                    48.37061332
                ]
            },
            "properties": {
                "RSU coordinates": [
                    10.8990018,
                    48.3709367
                ],
                "Distance": 60.4,
                "Frequency": 5.9,
                "RSSI": -86.25999999999999,
                "LOS": "False"
            }
        },
        {
            "type": "Feature",
            "geometry": {
                "type": "Point",
                "coordinates": [
                    10.89862706,
                    48.3709367
                ]
            },
            "properties": {
                "RSU coordinates": [
                    10.8990018,
                    48.3709367
                ],
                "Distance": 27.71,
                "Frequency": 5.9,
                "RSSI": -49.58,
                "LOS": "True"
            }
        },
        {
            "type": "Feature",
            "geometry": {
                "type": "Point",
                "coordinates": [
                    10.89890812,
                    48.37126008
                ]
            },
            "properties": {
                "RSU coordinates": [
                    10.8990018,
                    48.3709367
                ],
                "Distance": 36.66,
                "Frequency": 5.9,
                "RSSI": -66.97999999999999,
                "LOS": "False"
            }
        },
        {
            "type": "Feature",
            "geometry": {
                "type": "Point",
                "coordinates": [
                    10.8984397,
                    48.37050553
                ]
            },
            "properties": {
                "RSU coordinates": [
                    10.8990018,
                    48.3709367
                ],
                "Distance": 63.5,
                "Frequency": 5.9,
                "RSSI": -86.69,
                "LOS": "False"
            }
        },
        {
            "type": "Feature",
            "geometry": {
                "type": "Point",
                "coordinates": [
                    10.89853338,
                    48.37061332
                ]
            },
            "properties": {
                "RSU coordinates": [
                    10.8990018,
                    48.3709367
                ],
                "Distance": 49.96,
                "Frequency": 5.9,
                "RSSI": -84.63,
                "LOS": "False"
            }
        },
        {
            "type": "Feature",
            "geometry": {
                "type": "Point",
                "coordinates": [
                    10.89881443,
                    48.3709367
                ]
            },
            "properties": {
                "RSU coordinates": [
                    10.8990018,
                    48.3709367
                ],
                "Distance": 13.86,
                "Frequency": 5.9,
                "RSSI": -43.63,
                "LOS": "True"
            }
        },
        {
            "type": "Feature",
            "geometry": {
                "type": "Point",
                "coordinates": [
                    10.89909548,
                    48.37126008
                ]
            },
            "properties": {
                "RSU coordinates": [
                    10.8990018,
                    48.3709367
                ],
                "Distance": 36.66,
                "Frequency": 5.9,
                "RSSI": -81.97999999999999,
                "LOS": "False"
            }
        },
        {
            "type": "Feature",
            "geometry": {
                "type": "Point",
                "coordinates": [
                    10.89862707,
                    48.37050553
                ]
            },
            "properties": {
                "RSU coordinates": [
                    10.8990018,
                    48.3709367
                ],
                "Distance": 55.43,
                "Frequency": 5.9,
                "RSSI": -85.52000000000001,
                "LOS": "False"
            }
        },
        {
            "type": "Feature",
            "geometry": {
                "type": "Point",
                "coordinates": [
                    10.89872075,
                    48.37061332
                ]
            },
            "properties": {
                "RSU coordinates": [
                    10.8990018,
                    48.3709367
                ],
                "Distance": 41.57,
                "Frequency": 5.9,
                "RSSI": -83.06,
                "LOS": "False"
            }
        },
        {
            "type": "Feature",
            "geometry": {
                "type": "Point",
                "coordinates": [
                    10.89928285,
                    48.37126008
                ]
            },
            "properties": {
                "RSU coordinates": [
                    10.8990018,
                    48.3709367
                ],
                "Distance": 41.57,
                "Frequency": 5.9,
                "RSSI": -98.06,
                "LOS": "False"
            }
        },
        {
            "type": "Feature",
            "geometry": {
                "type": "Point",
                "coordinates": [
                    10.89881443,
                    48.37050553
                ]
            },
            "properties": {
                "RSU coordinates": [
                    10.8990018,
                    48.3709367
                ],
                "Distance": 49.96,
                "Frequency": 5.9,
                "RSSI": -54.63,
                "LOS": "True"
            }
        },
        {
            "type": "Feature",
            "geometry": {
                "type": "Point",
                "coordinates": [
                    10.89890812,
                    48.37061332
                ]
            },
            "properties": {
                "RSU coordinates": [
                    10.8990018,
                    48.3709367
                ],
                "Distance": 36.66,
                "Frequency": 5.9,
                "RSSI": -51.98,
                "LOS": "True"
            }
        },
        {
            "type": "Feature",
            "geometry": {
                "type": "Point",
                "coordinates": [
                    10.8990018,
                    48.37072111
                ]
            },
            "properties": {
                "RSU coordinates": [
                    10.8990018,
                    48.3709367
                ],
                "Distance": 24.0,
                "Frequency": 5.9,
                "RSSI": -48.34,
                "LOS": "True"
            }
        },
        {
            "type": "Feature",
            "geometry": {
                "type": "Point",
                "coordinates": [
                    10.89909548,
                    48.37082891
                ]
            },
            "properties": {
                "RSU coordinates": [
                    10.8990018,
                    48.3709367
                ],
                "Distance": 13.86,
                "Frequency": 5.9,
                "RSSI": -43.63,
                "LOS": "True"
            }
        },
        {
            "type": "Feature",
            "geometry": {
                "type": "Point",
                "coordinates": [
                    10.89918917,
                    48.3709367
                ]
            },
            "properties": {
                "RSU coordinates": [
                    10.8990018,
                    48.3709367
                ],
                "Distance": 13.86,
                "Frequency": 5.9,
                "RSSI": -43.63,
                "LOS": "True"
            }
        },
        {
            "type": "Feature",
            "geometry": {
                "type": "Point",
                "coordinates": [
                    10.89881443,
                    48.37028994
                ]
            },
            "properties": {
                "RSU coordinates": [
                    10.8990018,
                    48.3709367
                ],
                "Distance": 73.32,
                "Frequency": 5.9,
                "RSSI": -57.92,
                "LOS": "True"
            }
        },
        {
            "type": "Feature",
            "geometry": {
                "type": "Point",
                "coordinates": [
                    10.89890812,
                    48.37039773
                ]
            },
            "properties": {
                "RSU coordinates": [
                    10.8990018,
                    48.3709367
                ],
                "Distance": 60.4,
                "Frequency": 5.9,
                "RSSI": -56.26,
                "LOS": "True"
            }
        },
        {
            "type": "Feature",
            "geometry": {
                "type": "Point",
                "coordinates": [
                    10.8990018,
                    48.37050553
                ]
            },
            "properties": {
                "RSU coordinates": [
                    10.8990018,
                    48.3709367
                ],
                "Distance": 48.0,
                "Frequency": 5.9,
                "RSSI": -54.29,
                "LOS": "True"
            }
        },
        {
            "type": "Feature",
            "geometry": {
                "type": "Point",
                "coordinates": [
                    10.89909548,
                    48.37061332
                ]
            },
            "properties": {
                "RSU coordinates": [
                    10.8990018,
                    48.3709367
                ],
                "Distance": 36.66,
                "Frequency": 5.9,
                "RSSI": -51.98,
                "LOS": "True"
            }
        },
        {
            "type": "Feature",
            "geometry": {
                "type": "Point",
                "coordinates": [
                    10.89918917,
                    48.37072111
                ]
            },
            "properties": {
                "RSU coordinates": [
                    10.8990018,
                    48.3709367
                ],
                "Distance": 27.71,
                "Frequency": 5.9,
                "RSSI": -49.58,
                "LOS": "True"
            }
        },
        {
            "type": "Feature",
            "geometry": {
                "type": "Point",
                "coordinates": [
                    10.89928285,
                    48.37082891
                ]
            },
            "properties": {
                "RSU coordinates": [
                    10.8990018,
                    48.3709367
                ],
                "Distance": 24.0,
                "Frequency": 5.9,
                "RSSI": -48.34,
                "LOS": "True"
            }
        },
        {
            "type": "Feature",
            "geometry": {
                "type": "Point",
                "coordinates": [
                    10.89890812,
                    48.37018214
                ]
            },
            "properties": {
                "RSU coordinates": [
                    10.8990018,
                    48.3709367
                ],
                "Distance": 84.29,
                "Frequency": 5.9,
                "RSSI": -59.12,
                "LOS": "True"
            }
        },
        {
            "type": "Feature",
            "geometry": {
                "type": "Point",
                "coordinates": [
                    10.8990018,
                    48.37028994
                ]
            },
            "properties": {
                "RSU coordinates": [
                    10.8990018,
                    48.3709367
                ],
                "Distance": 72.0,
                "Frequency": 5.9,
                "RSSI": -57.77,
                "LOS": "True"
            }
        },
        {
            "type": "Feature",
            "geometry": {
                "type": "Point",
                "coordinates": [
                    10.89909548,
                    48.37039773
                ]
            },
            "properties": {
                "RSU coordinates": [
                    10.8990018,
                    48.3709367
                ],
                "Distance": 60.4,
                "Frequency": 5.9,
                "RSSI": -56.26,
                "LOS": "True"
            }
        },
        {
            "type": "Feature",
            "geometry": {
                "type": "Point",
                "coordinates": [
                    10.89918917,
                    48.37050553
                ]
            },
            "properties": {
                "RSU coordinates": [
                    10.8990018,
                    48.3709367
                ],
                "Distance": 49.96,
                "Frequency": 5.9,
                "RSSI": -54.63,
                "LOS": "True"
            }
        },
        {
            "type": "Feature",
            "geometry": {
                "type": "Point",
                "coordinates": [
                    10.89928285,
                    48.37061332
                ]
            },
            "properties": {
                "RSU coordinates": [
                    10.8990018,
                    48.3709367
                ],
                "Distance": 41.57,
                "Frequency": 5.9,
                "RSSI": -53.06,
                "LOS": "True"
            }
        },
        {
            "type": "Feature",
            "geometry": {
                "type": "Point",
                "coordinates": [
                    10.89937653,
                    48.37072111
                ]
            },
            "properties": {
                "RSU coordinates": [
                    10.8990018,
                    48.3709367
                ],
                "Distance": 36.66,
                "Frequency": 5.9,
                "RSSI": -51.98,
                "LOS": "True"
            }
        },
        {
            "type": "Feature",
            "geometry": {
                "type": "Point",
                "coordinates": [
                    10.89947022,
                    48.37082891
                ]
            },
            "properties": {
                "RSU coordinates": [
                    10.8990018,
                    48.3709367
                ],
                "Distance": 36.66,
                "Frequency": 5.9,
                "RSSI": -51.98,
                "LOS": "True"
            }
        },
        {
            "type": "Feature",
            "geometry": {
                "type": "Point",
                "coordinates": [
                    10.8990018,
                    48.37007435
                ]
            },
            "properties": {
                "RSU coordinates": [
                    10.8990018,
                    48.3709367
                ],
                "Distance": 96.0,
                "Frequency": 5.9,
                "RSSI": -75.22999999999999,
                "LOS": "False"
            }
        },
        {
            "type": "Feature",
            "geometry": {
                "type": "Point",
                "coordinates": [
                    10.89909548,
                    48.37018214
                ]
            },
            "properties": {
                "RSU coordinates": [
                    10.8990018,
                    48.3709367
                ],
                "Distance": 84.29,
                "Frequency": 5.9,
                "RSSI": -59.12,
                "LOS": "True"
            }
        },
        {
            "type": "Feature",
            "geometry": {
                "type": "Point",
                "coordinates": [
                    10.89918917,
                    48.37028994
                ]
            },
            "properties": {
                "RSU coordinates": [
                    10.8990018,
                    48.3709367
                ],
                "Distance": 73.32,
                "Frequency": 5.9,
                "RSSI": -57.92,
                "LOS": "True"
            }
        },
        {
            "type": "Feature",
            "geometry": {
                "type": "Point",
                "coordinates": [
                    10.89928285,
                    48.37039773
                ]
            },
            "properties": {
                "RSU coordinates": [
                    10.8990018,
                    48.3709367
                ],
                "Distance": 63.5,
                "Frequency": 5.9,
                "RSSI": -56.69,
                "LOS": "True"
            }
        },
        {
            "type": "Feature",
            "geometry": {
                "type": "Point",
                "coordinates": [
                    10.89937653,
                    48.37050553
                ]
            },
            "properties": {
                "RSU coordinates": [
                    10.8990018,
                    48.3709367
                ],
                "Distance": 55.43,
                "Frequency": 5.9,
                "RSSI": -55.52,
                "LOS": "True"
            }
        },
        {
            "type": "Feature",
            "geometry": {
                "type": "Point",
                "coordinates": [
                    10.89947022,
                    48.37061332
                ]
            },
            "properties": {
                "RSU coordinates": [
                    10.8990018,
                    48.3709367
                ],
                "Distance": 49.96,
                "Frequency": 5.9,
                "RSSI": -54.63,
                "LOS": "True"
            }
        },
        {
            "type": "Feature",
            "geometry": {
                "type": "Point",
                "coordinates": [
                    10.8995639,
                    48.37072111
                ]
            },
            "properties": {
                "RSU coordinates": [
                    10.8990018,
                    48.3709367
                ],
                "Distance": 48.0,
                "Frequency": 5.9,
                "RSSI": -54.29,
                "LOS": "True"
            }
        },
        {
            "type": "Feature",
            "geometry": {
                "type": "Point",
                "coordinates": [
                    10.89965759,
                    48.37082891
                ]
            },
            "properties": {
                "RSU coordinates": [
                    10.8990018,
                    48.3709367
                ],
                "Distance": 49.96,
                "Frequency": 5.9,
                "RSSI": -54.63,
                "LOS": "True"
            }
        },
        {
            "type": "Feature",
            "geometry": {
                "type": "Point",
                "coordinates": [
                    10.89890812,
                    48.36975097
                ]
            },
            "properties": {
                "RSU coordinates": [
                    10.8990018,
                    48.3709367
                ],
                "Distance": 132.18,
                "Frequency": 5.9,
                "RSSI": -92.97999999999999,
                "LOS": "False"
            }
        },
        {
            "type": "Feature",
            "geometry": {
                "type": "Point",
                "coordinates": [
                    10.89909548,
                    48.36996656
                ]
            },
            "properties": {
                "RSU coordinates": [
                    10.8990018,
                    48.3709367
                ],
                "Distance": 108.22,
                "Frequency": 5.9,
                "RSSI": -76.25999999999999,
                "LOS": "False"
            }
        },
        {
            "type": "Feature",
            "geometry": {
                "type": "Point",
                "coordinates": [
                    10.89937653,
                    48.37028994
                ]
            },
            "properties": {
                "RSU coordinates": [
                    10.8990018,
                    48.3709367
                ],
                "Distance": 77.15,
                "Frequency": 5.9,
                "RSSI": -58.36,
                "LOS": "True"
            }
        },
        {
            "type": "Feature",
            "geometry": {
                "type": "Point",
                "coordinates": [
                    10.89965758,
                    48.37061332
                ]
            },
            "properties": {
                "RSU coordinates": [
                    10.8990018,
                    48.3709367
                ],
                "Distance": 60.4,
                "Frequency": 5.9,
                "RSSI": -56.26,
                "LOS": "True"
            }
        },
        {
            "type": "Feature",
            "geometry": {
                "type": "Point",
                "coordinates": [
                    10.89975127,
                    48.37072111
                ]
            },
            "properties": {
                "RSU coordinates": [
                    10.8990018,
                    48.3709367
                ],
                "Distance": 60.4,
                "Frequency": 5.9,
                "RSSI": -56.26,
                "LOS": "True"
            }
        },
        {
            "type": "Feature",
            "geometry": {
                "type": "Point",
                "coordinates": [
                    10.89984495,
                    48.37082891
                ]
            },
            "properties": {
                "RSU coordinates": [
                    10.8990018,
                    48.3709367
                ],
                "Distance": 63.5,
                "Frequency": 5.9,
                "RSSI": -56.69,
                "LOS": "True"
            }
        },
        {
            "type": "Feature",
            "geometry": {
                "type": "Point",
                "coordinates": [
                    10.89918916,
                    48.36985876
                ]
            },
            "properties": {
                "RSU coordinates": [
                    10.8990018,
                    48.3709367
                ],
                "Distance": 120.8,
                "Frequency": 5.9,
                "RSSI": -77.2,
                "LOS": "False"
            }
        },
        {
            "type": "Feature",
            "geometry": {
                "type": "Point",
                "coordinates": [
                    10.89947021,
                    48.37018214
                ]
            },
            "properties": {
                "RSU coordinates": [
                    10.8990018,
                    48.3709367
                ],
                "Distance": 90.86,
                "Frequency": 5.9,
                "RSSI": -59.76,
                "LOS": "True"
            }
        },
        {
            "type": "Feature",
            "geometry": {
                "type": "Point",
                "coordinates": [
                    10.8995639,
                    48.37028994
                ]
            },
            "properties": {
                "RSU coordinates": [
                    10.8990018,
                    48.3709367
                ],
                "Distance": 83.14,
                "Frequency": 5.9,
                "RSSI": -74.0,
                "LOS": "False"
            }
        },
        {
            "type": "Feature",
            "geometry": {
                "type": "Point",
                "coordinates": [
                    10.89965758,
                    48.37039773
                ]
            },
            "properties": {
                "RSU coordinates": [
                    10.8990018,
                    48.3709367
                ],
                "Distance": 77.15,
                "Frequency": 5.9,
                "RSSI": -73.36,
                "LOS": "False"
            }
        },
        {
            "type": "Feature",
            "geometry": {
                "type": "Point",
                "coordinates": [
                    10.89984495,
                    48.37061332
                ]
            },
            "properties": {
                "RSU coordinates": [
                    10.8990018,
                    48.3709367
                ],
                "Distance": 72.0,
                "Frequency": 5.9,
                "RSSI": -57.77,
                "LOS": "True"
            }
        },
        {
            "type": "Feature",
            "geometry": {
                "type": "Point",
                "coordinates": [
                    10.89993863,
                    48.37072111
                ]
            },
            "properties": {
                "RSU coordinates": [
                    10.8990018,
                    48.3709367
                ],
                "Distance": 73.32,
                "Frequency": 5.9,
                "RSSI": -57.92,
                "LOS": "True"
            }
        },
        {
            "type": "Feature",
            "geometry": {
                "type": "Point",
                "coordinates": [
                    10.90003232,
                    48.37082891
                ]
            },
            "properties": {
                "RSU coordinates": [
                    10.8990018,
                    48.3709367
                ],
                "Distance": 77.15,
                "Frequency": 5.9,
                "RSSI": -73.36,
                "LOS": "False"
            }
        },
        {
            "type": "Feature",
            "geometry": {
                "type": "Point",
                "coordinates": [
                    10.89947021,
                    48.36996656
                ]
            },
            "properties": {
                "RSU coordinates": [
                    10.8990018,
                    48.3709367
                ],
                "Distance": 113.42,
                "Frequency": 5.9,
                "RSSI": -76.66,
                "LOS": "False"
            }
        },
        {
            "type": "Feature",
            "geometry": {
                "type": "Point",
                "coordinates": [
                    10.89956389,
                    48.37007435
                ]
            },
            "properties": {
                "RSU coordinates": [
                    10.8990018,
                    48.3709367
                ],
                "Distance": 104.61,
                "Frequency": 5.9,
                "RSSI": -90.97,
                "LOS": "False"
            }
        },
        {
            "type": "Feature",
            "geometry": {
                "type": "Point",
                "coordinates": [
                    10.89984495,
                    48.37039773
                ]
            },
            "properties": {
                "RSU coordinates": [
                    10.8990018,
                    48.3709367
                ],
                "Distance": 86.53,
                "Frequency": 5.9,
                "RSSI": -74.34,
                "LOS": "False"
            }
        },
        {
            "type": "Feature",
            "geometry": {
                "type": "Point",
                "coordinates": [
                    10.90003232,
                    48.37061332
                ]
            },
            "properties": {
                "RSU coordinates": [
                    10.8990018,
                    48.3709367
                ],
                "Distance": 84.29,
                "Frequency": 5.9,
                "RSSI": -59.12,
                "LOS": "True"
            }
        },
        {
            "type": "Feature",
            "geometry": {
                "type": "Point",
                "coordinates": [
                    10.900126,
                    48.37072111
                ]
            },
            "properties": {
                "RSU coordinates": [
                    10.8990018,
                    48.3709367
                ],
                "Distance": 86.53,
                "Frequency": 5.9,
                "RSSI": -59.34,
                "LOS": "True"
            }
        },
        {
            "type": "Feature",
            "geometry": {
                "type": "Point",
                "coordinates": [
                    10.90021969,
                    48.37082891
                ]
            },
            "properties": {
                "RSU coordinates": [
                    10.8990018,
                    48.3709367
                ],
                "Distance": 90.86,
                "Frequency": 5.9,
                "RSSI": -89.75999999999999,
                "LOS": "False"
            }
        },
        {
            "type": "Feature",
            "geometry": {
                "type": "Point",
                "coordinates": [
                    10.89928284,
                    48.36953538
                ]
            },
            "properties": {
                "RSU coordinates": [
                    10.8990018,
                    48.3709367
                ],
                "Distance": 157.38,
                "Frequency": 5.9,
                "RSSI": -79.47,
                "LOS": "False"
            }
        },
        {
            "type": "Feature",
            "geometry": {
                "type": "Point",
                "coordinates": [
                    10.89937653,
                    48.36964318
                ]
            },
            "properties": {
                "RSU coordinates": [
                    10.8990018,
                    48.3709367
                ],
                "Distance": 146.64,
                "Frequency": 5.9,
                "RSSI": -78.87,
                "LOS": "False"
            }
        },
        {
            "type": "Feature",
            "geometry": {
                "type": "Point",
                "coordinates": [
                    10.89956389,
                    48.36985876
                ]
            },
            "properties": {
                "RSU coordinates": [
                    10.8990018,
                    48.3709367
                ],
                "Distance": 127.0,
                "Frequency": 5.9,
                "RSSI": -77.63,
                "LOS": "False"
            }
        },
        {
            "type": "Feature",
            "geometry": {
                "type": "Point",
                "coordinates": [
                    10.89993863,
                    48.37028994
                ]
            },
            "properties": {
                "RSU coordinates": [
                    10.8990018,
                    48.3709367
                ],
                "Distance": 99.92,
                "Frequency": 5.9,
                "RSSI": -90.58,
                "LOS": "False"
            }
        },
        {
            "type": "Feature",
            "geometry": {
                "type": "Point",
                "coordinates": [
                    10.90021968,
                    48.37061332
                ]
            },
            "properties": {
                "RSU coordinates": [
                    10.8990018,
                    48.3709367
                ],
                "Distance": 96.99,
                "Frequency": 5.9,
                "RSSI": -60.32,
                "LOS": "True"
            }
        },
        {
            "type": "Feature",
            "geometry": {
                "type": "Point",
                "coordinates": [
                    10.90031337,
                    48.37072111
                ]
            },
            "properties": {
                "RSU coordinates": [
                    10.8990018,
                    48.3709367
                ],
                "Distance": 99.92,
                "Frequency": 5.9,
                "RSSI": -60.58,
                "LOS": "True"
            }
        },
        {
            "type": "Feature",
            "geometry": {
                "type": "Point",
                "coordinates": [
                    10.90040705,
                    48.37082891
                ]
            },
            "properties": {
                "RSU coordinates": [
                    10.8990018,
                    48.3709367
                ],
                "Distance": 104.61,
                "Frequency": 5.9,
                "RSSI": -90.97,
                "LOS": "False"
            }
        },
        {
            "type": "Feature",
            "geometry": {
                "type": "Point",
                "coordinates": [
                    10.89947021,
                    48.36953538
                ]
            },
            "properties": {
                "RSU coordinates": [
                    10.8990018,
                    48.3709367
                ],
                "Distance": 159.8,
                "Frequency": 5.9,
                "RSSI": -79.6,
                "LOS": "False"
            }
        },
        {
            "type": "Feature",
            "geometry": {
                "type": "Point",
                "coordinates": [
                    10.89956389,
                    48.36964318
                ]
            },
            "properties": {
                "RSU coordinates": [
                    10.8990018,
                    48.3709367
                ],
                "Distance": 149.88,
                "Frequency": 5.9,
                "RSSI": -79.05,
                "LOS": "False"
            }
        },
        {
            "type": "Feature",
            "geometry": {
                "type": "Point",
                "coordinates": [
                    10.90003231,
                    48.37018214
                ]
            },
            "properties": {
                "RSU coordinates": [
                    10.8990018,
                    48.3709367
                ],
                "Distance": 113.42,
                "Frequency": 5.9,
                "RSSI": -91.66,
                "LOS": "False"
            }
        },
        {
            "type": "Feature",
            "geometry": {
                "type": "Point",
                "coordinates": [
                    10.90021968,
                    48.37039773
                ]
            },
            "properties": {
                "RSU coordinates": [
                    10.8990018,
                    48.3709367
                ],
                "Distance": 108.22,
                "Frequency": 5.9,
                "RSSI": -91.25999999999999,
                "LOS": "False"
            }
        },
        {
            "type": "Feature",
            "geometry": {
                "type": "Point",
                "coordinates": [
                    10.90040705,
                    48.37061332
                ]
            },
            "properties": {
                "RSU coordinates": [
                    10.8990018,
                    48.3709367
                ],
                "Distance": 109.98,
                "Frequency": 5.9,
                "RSSI": -61.4,
                "LOS": "True"
            }
        },
        {
            "type": "Feature",
            "geometry": {
                "type": "Point",
                "coordinates": [
                    10.90050073,
                    48.37072111
                ]
            },
            "properties": {
                "RSU coordinates": [
                    10.8990018,
                    48.3709367
                ],
                "Distance": 113.42,
                "Frequency": 5.9,
                "RSSI": -61.66,
                "LOS": "True"
            }
        },
        {
            "type": "Feature",
            "geometry": {
                "type": "Point",
                "coordinates": [
                    10.8994702,
                    48.3693198
                ]
            },
            "properties": {
                "RSU coordinates": [
                    10.8990018,
                    48.3709367
                ],
                "Distance": 183.3,
                "Frequency": 5.9,
                "RSSI": -80.78,
                "LOS": "False"
            }
        },
        {
            "type": "Feature",
            "geometry": {
                "type": "Point",
                "coordinates": [
                    10.89956389,
                    48.36942759
                ]
            },
            "properties": {
                "RSU coordinates": [
                    10.8990018,
                    48.3709367
                ],
                "Distance": 173.07,
                "Frequency": 5.9,
                "RSSI": -80.29,
                "LOS": "False"
            }
        },
        {
            "type": "Feature",
            "geometry": {
                "type": "Point",
                "coordinates": [
                    10.89965757,
                    48.36953538
                ]
            },
            "properties": {
                "RSU coordinates": [
                    10.8990018,
                    48.3709367
                ],
                "Distance": 163.36,
                "Frequency": 5.9,
                "RSSI": -79.79,
                "LOS": "False"
            }
        },
        {
            "type": "Feature",
            "geometry": {
                "type": "Point",
                "coordinates": [
                    10.90021967,
                    48.37018214
                ]
            },
            "properties": {
                "RSU coordinates": [
                    10.8990018,
                    48.3709367
                ],
                "Distance": 123.16,
                "Frequency": 5.9,
                "RSSI": -92.37,
                "LOS": "False"
            }
        },
        {
            "type": "Feature",
            "geometry": {
                "type": "Point",
                "coordinates": [
                    10.90050073,
                    48.37050553
                ]
            },
            "properties": {
                "RSU coordinates": [
                    10.8990018,
                    48.3709367
                ],
                "Distance": 120.8,
                "Frequency": 5.9,
                "RSSI": -77.2,
                "LOS": "False"
            }
        },
        {
            "type": "Feature",
            "geometry": {
                "type": "Point",
                "coordinates": [
                    10.90059441,
                    48.37061332
                ]
            },
            "properties": {
                "RSU coordinates": [
                    10.8990018,
                    48.3709367
                ],
                "Distance": 123.16,
                "Frequency": 5.9,
                "RSSI": -62.37,
                "LOS": "True"
            }
        },
        {
            "type": "Feature",
            "geometry": {
                "type": "Point",
                "coordinates": [
                    10.9006881,
                    48.37072111
                ]
            },
            "properties": {
                "RSU coordinates": [
                    10.8990018,
                    48.3709367
                ],
                "Distance": 127.0,
                "Frequency": 5.9,
                "RSSI": -62.63,
                "LOS": "True"
            }
        },
        {
            "type": "Feature",
            "geometry": {
                "type": "Point",
                "coordinates": [
                    10.89956388,
                    48.369212
                ]
            },
            "properties": {
                "RSU coordinates": [
                    10.8990018,
                    48.3709367
                ],
                "Distance": 196.45,
                "Frequency": 5.9,
                "RSSI": -81.37,
                "LOS": "False"
            }
        },
        {
            "type": "Feature",
            "geometry": {
                "type": "Point",
                "coordinates": [
                    10.89975125,
                    48.36942759
                ]
            },
            "properties": {
                "RSU coordinates": [
                    10.8990018,
                    48.3709367
                ],
                "Distance": 176.91,
                "Frequency": 5.9,
                "RSSI": -80.48,
                "LOS": "False"
            }
        },
        {
            "type": "Feature",
            "geometry": {
                "type": "Point",
                "coordinates": [
                    10.90078178,
                    48.37061332
                ]
            },
            "properties": {
                "RSU coordinates": [
                    10.8990018,
                    48.3709367
                ],
                "Distance": 136.47,
                "Frequency": 5.9,
                "RSSI": -63.25,
                "LOS": "True"
            }
        },
        {
            "type": "Feature",
            "geometry": {
                "type": "Point",
                "coordinates": [
                    10.90087547,
                    48.37072111
                ]
            },
            "properties": {
                "RSU coordinates": [
                    10.8990018,
                    48.3709367
                ],
                "Distance": 140.63,
                "Frequency": 5.9,
                "RSSI": -63.51,
                "LOS": "True"
            }
        },
        {
            "type": "Feature",
            "geometry": {
                "type": "Point",
                "coordinates": [
                    10.89956388,
                    48.36899642
                ]
            },
            "properties": {
                "RSU coordinates": [
                    10.8990018,
                    48.3709367
                ],
                "Distance": 219.96,
                "Frequency": 5.9,
                "RSSI": -82.34,
                "LOS": "False"
            }
        },
        {
            "type": "Feature",
            "geometry": {
                "type": "Point",
                "coordinates": [
                    10.90096915,
                    48.37061332
                ]
            },
            "properties": {
                "RSU coordinates": [
                    10.8990018,
                    48.3709367
                ],
                "Distance": 149.88,
                "Frequency": 5.9,
                "RSSI": -64.05,
                "LOS": "True"
            }
        },
        {
            "type": "Feature",
            "geometry": {
                "type": "Point",
                "coordinates": [
                    10.90106283,
                    48.37072111
                ]
            },
            "properties": {
                "RSU coordinates": [
                    10.8990018,
                    48.3709367
                ],
                "Distance": 154.3,
                "Frequency": 5.9,
                "RSSI": -79.3,
                "LOS": "False"
            }
        },
        {
            "type": "Feature",
            "geometry": {
                "type": "Point",
                "coordinates": [
                    10.89965756,
                    48.36888862
                ]
            },
            "properties": {
                "RSU coordinates": [
                    10.8990018,
                    48.3709367
                ],
                "Distance": 233.1,
                "Frequency": 5.9,
                "RSSI": -82.84,
                "LOS": "False"
            }
        },
        {
            "type": "Feature",
            "geometry": {
                "type": "Point",
                "coordinates": [
                    10.90096914,
                    48.37039773
                ]
            },
            "properties": {
                "RSU coordinates": [
                    10.8990018,
                    48.3709367
                ],
                "Distance": 157.38,
                "Frequency": 5.9,
                "RSSI": -94.47,
                "LOS": "False"
            }
        },
        {
            "type": "Feature",
            "geometry": {
                "type": "Point",
                "coordinates": [
                    10.90106283,
                    48.37050553
                ]
            },
            "properties": {
                "RSU coordinates": [
                    10.8990018,
                    48.3709367
                ],
                "Distance": 159.8,
                "Frequency": 5.9,
                "RSSI": -64.6,
                "LOS": "True"
            }
        },
        {
            "type": "Feature",
            "geometry": {
                "type": "Point",
                "coordinates": [
                    10.90115651,
                    48.37061332
                ]
            },
            "properties": {
                "RSU coordinates": [
                    10.8990018,
                    48.3709367
                ],
                "Distance": 163.36,
                "Frequency": 5.9,
                "RSSI": -64.79,
                "LOS": "True"
            }
        },
        {
            "type": "Feature",
            "geometry": {
                "type": "Point",
                "coordinates": [
                    10.9012502,
                    48.37072111
                ]
            },
            "properties": {
                "RSU coordinates": [
                    10.8990018,
                    48.3709367
                ],
                "Distance": 168.0,
                "Frequency": 5.9,
                "RSSI": -95.03,
                "LOS": "False"
            }
        },
        {
            "type": "Feature",
            "geometry": {
                "type": "Point",
                "coordinates": [
                    10.89965756,
                    48.36867303
                ]
            },
            "properties": {
                "RSU coordinates": [
                    10.8990018,
                    48.3709367
                ],
                "Distance": 256.62,
                "Frequency": 5.9,
                "RSSI": -83.67,
                "LOS": "False"
            }
        },
        {
            "type": "Feature",
            "geometry": {
                "type": "Point",
                "coordinates": [
                    10.9011565,
                    48.37039773
                ]
            },
            "properties": {
                "RSU coordinates": [
                    10.8990018,
                    48.3709367
                ],
                "Distance": 170.27,
                "Frequency": 5.9,
                "RSSI": -95.15,
                "LOS": "False"
            }
        },
        {
            "type": "Feature",
            "geometry": {
                "type": "Point",
                "coordinates": [
                    10.90134388,
                    48.37061332
                ]
            },
            "properties": {
                "RSU coordinates": [
                    10.8990018,
                    48.3709367
                ],
                "Distance": 176.91,
                "Frequency": 5.9,
                "RSSI": -65.48,
                "LOS": "True"
            }
        },
        {
            "type": "Feature",
            "geometry": {
                "type": "Point",
                "coordinates": [
                    10.90125018,
                    48.37028994
                ]
            },
            "properties": {
                "RSU coordinates": [
                    10.8990018,
                    48.3709367
                ],
                "Distance": 181.2,
                "Frequency": 5.9,
                "RSSI": -95.68,
                "LOS": "False"
            }
        },
        {
            "type": "Feature",
            "geometry": {
                "type": "Point",
                "coordinates": [
                    10.90153125,
                    48.37061332
                ]
            },
            "properties": {
                "RSU coordinates": [
                    10.8990018,
                    48.3709367
                ],
                "Distance": 190.49,
                "Frequency": 5.9,
                "RSSI": -66.11,
                "LOS": "True"
            }
        },
        {
            "type": "Feature",
            "geometry": {
                "type": "Point",
                "coordinates": [
                    10.90143755,
                    48.37028994
                ]
            },
            "properties": {
                "RSU coordinates": [
                    10.8990018,
                    48.3709367
                ],
                "Distance": 193.99,
                "Frequency": 5.9,
                "RSSI": -96.27,
                "LOS": "False"
            }
        },
        {
            "type": "Feature",
            "geometry": {
                "type": "Point",
                "coordinates": [
                    10.90153124,
                    48.37039773
                ]
            },
            "properties": {
                "RSU coordinates": [
                    10.8990018,
                    48.3709367
                ],
                "Distance": 196.45,
                "Frequency": 5.9,
                "RSSI": -96.37,
                "LOS": "False"
            }
        },
        {
            "type": "Feature",
            "geometry": {
                "type": "Point",
                "coordinates": [
                    10.90171861,
                    48.37061332
                ]
            },
            "properties": {
                "RSU coordinates": [
                    10.8990018,
                    48.3709367
                ],
                "Distance": 204.12,
                "Frequency": 5.9,
                "RSSI": -66.7,
                "LOS": "True"
            }
        },
        {
            "type": "Feature",
            "geometry": {
                "type": "Point",
                "coordinates": [
                    10.9017186,
                    48.37039773
                ]
            },
            "properties": {
                "RSU coordinates": [
                    10.8990018,
                    48.3709367
                ],
                "Distance": 209.69,
                "Frequency": 5.9,
                "RSSI": -96.93,
                "LOS": "False"
            }
        },
        {
            "type": "Feature",
            "geometry": {
                "type": "Point",
                "coordinates": [
                    10.90190598,
                    48.37061332
                ]
            },
            "properties": {
                "RSU coordinates": [
                    10.8990018,
                    48.3709367
                ],
                "Distance": 217.77,
                "Frequency": 5.9,
                "RSSI": -67.26,
                "LOS": "True"
            }
        },
        {
            "type": "Feature",
            "geometry": {
                "type": "Point",
                "coordinates": [
                    10.90190597,
                    48.37039773
                ]
            },
            "properties": {
                "RSU coordinates": [
                    10.8990018,
                    48.3709367
                ],
                "Distance": 223.0,
                "Frequency": 5.9,
                "RSSI": -97.46,
                "LOS": "False"
            }
        },
        {
            "type": "Feature",
            "geometry": {
                "type": "Point",
                "coordinates": [
                    10.90209335,
                    48.37061332
                ]
            },
            "properties": {
                "RSU coordinates": [
                    10.8990018,
                    48.3709367
                ],
                "Distance": 231.45,
                "Frequency": 5.9,
                "RSSI": -82.78,
                "LOS": "False"
            }
        },
        {
            "type": "Feature",
            "geometry": {
                "type": "Point",
                "coordinates": [
                    10.90218702,
                    48.37050553
                ]
            },
            "properties": {
                "RSU coordinates": [
                    10.8990018,
                    48.3709367
                ],
                "Distance": 240.4,
                "Frequency": 5.9,
                "RSSI": -68.11,
                "LOS": "True"
            }
        },
        {
            "type": "Feature",
            "geometry": {
                "type": "Point",
                "coordinates": [
                    10.90228071,
                    48.37061332
                ]
            },
            "properties": {
                "RSU coordinates": [
                    10.8990018,
                    48.3709367
                ],
                "Distance": 245.14,
                "Frequency": 5.9,
                "RSSI": -98.27,
                "LOS": "False"
            }
        },
        {
            "type": "Feature",
            "geometry": {
                "type": "Point",
                "coordinates": [
                    10.90218701,
                    48.37028994
                ]
            },
            "properties": {
                "RSU coordinates": [
                    10.8990018,
                    48.3709367
                ],
                "Distance": 246.32,
                "Frequency": 5.9,
                "RSSI": -98.31,
                "LOS": "False"
            }
        },
        {
            "type": "Feature",
            "geometry": {
                "type": "Point",
                "coordinates": [
                    10.90237439,
                    48.37050553
                ]
            },
            "properties": {
                "RSU coordinates": [
                    10.8990018,
                    48.3709367
                ],
                "Distance": 253.99,
                "Frequency": 5.9,
                "RSSI": -68.58,
                "LOS": "True"
            }
        },
        {
            "type": "Feature",
            "geometry": {
                "type": "Point",
                "coordinates": [
                    10.90246808,
                    48.37061332
                ]
            },
            "properties": {
                "RSU coordinates": [
                    10.8990018,
                    48.3709367
                ],
                "Distance": 258.86,
                "Frequency": 5.9,
                "RSSI": -98.74,
                "LOS": "False"
            }
        },
        {
            "type": "Feature",
            "geometry": {
                "type": "Point",
                "coordinates": [
                    10.90237437,
                    48.37028994
                ]
            },
            "properties": {
                "RSU coordinates": [
                    10.8990018,
                    48.3709367
                ],
                "Distance": 259.6,
                "Frequency": 5.9,
                "RSSI": -98.77,
                "LOS": "False"
            }
        },
        {
            "type": "Feature",
            "geometry": {
                "type": "Point",
                "coordinates": [
                    10.90256175,
                    48.37050553
                ]
            },
            "properties": {
                "RSU coordinates": [
                    10.8990018,
                    48.3709367
                ],
                "Distance": 267.61,
                "Frequency": 5.9,
                "RSSI": -69.03,
                "LOS": "True"
            }
        },
        {
            "type": "Feature",
            "geometry": {
                "type": "Point",
                "coordinates": [
                    10.90256174,
                    48.37028994
                ]
            },
            "properties": {
                "RSU coordinates": [
                    10.8990018,
                    48.3709367
                ],
                "Distance": 272.94,
                "Frequency": 5.9,
                "RSSI": -99.2,
                "LOS": "False"
            }
        },
        {
            "type": "Feature",
            "geometry": {
                "type": "Point",
                "coordinates": [
                    10.90274912,
                    48.37050553
                ]
            },
            "properties": {
                "RSU coordinates": [
                    10.8990018,
                    48.3709367
                ],
                "Distance": 281.25,
                "Frequency": 5.9,
                "RSSI": -69.45,
                "LOS": "True"
            }
        },
        {
            "type": "Feature",
            "geometry": {
                "type": "Point",
                "coordinates": [
                    10.9028428,
                    48.37039773
                ]
            },
            "properties": {
                "RSU coordinates": [
                    10.8990018,
                    48.3709367
                ],
                "Distance": 290.32,
                "Frequency": 5.9,
                "RSSI": -69.72,
                "LOS": "True"
            }
        },
        {
            "type": "Feature",
            "geometry": {
                "type": "Point",
                "coordinates": [
                    10.90293649,
                    48.37050553
                ]
            },
            "properties": {
                "RSU coordinates": [
                    10.8990018,
                    48.3709367
                ],
                "Distance": 294.92,
                "Frequency": 5.9,
                "RSSI": -69.86,
                "LOS": "True"
            }
        },
        {
            "type": "Feature",
            "geometry": {
                "type": "Point",
                "coordinates": [
                    10.90303016,
                    48.37039773
                ]
            },
            "properties": {
                "RSU coordinates": [
                    10.8990018,
                    48.3709367
                ],
                "Distance": 303.89,
                "Frequency": 5.9,
                "RSSI": -70.12,
                "LOS": "True"
            }
        },
        {
            "type": "Feature",
            "geometry": {
                "type": "Point",
                "coordinates": [
                    10.90321753,
                    48.37039773
                ]
            },
            "properties": {
                "RSU coordinates": [
                    10.8990018,
                    48.3709367
                ],
                "Distance": 317.49,
                "Frequency": 5.9,
                "RSSI": -70.49,
                "LOS": "True"
            }
        },
        {
            "type": "Feature",
            "geometry": {
                "type": "Point",
                "coordinates": [
                    10.90340489,
                    48.37039773
                ]
            },
            "properties": {
                "RSU coordinates": [
                    10.8990018,
                    48.3709367
                ],
                "Distance": 331.11,
                "Frequency": 5.9,
                "RSSI": -70.85,
                "LOS": "True"
            }
        },
        {
            "type": "Feature",
            "geometry": {
                "type": "Point",
                "coordinates": [
                    10.90359226,
                    48.37039773
                ]
            },
            "properties": {
                "RSU coordinates": [
                    10.8990018,
                    48.3709367
                ],
                "Distance": 344.74,
                "Frequency": 5.9,
                "RSSI": -71.2,
                "LOS": "True"
            }
        },
        {
            "type": "Feature",
            "geometry": {
                "type": "Point",
                "coordinates": [
                    10.90368593,
                    48.37028994
                ]
            },
            "properties": {
                "RSU coordinates": [
                    10.8990018,
                    48.3709367
                ],
                "Distance": 353.81,
                "Frequency": 5.9,
                "RSSI": -71.42,
                "LOS": "True"
            }
        },
        {
            "type": "Feature",
            "geometry": {
                "type": "Point",
                "coordinates": [
                    10.90377962,
                    48.37039773
                ]
            },
            "properties": {
                "RSU coordinates": [
                    10.8990018,
                    48.3709367
                ],
                "Distance": 358.4,
                "Frequency": 5.9,
                "RSSI": -71.53,
                "LOS": "True"
            }
        },
        {
            "type": "Feature",
            "geometry": {
                "type": "Point",
                "coordinates": [
                    10.9038733,
                    48.37028994
                ]
            },
            "properties": {
                "RSU coordinates": [
                    10.8990018,
                    48.3709367
                ],
                "Distance": 367.39,
                "Frequency": 5.9,
                "RSSI": -71.74,
                "LOS": "True"
            }
        },
        {
            "type": "Feature",
            "geometry": {
                "type": "Point",
                "coordinates": [
                    10.90406066,
                    48.37028994
                ]
            },
            "properties": {
                "RSU coordinates": [
                    10.8990018,
                    48.3709367
                ],
                "Distance": 380.99,
                "Frequency": 5.9,
                "RSSI": -72.06,
                "LOS": "True"
            }
        },
        {
            "type": "Feature",
            "geometry": {
                "type": "Point",
                "coordinates": [
                    10.90424803,
                    48.37028994
                ]
            },
            "properties": {
                "RSU coordinates": [
                    10.8990018,
                    48.3709367
                ],
                "Distance": 394.6,
                "Frequency": 5.9,
                "RSSI": -72.36,
                "LOS": "True"
            }
        },
        {
            "type": "Feature",
            "geometry": {
                "type": "Point",
                "coordinates": [
                    10.9043417,
                    48.37018214
                ]
            },
            "properties": {
                "RSU coordinates": [
                    10.8990018,
                    48.3709367
                ],
                "Distance": 403.74,
                "Frequency": 5.9,
                "RSSI": -72.55,
                "LOS": "True"
            }
        },
        {
            "type": "Feature",
            "geometry": {
                "type": "Point",
                "coordinates": [
                    10.90443539,
                    48.37028994
                ]
            },
            "properties": {
                "RSU coordinates": [
                    10.8990018,
                    48.3709367
                ],
                "Distance": 408.24,
                "Frequency": 5.9,
                "RSSI": -72.65,
                "LOS": "True"
            }
        },
        {
            "type": "Feature",
            "geometry": {
                "type": "Point",
                "coordinates": [
                    10.90462276,
                    48.37028994
                ]
            },
            "properties": {
                "RSU coordinates": [
                    10.8990018,
                    48.3709367
                ],
                "Distance": 421.88,
                "Frequency": 5.9,
                "RSSI": -72.93,
                "LOS": "True"
            }
        },
        {
            "type": "Feature",
            "geometry": {
                "type": "Point",
                "coordinates": [
                    10.90471643,
                    48.37018214
                ]
            },
            "properties": {
                "RSU coordinates": [
                    10.8990018,
                    48.3709367
                ],
                "Distance": 430.89,
                "Frequency": 5.9,
                "RSSI": -73.11,
                "LOS": "True"
            }
        },
        {
            "type": "Feature",
            "geometry": {
                "type": "Point",
                "coordinates": [
                    10.90490379,
                    48.37018214
                ]
            },
            "properties": {
                "RSU coordinates": [
                    10.8990018,
                    48.3709367
                ],
                "Distance": 444.49,
                "Frequency": 5.9,
                "RSSI": -73.38,
                "LOS": "True"
            }
        },
        {
            "type": "Feature",
            "geometry": {
                "type": "Point",
                "coordinates": [
                    10.90509116,
                    48.37018214
                ]
            },
            "properties": {
                "RSU coordinates": [
                    10.8990018,
                    48.3709367
                ],
                "Distance": 458.1,
                "Frequency": 5.9,
                "RSSI": -73.64,
                "LOS": "True"
            }
        },
        {
            "type": "Feature",
            "geometry": {
                "type": "Point",
                "coordinates": [
                    10.90527852,
                    48.37018214
                ]
            },
            "properties": {
                "RSU coordinates": [
                    10.8990018,
                    48.3709367
                ],
                "Distance": 471.73,
                "Frequency": 5.9,
                "RSSI": -73.89,
                "LOS": "True"
            }
        },
        {
            "type": "Feature",
            "geometry": {
                "type": "Point",
                "coordinates": [
                    10.90546589,
                    48.37018214
                ]
            },
            "properties": {
                "RSU coordinates": [
                    10.8990018,
                    48.3709367
                ],
                "Distance": 485.37,
                "Frequency": 5.9,
                "RSSI": -74.13,
                "LOS": "True"
            }
        },
        {
            "type": "Feature",
            "geometry": {
                "type": "Point",
                "coordinates": [
                    10.90565325,
                    48.37018214
                ]
            },
            "properties": {
                "RSU coordinates": [
                    10.8990018,
                    48.3709367
                ],
                "Distance": 499.02,
                "Frequency": 5.9,
                "RSSI": -89.37,
                "LOS": "False"
            }
        }
    ]
}