{
    "type": "FeatureCollection",
    "features": [
        {
            "type": "Feature",
            "geometry": {
                "type": "Point",
                "coordinates": [
                    11.42897693,
                    49.51101844
                ]
            },
            "properties": {
                "RSU coordinates": [
                    11.4308939,
                    49.5099405
                ],
                "Distance": 183.3,
                "Frequency": 5.9,
                "RSSI": -95.78,
                "LOS": "False"
            }
        },
        {
            "type": "Feature",
            "geometry": {
                "type": "Point",
                "coordinates": [
                    11.42936033,
                    49.51080285
                ]
            },
            "properties": {
                "RSU coordinates": [
                    11.4308939,
                    49.5099405
                ],
                "Distance": 146.64,
                "Frequency": 5.9,
                "RSSI": -78.87,
                "LOS": "False"
            }
        },
        {
            "type": "Feature",
            "geometry": {
                "type": "Point",
                "coordinates": [
                    11.42945618,
                    49.51069506
                ]
            },
            "properties": {
                "RSU coordinates": [
                    11.4308939,
                    49.5099405
                ],
                "Distance": 133.63,
                "Frequency": 5.9,
                "RSSI": -93.07,
                "LOS": "False"
            }
        },
        {
            "type": "Feature",
            "geometry": {
                "type": "Point",
                "coordinates": [
                    11.43003126,
                    49.51134182
                ]
            },
            "properties": {
                "RSU coordinates": [
                    11.4308939,
                    49.5099405
                ],
                "Distance": 168.0,
                "Frequency": 5.9,
                "RSSI": -95.03,
                "LOS": "False"
            }
        },
        {
            "type": "Feature",
            "geometry": {
                "type": "Point",
                "coordinates": [
                    11.42955203,
                    49.51058726
                ]
            },
            "properties": {
                "RSU coordinates": [
                    11.4308939,
                    49.5099405
                ],
                "Distance": 120.8,
                "Frequency": 5.9,
                "RSSI": -92.2,
                "LOS": "False"
            }
        },
        {
            "type": "Feature",
            "geometry": {
                "type": "Point",
                "coordinates": [
                    11.42974373,
                    49.51058726
                ]
            },
            "properties": {
                "RSU coordinates": [
                    11.4308939,
                    49.5099405
                ],
                "Distance": 109.98,
                "Frequency": 5.9,
                "RSSI": -76.4,
                "LOS": "False"
            }
        },
        {
            "type": "Feature",
            "geometry": {
                "type": "Point",
                "coordinates": [
                    11.42974373,
                    49.51037167
                ]
            },
            "properties": {
                "RSU coordinates": [
                    11.4308939,
                    49.5099405
                ],
                "Distance": 96.0,
                "Frequency": 5.9,
                "RSSI": -60.23,
                "LOS": "True"
            }
        },
        {
            "type": "Feature",
            "geometry": {
                "type": "Point",
                "coordinates": [
                    11.42983958,
                    49.51047947
                ]
            },
            "properties": {
                "RSU coordinates": [
                    11.4308939,
                    49.5099405
                ],
                "Distance": 96.99,
                "Frequency": 5.9,
                "RSSI": -75.32,
                "LOS": "False"
            }
        },
        {
            "type": "Feature",
            "geometry": {
                "type": "Point",
                "coordinates": [
                    11.4307022,
                    49.51144961
                ]
            },
            "properties": {
                "RSU coordinates": [
                    11.4308939,
                    49.5099405
                ],
                "Distance": 168.57,
                "Frequency": 5.9,
                "RSSI": -95.06,
                "LOS": "False"
            }
        },
        {
            "type": "Feature",
            "geometry": {
                "type": "Point",
                "coordinates": [
                    11.42983958,
                    49.51026388
                ]
            },
            "properties": {
                "RSU coordinates": [
                    11.4308939,
                    49.5099405
                ],
                "Distance": 84.29,
                "Frequency": 5.9,
                "RSSI": -89.12,
                "LOS": "False"
            }
        },
        {
            "type": "Feature",
            "geometry": {
                "type": "Point",
                "coordinates": [
                    11.42993543,
                    49.51037167
                ]
            },
            "properties": {
                "RSU coordinates": [
                    11.4308939,
                    49.5099405
                ],
                "Distance": 84.29,
                "Frequency": 5.9,
                "RSSI": -59.12,
                "LOS": "True"
            }
        },
        {
            "type": "Feature",
            "geometry": {
                "type": "Point",
                "coordinates": [
                    11.43079805,
                    49.51134182
                ]
            },
            "properties": {
                "RSU coordinates": [
                    11.4308939,
                    49.5099405
                ],
                "Distance": 156.15,
                "Frequency": 5.9,
                "RSSI": -94.41,
                "LOS": "False"
            }
        },
        {
            "type": "Feature",
            "geometry": {
                "type": "Point",
                "coordinates": [
                    11.43003128,
                    49.51026388
                ]
            },
            "properties": {
                "RSU coordinates": [
                    11.4308939,
                    49.5099405
                ],
                "Distance": 72.0,
                "Frequency": 5.9,
                "RSSI": -57.77,
                "LOS": "True"
            }
        },
        {
            "type": "Feature",
            "geometry": {
                "type": "Point",
                "coordinates": [
                    11.43041466,
                    49.51069506
                ]
            },
            "properties": {
                "RSU coordinates": [
                    11.4308939,
                    49.5099405
                ],
                "Distance": 90.86,
                "Frequency": 5.9,
                "RSSI": -89.75999999999999,
                "LOS": "False"
            }
        },
        {
            "type": "Feature",
            "geometry": {
                "type": "Point",
                "coordinates": [
                    11.43003128,
                    49.51004829
                ]
            },
            "properties": {
                "RSU coordinates": [
                    11.4308939,
                    49.5099405
                ],
                "Distance": 63.5,
                "Frequency": 5.9,
                "RSSI": -86.69,
                "LOS": "False"
            }
        },
        {
            "type": "Feature",
            "geometry": {
                "type": "Point",
                "coordinates": [
                    11.43012712,
                    49.51015609
                ]
            },
            "properties": {
                "RSU coordinates": [
                    11.4308939,
                    49.5099405
                ],
                "Distance": 60.4,
                "Frequency": 5.9,
                "RSSI": -86.25999999999999,
                "LOS": "False"
            }
        },
        {
            "type": "Feature",
            "geometry": {
                "type": "Point",
                "coordinates": [
                    11.43022297,
                    49.51026388
                ]
            },
            "properties": {
                "RSU coordinates": [
                    11.4308939,
                    49.5099405
                ],
                "Distance": 60.4,
                "Frequency": 5.9,
                "RSSI": -56.26,
                "LOS": "True"
            }
        },
        {
            "type": "Feature",
            "geometry": {
                "type": "Point",
                "coordinates": [
                    11.43041466,
                    49.51047947
                ]
            },
            "properties": {
                "RSU coordinates": [
                    11.4308939,
                    49.5099405
                ],
                "Distance": 69.28,
                "Frequency": 5.9,
                "RSSI": -87.44,
                "LOS": "False"
            }
        },
        {
            "type": "Feature",
            "geometry": {
                "type": "Point",
                "coordinates": [
                    11.43022297,
                    49.51004829
                ]
            },
            "properties": {
                "RSU coordinates": [
                    11.4308939,
                    49.5099405
                ],
                "Distance": 49.96,
                "Frequency": 5.9,
                "RSSI": -84.63,
                "LOS": "False"
            }
        },
        {
            "type": "Feature",
            "geometry": {
                "type": "Point",
                "coordinates": [
                    11.43031882,
                    49.51015609
                ]
            },
            "properties": {
                "RSU coordinates": [
                    11.4308939,
                    49.5099405
                ],
                "Distance": 48.0,
                "Frequency": 5.9,
                "RSSI": -54.29,
                "LOS": "True"
            }
        },
        {
            "type": "Feature",
            "geometry": {
                "type": "Point",
                "coordinates": [
                    11.43041466,
                    49.51026388
                ]
            },
            "properties": {
                "RSU coordinates": [
                    11.4308939,
                    49.5099405
                ],
                "Distance": 49.96,
                "Frequency": 5.9,
                "RSSI": -69.63,
                "LOS": "False"
            }
        },
        {
            "type": "Feature",
            "geometry": {
                "type": "Point",
                "coordinates": [
                    11.43051051,
                    49.51037167
                ]
            },
            "properties": {
                "RSU coordinates": [
                    11.4308939,
                    49.5099405
                ],
                "Distance": 55.43,
                "Frequency": 5.9,
                "RSSI": -85.52000000000001,
                "LOS": "False"
            }
        },
        {
            "type": "Feature",
            "geometry": {
                "type": "Point",
                "coordinates": [
                    11.43079805,
                    49.51069506
                ]
            },
            "properties": {
                "RSU coordinates": [
                    11.4308939,
                    49.5099405
                ],
                "Distance": 84.29,
                "Frequency": 5.9,
                "RSSI": -74.12,
                "LOS": "False"
            }
        },
        {
            "type": "Feature",
            "geometry": {
                "type": "Point",
                "coordinates": [
                    11.4308939,
                    49.51080285
                ]
            },
            "properties": {
                "RSU coordinates": [
                    11.4308939,
                    49.5099405
                ],
                "Distance": 96.0,
                "Frequency": 5.9,
                "RSSI": -90.22999999999999,
                "LOS": "False"
            }
        },
        {
            "type": "Feature",
            "geometry": {
                "type": "Point",
                "coordinates": [
                    11.43051051,
                    49.51015609
                ]
            },
            "properties": {
                "RSU coordinates": [
                    11.4308939,
                    49.5099405
                ],
                "Distance": 36.66,
                "Frequency": 5.9,
                "RSSI": -51.98,
                "LOS": "True"
            }
        },
        {
            "type": "Feature",
            "geometry": {
                "type": "Point",
                "coordinates": [
                    11.43079805,
                    49.51047947
                ]
            },
            "properties": {
                "RSU coordinates": [
                    11.4308939,
                    49.5099405
                ],
                "Distance": 60.4,
                "Frequency": 5.9,
                "RSSI": -86.25999999999999,
                "LOS": "False"
            }
        },
        {
            "type": "Feature",
            "geometry": {
                "type": "Point",
                "coordinates": [
                    11.43031882,
                    49.50972491
                ]
            },
            "properties": {
                "RSU coordinates": [
                    11.4308939,
                    49.5099405
                ],
                "Distance": 48.0,
                "Frequency": 5.9,
                "RSSI": -69.28999999999999,
                "LOS": "False"
            }
        },
        {
            "type": "Feature",
            "geometry": {
                "type": "Point",
                "coordinates": [
                    11.43041467,
                    49.50983271
                ]
            },
            "properties": {
                "RSU coordinates": [
                    11.4308939,
                    49.5099405
                ],
                "Distance": 36.66,
                "Frequency": 5.9,
                "RSSI": -81.97999999999999,
                "LOS": "False"
            }
        },
        {
            "type": "Feature",
            "geometry": {
                "type": "Point",
                "coordinates": [
                    11.43060636,
                    49.51004829
                ]
            },
            "properties": {
                "RSU coordinates": [
                    11.4308939,
                    49.5099405
                ],
                "Distance": 24.0,
                "Frequency": 5.9,
                "RSSI": -48.34,
                "LOS": "True"
            }
        },
        {
            "type": "Feature",
            "geometry": {
                "type": "Point",
                "coordinates": [
                    11.43079805,
                    49.51026388
                ]
            },
            "properties": {
                "RSU coordinates": [
                    11.4308939,
                    49.5099405
                ],
                "Distance": 36.66,
                "Frequency": 5.9,
                "RSSI": -66.97999999999999,
                "LOS": "False"
            }
        },
        {
            "type": "Feature",
            "geometry": {
                "type": "Point",
                "coordinates": [
                    11.4308939,
                    49.51037167
                ]
            },
            "properties": {
                "RSU coordinates": [
                    11.4308939,
                    49.5099405
                ],
                "Distance": 48.0,
                "Frequency": 5.9,
                "RSSI": -69.28999999999999,
                "LOS": "False"
            }
        },
        {
            "type": "Feature",
            "geometry": {
                "type": "Point",
                "coordinates": [
                    11.43060636,
                    49.50983271
                ]
            },
            "properties": {
                "RSU coordinates": [
                    11.4308939,
                    49.5099405
                ],
                "Distance": 24.0,
                "Frequency": 5.9,
                "RSSI": -63.34,
                "LOS": "False"
            }
        },
        {
            "type": "Feature",
            "geometry": {
                "type": "Point",
                "coordinates": [
                    11.43079805,
                    49.51004829
                ]
            },
            "properties": {
                "RSU coordinates": [
                    11.4308939,
                    49.5099405
                ],
                "Distance": 13.86,
                "Frequency": 5.9,
                "RSSI": -43.63,
                "LOS": "True"
            }
        },
        {
            "type": "Feature",
            "geometry": {
                "type": "Point",
                "coordinates": [
                    11.4308939,
                    49.51015609
                ]
            },
            "properties": {
                "RSU coordinates": [
                    11.4308939,
                    49.5099405
                ],
                "Distance": 24.0,
                "Frequency": 5.9,
                "RSSI": -63.34,
                "LOS": "False"
            }
        },
        {
            "type": "Feature",
            "geometry": {
                "type": "Point",
                "coordinates": [
                    11.43108559,
                    49.51037167
                ]
            },
            "properties": {
                "RSU coordinates": [
                    11.4308939,
                    49.5099405
                ],
                "Distance": 49.96,
                "Frequency": 5.9,
                "RSSI": -99.63,
                "LOS": "False"
            }
        },
        {
            "type": "Feature",
            "geometry": {
                "type": "Point",
                "coordinates": [
                    11.43146899,
                    49.51080285
                ]
            },
            "properties": {
                "RSU coordinates": [
                    11.4308939,
                    49.5099405
                ],
                "Distance": 104.61,
                "Frequency": 5.9,
                "RSSI": -90.97,
                "LOS": "False"
            }
        },
        {
            "type": "Feature",
            "geometry": {
                "type": "Point",
                "coordinates": [
                    11.43156484,
                    49.51091064
                ]
            },
            "properties": {
                "RSU coordinates": [
                    11.4308939,
                    49.5099405
                ],
                "Distance": 118.39,
                "Frequency": 5.9,
                "RSSI": -77.03,
                "LOS": "False"
            }
        },
        {
            "type": "Feature",
            "geometry": {
                "type": "Point",
                "coordinates": [
                    11.43194824,
                    49.51134182
                ]
            },
            "properties": {
                "RSU coordinates": [
                    11.4308939,
                    49.5099405
                ],
                "Distance": 173.62,
                "Frequency": 5.9,
                "RSSI": -95.32,
                "LOS": "False"
            }
        },
        {
            "type": "Feature",
            "geometry": {
                "type": "Point",
                "coordinates": [
                    11.43204409,
                    49.51144961
                ]
            },
            "properties": {
                "RSU coordinates": [
                    11.4308939,
                    49.5099405
                ],
                "Distance": 187.45,
                "Frequency": 5.9,
                "RSSI": -95.97,
                "LOS": "False"
            }
        },
        {
            "type": "Feature",
            "geometry": {
                "type": "Point",
                "coordinates": [
                    11.43213995,
                    49.5115574
                ]
            },
            "properties": {
                "RSU coordinates": [
                    11.4308939,
                    49.5099405
                ],
                "Distance": 201.28,
                "Frequency": 5.9,
                "RSSI": -96.58,
                "LOS": "False"
            }
        },
        {
            "type": "Feature",
            "geometry": {
                "type": "Point",
                "coordinates": [
                    11.4322358,
                    49.5116652
                ]
            },
            "properties": {
                "RSU coordinates": [
                    11.4308939,
                    49.5099405
                ],
                "Distance": 215.11,
                "Frequency": 5.9,
                "RSSI": -97.15,
                "LOS": "False"
            }
        },
        {
            "type": "Feature",
            "geometry": {
                "type": "Point",
                "coordinates": [
                    11.43233165,
                    49.51177299
                ]
            },
            "properties": {
                "RSU coordinates": [
                    11.4308939,
                    49.5099405
                ],
                "Distance": 228.95,
                "Frequency": 5.9,
                "RSSI": -97.69,
                "LOS": "False"
            }
        },
        {
            "type": "Feature",
            "geometry": {
                "type": "Point",
                "coordinates": [
                    11.43060636,
                    49.50961712
                ]
            },
            "properties": {
                "RSU coordinates": [
                    11.4308939,
                    49.5099405
                ],
                "Distance": 41.57,
                "Frequency": 5.9,
                "RSSI": -83.06,
                "LOS": "False"
            }
        },
        {
            "type": "Feature",
            "geometry": {
                "type": "Point",
                "coordinates": [
                    11.43070221,
                    49.50972491
                ]
            },
            "properties": {
                "RSU coordinates": [
                    11.4308939,
                    49.5099405
                ],
                "Distance": 27.71,
                "Frequency": 5.9,
                "RSSI": -64.58,
                "LOS": "False"
            }
        },
        {
            "type": "Feature",
            "geometry": {
                "type": "Point",
                "coordinates": [
                    11.43079805,
                    49.50983271
                ]
            },
            "properties": {
                "RSU coordinates": [
                    11.4308939,
                    49.5099405
                ],
                "Distance": 13.86,
                "Frequency": 5.9,
                "RSSI": -58.63,
                "LOS": "False"
            }
        },
        {
            "type": "Feature",
            "geometry": {
                "type": "Point",
                "coordinates": [
                    11.43098975,
                    49.51004829
                ]
            },
            "properties": {
                "RSU coordinates": [
                    11.4308939,
                    49.5099405
                ],
                "Distance": 13.86,
                "Frequency": 5.9,
                "RSSI": -43.63,
                "LOS": "True"
            }
        },
        {
            "type": "Feature",
            "geometry": {
                "type": "Point",
                "coordinates": [
                    11.43118144,
                    49.51026388
                ]
            },
            "properties": {
                "RSU coordinates": [
                    11.4308939,
                    49.5099405
                ],
                "Distance": 41.57,
                "Frequency": 5.9,
                "RSSI": -68.06,
                "LOS": "False"
            }
        },
        {
            "type": "Feature",
            "geometry": {
                "type": "Point",
                "coordinates": [
                    11.43127729,
                    49.51037167
                ]
            },
            "properties": {
                "RSU coordinates": [
                    11.4308939,
                    49.5099405
                ],
                "Distance": 55.43,
                "Frequency": 5.9,
                "RSSI": -70.52000000000001,
                "LOS": "False"
            }
        },
        {
            "type": "Feature",
            "geometry": {
                "type": "Point",
                "coordinates": [
                    11.43137314,
                    49.51047947
                ]
            },
            "properties": {
                "RSU coordinates": [
                    11.4308939,
                    49.5099405
                ],
                "Distance": 69.28,
                "Frequency": 5.9,
                "RSSI": -72.44,
                "LOS": "False"
            }
        },
        {
            "type": "Feature",
            "geometry": {
                "type": "Point",
                "coordinates": [
                    11.43146899,
                    49.51058726
                ]
            },
            "properties": {
                "RSU coordinates": [
                    11.4308939,
                    49.5099405
                ],
                "Distance": 83.14,
                "Frequency": 5.9,
                "RSSI": -74.0,
                "LOS": "False"
            }
        },
        {
            "type": "Feature",
            "geometry": {
                "type": "Point",
                "coordinates": [
                    11.43156484,
                    49.51069506
                ]
            },
            "properties": {
                "RSU coordinates": [
                    11.4308939,
                    49.5099405
                ],
                "Distance": 96.99,
                "Frequency": 5.9,
                "RSSI": -75.32,
                "LOS": "False"
            }
        },
        {
            "type": "Feature",
            "geometry": {
                "type": "Point",
                "coordinates": [
                    11.43166069,
                    49.51080285
                ]
            },
            "properties": {
                "RSU coordinates": [
                    11.4308939,
                    49.5099405
                ],
                "Distance": 110.85,
                "Frequency": 5.9,
                "RSSI": -76.47,
                "LOS": "False"
            }
        },
        {
            "type": "Feature",
            "geometry": {
                "type": "Point",
                "coordinates": [
                    11.43175654,
                    49.51091064
                ]
            },
            "properties": {
                "RSU coordinates": [
                    11.4308939,
                    49.5099405
                ],
                "Distance": 124.71,
                "Frequency": 5.9,
                "RSSI": -77.47999999999999,
                "LOS": "False"
            }
        },
        {
            "type": "Feature",
            "geometry": {
                "type": "Point",
                "coordinates": [
                    11.43194824,
                    49.51112623
                ]
            },
            "properties": {
                "RSU coordinates": [
                    11.4308939,
                    49.5099405
                ],
                "Distance": 152.42,
                "Frequency": 5.9,
                "RSSI": -94.2,
                "LOS": "False"
            }
        },
        {
            "type": "Feature",
            "geometry": {
                "type": "Point",
                "coordinates": [
                    11.43204409,
                    49.51123402
                ]
            },
            "properties": {
                "RSU coordinates": [
                    11.4308939,
                    49.5099405
                ],
                "Distance": 166.28,
                "Frequency": 5.9,
                "RSSI": -94.94,
                "LOS": "False"
            }
        },
        {
            "type": "Feature",
            "geometry": {
                "type": "Point",
                "coordinates": [
                    11.43213994,
                    49.51134182
                ]
            },
            "properties": {
                "RSU coordinates": [
                    11.4308939,
                    49.5099405
                ],
                "Distance": 180.13,
                "Frequency": 5.9,
                "RSSI": -95.63,
                "LOS": "False"
            }
        },
        {
            "type": "Feature",
            "geometry": {
                "type": "Point",
                "coordinates": [
                    11.43223579,
                    49.51144961
                ]
            },
            "properties": {
                "RSU coordinates": [
                    11.4308939,
                    49.5099405
                ],
                "Distance": 193.99,
                "Frequency": 5.9,
                "RSSI": -96.27,
                "LOS": "False"
            }
        },
        {
            "type": "Feature",
            "geometry": {
                "type": "Point",
                "coordinates": [
                    11.43233164,
                    49.5115574
                ]
            },
            "properties": {
                "RSU coordinates": [
                    11.4308939,
                    49.5099405
                ],
                "Distance": 207.85,
                "Frequency": 5.9,
                "RSSI": -96.86,
                "LOS": "False"
            }
        },
        {
            "type": "Feature",
            "geometry": {
                "type": "Point",
                "coordinates": [
                    11.4324275,
                    49.5116652
                ]
            },
            "properties": {
                "RSU coordinates": [
                    11.4308939,
                    49.5099405
                ],
                "Distance": 221.7,
                "Frequency": 5.9,
                "RSSI": -97.41,
                "LOS": "False"
            }
        },
        {
            "type": "Feature",
            "geometry": {
                "type": "Point",
                "coordinates": [
                    11.43252335,
                    49.51177299
                ]
            },
            "properties": {
                "RSU coordinates": [
                    11.4308939,
                    49.5099405
                ],
                "Distance": 235.56,
                "Frequency": 5.9,
                "RSSI": -97.93,
                "LOS": "False"
            }
        },
        {
            "type": "Feature",
            "geometry": {
                "type": "Point",
                "coordinates": [
                    11.4308939,
                    49.50972491
                ]
            },
            "properties": {
                "RSU coordinates": [
                    11.4308939,
                    49.5099405
                ],
                "Distance": 24.0,
                "Frequency": 5.9,
                "RSSI": -63.34,
                "LOS": "False"
            }
        },
        {
            "type": "Feature",
            "geometry": {
                "type": "Point",
                "coordinates": [
                    11.43098975,
                    49.50983271
                ]
            },
            "properties": {
                "RSU coordinates": [
                    11.4308939,
                    49.5099405
                ],
                "Distance": 13.86,
                "Frequency": 5.9,
                "RSSI": -43.63,
                "LOS": "True"
            }
        },
        {
            "type": "Feature",
            "geometry": {
                "type": "Point",
                "coordinates": [
                    11.43108559,
                    49.5099405
                ]
            },
            "properties": {
                "RSU coordinates": [
                    11.4308939,
                    49.5099405
                ],
                "Distance": 13.86,
                "Frequency": 5.9,
                "RSSI": -43.63,
                "LOS": "True"
            }
        },
        {
            "type": "Feature",
            "geometry": {
                "type": "Point",
                "coordinates": [
                    11.43127729,
                    49.51015609
                ]
            },
            "properties": {
                "RSU coordinates": [
                    11.4308939,
                    49.5099405
                ],
                "Distance": 36.66,
                "Frequency": 5.9,
                "RSSI": -66.97999999999999,
                "LOS": "False"
            }
        },
        {
            "type": "Feature",
            "geometry": {
                "type": "Point",
                "coordinates": [
                    11.43146898,
                    49.51037167
                ]
            },
            "properties": {
                "RSU coordinates": [
                    11.4308939,
                    49.5099405
                ],
                "Distance": 63.5,
                "Frequency": 5.9,
                "RSSI": -71.69,
                "LOS": "False"
            }
        },
        {
            "type": "Feature",
            "geometry": {
                "type": "Point",
                "coordinates": [
                    11.43156483,
                    49.51047947
                ]
            },
            "properties": {
                "RSU coordinates": [
                    11.4308939,
                    49.5099405
                ],
                "Distance": 77.15,
                "Frequency": 5.9,
                "RSSI": -88.36,
                "LOS": "False"
            }
        },
        {
            "type": "Feature",
            "geometry": {
                "type": "Point",
                "coordinates": [
                    11.43166068,
                    49.51058726
                ]
            },
            "properties": {
                "RSU coordinates": [
                    11.4308939,
                    49.5099405
                ],
                "Distance": 90.86,
                "Frequency": 5.9,
                "RSSI": -89.75999999999999,
                "LOS": "False"
            }
        },
        {
            "type": "Feature",
            "geometry": {
                "type": "Point",
                "coordinates": [
                    11.43175653,
                    49.51069506
                ]
            },
            "properties": {
                "RSU coordinates": [
                    11.4308939,
                    49.5099405
                ],
                "Distance": 104.61,
                "Frequency": 5.9,
                "RSSI": -90.97,
                "LOS": "False"
            }
        },
        {
            "type": "Feature",
            "geometry": {
                "type": "Point",
                "coordinates": [
                    11.43185238,
                    49.51080285
                ]
            },
            "properties": {
                "RSU coordinates": [
                    11.4308939,
                    49.5099405
                ],
                "Distance": 118.39,
                "Frequency": 5.9,
                "RSSI": -92.03,
                "LOS": "False"
            }
        },
        {
            "type": "Feature",
            "geometry": {
                "type": "Point",
                "coordinates": [
                    11.43194823,
                    49.51091064
                ]
            },
            "properties": {
                "RSU coordinates": [
                    11.4308939,
                    49.5099405
                ],
                "Distance": 132.18,
                "Frequency": 5.9,
                "RSSI": -92.97999999999999,
                "LOS": "False"
            }
        },
        {
            "type": "Feature",
            "geometry": {
                "type": "Point",
                "coordinates": [
                    11.43204408,
                    49.51101844
                ]
            },
            "properties": {
                "RSU coordinates": [
                    11.4308939,
                    49.5099405
                ],
                "Distance": 145.99,
                "Frequency": 5.9,
                "RSSI": -93.83,
                "LOS": "False"
            }
        },
        {
            "type": "Feature",
            "geometry": {
                "type": "Point",
                "coordinates": [
                    11.4326192,
                    49.5116652
                ]
            },
            "properties": {
                "RSU coordinates": [
                    11.4308939,
                    49.5099405
                ],
                "Distance": 228.95,
                "Frequency": 5.9,
                "RSSI": -97.69,
                "LOS": "False"
            }
        },
        {
            "type": "Feature",
            "geometry": {
                "type": "Point",
                "coordinates": [
                    11.43271505,
                    49.51177299
                ]
            },
            "properties": {
                "RSU coordinates": [
                    11.4308939,
                    49.5099405
                ],
                "Distance": 242.78,
                "Frequency": 5.9,
                "RSSI": -98.19,
                "LOS": "False"
            }
        },
        {
            "type": "Feature",
            "geometry": {
                "type": "Point",
                "coordinates": [
                    11.4308939,
                    49.50950933
                ]
            },
            "properties": {
                "RSU coordinates": [
                    11.4308939,
                    49.5099405
                ],
                "Distance": 48.0,
                "Frequency": 5.9,
                "RSSI": -99.28999999999999,
                "LOS": "False"
            }
        },
        {
            "type": "Feature",
            "geometry": {
                "type": "Point",
                "coordinates": [
                    11.43118144,
                    49.50983271
                ]
            },
            "properties": {
                "RSU coordinates": [
                    11.4308939,
                    49.5099405
                ],
                "Distance": 24.0,
                "Frequency": 5.9,
                "RSSI": -48.34,
                "LOS": "True"
            }
        },
        {
            "type": "Feature",
            "geometry": {
                "type": "Point",
                "coordinates": [
                    11.43127729,
                    49.5099405
                ]
            },
            "properties": {
                "RSU coordinates": [
                    11.4308939,
                    49.5099405
                ],
                "Distance": 27.71,
                "Frequency": 5.9,
                "RSSI": -64.58,
                "LOS": "False"
            }
        },
        {
            "type": "Feature",
            "geometry": {
                "type": "Point",
                "coordinates": [
                    11.43146898,
                    49.51015609
                ]
            },
            "properties": {
                "RSU coordinates": [
                    11.4308939,
                    49.5099405
                ],
                "Distance": 48.0,
                "Frequency": 5.9,
                "RSSI": -84.28999999999999,
                "LOS": "False"
            }
        },
        {
            "type": "Feature",
            "geometry": {
                "type": "Point",
                "coordinates": [
                    11.43166068,
                    49.51037167
                ]
            },
            "properties": {
                "RSU coordinates": [
                    11.4308939,
                    49.5099405
                ],
                "Distance": 73.32,
                "Frequency": 5.9,
                "RSSI": -87.92,
                "LOS": "False"
            }
        },
        {
            "type": "Feature",
            "geometry": {
                "type": "Point",
                "coordinates": [
                    11.43175653,
                    49.51047947
                ]
            },
            "properties": {
                "RSU coordinates": [
                    11.4308939,
                    49.5099405
                ],
                "Distance": 86.53,
                "Frequency": 5.9,
                "RSSI": -89.34,
                "LOS": "False"
            }
        },
        {
            "type": "Feature",
            "geometry": {
                "type": "Point",
                "coordinates": [
                    11.43185238,
                    49.51058726
                ]
            },
            "properties": {
                "RSU coordinates": [
                    11.4308939,
                    49.5099405
                ],
                "Distance": 99.92,
                "Frequency": 5.9,
                "RSSI": -75.58,
                "LOS": "False"
            }
        },
        {
            "type": "Feature",
            "geometry": {
                "type": "Point",
                "coordinates": [
                    11.43194823,
                    49.51069506
                ]
            },
            "properties": {
                "RSU coordinates": [
                    11.4308939,
                    49.5099405
                ],
                "Distance": 113.42,
                "Frequency": 5.9,
                "RSSI": -76.66,
                "LOS": "False"
            }
        },
        {
            "type": "Feature",
            "geometry": {
                "type": "Point",
                "coordinates": [
                    11.43204408,
                    49.51080285
                ]
            },
            "properties": {
                "RSU coordinates": [
                    11.4308939,
                    49.5099405
                ],
                "Distance": 127.0,
                "Frequency": 5.9,
                "RSSI": -77.63,
                "LOS": "False"
            }
        },
        {
            "type": "Feature",
            "geometry": {
                "type": "Point",
                "coordinates": [
                    11.43118144,
                    49.50961712
                ]
            },
            "properties": {
                "RSU coordinates": [
                    11.4308939,
                    49.5099405
                ],
                "Distance": 41.57,
                "Frequency": 5.9,
                "RSSI": -68.06,
                "LOS": "False"
            }
        },
        {
            "type": "Feature",
            "geometry": {
                "type": "Point",
                "coordinates": [
                    11.43166068,
                    49.51015609
                ]
            },
            "properties": {
                "RSU coordinates": [
                    11.4308939,
                    49.5099405
                ],
                "Distance": 60.4,
                "Frequency": 5.9,
                "RSSI": -86.25999999999999,
                "LOS": "False"
            }
        },
        {
            "type": "Feature",
            "geometry": {
                "type": "Point",
                "coordinates": [
                    11.43194822,
                    49.51047947
                ]
            },
            "properties": {
                "RSU coordinates": [
                    11.4308939,
                    49.5099405
                ],
                "Distance": 96.99,
                "Frequency": 5.9,
                "RSSI": -90.32,
                "LOS": "False"
            }
        },
        {
            "type": "Feature",
            "geometry": {
                "type": "Point",
                "coordinates": [
                    11.43204407,
                    49.51058726
                ]
            },
            "properties": {
                "RSU coordinates": [
                    11.4308939,
                    49.5099405
                ],
                "Distance": 109.98,
                "Frequency": 5.9,
                "RSSI": -91.4,
                "LOS": "False"
            }
        },
        {
            "type": "Feature",
            "geometry": {
                "type": "Point",
                "coordinates": [
                    11.43233163,
                    49.51091064
                ]
            },
            "properties": {
                "RSU coordinates": [
                    11.4308939,
                    49.5099405
                ],
                "Distance": 149.88,
                "Frequency": 5.9,
                "RSSI": -94.05,
                "LOS": "False"
            }
        },
        {
            "type": "Feature",
            "geometry": {
                "type": "Point",
                "coordinates": [
                    11.43127728,
                    49.50950933
                ]
            },
            "properties": {
                "RSU coordinates": [
                    11.4308939,
                    49.5099405
                ],
                "Distance": 55.43,
                "Frequency": 5.9,
                "RSSI": -85.52000000000001,
                "LOS": "False"
            }
        },
        {
            "type": "Feature",
            "geometry": {
                "type": "Point",
                "coordinates": [
                    11.43137313,
                    49.50961712
                ]
            },
            "properties": {
                "RSU coordinates": [
                    11.4308939,
                    49.5099405
                ],
                "Distance": 49.96,
                "Frequency": 5.9,
                "RSSI": -69.63,
                "LOS": "False"
            }
        },
        {
            "type": "Feature",
            "geometry": {
                "type": "Point",
                "coordinates": [
                    11.43146898,
                    49.50972491
                ]
            },
            "properties": {
                "RSU coordinates": [
                    11.4308939,
                    49.5099405
                ],
                "Distance": 48.0,
                "Frequency": 5.9,
                "RSSI": -69.28999999999999,
                "LOS": "False"
            }
        },
        {
            "type": "Feature",
            "geometry": {
                "type": "Point",
                "coordinates": [
                    11.43156482,
                    49.50983271
                ]
            },
            "properties": {
                "RSU coordinates": [
                    11.4308939,
                    49.5099405
                ],
                "Distance": 49.96,
                "Frequency": 5.9,
                "RSSI": -54.63,
                "LOS": "True"
            }
        },
        {
            "type": "Feature",
            "geometry": {
                "type": "Point",
                "coordinates": [
                    11.43166067,
                    49.5099405
                ]
            },
            "properties": {
                "RSU coordinates": [
                    11.4308939,
                    49.5099405
                ],
                "Distance": 55.43,
                "Frequency": 5.9,
                "RSSI": -85.52000000000001,
                "LOS": "False"
            }
        },
        {
            "type": "Feature",
            "geometry": {
                "type": "Point",
                "coordinates": [
                    11.43175652,
                    49.51004829
                ]
            },
            "properties": {
                "RSU coordinates": [
                    11.4308939,
                    49.5099405
                ],
                "Distance": 63.5,
                "Frequency": 5.9,
                "RSSI": -86.69,
                "LOS": "False"
            }
        },
        {
            "type": "Feature",
            "geometry": {
                "type": "Point",
                "coordinates": [
                    11.43137313,
                    49.50940153
                ]
            },
            "properties": {
                "RSU coordinates": [
                    11.4308939,
                    49.5099405
                ],
                "Distance": 69.28,
                "Frequency": 5.9,
                "RSSI": -87.44,
                "LOS": "False"
            }
        },
        {
            "type": "Feature",
            "geometry": {
                "type": "Point",
                "coordinates": [
                    11.43146897,
                    49.50950933
                ]
            },
            "properties": {
                "RSU coordinates": [
                    11.4308939,
                    49.5099405
                ],
                "Distance": 63.5,
                "Frequency": 5.9,
                "RSSI": -56.69,
                "LOS": "True"
            }
        },
        {
            "type": "Feature",
            "geometry": {
                "type": "Point",
                "coordinates": [
                    11.43175652,
                    49.50983271
                ]
            },
            "properties": {
                "RSU coordinates": [
                    11.4308939,
                    49.5099405
                ],
                "Distance": 63.5,
                "Frequency": 5.9,
                "RSSI": -56.69,
                "LOS": "True"
            }
        },
        {
            "type": "Feature",
            "geometry": {
                "type": "Point",
                "coordinates": [
                    11.43194821,
                    49.51004829
                ]
            },
            "properties": {
                "RSU coordinates": [
                    11.4308939,
                    49.5099405
                ],
                "Distance": 77.15,
                "Frequency": 5.9,
                "RSSI": -88.36,
                "LOS": "False"
            }
        },
        {
            "type": "Feature",
            "geometry": {
                "type": "Point",
                "coordinates": [
                    11.43156482,
                    49.50940153
                ]
            },
            "properties": {
                "RSU coordinates": [
                    11.4308939,
                    49.5099405
                ],
                "Distance": 77.15,
                "Frequency": 5.9,
                "RSSI": -73.36,
                "LOS": "False"
            }
        },
        {
            "type": "Feature",
            "geometry": {
                "type": "Point",
                "coordinates": [
                    11.43166067,
                    49.50950933
                ]
            },
            "properties": {
                "RSU coordinates": [
                    11.4308939,
                    49.5099405
                ],
                "Distance": 73.32,
                "Frequency": 5.9,
                "RSSI": -72.92,
                "LOS": "False"
            }
        },
        {
            "type": "Feature",
            "geometry": {
                "type": "Point",
                "coordinates": [
                    11.43175651,
                    49.50961712
                ]
            },
            "properties": {
                "RSU coordinates": [
                    11.4308939,
                    49.5099405
                ],
                "Distance": 72.0,
                "Frequency": 5.9,
                "RSSI": -72.77000000000001,
                "LOS": "False"
            }
        },
        {
            "type": "Feature",
            "geometry": {
                "type": "Point",
                "coordinates": [
                    11.43194821,
                    49.50983271
                ]
            },
            "properties": {
                "RSU coordinates": [
                    11.4308939,
                    49.5099405
                ],
                "Distance": 77.15,
                "Frequency": 5.9,
                "RSSI": -58.36,
                "LOS": "True"
            }
        },
        {
            "type": "Feature",
            "geometry": {
                "type": "Point",
                "coordinates": [
                    11.43175651,
                    49.50940153
                ]
            },
            "properties": {
                "RSU coordinates": [
                    11.4308939,
                    49.5099405
                ],
                "Distance": 86.53,
                "Frequency": 5.9,
                "RSSI": -74.34,
                "LOS": "False"
            }
        },
        {
            "type": "Feature",
            "geometry": {
                "type": "Point",
                "coordinates": [
                    11.4319482,
                    49.50961712
                ]
            },
            "properties": {
                "RSU coordinates": [
                    11.4308939,
                    49.5099405
                ],
                "Distance": 84.29,
                "Frequency": 5.9,
                "RSSI": -89.12,
                "LOS": "False"
            }
        },
        {
            "type": "Feature",
            "geometry": {
                "type": "Point",
                "coordinates": [
                    11.4321399,
                    49.50983271
                ]
            },
            "properties": {
                "RSU coordinates": [
                    11.4308939,
                    49.5099405
                ],
                "Distance": 90.86,
                "Frequency": 5.9,
                "RSSI": -59.76,
                "LOS": "True"
            }
        },
        {
            "type": "Feature",
            "geometry": {
                "type": "Point",
                "coordinates": [
                    11.43223574,
                    49.50972491
                ]
            },
            "properties": {
                "RSU coordinates": [
                    11.4308939,
                    49.5099405
                ],
                "Distance": 99.92,
                "Frequency": 5.9,
                "RSSI": -60.58,
                "LOS": "True"
            }
        },
        {
            "type": "Feature",
            "geometry": {
                "type": "Point",
                "coordinates": [
                    11.43233159,
                    49.50983271
                ]
            },
            "properties": {
                "RSU coordinates": [
                    11.4308939,
                    49.5099405
                ],
                "Distance": 104.61,
                "Frequency": 5.9,
                "RSSI": -60.97,
                "LOS": "True"
            }
        },
        {
            "type": "Feature",
            "geometry": {
                "type": "Point",
                "coordinates": [
                    11.43204404,
                    49.50929374
                ]
            },
            "properties": {
                "RSU coordinates": [
                    11.4308939,
                    49.5099405
                ],
                "Distance": 109.98,
                "Frequency": 5.9,
                "RSSI": -76.4,
                "LOS": "False"
            }
        },
        {
            "type": "Feature",
            "geometry": {
                "type": "Point",
                "coordinates": [
                    11.43242744,
                    49.50972491
                ]
            },
            "properties": {
                "RSU coordinates": [
                    11.4308939,
                    49.5099405
                ],
                "Distance": 113.42,
                "Frequency": 5.9,
                "RSSI": -61.66,
                "LOS": "True"
            }
        },
        {
            "type": "Feature",
            "geometry": {
                "type": "Point",
                "coordinates": [
                    11.43252329,
                    49.50983271
                ]
            },
            "properties": {
                "RSU coordinates": [
                    11.4308939,
                    49.5099405
                ],
                "Distance": 118.39,
                "Frequency": 5.9,
                "RSSI": -92.03,
                "LOS": "False"
            }
        },
        {
            "type": "Feature",
            "geometry": {
                "type": "Point",
                "coordinates": [
                    11.43213988,
                    49.50918594
                ]
            },
            "properties": {
                "RSU coordinates": [
                    11.4308939,
                    49.5099405
                ],
                "Distance": 123.16,
                "Frequency": 5.9,
                "RSSI": -92.37,
                "LOS": "False"
            }
        },
        {
            "type": "Feature",
            "geometry": {
                "type": "Point",
                "coordinates": [
                    11.43261913,
                    49.50972491
                ]
            },
            "properties": {
                "RSU coordinates": [
                    11.4308939,
                    49.5099405
                ],
                "Distance": 127.0,
                "Frequency": 5.9,
                "RSSI": -62.63,
                "LOS": "True"
            }
        },
        {
            "type": "Feature",
            "geometry": {
                "type": "Point",
                "coordinates": [
                    11.43281082,
                    49.50972491
                ]
            },
            "properties": {
                "RSU coordinates": [
                    11.4308939,
                    49.5099405
                ],
                "Distance": 140.63,
                "Frequency": 5.9,
                "RSSI": -78.50999999999999,
                "LOS": "False"
            }
        },
        {
            "type": "Feature",
            "geometry": {
                "type": "Point",
                "coordinates": [
                    11.43242742,
                    49.50907815
                ]
            },
            "properties": {
                "RSU coordinates": [
                    11.4308939,
                    49.5099405
                ],
                "Distance": 146.64,
                "Frequency": 5.9,
                "RSSI": -78.87,
                "LOS": "False"
            }
        },
        {
            "type": "Feature",
            "geometry": {
                "type": "Point",
                "coordinates": [
                    11.43290666,
                    49.50961712
                ]
            },
            "properties": {
                "RSU coordinates": [
                    11.4308939,
                    49.5099405
                ],
                "Distance": 149.88,
                "Frequency": 5.9,
                "RSSI": -94.05,
                "LOS": "False"
            }
        },
        {
            "type": "Feature",
            "geometry": {
                "type": "Point",
                "coordinates": [
                    11.43376928,
                    49.50972491
                ]
            },
            "properties": {
                "RSU coordinates": [
                    11.4308939,
                    49.5099405
                ],
                "Distance": 209.23,
                "Frequency": 5.9,
                "RSSI": -96.92,
                "LOS": "False"
            }
        }
    ]
}