{
    "type": "FeatureCollection",
    "features": [
        {
            "type": "Feature",
            "geometry": {
                "type": "Point",
                "coordinates": [
                    8.62617022,
                    49.40038544
                ]
            },
            "properties": {
                "RSU coordinates": [
                    8.6320038,
                    49.3994153
                ],
                "Distance": 436.2,
                "Frequency": 5.9,
                "RSSI": -88.22,
                "LOS": "False"
            }
        },
        {
            "type": "Feature",
            "geometry": {
                "type": "Point",
                "coordinates": [
                    8.62626586,
                    49.40027765
                ]
            },
            "properties": {
                "RSU coordinates": [
                    8.6320038,
                    49.3994153
                ],
                "Distance": 426.63,
                "Frequency": 5.9,
                "RSSI": -73.03,
                "LOS": "True"
            }
        },
        {
            "type": "Feature",
            "geometry": {
                "type": "Point",
                "coordinates": [
                    8.62664839,
                    49.40027765
                ]
            },
            "properties": {
                "RSU coordinates": [
                    8.6320038,
                    49.3994153
                ],
                "Distance": 399.68,
                "Frequency": 5.9,
                "RSSI": -72.47,
                "LOS": "True"
            }
        },
        {
            "type": "Feature",
            "geometry": {
                "type": "Point",
                "coordinates": [
                    8.62683966,
                    49.40027765
                ]
            },
            "properties": {
                "RSU coordinates": [
                    8.6320038,
                    49.3994153
                ],
                "Distance": 386.24,
                "Frequency": 5.9,
                "RSSI": -72.17,
                "LOS": "True"
            }
        },
        {
            "type": "Feature",
            "geometry": {
                "type": "Point",
                "coordinates": [
                    8.62712657,
                    49.40016986
                ]
            },
            "properties": {
                "RSU coordinates": [
                    8.6320038,
                    49.3994153
                ],
                "Distance": 363.19,
                "Frequency": 5.9,
                "RSSI": -71.64,
                "LOS": "True"
            }
        },
        {
            "type": "Feature",
            "geometry": {
                "type": "Point",
                "coordinates": [
                    8.62731783,
                    49.40016986
                ]
            },
            "properties": {
                "RSU coordinates": [
                    8.6320038,
                    49.3994153
                ],
                "Distance": 349.72,
                "Frequency": 5.9,
                "RSSI": -71.32,
                "LOS": "True"
            }
        },
        {
            "type": "Feature",
            "geometry": {
                "type": "Point",
                "coordinates": [
                    8.62750909,
                    49.40016986
                ]
            },
            "properties": {
                "RSU coordinates": [
                    8.6320038,
                    49.3994153
                ],
                "Distance": 336.29,
                "Frequency": 5.9,
                "RSSI": -85.98,
                "LOS": "False"
            }
        },
        {
            "type": "Feature",
            "geometry": {
                "type": "Point",
                "coordinates": [
                    8.627796,
                    49.40006206
                ]
            },
            "properties": {
                "RSU coordinates": [
                    8.6320038,
                    49.3994153
                ],
                "Distance": 313.23,
                "Frequency": 5.9,
                "RSSI": -70.38,
                "LOS": "True"
            }
        },
        {
            "type": "Feature",
            "geometry": {
                "type": "Point",
                "coordinates": [
                    8.62798726,
                    49.40006206
                ]
            },
            "properties": {
                "RSU coordinates": [
                    8.6320038,
                    49.3994153
                ],
                "Distance": 299.76,
                "Frequency": 5.9,
                "RSSI": -70.0,
                "LOS": "True"
            }
        },
        {
            "type": "Feature",
            "geometry": {
                "type": "Point",
                "coordinates": [
                    8.62846543,
                    49.39995427
                ]
            },
            "properties": {
                "RSU coordinates": [
                    8.6320038,
                    49.3994153
                ],
                "Distance": 263.27,
                "Frequency": 5.9,
                "RSSI": -68.89,
                "LOS": "True"
            }
        },
        {
            "type": "Feature",
            "geometry": {
                "type": "Point",
                "coordinates": [
                    8.62865669,
                    49.39995427
                ]
            },
            "properties": {
                "RSU coordinates": [
                    8.6320038,
                    49.3994153
                ],
                "Distance": 249.8,
                "Frequency": 5.9,
                "RSSI": -68.44,
                "LOS": "True"
            }
        },
        {
            "type": "Feature",
            "geometry": {
                "type": "Point",
                "coordinates": [
                    8.62884796,
                    49.39995427
                ]
            },
            "properties": {
                "RSU coordinates": [
                    8.6320038,
                    49.3994153
                ],
                "Distance": 236.37,
                "Frequency": 5.9,
                "RSSI": -67.96,
                "LOS": "True"
            }
        },
        {
            "type": "Feature",
            "geometry": {
                "type": "Point",
                "coordinates": [
                    8.62865672,
                    49.39952309
                ]
            },
            "properties": {
                "RSU coordinates": [
                    8.6320038,
                    49.3994153
                ],
                "Distance": 242.78,
                "Frequency": 5.9,
                "RSSI": -98.19,
                "LOS": "False"
            }
        },
        {
            "type": "Feature",
            "geometry": {
                "type": "Point",
                "coordinates": [
                    8.62875235,
                    49.39963089
                ]
            },
            "properties": {
                "RSU coordinates": [
                    8.6320038,
                    49.3994153
                ],
                "Distance": 236.78,
                "Frequency": 5.9,
                "RSSI": -97.98,
                "LOS": "False"
            }
        },
        {
            "type": "Feature",
            "geometry": {
                "type": "Point",
                "coordinates": [
                    8.62894361,
                    49.39963089
                ]
            },
            "properties": {
                "RSU coordinates": [
                    8.6320038,
                    49.3994153
                ],
                "Distance": 223.0,
                "Frequency": 5.9,
                "RSSI": -82.46,
                "LOS": "False"
            }
        },
        {
            "type": "Feature",
            "geometry": {
                "type": "Point",
                "coordinates": [
                    8.62913486,
                    49.39984647
                ]
            },
            "properties": {
                "RSU coordinates": [
                    8.6320038,
                    49.3994153
                ],
                "Distance": 213.32,
                "Frequency": 5.9,
                "RSSI": -67.08,
                "LOS": "True"
            }
        },
        {
            "type": "Feature",
            "geometry": {
                "type": "Point",
                "coordinates": [
                    8.62903925,
                    49.39952309
                ]
            },
            "properties": {
                "RSU coordinates": [
                    8.6320038,
                    49.3994153
                ],
                "Distance": 215.11,
                "Frequency": 5.9,
                "RSSI": -82.15,
                "LOS": "False"
            }
        },
        {
            "type": "Feature",
            "geometry": {
                "type": "Point",
                "coordinates": [
                    8.62913487,
                    49.39963089
                ]
            },
            "properties": {
                "RSU coordinates": [
                    8.6320038,
                    49.3994153
                ],
                "Distance": 209.23,
                "Frequency": 5.9,
                "RSSI": -81.92,
                "LOS": "False"
            }
        },
        {
            "type": "Feature",
            "geometry": {
                "type": "Point",
                "coordinates": [
                    8.62932612,
                    49.39984647
                ]
            },
            "properties": {
                "RSU coordinates": [
                    8.6320038,
                    49.3994153
                ],
                "Distance": 199.84,
                "Frequency": 5.9,
                "RSSI": -66.52,
                "LOS": "True"
            }
        },
        {
            "type": "Feature",
            "geometry": {
                "type": "Point",
                "coordinates": [
                    8.62923051,
                    49.39952309
                ]
            },
            "properties": {
                "RSU coordinates": [
                    8.6320038,
                    49.3994153
                ],
                "Distance": 201.28,
                "Frequency": 5.9,
                "RSSI": -81.58,
                "LOS": "False"
            }
        },
        {
            "type": "Feature",
            "geometry": {
                "type": "Point",
                "coordinates": [
                    8.62951738,
                    49.39984647
                ]
            },
            "properties": {
                "RSU coordinates": [
                    8.6320038,
                    49.3994153
                ],
                "Distance": 186.42,
                "Frequency": 5.9,
                "RSSI": -65.93,
                "LOS": "True"
            }
        },
        {
            "type": "Feature",
            "geometry": {
                "type": "Point",
                "coordinates": [
                    8.62942177,
                    49.39952309
                ]
            },
            "properties": {
                "RSU coordinates": [
                    8.6320038,
                    49.3994153
                ],
                "Distance": 187.45,
                "Frequency": 5.9,
                "RSSI": -80.97,
                "LOS": "False"
            }
        },
        {
            "type": "Feature",
            "geometry": {
                "type": "Point",
                "coordinates": [
                    8.62951739,
                    49.39963089
                ]
            },
            "properties": {
                "RSU coordinates": [
                    8.6320038,
                    49.3994153
                ],
                "Distance": 181.73,
                "Frequency": 5.9,
                "RSSI": -80.71,
                "LOS": "False"
            }
        },
        {
            "type": "Feature",
            "geometry": {
                "type": "Point",
                "coordinates": [
                    8.62961302,
                    49.39973868
                ]
            },
            "properties": {
                "RSU coordinates": [
                    8.6320038,
                    49.3994153
                ],
                "Distance": 176.91,
                "Frequency": 5.9,
                "RSSI": -95.48,
                "LOS": "False"
            }
        },
        {
            "type": "Feature",
            "geometry": {
                "type": "Point",
                "coordinates": [
                    8.62961303,
                    49.39952309
                ]
            },
            "properties": {
                "RSU coordinates": [
                    8.6320038,
                    49.3994153
                ],
                "Distance": 173.62,
                "Frequency": 5.9,
                "RSSI": -80.32,
                "LOS": "False"
            }
        },
        {
            "type": "Feature",
            "geometry": {
                "type": "Point",
                "coordinates": [
                    8.62970866,
                    49.39963089
                ]
            },
            "properties": {
                "RSU coordinates": [
                    8.6320038,
                    49.3994153
                ],
                "Distance": 168.0,
                "Frequency": 5.9,
                "RSSI": -80.03,
                "LOS": "False"
            }
        },
        {
            "type": "Feature",
            "geometry": {
                "type": "Point",
                "coordinates": [
                    8.62980428,
                    49.39973868
                ]
            },
            "properties": {
                "RSU coordinates": [
                    8.6320038,
                    49.3994153
                ],
                "Distance": 163.36,
                "Frequency": 5.9,
                "RSSI": -64.79,
                "LOS": "True"
            }
        },
        {
            "type": "Feature",
            "geometry": {
                "type": "Point",
                "coordinates": [
                    8.62999554,
                    49.39995427
                ]
            },
            "properties": {
                "RSU coordinates": [
                    8.6320038,
                    49.3994153
                ],
                "Distance": 157.38,
                "Frequency": 5.9,
                "RSSI": -94.47,
                "LOS": "False"
            }
        },
        {
            "type": "Feature",
            "geometry": {
                "type": "Point",
                "coordinates": [
                    8.62999554,
                    49.39973868
                ]
            },
            "properties": {
                "RSU coordinates": [
                    8.6320038,
                    49.3994153
                ],
                "Distance": 149.88,
                "Frequency": 5.9,
                "RSSI": -64.05,
                "LOS": "True"
            }
        },
        {
            "type": "Feature",
            "geometry": {
                "type": "Point",
                "coordinates": [
                    8.62999555,
                    49.39952309
                ]
            },
            "properties": {
                "RSU coordinates": [
                    8.6320038,
                    49.3994153
                ],
                "Distance": 145.99,
                "Frequency": 5.9,
                "RSSI": -63.83,
                "LOS": "True"
            }
        },
        {
            "type": "Feature",
            "geometry": {
                "type": "Point",
                "coordinates": [
                    8.63009118,
                    49.39963089
                ]
            },
            "properties": {
                "RSU coordinates": [
                    8.6320038,
                    49.3994153
                ],
                "Distance": 140.63,
                "Frequency": 5.9,
                "RSSI": -63.51,
                "LOS": "True"
            }
        },
        {
            "type": "Feature",
            "geometry": {
                "type": "Point",
                "coordinates": [
                    8.63018681,
                    49.39973868
                ]
            },
            "properties": {
                "RSU coordinates": [
                    8.6320038,
                    49.3994153
                ],
                "Distance": 136.47,
                "Frequency": 5.9,
                "RSSI": -63.25,
                "LOS": "True"
            }
        },
        {
            "type": "Feature",
            "geometry": {
                "type": "Point",
                "coordinates": [
                    8.63018681,
                    49.39952309
                ]
            },
            "properties": {
                "RSU coordinates": [
                    8.6320038,
                    49.3994153
                ],
                "Distance": 132.18,
                "Frequency": 5.9,
                "RSSI": -62.98,
                "LOS": "True"
            }
        },
        {
            "type": "Feature",
            "geometry": {
                "type": "Point",
                "coordinates": [
                    8.63028244,
                    49.39963089
                ]
            },
            "properties": {
                "RSU coordinates": [
                    8.6320038,
                    49.3994153
                ],
                "Distance": 127.0,
                "Frequency": 5.9,
                "RSSI": -62.63,
                "LOS": "True"
            }
        },
        {
            "type": "Feature",
            "geometry": {
                "type": "Point",
                "coordinates": [
                    8.6304737,
                    49.39984647
                ]
            },
            "properties": {
                "RSU coordinates": [
                    8.6320038,
                    49.3994153
                ],
                "Distance": 120.8,
                "Frequency": 5.9,
                "RSSI": -77.2,
                "LOS": "False"
            }
        },
        {
            "type": "Feature",
            "geometry": {
                "type": "Point",
                "coordinates": [
                    8.63028245,
                    49.3994153
                ]
            },
            "properties": {
                "RSU coordinates": [
                    8.6320038,
                    49.3994153
                ],
                "Distance": 124.71,
                "Frequency": 5.9,
                "RSSI": -92.47999999999999,
                "LOS": "False"
            }
        },
        {
            "type": "Feature",
            "geometry": {
                "type": "Point",
                "coordinates": [
                    8.63037808,
                    49.39952309
                ]
            },
            "properties": {
                "RSU coordinates": [
                    8.6320038,
                    49.3994153
                ],
                "Distance": 118.39,
                "Frequency": 5.9,
                "RSSI": -62.03,
                "LOS": "True"
            }
        },
        {
            "type": "Feature",
            "geometry": {
                "type": "Point",
                "coordinates": [
                    8.6304737,
                    49.39963089
                ]
            },
            "properties": {
                "RSU coordinates": [
                    8.6320038,
                    49.3994153
                ],
                "Distance": 113.42,
                "Frequency": 5.9,
                "RSSI": -61.66,
                "LOS": "True"
            }
        },
        {
            "type": "Feature",
            "geometry": {
                "type": "Point",
                "coordinates": [
                    8.63056933,
                    49.39973868
                ]
            },
            "properties": {
                "RSU coordinates": [
                    8.6320038,
                    49.3994153
                ],
                "Distance": 109.98,
                "Frequency": 5.9,
                "RSSI": -61.4,
                "LOS": "True"
            }
        },
        {
            "type": "Feature",
            "geometry": {
                "type": "Point",
                "coordinates": [
                    8.63047371,
                    49.3994153
                ]
            },
            "properties": {
                "RSU coordinates": [
                    8.6320038,
                    49.3994153
                ],
                "Distance": 110.85,
                "Frequency": 5.9,
                "RSSI": -61.47,
                "LOS": "True"
            }
        },
        {
            "type": "Feature",
            "geometry": {
                "type": "Point",
                "coordinates": [
                    8.63056934,
                    49.39952309
                ]
            },
            "properties": {
                "RSU coordinates": [
                    8.6320038,
                    49.3994153
                ],
                "Distance": 104.61,
                "Frequency": 5.9,
                "RSSI": -60.97,
                "LOS": "True"
            }
        },
        {
            "type": "Feature",
            "geometry": {
                "type": "Point",
                "coordinates": [
                    8.63066497,
                    49.39963089
                ]
            },
            "properties": {
                "RSU coordinates": [
                    8.6320038,
                    49.3994153
                ],
                "Distance": 99.92,
                "Frequency": 5.9,
                "RSSI": -60.58,
                "LOS": "True"
            }
        },
        {
            "type": "Feature",
            "geometry": {
                "type": "Point",
                "coordinates": [
                    8.63066497,
                    49.3994153
                ]
            },
            "properties": {
                "RSU coordinates": [
                    8.6320038,
                    49.3994153
                ],
                "Distance": 96.99,
                "Frequency": 5.9,
                "RSSI": -60.32,
                "LOS": "True"
            }
        },
        {
            "type": "Feature",
            "geometry": {
                "type": "Point",
                "coordinates": [
                    8.6307606,
                    49.39952309
                ]
            },
            "properties": {
                "RSU coordinates": [
                    8.6320038,
                    49.3994153
                ],
                "Distance": 90.86,
                "Frequency": 5.9,
                "RSSI": -59.76,
                "LOS": "True"
            }
        },
        {
            "type": "Feature",
            "geometry": {
                "type": "Point",
                "coordinates": [
                    8.63085623,
                    49.39963089
                ]
            },
            "properties": {
                "RSU coordinates": [
                    8.6320038,
                    49.3994153
                ],
                "Distance": 86.53,
                "Frequency": 5.9,
                "RSSI": -59.34,
                "LOS": "True"
            }
        },
        {
            "type": "Feature",
            "geometry": {
                "type": "Point",
                "coordinates": [
                    8.63085623,
                    49.3994153
                ]
            },
            "properties": {
                "RSU coordinates": [
                    8.6320038,
                    49.3994153
                ],
                "Distance": 83.14,
                "Frequency": 5.9,
                "RSSI": -59.0,
                "LOS": "True"
            }
        },
        {
            "type": "Feature",
            "geometry": {
                "type": "Point",
                "coordinates": [
                    8.63095186,
                    49.39952309
                ]
            },
            "properties": {
                "RSU coordinates": [
                    8.6320038,
                    49.3994153
                ],
                "Distance": 77.15,
                "Frequency": 5.9,
                "RSSI": -58.36,
                "LOS": "True"
            }
        },
        {
            "type": "Feature",
            "geometry": {
                "type": "Point",
                "coordinates": [
                    8.63104749,
                    49.39963089
                ]
            },
            "properties": {
                "RSU coordinates": [
                    8.6320038,
                    49.3994153
                ],
                "Distance": 73.32,
                "Frequency": 5.9,
                "RSSI": -57.92,
                "LOS": "True"
            }
        },
        {
            "type": "Feature",
            "geometry": {
                "type": "Point",
                "coordinates": [
                    8.63152564,
                    49.40016986
                ]
            },
            "properties": {
                "RSU coordinates": [
                    8.6320038,
                    49.3994153
                ],
                "Distance": 90.86,
                "Frequency": 5.9,
                "RSSI": -89.75999999999999,
                "LOS": "False"
            }
        },
        {
            "type": "Feature",
            "geometry": {
                "type": "Point",
                "coordinates": [
                    8.63104749,
                    49.3994153
                ]
            },
            "properties": {
                "RSU coordinates": [
                    8.6320038,
                    49.3994153
                ],
                "Distance": 69.28,
                "Frequency": 5.9,
                "RSSI": -57.44,
                "LOS": "True"
            }
        },
        {
            "type": "Feature",
            "geometry": {
                "type": "Point",
                "coordinates": [
                    8.63114312,
                    49.39952309
                ]
            },
            "properties": {
                "RSU coordinates": [
                    8.6320038,
                    49.3994153
                ],
                "Distance": 63.5,
                "Frequency": 5.9,
                "RSSI": -56.69,
                "LOS": "True"
            }
        },
        {
            "type": "Feature",
            "geometry": {
                "type": "Point",
                "coordinates": [
                    8.63123875,
                    49.39963089
                ]
            },
            "properties": {
                "RSU coordinates": [
                    8.6320038,
                    49.3994153
                ],
                "Distance": 60.4,
                "Frequency": 5.9,
                "RSSI": -56.26,
                "LOS": "True"
            }
        },
        {
            "type": "Feature",
            "geometry": {
                "type": "Point",
                "coordinates": [
                    8.63114313,
                    49.39930751
                ]
            },
            "properties": {
                "RSU coordinates": [
                    8.6320038,
                    49.3994153
                ],
                "Distance": 63.5,
                "Frequency": 5.9,
                "RSSI": -71.69,
                "LOS": "False"
            }
        },
        {
            "type": "Feature",
            "geometry": {
                "type": "Point",
                "coordinates": [
                    8.63123876,
                    49.3994153
                ]
            },
            "properties": {
                "RSU coordinates": [
                    8.6320038,
                    49.3994153
                ],
                "Distance": 55.43,
                "Frequency": 5.9,
                "RSSI": -55.52,
                "LOS": "True"
            }
        },
        {
            "type": "Feature",
            "geometry": {
                "type": "Point",
                "coordinates": [
                    8.63133438,
                    49.39952309
                ]
            },
            "properties": {
                "RSU coordinates": [
                    8.6320038,
                    49.3994153
                ],
                "Distance": 49.96,
                "Frequency": 5.9,
                "RSSI": -54.63,
                "LOS": "True"
            }
        },
        {
            "type": "Feature",
            "geometry": {
                "type": "Point",
                "coordinates": [
                    8.63143001,
                    49.39963089
                ]
            },
            "properties": {
                "RSU coordinates": [
                    8.6320038,
                    49.3994153
                ],
                "Distance": 48.0,
                "Frequency": 5.9,
                "RSSI": -84.28999999999999,
                "LOS": "False"
            }
        },
        {
            "type": "Feature",
            "geometry": {
                "type": "Point",
                "coordinates": [
                    8.63152564,
                    49.39973868
                ]
            },
            "properties": {
                "RSU coordinates": [
                    8.6320038,
                    49.3994153
                ],
                "Distance": 49.96,
                "Frequency": 5.9,
                "RSSI": -99.63,
                "LOS": "False"
            }
        },
        {
            "type": "Feature",
            "geometry": {
                "type": "Point",
                "coordinates": [
                    8.63095188,
                    49.39887633
                ]
            },
            "properties": {
                "RSU coordinates": [
                    8.6320038,
                    49.3994153
                ],
                "Distance": 96.99,
                "Frequency": 5.9,
                "RSSI": -90.32,
                "LOS": "False"
            }
        },
        {
            "type": "Feature",
            "geometry": {
                "type": "Point",
                "coordinates": [
                    8.63133439,
                    49.39930751
                ]
            },
            "properties": {
                "RSU coordinates": [
                    8.6320038,
                    49.3994153
                ],
                "Distance": 49.96,
                "Frequency": 5.9,
                "RSSI": -54.63,
                "LOS": "True"
            }
        },
        {
            "type": "Feature",
            "geometry": {
                "type": "Point",
                "coordinates": [
                    8.63143002,
                    49.3994153
                ]
            },
            "properties": {
                "RSU coordinates": [
                    8.6320038,
                    49.3994153
                ],
                "Distance": 41.57,
                "Frequency": 5.9,
                "RSSI": -53.06,
                "LOS": "True"
            }
        },
        {
            "type": "Feature",
            "geometry": {
                "type": "Point",
                "coordinates": [
                    8.63152565,
                    49.39952309
                ]
            },
            "properties": {
                "RSU coordinates": [
                    8.6320038,
                    49.3994153
                ],
                "Distance": 36.66,
                "Frequency": 5.9,
                "RSSI": -51.98,
                "LOS": "True"
            }
        },
        {
            "type": "Feature",
            "geometry": {
                "type": "Point",
                "coordinates": [
                    8.63171691,
                    49.39973868
                ]
            },
            "properties": {
                "RSU coordinates": [
                    8.6320038,
                    49.3994153
                ],
                "Distance": 41.57,
                "Frequency": 5.9,
                "RSSI": -98.06,
                "LOS": "False"
            }
        },
        {
            "type": "Feature",
            "geometry": {
                "type": "Point",
                "coordinates": [
                    8.63123876,
                    49.39898413
                ]
            },
            "properties": {
                "RSU coordinates": [
                    8.6320038,
                    49.3994153
                ],
                "Distance": 73.32,
                "Frequency": 5.9,
                "RSSI": -87.92,
                "LOS": "False"
            }
        },
        {
            "type": "Feature",
            "geometry": {
                "type": "Point",
                "coordinates": [
                    8.63133439,
                    49.39909192
                ]
            },
            "properties": {
                "RSU coordinates": [
                    8.6320038,
                    49.3994153
                ],
                "Distance": 60.4,
                "Frequency": 5.9,
                "RSSI": -86.25999999999999,
                "LOS": "False"
            }
        },
        {
            "type": "Feature",
            "geometry": {
                "type": "Point",
                "coordinates": [
                    8.63152565,
                    49.39930751
                ]
            },
            "properties": {
                "RSU coordinates": [
                    8.6320038,
                    49.3994153
                ],
                "Distance": 36.66,
                "Frequency": 5.9,
                "RSSI": -66.97999999999999,
                "LOS": "False"
            }
        },
        {
            "type": "Feature",
            "geometry": {
                "type": "Point",
                "coordinates": [
                    8.63162128,
                    49.3994153
                ]
            },
            "properties": {
                "RSU coordinates": [
                    8.6320038,
                    49.3994153
                ],
                "Distance": 27.71,
                "Frequency": 5.9,
                "RSSI": -49.58,
                "LOS": "True"
            }
        },
        {
            "type": "Feature",
            "geometry": {
                "type": "Point",
                "coordinates": [
                    8.63190817,
                    49.39973868
                ]
            },
            "properties": {
                "RSU coordinates": [
                    8.6320038,
                    49.3994153
                ],
                "Distance": 36.66,
                "Frequency": 5.9,
                "RSSI": -66.97999999999999,
                "LOS": "False"
            }
        },
        {
            "type": "Feature",
            "geometry": {
                "type": "Point",
                "coordinates": [
                    8.6320038,
                    49.39984647
                ]
            },
            "properties": {
                "RSU coordinates": [
                    8.6320038,
                    49.3994153
                ],
                "Distance": 48.0,
                "Frequency": 5.9,
                "RSSI": -84.28999999999999,
                "LOS": "False"
            }
        },
        {
            "type": "Feature",
            "geometry": {
                "type": "Point",
                "coordinates": [
                    8.63171691,
                    49.39930751
                ]
            },
            "properties": {
                "RSU coordinates": [
                    8.6320038,
                    49.3994153
                ],
                "Distance": 24.0,
                "Frequency": 5.9,
                "RSSI": -63.34,
                "LOS": "False"
            }
        },
        {
            "type": "Feature",
            "geometry": {
                "type": "Point",
                "coordinates": [
                    8.63181254,
                    49.3994153
                ]
            },
            "properties": {
                "RSU coordinates": [
                    8.6320038,
                    49.3994153
                ],
                "Distance": 13.86,
                "Frequency": 5.9,
                "RSSI": -43.63,
                "LOS": "True"
            }
        },
        {
            "type": "Feature",
            "geometry": {
                "type": "Point",
                "coordinates": [
                    8.6320038,
                    49.39963089
                ]
            },
            "properties": {
                "RSU coordinates": [
                    8.6320038,
                    49.3994153
                ],
                "Distance": 24.0,
                "Frequency": 5.9,
                "RSSI": -63.34,
                "LOS": "False"
            }
        },
        {
            "type": "Feature",
            "geometry": {
                "type": "Point",
                "coordinates": [
                    8.63209943,
                    49.39973868
                ]
            },
            "properties": {
                "RSU coordinates": [
                    8.6320038,
                    49.3994153
                ],
                "Distance": 36.66,
                "Frequency": 5.9,
                "RSSI": -81.97999999999999,
                "LOS": "False"
            }
        },
        {
            "type": "Feature",
            "geometry": {
                "type": "Point",
                "coordinates": [
                    8.63219506,
                    49.39984647
                ]
            },
            "properties": {
                "RSU coordinates": [
                    8.6320038,
                    49.3994153
                ],
                "Distance": 49.96,
                "Frequency": 5.9,
                "RSSI": -84.63,
                "LOS": "False"
            }
        },
        {
            "type": "Feature",
            "geometry": {
                "type": "Point",
                "coordinates": [
                    8.63171691,
                    49.39909192
                ]
            },
            "properties": {
                "RSU coordinates": [
                    8.6320038,
                    49.3994153
                ],
                "Distance": 41.57,
                "Frequency": 5.9,
                "RSSI": -98.06,
                "LOS": "False"
            }
        },
        {
            "type": "Feature",
            "geometry": {
                "type": "Point",
                "coordinates": [
                    8.63209943,
                    49.39952309
                ]
            },
            "properties": {
                "RSU coordinates": [
                    8.6320038,
                    49.3994153
                ],
                "Distance": 13.86,
                "Frequency": 5.9,
                "RSSI": -43.63,
                "LOS": "True"
            }
        },
        {
            "type": "Feature",
            "geometry": {
                "type": "Point",
                "coordinates": [
                    8.63229069,
                    49.39973868
                ]
            },
            "properties": {
                "RSU coordinates": [
                    8.6320038,
                    49.3994153
                ],
                "Distance": 41.57,
                "Frequency": 5.9,
                "RSSI": -83.06,
                "LOS": "False"
            }
        },
        {
            "type": "Feature",
            "geometry": {
                "type": "Point",
                "coordinates": [
                    8.63238633,
                    49.39984647
                ]
            },
            "properties": {
                "RSU coordinates": [
                    8.6320038,
                    49.3994153
                ],
                "Distance": 55.43,
                "Frequency": 5.9,
                "RSSI": -85.52000000000001,
                "LOS": "False"
            }
        },
        {
            "type": "Feature",
            "geometry": {
                "type": "Point",
                "coordinates": [
                    8.63190817,
                    49.39909192
                ]
            },
            "properties": {
                "RSU coordinates": [
                    8.6320038,
                    49.3994153
                ],
                "Distance": 36.66,
                "Frequency": 5.9,
                "RSSI": -66.97999999999999,
                "LOS": "False"
            }
        },
        {
            "type": "Feature",
            "geometry": {
                "type": "Point",
                "coordinates": [
                    8.6320038,
                    49.39919971
                ]
            },
            "properties": {
                "RSU coordinates": [
                    8.6320038,
                    49.3994153
                ],
                "Distance": 24.0,
                "Frequency": 5.9,
                "RSSI": -63.34,
                "LOS": "False"
            }
        },
        {
            "type": "Feature",
            "geometry": {
                "type": "Point",
                "coordinates": [
                    8.63209943,
                    49.39930751
                ]
            },
            "properties": {
                "RSU coordinates": [
                    8.6320038,
                    49.3994153
                ],
                "Distance": 13.86,
                "Frequency": 5.9,
                "RSSI": -58.63,
                "LOS": "False"
            }
        },
        {
            "type": "Feature",
            "geometry": {
                "type": "Point",
                "coordinates": [
                    8.63219506,
                    49.3994153
                ]
            },
            "properties": {
                "RSU coordinates": [
                    8.6320038,
                    49.3994153
                ],
                "Distance": 13.86,
                "Frequency": 5.9,
                "RSSI": -43.63,
                "LOS": "True"
            }
        },
        {
            "type": "Feature",
            "geometry": {
                "type": "Point",
                "coordinates": [
                    8.63229069,
                    49.39952309
                ]
            },
            "properties": {
                "RSU coordinates": [
                    8.6320038,
                    49.3994153
                ],
                "Distance": 24.0,
                "Frequency": 5.9,
                "RSSI": -63.34,
                "LOS": "False"
            }
        },
        {
            "type": "Feature",
            "geometry": {
                "type": "Point",
                "coordinates": [
                    8.63181254,
                    49.39876854
                ]
            },
            "properties": {
                "RSU coordinates": [
                    8.6320038,
                    49.3994153
                ],
                "Distance": 73.32,
                "Frequency": 5.9,
                "RSSI": -72.92,
                "LOS": "False"
            }
        },
        {
            "type": "Feature",
            "geometry": {
                "type": "Point",
                "coordinates": [
                    8.63190817,
                    49.39887633
                ]
            },
            "properties": {
                "RSU coordinates": [
                    8.6320038,
                    49.3994153
                ],
                "Distance": 60.4,
                "Frequency": 5.9,
                "RSSI": -71.25999999999999,
                "LOS": "False"
            }
        },
        {
            "type": "Feature",
            "geometry": {
                "type": "Point",
                "coordinates": [
                    8.6320038,
                    49.39898413
                ]
            },
            "properties": {
                "RSU coordinates": [
                    8.6320038,
                    49.3994153
                ],
                "Distance": 48.0,
                "Frequency": 5.9,
                "RSSI": -69.28999999999999,
                "LOS": "False"
            }
        },
        {
            "type": "Feature",
            "geometry": {
                "type": "Point",
                "coordinates": [
                    8.63209943,
                    49.39909192
                ]
            },
            "properties": {
                "RSU coordinates": [
                    8.6320038,
                    49.3994153
                ],
                "Distance": 36.66,
                "Frequency": 5.9,
                "RSSI": -66.97999999999999,
                "LOS": "False"
            }
        },
        {
            "type": "Feature",
            "geometry": {
                "type": "Point",
                "coordinates": [
                    8.63219506,
                    49.39919971
                ]
            },
            "properties": {
                "RSU coordinates": [
                    8.6320038,
                    49.3994153
                ],
                "Distance": 27.71,
                "Frequency": 5.9,
                "RSSI": -64.58,
                "LOS": "False"
            }
        },
        {
            "type": "Feature",
            "geometry": {
                "type": "Point",
                "coordinates": [
                    8.63238632,
                    49.3994153
                ]
            },
            "properties": {
                "RSU coordinates": [
                    8.6320038,
                    49.3994153
                ],
                "Distance": 27.71,
                "Frequency": 5.9,
                "RSSI": -64.58,
                "LOS": "False"
            }
        },
        {
            "type": "Feature",
            "geometry": {
                "type": "Point",
                "coordinates": [
                    8.63257759,
                    49.39963089
                ]
            },
            "properties": {
                "RSU coordinates": [
                    8.6320038,
                    49.3994153
                ],
                "Distance": 48.0,
                "Frequency": 5.9,
                "RSSI": -84.28999999999999,
                "LOS": "False"
            }
        },
        {
            "type": "Feature",
            "geometry": {
                "type": "Point",
                "coordinates": [
                    8.63267322,
                    49.39973868
                ]
            },
            "properties": {
                "RSU coordinates": [
                    8.6320038,
                    49.3994153
                ],
                "Distance": 60.4,
                "Frequency": 5.9,
                "RSSI": -86.25999999999999,
                "LOS": "False"
            }
        },
        {
            "type": "Feature",
            "geometry": {
                "type": "Point",
                "coordinates": [
                    8.63171691,
                    49.39844516
                ]
            },
            "properties": {
                "RSU coordinates": [
                    8.6320038,
                    49.3994153
                ],
                "Distance": 109.98,
                "Frequency": 5.9,
                "RSSI": -76.4,
                "LOS": "False"
            }
        },
        {
            "type": "Feature",
            "geometry": {
                "type": "Point",
                "coordinates": [
                    8.63181254,
                    49.39855295
                ]
            },
            "properties": {
                "RSU coordinates": [
                    8.6320038,
                    49.3994153
                ],
                "Distance": 96.99,
                "Frequency": 5.9,
                "RSSI": -90.32,
                "LOS": "False"
            }
        },
        {
            "type": "Feature",
            "geometry": {
                "type": "Point",
                "coordinates": [
                    8.63190817,
                    49.39866074
                ]
            },
            "properties": {
                "RSU coordinates": [
                    8.6320038,
                    49.3994153
                ],
                "Distance": 84.29,
                "Frequency": 5.9,
                "RSSI": -74.12,
                "LOS": "False"
            }
        },
        {
            "type": "Feature",
            "geometry": {
                "type": "Point",
                "coordinates": [
                    8.6320038,
                    49.39876854
                ]
            },
            "properties": {
                "RSU coordinates": [
                    8.6320038,
                    49.3994153
                ],
                "Distance": 72.0,
                "Frequency": 5.9,
                "RSSI": -72.77000000000001,
                "LOS": "False"
            }
        },
        {
            "type": "Feature",
            "geometry": {
                "type": "Point",
                "coordinates": [
                    8.63209943,
                    49.39887633
                ]
            },
            "properties": {
                "RSU coordinates": [
                    8.6320038,
                    49.3994153
                ],
                "Distance": 60.4,
                "Frequency": 5.9,
                "RSSI": -71.25999999999999,
                "LOS": "False"
            }
        },
        {
            "type": "Feature",
            "geometry": {
                "type": "Point",
                "coordinates": [
                    8.63219506,
                    49.39898413
                ]
            },
            "properties": {
                "RSU coordinates": [
                    8.6320038,
                    49.3994153
                ],
                "Distance": 49.96,
                "Frequency": 5.9,
                "RSSI": -84.63,
                "LOS": "False"
            }
        },
        {
            "type": "Feature",
            "geometry": {
                "type": "Point",
                "coordinates": [
                    8.63248195,
                    49.39930751
                ]
            },
            "properties": {
                "RSU coordinates": [
                    8.6320038,
                    49.3994153
                ],
                "Distance": 36.66,
                "Frequency": 5.9,
                "RSSI": -51.98,
                "LOS": "True"
            }
        },
        {
            "type": "Feature",
            "geometry": {
                "type": "Point",
                "coordinates": [
                    8.63257758,
                    49.3994153
                ]
            },
            "properties": {
                "RSU coordinates": [
                    8.6320038,
                    49.3994153
                ],
                "Distance": 41.57,
                "Frequency": 5.9,
                "RSSI": -68.06,
                "LOS": "False"
            }
        },
        {
            "type": "Feature",
            "geometry": {
                "type": "Point",
                "coordinates": [
                    8.63296011,
                    49.39984647
                ]
            },
            "properties": {
                "RSU coordinates": [
                    8.6320038,
                    49.3994153
                ],
                "Distance": 84.29,
                "Frequency": 5.9,
                "RSSI": -89.12,
                "LOS": "False"
            }
        },
        {
            "type": "Feature",
            "geometry": {
                "type": "Point",
                "coordinates": [
                    8.63209943,
                    49.39866074
                ]
            },
            "properties": {
                "RSU coordinates": [
                    8.6320038,
                    49.3994153
                ],
                "Distance": 84.29,
                "Frequency": 5.9,
                "RSSI": -89.12,
                "LOS": "False"
            }
        },
        {
            "type": "Feature",
            "geometry": {
                "type": "Point",
                "coordinates": [
                    8.63219506,
                    49.39876854
                ]
            },
            "properties": {
                "RSU coordinates": [
                    8.6320038,
                    49.3994153
                ],
                "Distance": 73.32,
                "Frequency": 5.9,
                "RSSI": -72.92,
                "LOS": "False"
            }
        },
        {
            "type": "Feature",
            "geometry": {
                "type": "Point",
                "coordinates": [
                    8.63229069,
                    49.39887633
                ]
            },
            "properties": {
                "RSU coordinates": [
                    8.6320038,
                    49.3994153
                ],
                "Distance": 63.5,
                "Frequency": 5.9,
                "RSSI": -86.69,
                "LOS": "False"
            }
        },
        {
            "type": "Feature",
            "geometry": {
                "type": "Point",
                "coordinates": [
                    8.63248195,
                    49.39909192
                ]
            },
            "properties": {
                "RSU coordinates": [
                    8.6320038,
                    49.3994153
                ],
                "Distance": 49.96,
                "Frequency": 5.9,
                "RSSI": -84.63,
                "LOS": "False"
            }
        },
        {
            "type": "Feature",
            "geometry": {
                "type": "Point",
                "coordinates": [
                    8.63267321,
                    49.39930751
                ]
            },
            "properties": {
                "RSU coordinates": [
                    8.6320038,
                    49.3994153
                ],
                "Distance": 49.96,
                "Frequency": 5.9,
                "RSSI": -54.63,
                "LOS": "True"
            }
        },
        {
            "type": "Feature",
            "geometry": {
                "type": "Point",
                "coordinates": [
                    8.63190817,
                    49.39822957
                ]
            },
            "properties": {
                "RSU coordinates": [
                    8.6320038,
                    49.3994153
                ],
                "Distance": 132.18,
                "Frequency": 5.9,
                "RSSI": -92.97999999999999,
                "LOS": "False"
            }
        },
        {
            "type": "Feature",
            "geometry": {
                "type": "Point",
                "coordinates": [
                    8.63219506,
                    49.39855295
                ]
            },
            "properties": {
                "RSU coordinates": [
                    8.6320038,
                    49.3994153
                ],
                "Distance": 96.99,
                "Frequency": 5.9,
                "RSSI": -90.32,
                "LOS": "False"
            }
        },
        {
            "type": "Feature",
            "geometry": {
                "type": "Point",
                "coordinates": [
                    8.63229069,
                    49.39866074
                ]
            },
            "properties": {
                "RSU coordinates": [
                    8.6320038,
                    49.3994153
                ],
                "Distance": 86.53,
                "Frequency": 5.9,
                "RSSI": -74.34,
                "LOS": "False"
            }
        },
        {
            "type": "Feature",
            "geometry": {
                "type": "Point",
                "coordinates": [
                    8.63257758,
                    49.39898413
                ]
            },
            "properties": {
                "RSU coordinates": [
                    8.6320038,
                    49.3994153
                ],
                "Distance": 63.5,
                "Frequency": 5.9,
                "RSSI": -86.69,
                "LOS": "False"
            }
        },
        {
            "type": "Feature",
            "geometry": {
                "type": "Point",
                "coordinates": [
                    8.6329601,
                    49.39919971
                ]
            },
            "properties": {
                "RSU coordinates": [
                    8.6320038,
                    49.3994153
                ],
                "Distance": 73.32,
                "Frequency": 5.9,
                "RSSI": -57.92,
                "LOS": "True"
            }
        },
        {
            "type": "Feature",
            "geometry": {
                "type": "Point",
                "coordinates": [
                    8.63305573,
                    49.39930751
                ]
            },
            "properties": {
                "RSU coordinates": [
                    8.6320038,
                    49.3994153
                ],
                "Distance": 77.15,
                "Frequency": 5.9,
                "RSSI": -88.36,
                "LOS": "False"
            }
        },
        {
            "type": "Feature",
            "geometry": {
                "type": "Point",
                "coordinates": [
                    8.63190817,
                    49.3977984
                ]
            },
            "properties": {
                "RSU coordinates": [
                    8.6320038,
                    49.3994153
                ],
                "Distance": 180.13,
                "Frequency": 5.9,
                "RSSI": -95.63,
                "LOS": "False"
            }
        },
        {
            "type": "Feature",
            "geometry": {
                "type": "Point",
                "coordinates": [
                    8.63315136,
                    49.39919971
                ]
            },
            "properties": {
                "RSU coordinates": [
                    8.6320038,
                    49.3994153
                ],
                "Distance": 86.53,
                "Frequency": 5.9,
                "RSSI": -59.34,
                "LOS": "True"
            }
        },
        {
            "type": "Feature",
            "geometry": {
                "type": "Point",
                "coordinates": [
                    8.63334262,
                    49.39919971
                ]
            },
            "properties": {
                "RSU coordinates": [
                    8.6320038,
                    49.3994153
                ],
                "Distance": 99.92,
                "Frequency": 5.9,
                "RSSI": -60.58,
                "LOS": "True"
            }
        },
        {
            "type": "Feature",
            "geometry": {
                "type": "Point",
                "coordinates": [
                    8.63305572,
                    49.39866074
                ]
            },
            "properties": {
                "RSU coordinates": [
                    8.6320038,
                    49.3994153
                ],
                "Distance": 113.42,
                "Frequency": 5.9,
                "RSSI": -91.66,
                "LOS": "False"
            }
        },
        {
            "type": "Feature",
            "geometry": {
                "type": "Point",
                "coordinates": [
                    8.63343825,
                    49.39909192
                ]
            },
            "properties": {
                "RSU coordinates": [
                    8.6320038,
                    49.3994153
                ],
                "Distance": 109.98,
                "Frequency": 5.9,
                "RSSI": -76.4,
                "LOS": "False"
            }
        },
        {
            "type": "Feature",
            "geometry": {
                "type": "Point",
                "coordinates": [
                    8.63353388,
                    49.39919971
                ]
            },
            "properties": {
                "RSU coordinates": [
                    8.6320038,
                    49.3994153
                ],
                "Distance": 113.42,
                "Frequency": 5.9,
                "RSSI": -61.66,
                "LOS": "True"
            }
        },
        {
            "type": "Feature",
            "geometry": {
                "type": "Point",
                "coordinates": [
                    8.63372514,
                    49.39919971
                ]
            },
            "properties": {
                "RSU coordinates": [
                    8.6320038,
                    49.3994153
                ],
                "Distance": 127.0,
                "Frequency": 5.9,
                "RSSI": -92.63,
                "LOS": "False"
            }
        },
        {
            "type": "Feature",
            "geometry": {
                "type": "Point",
                "coordinates": [
                    8.63391639,
                    49.39898413
                ]
            },
            "properties": {
                "RSU coordinates": [
                    8.6320038,
                    49.3994153
                ],
                "Distance": 146.64,
                "Frequency": 5.9,
                "RSSI": -93.87,
                "LOS": "False"
            }
        },
        {
            "type": "Feature",
            "geometry": {
                "type": "Point",
                "coordinates": [
                    8.63401203,
                    49.39909192
                ]
            },
            "properties": {
                "RSU coordinates": [
                    8.6320038,
                    49.3994153
                ],
                "Distance": 149.88,
                "Frequency": 5.9,
                "RSSI": -79.05,
                "LOS": "False"
            }
        },
        {
            "type": "Feature",
            "geometry": {
                "type": "Point",
                "coordinates": [
                    8.63420329,
                    49.39909192
                ]
            },
            "properties": {
                "RSU coordinates": [
                    8.6320038,
                    49.3994153
                ],
                "Distance": 163.36,
                "Frequency": 5.9,
                "RSSI": -64.79,
                "LOS": "True"
            }
        },
        {
            "type": "Feature",
            "geometry": {
                "type": "Point",
                "coordinates": [
                    8.63439455,
                    49.39909192
                ]
            },
            "properties": {
                "RSU coordinates": [
                    8.6320038,
                    49.3994153
                ],
                "Distance": 176.91,
                "Frequency": 5.9,
                "RSSI": -65.48,
                "LOS": "True"
            }
        },
        {
            "type": "Feature",
            "geometry": {
                "type": "Point",
                "coordinates": [
                    8.63449017,
                    49.39898413
                ]
            },
            "properties": {
                "RSU coordinates": [
                    8.6320038,
                    49.3994153
                ],
                "Distance": 186.42,
                "Frequency": 5.9,
                "RSSI": -95.93,
                "LOS": "False"
            }
        },
        {
            "type": "Feature",
            "geometry": {
                "type": "Point",
                "coordinates": [
                    8.6345858,
                    49.39887633
                ]
            },
            "properties": {
                "RSU coordinates": [
                    8.6320038,
                    49.3994153
                ],
                "Distance": 196.45,
                "Frequency": 5.9,
                "RSSI": -96.37,
                "LOS": "False"
            }
        },
        {
            "type": "Feature",
            "geometry": {
                "type": "Point",
                "coordinates": [
                    8.63468143,
                    49.39898413
                ]
            },
            "properties": {
                "RSU coordinates": [
                    8.6320038,
                    49.3994153
                ],
                "Distance": 199.84,
                "Frequency": 5.9,
                "RSSI": -96.52,
                "LOS": "False"
            }
        },
        {
            "type": "Feature",
            "geometry": {
                "type": "Point",
                "coordinates": [
                    8.63487269,
                    49.39898413
                ]
            },
            "properties": {
                "RSU coordinates": [
                    8.6320038,
                    49.3994153
                ],
                "Distance": 213.32,
                "Frequency": 5.9,
                "RSSI": -67.08,
                "LOS": "True"
            }
        },
        {
            "type": "Feature",
            "geometry": {
                "type": "Point",
                "coordinates": [
                    8.63506395,
                    49.39898413
                ]
            },
            "properties": {
                "RSU coordinates": [
                    8.6320038,
                    49.3994153
                ],
                "Distance": 226.84,
                "Frequency": 5.9,
                "RSSI": -82.61,
                "LOS": "False"
            }
        },
        {
            "type": "Feature",
            "geometry": {
                "type": "Point",
                "coordinates": [
                    8.63525521,
                    49.39898413
                ]
            },
            "properties": {
                "RSU coordinates": [
                    8.6320038,
                    49.3994153
                ],
                "Distance": 240.4,
                "Frequency": 5.9,
                "RSSI": -98.11,
                "LOS": "False"
            }
        },
        {
            "type": "Feature",
            "geometry": {
                "type": "Point",
                "coordinates": [
                    8.63554209,
                    49.39887633
                ]
            },
            "properties": {
                "RSU coordinates": [
                    8.6320038,
                    49.3994153
                ],
                "Distance": 263.27,
                "Frequency": 5.9,
                "RSSI": -68.89,
                "LOS": "True"
            }
        },
        {
            "type": "Feature",
            "geometry": {
                "type": "Point",
                "coordinates": [
                    8.63573335,
                    49.39887633
                ]
            },
            "properties": {
                "RSU coordinates": [
                    8.6320038,
                    49.3994153
                ],
                "Distance": 276.78,
                "Frequency": 5.9,
                "RSSI": -69.31,
                "LOS": "True"
            }
        },
        {
            "type": "Feature",
            "geometry": {
                "type": "Point",
                "coordinates": [
                    8.63592461,
                    49.39887633
                ]
            },
            "properties": {
                "RSU coordinates": [
                    8.6320038,
                    49.3994153
                ],
                "Distance": 290.32,
                "Frequency": 5.9,
                "RSSI": -99.72,
                "LOS": "False"
            }
        },
        {
            "type": "Feature",
            "geometry": {
                "type": "Point",
                "coordinates": [
                    8.63640275,
                    49.39876854
                ]
            },
            "properties": {
                "RSU coordinates": [
                    8.6320038,
                    49.3994153
                ],
                "Distance": 326.73,
                "Frequency": 5.9,
                "RSSI": -85.74,
                "LOS": "False"
            }
        }
    ]
}