{
    "type": "FeatureCollection",
    "features": [
        {
            "type": "Feature",
            "geometry": {
                "type": "Point",
                "coordinates": [
                    8.75632719,
                    50.10455146
                ]
            },
            "properties": {
                "RSU coordinates": [
                    8.75885,
                    50.1004553
                ],
                "Distance": 490.29,
                "Frequency": 5.9,
                "RSSI": -74.22,
                "LOS": "True"
            }
        },
        {
            "type": "Feature",
            "geometry": {
                "type": "Point",
                "coordinates": [
                    8.7563272,
                    50.10433587
                ]
            },
            "properties": {
                "RSU coordinates": [
                    8.75885,
                    50.1004553
                ],
                "Distance": 468.05,
                "Frequency": 5.9,
                "RSSI": -73.82,
                "LOS": "True"
            }
        },
        {
            "type": "Feature",
            "geometry": {
                "type": "Point",
                "coordinates": [
                    8.75642423,
                    50.10444366
                ]
            },
            "properties": {
                "RSU coordinates": [
                    8.75885,
                    50.1004553
                ],
                "Distance": 476.59,
                "Frequency": 5.9,
                "RSSI": -73.98,
                "LOS": "True"
            }
        },
        {
            "type": "Feature",
            "geometry": {
                "type": "Point",
                "coordinates": [
                    8.75642424,
                    50.10422808
                ]
            },
            "properties": {
                "RSU coordinates": [
                    8.75885,
                    50.1004553
                ],
                "Distance": 454.31,
                "Frequency": 5.9,
                "RSSI": -73.56,
                "LOS": "True"
            }
        },
        {
            "type": "Feature",
            "geometry": {
                "type": "Point",
                "coordinates": [
                    8.75652126,
                    50.10433587
                ]
            },
            "properties": {
                "RSU coordinates": [
                    8.75885,
                    50.1004553
                ],
                "Distance": 462.9,
                "Frequency": 5.9,
                "RSSI": -88.73,
                "LOS": "False"
            }
        },
        {
            "type": "Feature",
            "geometry": {
                "type": "Point",
                "coordinates": [
                    8.75652127,
                    50.10412028
                ]
            },
            "properties": {
                "RSU coordinates": [
                    8.75885,
                    50.1004553
                ],
                "Distance": 440.58,
                "Frequency": 5.9,
                "RSSI": -73.3,
                "LOS": "True"
            }
        },
        {
            "type": "Feature",
            "geometry": {
                "type": "Point",
                "coordinates": [
                    8.75661831,
                    50.10401249
                ]
            },
            "properties": {
                "RSU coordinates": [
                    8.75885,
                    50.1004553
                ],
                "Distance": 426.86,
                "Frequency": 5.9,
                "RSSI": -73.03,
                "LOS": "True"
            }
        },
        {
            "type": "Feature",
            "geometry": {
                "type": "Point",
                "coordinates": [
                    8.75671534,
                    50.10390469
                ]
            },
            "properties": {
                "RSU coordinates": [
                    8.75885,
                    50.1004553
                ],
                "Distance": 413.14,
                "Frequency": 5.9,
                "RSSI": -72.75,
                "LOS": "True"
            }
        },
        {
            "type": "Feature",
            "geometry": {
                "type": "Point",
                "coordinates": [
                    8.75681238,
                    50.1037969
                ]
            },
            "properties": {
                "RSU coordinates": [
                    8.75885,
                    50.1004553
                ],
                "Distance": 399.44,
                "Frequency": 5.9,
                "RSSI": -72.46,
                "LOS": "True"
            }
        },
        {
            "type": "Feature",
            "geometry": {
                "type": "Point",
                "coordinates": [
                    8.75681239,
                    50.10358131
                ]
            },
            "properties": {
                "RSU coordinates": [
                    8.75885,
                    50.1004553
                ],
                "Distance": 377.19,
                "Frequency": 5.9,
                "RSSI": -71.97,
                "LOS": "True"
            }
        },
        {
            "type": "Feature",
            "geometry": {
                "type": "Point",
                "coordinates": [
                    8.75690941,
                    50.10368911
                ]
            },
            "properties": {
                "RSU coordinates": [
                    8.75885,
                    50.1004553
                ],
                "Distance": 385.75,
                "Frequency": 5.9,
                "RSSI": -72.16,
                "LOS": "True"
            }
        },
        {
            "type": "Feature",
            "geometry": {
                "type": "Point",
                "coordinates": [
                    8.75690942,
                    50.10347352
                ]
            },
            "properties": {
                "RSU coordinates": [
                    8.75885,
                    50.1004553
                ],
                "Distance": 363.45,
                "Frequency": 5.9,
                "RSSI": -71.65,
                "LOS": "True"
            }
        },
        {
            "type": "Feature",
            "geometry": {
                "type": "Point",
                "coordinates": [
                    8.75700645,
                    50.10336573
                ]
            },
            "properties": {
                "RSU coordinates": [
                    8.75885,
                    50.1004553
                ],
                "Distance": 349.72,
                "Frequency": 5.9,
                "RSSI": -71.32,
                "LOS": "True"
            }
        },
        {
            "type": "Feature",
            "geometry": {
                "type": "Point",
                "coordinates": [
                    8.75710349,
                    50.10325793
                ]
            },
            "properties": {
                "RSU coordinates": [
                    8.75885,
                    50.1004553
                ],
                "Distance": 336.0,
                "Frequency": 5.9,
                "RSSI": -70.98,
                "LOS": "True"
            }
        },
        {
            "type": "Feature",
            "geometry": {
                "type": "Point",
                "coordinates": [
                    8.75710349,
                    50.10304235
                ]
            },
            "properties": {
                "RSU coordinates": [
                    8.75885,
                    50.1004553
                ],
                "Distance": 313.84,
                "Frequency": 5.9,
                "RSSI": -85.39,
                "LOS": "False"
            }
        },
        {
            "type": "Feature",
            "geometry": {
                "type": "Point",
                "coordinates": [
                    8.75720052,
                    50.10315014
                ]
            },
            "properties": {
                "RSU coordinates": [
                    8.75885,
                    50.1004553
                ],
                "Distance": 322.29,
                "Frequency": 5.9,
                "RSSI": -70.62,
                "LOS": "True"
            }
        },
        {
            "type": "Feature",
            "geometry": {
                "type": "Point",
                "coordinates": [
                    8.75720053,
                    50.10293455
                ]
            },
            "properties": {
                "RSU coordinates": [
                    8.75885,
                    50.1004553
                ],
                "Distance": 300.08,
                "Frequency": 5.9,
                "RSSI": -70.01,
                "LOS": "True"
            }
        },
        {
            "type": "Feature",
            "geometry": {
                "type": "Point",
                "coordinates": [
                    8.75729755,
                    50.10304235
                ]
            },
            "properties": {
                "RSU coordinates": [
                    8.75885,
                    50.1004553
                ],
                "Distance": 308.6,
                "Frequency": 5.9,
                "RSSI": -70.25,
                "LOS": "True"
            }
        },
        {
            "type": "Feature",
            "geometry": {
                "type": "Point",
                "coordinates": [
                    8.75729756,
                    50.10282676
                ]
            },
            "properties": {
                "RSU coordinates": [
                    8.75885,
                    50.1004553
                ],
                "Distance": 286.33,
                "Frequency": 5.9,
                "RSSI": -69.61,
                "LOS": "True"
            }
        },
        {
            "type": "Feature",
            "geometry": {
                "type": "Point",
                "coordinates": [
                    8.75739458,
                    50.10293455
                ]
            },
            "properties": {
                "RSU coordinates": [
                    8.75885,
                    50.1004553
                ],
                "Distance": 294.92,
                "Frequency": 5.9,
                "RSSI": -69.86,
                "LOS": "True"
            }
        },
        {
            "type": "Feature",
            "geometry": {
                "type": "Point",
                "coordinates": [
                    8.75739459,
                    50.10271897
                ]
            },
            "properties": {
                "RSU coordinates": [
                    8.75885,
                    50.1004553
                ],
                "Distance": 272.59,
                "Frequency": 5.9,
                "RSSI": -69.18,
                "LOS": "True"
            }
        },
        {
            "type": "Feature",
            "geometry": {
                "type": "Point",
                "coordinates": [
                    8.75749162,
                    50.10261117
                ]
            },
            "properties": {
                "RSU coordinates": [
                    8.75885,
                    50.1004553
                ],
                "Distance": 258.86,
                "Frequency": 5.9,
                "RSSI": -68.74,
                "LOS": "True"
            }
        },
        {
            "type": "Feature",
            "geometry": {
                "type": "Point",
                "coordinates": [
                    8.75758865,
                    50.10250338
                ]
            },
            "properties": {
                "RSU coordinates": [
                    8.75885,
                    50.1004553
                ],
                "Distance": 245.14,
                "Frequency": 5.9,
                "RSSI": -68.27,
                "LOS": "True"
            }
        },
        {
            "type": "Feature",
            "geometry": {
                "type": "Point",
                "coordinates": [
                    8.75758866,
                    50.10228779
                ]
            },
            "properties": {
                "RSU coordinates": [
                    8.75885,
                    50.1004553
                ],
                "Distance": 223.0,
                "Frequency": 5.9,
                "RSSI": -97.46,
                "LOS": "False"
            }
        },
        {
            "type": "Feature",
            "geometry": {
                "type": "Point",
                "coordinates": [
                    8.75768568,
                    50.10239558
                ]
            },
            "properties": {
                "RSU coordinates": [
                    8.75885,
                    50.1004553
                ],
                "Distance": 231.45,
                "Frequency": 5.9,
                "RSSI": -67.78,
                "LOS": "True"
            }
        },
        {
            "type": "Feature",
            "geometry": {
                "type": "Point",
                "coordinates": [
                    8.75768568,
                    50.10218
                ]
            },
            "properties": {
                "RSU coordinates": [
                    8.75885,
                    50.1004553
                ],
                "Distance": 209.23,
                "Frequency": 5.9,
                "RSSI": -66.92,
                "LOS": "True"
            }
        },
        {
            "type": "Feature",
            "geometry": {
                "type": "Point",
                "coordinates": [
                    8.75778271,
                    50.10228779
                ]
            },
            "properties": {
                "RSU coordinates": [
                    8.75885,
                    50.1004553
                ],
                "Distance": 217.77,
                "Frequency": 5.9,
                "RSSI": -67.26,
                "LOS": "True"
            }
        },
        {
            "type": "Feature",
            "geometry": {
                "type": "Point",
                "coordinates": [
                    8.75778271,
                    50.1020722
                ]
            },
            "properties": {
                "RSU coordinates": [
                    8.75885,
                    50.1004553
                ],
                "Distance": 195.47,
                "Frequency": 5.9,
                "RSSI": -66.33,
                "LOS": "True"
            }
        },
        {
            "type": "Feature",
            "geometry": {
                "type": "Point",
                "coordinates": [
                    8.75787974,
                    50.10218
                ]
            },
            "properties": {
                "RSU coordinates": [
                    8.75885,
                    50.1004553
                ],
                "Distance": 204.12,
                "Frequency": 5.9,
                "RSSI": -66.7,
                "LOS": "True"
            }
        },
        {
            "type": "Feature",
            "geometry": {
                "type": "Point",
                "coordinates": [
                    8.75787974,
                    50.10196441
                ]
            },
            "properties": {
                "RSU coordinates": [
                    8.75885,
                    50.1004553
                ],
                "Distance": 181.73,
                "Frequency": 5.9,
                "RSSI": -65.71,
                "LOS": "True"
            }
        },
        {
            "type": "Feature",
            "geometry": {
                "type": "Point",
                "coordinates": [
                    8.75797677,
                    50.1020722
                ]
            },
            "properties": {
                "RSU coordinates": [
                    8.75885,
                    50.1004553
                ],
                "Distance": 190.49,
                "Frequency": 5.9,
                "RSSI": -96.11,
                "LOS": "False"
            }
        },
        {
            "type": "Feature",
            "geometry": {
                "type": "Point",
                "coordinates": [
                    8.75797677,
                    50.10185662
                ]
            },
            "properties": {
                "RSU coordinates": [
                    8.75885,
                    50.1004553
                ],
                "Distance": 168.0,
                "Frequency": 5.9,
                "RSSI": -65.03,
                "LOS": "True"
            }
        },
        {
            "type": "Feature",
            "geometry": {
                "type": "Point",
                "coordinates": [
                    8.75807379,
                    50.10196441
                ]
            },
            "properties": {
                "RSU coordinates": [
                    8.75885,
                    50.1004553
                ],
                "Distance": 176.91,
                "Frequency": 5.9,
                "RSSI": -80.48,
                "LOS": "False"
            }
        },
        {
            "type": "Feature",
            "geometry": {
                "type": "Point",
                "coordinates": [
                    8.75778273,
                    50.10142544
                ]
            },
            "properties": {
                "RSU coordinates": [
                    8.75885,
                    50.1004553
                ],
                "Distance": 132.18,
                "Frequency": 5.9,
                "RSSI": -92.97999999999999,
                "LOS": "False"
            }
        },
        {
            "type": "Feature",
            "geometry": {
                "type": "Point",
                "coordinates": [
                    8.75787975,
                    50.10153324
                ]
            },
            "properties": {
                "RSU coordinates": [
                    8.75885,
                    50.1004553
                ],
                "Distance": 138.56,
                "Frequency": 5.9,
                "RSSI": -93.38,
                "LOS": "False"
            }
        },
        {
            "type": "Feature",
            "geometry": {
                "type": "Point",
                "coordinates": [
                    8.7580738,
                    50.10174882
                ]
            },
            "properties": {
                "RSU coordinates": [
                    8.75885,
                    50.1004553
                ],
                "Distance": 154.3,
                "Frequency": 5.9,
                "RSSI": -64.3,
                "LOS": "True"
            }
        },
        {
            "type": "Feature",
            "geometry": {
                "type": "Point",
                "coordinates": [
                    8.75768571,
                    50.10110206
                ]
            },
            "properties": {
                "RSU coordinates": [
                    8.75885,
                    50.1004553
                ],
                "Distance": 109.98,
                "Frequency": 5.9,
                "RSSI": -91.4,
                "LOS": "False"
            }
        },
        {
            "type": "Feature",
            "geometry": {
                "type": "Point",
                "coordinates": [
                    8.75778273,
                    50.10120986
                ]
            },
            "properties": {
                "RSU coordinates": [
                    8.75885,
                    50.1004553
                ],
                "Distance": 113.42,
                "Frequency": 5.9,
                "RSSI": -91.66,
                "LOS": "False"
            }
        },
        {
            "type": "Feature",
            "geometry": {
                "type": "Point",
                "coordinates": [
                    8.75817082,
                    50.10164103
                ]
            },
            "properties": {
                "RSU coordinates": [
                    8.75885,
                    50.1004553
                ],
                "Distance": 140.63,
                "Frequency": 5.9,
                "RSSI": -63.51,
                "LOS": "True"
            }
        },
        {
            "type": "Feature",
            "geometry": {
                "type": "Point",
                "coordinates": [
                    8.75826785,
                    50.10174882
                ]
            },
            "properties": {
                "RSU coordinates": [
                    8.75885,
                    50.1004553
                ],
                "Distance": 149.88,
                "Frequency": 5.9,
                "RSSI": -94.05,
                "LOS": "False"
            }
        },
        {
            "type": "Feature",
            "geometry": {
                "type": "Point",
                "coordinates": [
                    8.75787976,
                    50.10110206
                ]
            },
            "properties": {
                "RSU coordinates": [
                    8.75885,
                    50.1004553
                ],
                "Distance": 99.92,
                "Frequency": 5.9,
                "RSSI": -90.58,
                "LOS": "False"
            }
        },
        {
            "type": "Feature",
            "geometry": {
                "type": "Point",
                "coordinates": [
                    8.75797678,
                    50.10120986
                ]
            },
            "properties": {
                "RSU coordinates": [
                    8.75885,
                    50.1004553
                ],
                "Distance": 104.61,
                "Frequency": 5.9,
                "RSSI": -90.97,
                "LOS": "False"
            }
        },
        {
            "type": "Feature",
            "geometry": {
                "type": "Point",
                "coordinates": [
                    8.75817083,
                    50.10142544
                ]
            },
            "properties": {
                "RSU coordinates": [
                    8.75885,
                    50.1004553
                ],
                "Distance": 118.39,
                "Frequency": 5.9,
                "RSSI": -62.03,
                "LOS": "True"
            }
        },
        {
            "type": "Feature",
            "geometry": {
                "type": "Point",
                "coordinates": [
                    8.75826785,
                    50.10153324
                ]
            },
            "properties": {
                "RSU coordinates": [
                    8.75885,
                    50.1004553
                ],
                "Distance": 127.0,
                "Frequency": 5.9,
                "RSSI": -62.63,
                "LOS": "True"
            }
        },
        {
            "type": "Feature",
            "geometry": {
                "type": "Point",
                "coordinates": [
                    8.7584619,
                    50.10174882
                ]
            },
            "properties": {
                "RSU coordinates": [
                    8.75885,
                    50.1004553
                ],
                "Distance": 146.64,
                "Frequency": 5.9,
                "RSSI": -93.87,
                "LOS": "False"
            }
        },
        {
            "type": "Feature",
            "geometry": {
                "type": "Point",
                "coordinates": [
                    8.75826785,
                    50.10131765
                ]
            },
            "properties": {
                "RSU coordinates": [
                    8.75885,
                    50.1004553
                ],
                "Distance": 104.61,
                "Frequency": 5.9,
                "RSSI": -60.97,
                "LOS": "True"
            }
        },
        {
            "type": "Feature",
            "geometry": {
                "type": "Point",
                "coordinates": [
                    8.75836488,
                    50.10142544
                ]
            },
            "properties": {
                "RSU coordinates": [
                    8.75885,
                    50.1004553
                ],
                "Distance": 113.42,
                "Frequency": 5.9,
                "RSSI": -61.66,
                "LOS": "True"
            }
        },
        {
            "type": "Feature",
            "geometry": {
                "type": "Point",
                "coordinates": [
                    8.75817083,
                    50.10099427
                ]
            },
            "properties": {
                "RSU coordinates": [
                    8.75885,
                    50.1004553
                ],
                "Distance": 77.15,
                "Frequency": 5.9,
                "RSSI": -73.36,
                "LOS": "False"
            }
        },
        {
            "type": "Feature",
            "geometry": {
                "type": "Point",
                "coordinates": [
                    8.75826786,
                    50.10110206
                ]
            },
            "properties": {
                "RSU coordinates": [
                    8.75885,
                    50.1004553
                ],
                "Distance": 83.14,
                "Frequency": 5.9,
                "RSSI": -59.0,
                "LOS": "True"
            }
        },
        {
            "type": "Feature",
            "geometry": {
                "type": "Point",
                "coordinates": [
                    8.75836488,
                    50.10120986
                ]
            },
            "properties": {
                "RSU coordinates": [
                    8.75885,
                    50.1004553
                ],
                "Distance": 90.86,
                "Frequency": 5.9,
                "RSSI": -59.76,
                "LOS": "True"
            }
        },
        {
            "type": "Feature",
            "geometry": {
                "type": "Point",
                "coordinates": [
                    8.7584619,
                    50.10131765
                ]
            },
            "properties": {
                "RSU coordinates": [
                    8.75885,
                    50.1004553
                ],
                "Distance": 99.92,
                "Frequency": 5.9,
                "RSSI": -75.58,
                "LOS": "False"
            }
        },
        {
            "type": "Feature",
            "geometry": {
                "type": "Point",
                "coordinates": [
                    8.75855893,
                    50.10142544
                ]
            },
            "properties": {
                "RSU coordinates": [
                    8.75885,
                    50.1004553
                ],
                "Distance": 109.98,
                "Frequency": 5.9,
                "RSSI": -76.4,
                "LOS": "False"
            }
        },
        {
            "type": "Feature",
            "geometry": {
                "type": "Point",
                "coordinates": [
                    8.75865595,
                    50.10153324
                ]
            },
            "properties": {
                "RSU coordinates": [
                    8.75885,
                    50.1004553
                ],
                "Distance": 120.8,
                "Frequency": 5.9,
                "RSSI": -92.2,
                "LOS": "False"
            }
        },
        {
            "type": "Feature",
            "geometry": {
                "type": "Point",
                "coordinates": [
                    8.75875297,
                    50.10164103
                ]
            },
            "properties": {
                "RSU coordinates": [
                    8.75885,
                    50.1004553
                ],
                "Distance": 132.18,
                "Frequency": 5.9,
                "RSSI": -92.97999999999999,
                "LOS": "False"
            }
        },
        {
            "type": "Feature",
            "geometry": {
                "type": "Point",
                "coordinates": [
                    8.75894703,
                    50.10185662
                ]
            },
            "properties": {
                "RSU coordinates": [
                    8.75885,
                    50.1004553
                ],
                "Distance": 156.15,
                "Frequency": 5.9,
                "RSSI": -94.41,
                "LOS": "False"
            }
        },
        {
            "type": "Feature",
            "geometry": {
                "type": "Point",
                "coordinates": [
                    8.75817084,
                    50.10077868
                ]
            },
            "properties": {
                "RSU coordinates": [
                    8.75885,
                    50.1004553
                ],
                "Distance": 60.4,
                "Frequency": 5.9,
                "RSSI": -86.25999999999999,
                "LOS": "False"
            }
        },
        {
            "type": "Feature",
            "geometry": {
                "type": "Point",
                "coordinates": [
                    8.75826786,
                    50.10088647
                ]
            },
            "properties": {
                "RSU coordinates": [
                    8.75885,
                    50.1004553
                ],
                "Distance": 63.5,
                "Frequency": 5.9,
                "RSSI": -71.69,
                "LOS": "False"
            }
        },
        {
            "type": "Feature",
            "geometry": {
                "type": "Point",
                "coordinates": [
                    8.75836488,
                    50.10099427
                ]
            },
            "properties": {
                "RSU coordinates": [
                    8.75885,
                    50.1004553
                ],
                "Distance": 69.28,
                "Frequency": 5.9,
                "RSSI": -57.44,
                "LOS": "True"
            }
        },
        {
            "type": "Feature",
            "geometry": {
                "type": "Point",
                "coordinates": [
                    8.7584619,
                    50.10110206
                ]
            },
            "properties": {
                "RSU coordinates": [
                    8.75885,
                    50.1004553
                ],
                "Distance": 77.15,
                "Frequency": 5.9,
                "RSSI": -58.36,
                "LOS": "True"
            }
        },
        {
            "type": "Feature",
            "geometry": {
                "type": "Point",
                "coordinates": [
                    8.75855893,
                    50.10120986
                ]
            },
            "properties": {
                "RSU coordinates": [
                    8.75885,
                    50.1004553
                ],
                "Distance": 86.53,
                "Frequency": 5.9,
                "RSSI": -74.34,
                "LOS": "False"
            }
        },
        {
            "type": "Feature",
            "geometry": {
                "type": "Point",
                "coordinates": [
                    8.75865595,
                    50.10131765
                ]
            },
            "properties": {
                "RSU coordinates": [
                    8.75885,
                    50.1004553
                ],
                "Distance": 96.99,
                "Frequency": 5.9,
                "RSSI": -90.32,
                "LOS": "False"
            }
        },
        {
            "type": "Feature",
            "geometry": {
                "type": "Point",
                "coordinates": [
                    8.75836488,
                    50.10077868
                ]
            },
            "properties": {
                "RSU coordinates": [
                    8.75885,
                    50.1004553
                ],
                "Distance": 49.96,
                "Frequency": 5.9,
                "RSSI": -69.63,
                "LOS": "False"
            }
        },
        {
            "type": "Feature",
            "geometry": {
                "type": "Point",
                "coordinates": [
                    8.75846191,
                    50.10088647
                ]
            },
            "properties": {
                "RSU coordinates": [
                    8.75885,
                    50.1004553
                ],
                "Distance": 55.43,
                "Frequency": 5.9,
                "RSSI": -55.52,
                "LOS": "True"
            }
        },
        {
            "type": "Feature",
            "geometry": {
                "type": "Point",
                "coordinates": [
                    8.75855893,
                    50.10099427
                ]
            },
            "properties": {
                "RSU coordinates": [
                    8.75885,
                    50.1004553
                ],
                "Distance": 63.5,
                "Frequency": 5.9,
                "RSSI": -56.69,
                "LOS": "True"
            }
        },
        {
            "type": "Feature",
            "geometry": {
                "type": "Point",
                "coordinates": [
                    8.75875298,
                    50.10120986
                ]
            },
            "properties": {
                "RSU coordinates": [
                    8.75885,
                    50.1004553
                ],
                "Distance": 84.29,
                "Frequency": 5.9,
                "RSSI": -74.12,
                "LOS": "False"
            }
        },
        {
            "type": "Feature",
            "geometry": {
                "type": "Point",
                "coordinates": [
                    8.75826786,
                    50.1004553
                ]
            },
            "properties": {
                "RSU coordinates": [
                    8.75885,
                    50.1004553
                ],
                "Distance": 41.57,
                "Frequency": 5.9,
                "RSSI": -98.06,
                "LOS": "False"
            }
        },
        {
            "type": "Feature",
            "geometry": {
                "type": "Point",
                "coordinates": [
                    8.75836488,
                    50.10056309
                ]
            },
            "properties": {
                "RSU coordinates": [
                    8.75885,
                    50.1004553
                ],
                "Distance": 36.66,
                "Frequency": 5.9,
                "RSSI": -81.97999999999999,
                "LOS": "False"
            }
        },
        {
            "type": "Feature",
            "geometry": {
                "type": "Point",
                "coordinates": [
                    8.75846191,
                    50.10067089
                ]
            },
            "properties": {
                "RSU coordinates": [
                    8.75885,
                    50.1004553
                ],
                "Distance": 36.66,
                "Frequency": 5.9,
                "RSSI": -66.97999999999999,
                "LOS": "False"
            }
        },
        {
            "type": "Feature",
            "geometry": {
                "type": "Point",
                "coordinates": [
                    8.75855893,
                    50.10077868
                ]
            },
            "properties": {
                "RSU coordinates": [
                    8.75885,
                    50.1004553
                ],
                "Distance": 41.57,
                "Frequency": 5.9,
                "RSSI": -53.06,
                "LOS": "True"
            }
        },
        {
            "type": "Feature",
            "geometry": {
                "type": "Point",
                "coordinates": [
                    8.75865595,
                    50.10088647
                ]
            },
            "properties": {
                "RSU coordinates": [
                    8.75885,
                    50.1004553
                ],
                "Distance": 49.96,
                "Frequency": 5.9,
                "RSSI": -54.63,
                "LOS": "True"
            }
        },
        {
            "type": "Feature",
            "geometry": {
                "type": "Point",
                "coordinates": [
                    8.75875298,
                    50.10099427
                ]
            },
            "properties": {
                "RSU coordinates": [
                    8.75885,
                    50.1004553
                ],
                "Distance": 60.4,
                "Frequency": 5.9,
                "RSSI": -56.26,
                "LOS": "True"
            }
        },
        {
            "type": "Feature",
            "geometry": {
                "type": "Point",
                "coordinates": [
                    8.75826787,
                    50.10023971
                ]
            },
            "properties": {
                "RSU coordinates": [
                    8.75885,
                    50.1004553
                ],
                "Distance": 48.0,
                "Frequency": 5.9,
                "RSSI": -84.28999999999999,
                "LOS": "False"
            }
        },
        {
            "type": "Feature",
            "geometry": {
                "type": "Point",
                "coordinates": [
                    8.75865595,
                    50.10067089
                ]
            },
            "properties": {
                "RSU coordinates": [
                    8.75885,
                    50.1004553
                ],
                "Distance": 27.71,
                "Frequency": 5.9,
                "RSSI": -49.58,
                "LOS": "True"
            }
        },
        {
            "type": "Feature",
            "geometry": {
                "type": "Point",
                "coordinates": [
                    8.75875298,
                    50.10077868
                ]
            },
            "properties": {
                "RSU coordinates": [
                    8.75885,
                    50.1004553
                ],
                "Distance": 36.66,
                "Frequency": 5.9,
                "RSSI": -51.98,
                "LOS": "True"
            }
        },
        {
            "type": "Feature",
            "geometry": {
                "type": "Point",
                "coordinates": [
                    8.75885,
                    50.10088647
                ]
            },
            "properties": {
                "RSU coordinates": [
                    8.75885,
                    50.1004553
                ],
                "Distance": 48.0,
                "Frequency": 5.9,
                "RSSI": -54.29,
                "LOS": "True"
            }
        },
        {
            "type": "Feature",
            "geometry": {
                "type": "Point",
                "coordinates": [
                    8.75894702,
                    50.10099427
                ]
            },
            "properties": {
                "RSU coordinates": [
                    8.75885,
                    50.1004553
                ],
                "Distance": 60.4,
                "Frequency": 5.9,
                "RSSI": -86.25999999999999,
                "LOS": "False"
            }
        },
        {
            "type": "Feature",
            "geometry": {
                "type": "Point",
                "coordinates": [
                    8.75846191,
                    50.10023971
                ]
            },
            "properties": {
                "RSU coordinates": [
                    8.75885,
                    50.1004553
                ],
                "Distance": 36.66,
                "Frequency": 5.9,
                "RSSI": -66.97999999999999,
                "LOS": "False"
            }
        },
        {
            "type": "Feature",
            "geometry": {
                "type": "Point",
                "coordinates": [
                    8.75855893,
                    50.10034751
                ]
            },
            "properties": {
                "RSU coordinates": [
                    8.75885,
                    50.1004553
                ],
                "Distance": 24.0,
                "Frequency": 5.9,
                "RSSI": -63.34,
                "LOS": "False"
            }
        },
        {
            "type": "Feature",
            "geometry": {
                "type": "Point",
                "coordinates": [
                    8.75875298,
                    50.10056309
                ]
            },
            "properties": {
                "RSU coordinates": [
                    8.75885,
                    50.1004553
                ],
                "Distance": 13.86,
                "Frequency": 5.9,
                "RSSI": -43.63,
                "LOS": "True"
            }
        },
        {
            "type": "Feature",
            "geometry": {
                "type": "Point",
                "coordinates": [
                    8.75885,
                    50.10067089
                ]
            },
            "properties": {
                "RSU coordinates": [
                    8.75885,
                    50.1004553
                ],
                "Distance": 24.0,
                "Frequency": 5.9,
                "RSSI": -48.34,
                "LOS": "True"
            }
        },
        {
            "type": "Feature",
            "geometry": {
                "type": "Point",
                "coordinates": [
                    8.75894702,
                    50.10077868
                ]
            },
            "properties": {
                "RSU coordinates": [
                    8.75885,
                    50.1004553
                ],
                "Distance": 36.66,
                "Frequency": 5.9,
                "RSSI": -81.97999999999999,
                "LOS": "False"
            }
        },
        {
            "type": "Feature",
            "geometry": {
                "type": "Point",
                "coordinates": [
                    8.75865596,
                    50.10023971
                ]
            },
            "properties": {
                "RSU coordinates": [
                    8.75885,
                    50.1004553
                ],
                "Distance": 27.71,
                "Frequency": 5.9,
                "RSSI": -79.58,
                "LOS": "False"
            }
        },
        {
            "type": "Feature",
            "geometry": {
                "type": "Point",
                "coordinates": [
                    8.75904405,
                    50.10067089
                ]
            },
            "properties": {
                "RSU coordinates": [
                    8.75885,
                    50.1004553
                ],
                "Distance": 27.71,
                "Frequency": 5.9,
                "RSSI": -64.58,
                "LOS": "False"
            }
        },
        {
            "type": "Feature",
            "geometry": {
                "type": "Point",
                "coordinates": [
                    8.75894702,
                    50.10034751
                ]
            },
            "properties": {
                "RSU coordinates": [
                    8.75885,
                    50.1004553
                ],
                "Distance": 13.86,
                "Frequency": 5.9,
                "RSSI": -43.63,
                "LOS": "True"
            }
        },
        {
            "type": "Feature",
            "geometry": {
                "type": "Point",
                "coordinates": [
                    8.75933512,
                    50.10077868
                ]
            },
            "properties": {
                "RSU coordinates": [
                    8.75885,
                    50.1004553
                ],
                "Distance": 49.96,
                "Frequency": 5.9,
                "RSSI": -84.63,
                "LOS": "False"
            }
        },
        {
            "type": "Feature",
            "geometry": {
                "type": "Point",
                "coordinates": [
                    8.75943214,
                    50.10088647
                ]
            },
            "properties": {
                "RSU coordinates": [
                    8.75885,
                    50.1004553
                ],
                "Distance": 63.5,
                "Frequency": 5.9,
                "RSSI": -86.69,
                "LOS": "False"
            }
        },
        {
            "type": "Feature",
            "geometry": {
                "type": "Point",
                "coordinates": [
                    8.75904404,
                    50.10023971
                ]
            },
            "properties": {
                "RSU coordinates": [
                    8.75885,
                    50.1004553
                ],
                "Distance": 27.71,
                "Frequency": 5.9,
                "RSSI": -49.58,
                "LOS": "True"
            }
        },
        {
            "type": "Feature",
            "geometry": {
                "type": "Point",
                "coordinates": [
                    8.75923809,
                    50.1004553
                ]
            },
            "properties": {
                "RSU coordinates": [
                    8.75885,
                    50.1004553
                ],
                "Distance": 27.71,
                "Frequency": 5.9,
                "RSSI": -64.58,
                "LOS": "False"
            }
        },
        {
            "type": "Feature",
            "geometry": {
                "type": "Point",
                "coordinates": [
                    8.75933512,
                    50.10056309
                ]
            },
            "properties": {
                "RSU coordinates": [
                    8.75885,
                    50.1004553
                ],
                "Distance": 36.66,
                "Frequency": 5.9,
                "RSSI": -66.97999999999999,
                "LOS": "False"
            }
        },
        {
            "type": "Feature",
            "geometry": {
                "type": "Point",
                "coordinates": [
                    8.75943214,
                    50.10067089
                ]
            },
            "properties": {
                "RSU coordinates": [
                    8.75885,
                    50.1004553
                ],
                "Distance": 48.0,
                "Frequency": 5.9,
                "RSSI": -99.28999999999999,
                "LOS": "False"
            }
        },
        {
            "type": "Feature",
            "geometry": {
                "type": "Point",
                "coordinates": [
                    8.75962619,
                    50.10088647
                ]
            },
            "properties": {
                "RSU coordinates": [
                    8.75885,
                    50.1004553
                ],
                "Distance": 73.32,
                "Frequency": 5.9,
                "RSSI": -87.92,
                "LOS": "False"
            }
        },
        {
            "type": "Feature",
            "geometry": {
                "type": "Point",
                "coordinates": [
                    8.75972322,
                    50.10099427
                ]
            },
            "properties": {
                "RSU coordinates": [
                    8.75885,
                    50.1004553
                ],
                "Distance": 86.53,
                "Frequency": 5.9,
                "RSSI": -89.34,
                "LOS": "False"
            }
        },
        {
            "type": "Feature",
            "geometry": {
                "type": "Point",
                "coordinates": [
                    8.75904404,
                    50.10002413
                ]
            },
            "properties": {
                "RSU coordinates": [
                    8.75885,
                    50.1004553
                ],
                "Distance": 49.96,
                "Frequency": 5.9,
                "RSSI": -54.63,
                "LOS": "True"
            }
        },
        {
            "type": "Feature",
            "geometry": {
                "type": "Point",
                "coordinates": [
                    8.75914107,
                    50.10013192
                ]
            },
            "properties": {
                "RSU coordinates": [
                    8.75885,
                    50.1004553
                ],
                "Distance": 41.57,
                "Frequency": 5.9,
                "RSSI": -53.06,
                "LOS": "True"
            }
        },
        {
            "type": "Feature",
            "geometry": {
                "type": "Point",
                "coordinates": [
                    8.75923809,
                    50.10023971
                ]
            },
            "properties": {
                "RSU coordinates": [
                    8.75885,
                    50.1004553
                ],
                "Distance": 36.66,
                "Frequency": 5.9,
                "RSSI": -66.97999999999999,
                "LOS": "False"
            }
        },
        {
            "type": "Feature",
            "geometry": {
                "type": "Point",
                "coordinates": [
                    8.75952916,
                    50.10056309
                ]
            },
            "properties": {
                "RSU coordinates": [
                    8.75885,
                    50.1004553
                ],
                "Distance": 49.96,
                "Frequency": 5.9,
                "RSSI": -69.63,
                "LOS": "False"
            }
        },
        {
            "type": "Feature",
            "geometry": {
                "type": "Point",
                "coordinates": [
                    8.75914107,
                    50.09991633
                ]
            },
            "properties": {
                "RSU coordinates": [
                    8.75885,
                    50.1004553
                ],
                "Distance": 63.5,
                "Frequency": 5.9,
                "RSSI": -56.69,
                "LOS": "True"
            }
        },
        {
            "type": "Feature",
            "geometry": {
                "type": "Point",
                "coordinates": [
                    8.75923809,
                    50.10002413
                ]
            },
            "properties": {
                "RSU coordinates": [
                    8.75885,
                    50.1004553
                ],
                "Distance": 55.43,
                "Frequency": 5.9,
                "RSSI": -55.52,
                "LOS": "True"
            }
        },
        {
            "type": "Feature",
            "geometry": {
                "type": "Point",
                "coordinates": [
                    8.75943213,
                    50.10023971
                ]
            },
            "properties": {
                "RSU coordinates": [
                    8.75885,
                    50.1004553
                ],
                "Distance": 48.0,
                "Frequency": 5.9,
                "RSSI": -99.28999999999999,
                "LOS": "False"
            }
        },
        {
            "type": "Feature",
            "geometry": {
                "type": "Point",
                "coordinates": [
                    8.75923809,
                    50.09980854
                ]
            },
            "properties": {
                "RSU coordinates": [
                    8.75885,
                    50.1004553
                ],
                "Distance": 77.15,
                "Frequency": 5.9,
                "RSSI": -58.36,
                "LOS": "True"
            }
        },
        {
            "type": "Feature",
            "geometry": {
                "type": "Point",
                "coordinates": [
                    8.75952916,
                    50.10013192
                ]
            },
            "properties": {
                "RSU coordinates": [
                    8.75885,
                    50.1004553
                ],
                "Distance": 60.4,
                "Frequency": 5.9,
                "RSSI": -86.25999999999999,
                "LOS": "False"
            }
        },
        {
            "type": "Feature",
            "geometry": {
                "type": "Point",
                "coordinates": [
                    8.75982023,
                    50.1004553
                ]
            },
            "properties": {
                "RSU coordinates": [
                    8.75885,
                    50.1004553
                ],
                "Distance": 69.28,
                "Frequency": 5.9,
                "RSSI": -87.44,
                "LOS": "False"
            }
        },
        {
            "type": "Feature",
            "geometry": {
                "type": "Point",
                "coordinates": [
                    8.75933511,
                    50.09970074
                ]
            },
            "properties": {
                "RSU coordinates": [
                    8.75885,
                    50.1004553
                ],
                "Distance": 90.86,
                "Frequency": 5.9,
                "RSSI": -59.76,
                "LOS": "True"
            }
        },
        {
            "type": "Feature",
            "geometry": {
                "type": "Point",
                "coordinates": [
                    8.76001427,
                    50.1004553
                ]
            },
            "properties": {
                "RSU coordinates": [
                    8.75885,
                    50.1004553
                ],
                "Distance": 83.14,
                "Frequency": 5.9,
                "RSSI": -89.0,
                "LOS": "False"
            }
        },
        {
            "type": "Feature",
            "geometry": {
                "type": "Point",
                "coordinates": [
                    8.75943213,
                    50.09959295
                ]
            },
            "properties": {
                "RSU coordinates": [
                    8.75885,
                    50.1004553
                ],
                "Distance": 104.61,
                "Frequency": 5.9,
                "RSSI": -60.97,
                "LOS": "True"
            }
        },
        {
            "type": "Feature",
            "geometry": {
                "type": "Point",
                "coordinates": [
                    8.75952915,
                    50.09948516
                ]
            },
            "properties": {
                "RSU coordinates": [
                    8.75885,
                    50.1004553
                ],
                "Distance": 118.39,
                "Frequency": 5.9,
                "RSSI": -62.03,
                "LOS": "True"
            }
        },
        {
            "type": "Feature",
            "geometry": {
                "type": "Point",
                "coordinates": [
                    8.75952914,
                    50.09926957
                ]
            },
            "properties": {
                "RSU coordinates": [
                    8.75885,
                    50.1004553
                ],
                "Distance": 140.63,
                "Frequency": 5.9,
                "RSSI": -78.50999999999999,
                "LOS": "False"
            }
        },
        {
            "type": "Feature",
            "geometry": {
                "type": "Point",
                "coordinates": [
                    8.75962616,
                    50.09916178
                ]
            },
            "properties": {
                "RSU coordinates": [
                    8.75885,
                    50.1004553
                ],
                "Distance": 154.3,
                "Frequency": 5.9,
                "RSSI": -79.3,
                "LOS": "False"
            }
        },
        {
            "type": "Feature",
            "geometry": {
                "type": "Point",
                "coordinates": [
                    8.75972318,
                    50.09926957
                ]
            },
            "properties": {
                "RSU coordinates": [
                    8.75885,
                    50.1004553
                ],
                "Distance": 145.99,
                "Frequency": 5.9,
                "RSSI": -78.83,
                "LOS": "False"
            }
        },
        {
            "type": "Feature",
            "geometry": {
                "type": "Point",
                "coordinates": [
                    8.75972318,
                    50.09905398
                ]
            },
            "properties": {
                "RSU coordinates": [
                    8.75885,
                    50.1004553
                ],
                "Distance": 168.0,
                "Frequency": 5.9,
                "RSSI": -80.03,
                "LOS": "False"
            }
        },
        {
            "type": "Feature",
            "geometry": {
                "type": "Point",
                "coordinates": [
                    8.7598202,
                    50.09916178
                ]
            },
            "properties": {
                "RSU coordinates": [
                    8.75885,
                    50.1004553
                ],
                "Distance": 159.8,
                "Frequency": 5.9,
                "RSSI": -79.6,
                "LOS": "False"
            }
        },
        {
            "type": "Feature",
            "geometry": {
                "type": "Point",
                "coordinates": [
                    8.75972318,
                    50.0988384
                ]
            },
            "properties": {
                "RSU coordinates": [
                    8.75885,
                    50.1004553
                ],
                "Distance": 190.49,
                "Frequency": 5.9,
                "RSSI": -81.11,
                "LOS": "False"
            }
        },
        {
            "type": "Feature",
            "geometry": {
                "type": "Point",
                "coordinates": [
                    8.7598202,
                    50.09894619
                ]
            },
            "properties": {
                "RSU coordinates": [
                    8.75885,
                    50.1004553
                ],
                "Distance": 181.73,
                "Frequency": 5.9,
                "RSSI": -80.71,
                "LOS": "False"
            }
        },
        {
            "type": "Feature",
            "geometry": {
                "type": "Point",
                "coordinates": [
                    8.75991722,
                    50.09905398
                ]
            },
            "properties": {
                "RSU coordinates": [
                    8.75885,
                    50.1004553
                ],
                "Distance": 173.62,
                "Frequency": 5.9,
                "RSSI": -80.32,
                "LOS": "False"
            }
        },
        {
            "type": "Feature",
            "geometry": {
                "type": "Point",
                "coordinates": [
                    8.75982019,
                    50.0987306
                ]
            },
            "properties": {
                "RSU coordinates": [
                    8.75885,
                    50.1004553
                ],
                "Distance": 204.12,
                "Frequency": 5.9,
                "RSSI": -81.7,
                "LOS": "False"
            }
        },
        {
            "type": "Feature",
            "geometry": {
                "type": "Point",
                "coordinates": [
                    8.75991721,
                    50.0988384
                ]
            },
            "properties": {
                "RSU coordinates": [
                    8.75885,
                    50.1004553
                ],
                "Distance": 195.47,
                "Frequency": 5.9,
                "RSSI": -81.33,
                "LOS": "False"
            }
        },
        {
            "type": "Feature",
            "geometry": {
                "type": "Point",
                "coordinates": [
                    8.76001424,
                    50.09894619
                ]
            },
            "properties": {
                "RSU coordinates": [
                    8.75885,
                    50.1004553
                ],
                "Distance": 187.45,
                "Frequency": 5.9,
                "RSSI": -80.97,
                "LOS": "False"
            }
        },
        {
            "type": "Feature",
            "geometry": {
                "type": "Point",
                "coordinates": [
                    8.75991721,
                    50.09862281
                ]
            },
            "properties": {
                "RSU coordinates": [
                    8.75885,
                    50.1004553
                ],
                "Distance": 217.77,
                "Frequency": 5.9,
                "RSSI": -82.26,
                "LOS": "False"
            }
        },
        {
            "type": "Feature",
            "geometry": {
                "type": "Point",
                "coordinates": [
                    8.76001423,
                    50.0987306
                ]
            },
            "properties": {
                "RSU coordinates": [
                    8.75885,
                    50.1004553
                ],
                "Distance": 209.23,
                "Frequency": 5.9,
                "RSSI": -81.92,
                "LOS": "False"
            }
        },
        {
            "type": "Feature",
            "geometry": {
                "type": "Point",
                "coordinates": [
                    8.76011125,
                    50.0988384
                ]
            },
            "properties": {
                "RSU coordinates": [
                    8.75885,
                    50.1004553
                ],
                "Distance": 201.28,
                "Frequency": 5.9,
                "RSSI": -96.58,
                "LOS": "False"
            }
        },
        {
            "type": "Feature",
            "geometry": {
                "type": "Point",
                "coordinates": [
                    8.76011125,
                    50.09862281
                ]
            },
            "properties": {
                "RSU coordinates": [
                    8.75885,
                    50.1004553
                ],
                "Distance": 223.0,
                "Frequency": 5.9,
                "RSSI": -82.46,
                "LOS": "False"
            }
        },
        {
            "type": "Feature",
            "geometry": {
                "type": "Point",
                "coordinates": [
                    8.76020827,
                    50.0987306
                ]
            },
            "properties": {
                "RSU coordinates": [
                    8.75885,
                    50.1004553
                ],
                "Distance": 215.11,
                "Frequency": 5.9,
                "RSSI": -97.15,
                "LOS": "False"
            }
        },
        {
            "type": "Feature",
            "geometry": {
                "type": "Point",
                "coordinates": [
                    8.76001422,
                    50.09829943
                ]
            },
            "properties": {
                "RSU coordinates": [
                    8.75885,
                    50.1004553
                ],
                "Distance": 253.99,
                "Frequency": 5.9,
                "RSSI": -98.58,
                "LOS": "False"
            }
        },
        {
            "type": "Feature",
            "geometry": {
                "type": "Point",
                "coordinates": [
                    8.76011124,
                    50.09840722
                ]
            },
            "properties": {
                "RSU coordinates": [
                    8.75885,
                    50.1004553
                ],
                "Distance": 245.14,
                "Frequency": 5.9,
                "RSSI": -98.27,
                "LOS": "False"
            }
        },
        {
            "type": "Feature",
            "geometry": {
                "type": "Point",
                "coordinates": [
                    8.76020826,
                    50.09829943
                ]
            },
            "properties": {
                "RSU coordinates": [
                    8.75885,
                    50.1004553
                ],
                "Distance": 258.86,
                "Frequency": 5.9,
                "RSSI": -98.74,
                "LOS": "False"
            }
        },
        {
            "type": "Feature",
            "geometry": {
                "type": "Point",
                "coordinates": [
                    8.7604023,
                    50.09851502
                ]
            },
            "properties": {
                "RSU coordinates": [
                    8.75885,
                    50.1004553
                ],
                "Distance": 242.78,
                "Frequency": 5.9,
                "RSSI": -98.19,
                "LOS": "False"
            }
        },
        {
            "type": "Feature",
            "geometry": {
                "type": "Point",
                "coordinates": [
                    8.7604023,
                    50.09829943
                ]
            },
            "properties": {
                "RSU coordinates": [
                    8.75885,
                    50.1004553
                ],
                "Distance": 264.36,
                "Frequency": 5.9,
                "RSSI": -98.92,
                "LOS": "False"
            }
        },
        {
            "type": "Feature",
            "geometry": {
                "type": "Point",
                "coordinates": [
                    8.76049932,
                    50.09840722
                ]
            },
            "properties": {
                "RSU coordinates": [
                    8.75885,
                    50.1004553
                ],
                "Distance": 256.62,
                "Frequency": 5.9,
                "RSSI": -98.67,
                "LOS": "False"
            }
        }
    ]
}