{
    "type": "FeatureCollection",
    "features": [
        {
            "type": "Feature",
            "geometry": {
                "type": "Point",
                "coordinates": [
                    14.42371383,
                    51.18125488
                ]
            },
            "properties": {
                "RSU coordinates": [
                    14.4303656,
                    51.1809315
                ],
                "Distance": 465.58,
                "Frequency": 5.9,
                "RSSI": -88.77,
                "LOS": "False"
            }
        },
        {
            "type": "Feature",
            "geometry": {
                "type": "Point",
                "coordinates": [
                    14.42391239,
                    51.18125488
                ]
            },
            "properties": {
                "RSU coordinates": [
                    14.4303656,
                    51.1809315
                ],
                "Distance": 451.77,
                "Frequency": 5.9,
                "RSSI": -88.52,
                "LOS": "False"
            }
        },
        {
            "type": "Feature",
            "geometry": {
                "type": "Point",
                "coordinates": [
                    14.42411095,
                    51.18125488
                ]
            },
            "properties": {
                "RSU coordinates": [
                    14.4303656,
                    51.1809315
                ],
                "Distance": 437.96,
                "Frequency": 5.9,
                "RSSI": -88.25,
                "LOS": "False"
            }
        },
        {
            "type": "Feature",
            "geometry": {
                "type": "Point",
                "coordinates": [
                    14.42480592,
                    51.18114709
                ]
            },
            "properties": {
                "RSU coordinates": [
                    14.4303656,
                    51.1809315
                ],
                "Distance": 388.72,
                "Frequency": 5.9,
                "RSSI": -72.23,
                "LOS": "True"
            }
        },
        {
            "type": "Feature",
            "geometry": {
                "type": "Point",
                "coordinates": [
                    14.42500448,
                    51.18114709
                ]
            },
            "properties": {
                "RSU coordinates": [
                    14.4303656,
                    51.1809315
                ],
                "Distance": 374.89,
                "Frequency": 5.9,
                "RSSI": -71.92,
                "LOS": "True"
            }
        },
        {
            "type": "Feature",
            "geometry": {
                "type": "Point",
                "coordinates": [
                    14.42520304,
                    51.18114709
                ]
            },
            "properties": {
                "RSU coordinates": [
                    14.4303656,
                    51.1809315
                ],
                "Distance": 361.07,
                "Frequency": 5.9,
                "RSSI": -71.59,
                "LOS": "True"
            }
        },
        {
            "type": "Feature",
            "geometry": {
                "type": "Point",
                "coordinates": [
                    14.4254016,
                    51.18114709
                ]
            },
            "properties": {
                "RSU coordinates": [
                    14.4303656,
                    51.1809315
                ],
                "Distance": 347.24,
                "Frequency": 5.9,
                "RSSI": -71.26,
                "LOS": "True"
            }
        },
        {
            "type": "Feature",
            "geometry": {
                "type": "Point",
                "coordinates": [
                    14.42560016,
                    51.18114709
                ]
            },
            "properties": {
                "RSU coordinates": [
                    14.4303656,
                    51.1809315
                ],
                "Distance": 333.42,
                "Frequency": 5.9,
                "RSSI": -85.91,
                "LOS": "False"
            }
        },
        {
            "type": "Feature",
            "geometry": {
                "type": "Point",
                "coordinates": [
                    14.42579872,
                    51.18114709
                ]
            },
            "properties": {
                "RSU coordinates": [
                    14.4303656,
                    51.1809315
                ],
                "Distance": 319.6,
                "Frequency": 5.9,
                "RSSI": -85.55,
                "LOS": "False"
            }
        },
        {
            "type": "Feature",
            "geometry": {
                "type": "Point",
                "coordinates": [
                    14.42599728,
                    51.18114709
                ]
            },
            "properties": {
                "RSU coordinates": [
                    14.4303656,
                    51.1809315
                ],
                "Distance": 305.78,
                "Frequency": 5.9,
                "RSSI": -85.17,
                "LOS": "False"
            }
        },
        {
            "type": "Feature",
            "geometry": {
                "type": "Point",
                "coordinates": [
                    14.42619584,
                    51.18114709
                ]
            },
            "properties": {
                "RSU coordinates": [
                    14.4303656,
                    51.1809315
                ],
                "Distance": 291.97,
                "Frequency": 5.9,
                "RSSI": -84.77,
                "LOS": "False"
            }
        },
        {
            "type": "Feature",
            "geometry": {
                "type": "Point",
                "coordinates": [
                    14.4263944,
                    51.18114709
                ]
            },
            "properties": {
                "RSU coordinates": [
                    14.4303656,
                    51.1809315
                ],
                "Distance": 278.17,
                "Frequency": 5.9,
                "RSSI": -99.36,
                "LOS": "False"
            }
        },
        {
            "type": "Feature",
            "geometry": {
                "type": "Point",
                "coordinates": [
                    14.42689083,
                    51.18082371
                ]
            },
            "properties": {
                "RSU coordinates": [
                    14.4303656,
                    51.1809315
                ],
                "Distance": 242.78,
                "Frequency": 5.9,
                "RSSI": -98.19,
                "LOS": "False"
            }
        },
        {
            "type": "Feature",
            "geometry": {
                "type": "Point",
                "coordinates": [
                    14.42718866,
                    51.1809315
                ]
            },
            "properties": {
                "RSU coordinates": [
                    14.4303656,
                    51.1809315
                ],
                "Distance": 221.7,
                "Frequency": 5.9,
                "RSSI": -67.41,
                "LOS": "True"
            }
        },
        {
            "type": "Feature",
            "geometry": {
                "type": "Point",
                "coordinates": [
                    14.42728793,
                    51.18103929
                ]
            },
            "properties": {
                "RSU coordinates": [
                    14.4303656,
                    51.1809315
                ],
                "Distance": 215.11,
                "Frequency": 5.9,
                "RSSI": -67.15,
                "LOS": "True"
            }
        },
        {
            "type": "Feature",
            "geometry": {
                "type": "Point",
                "coordinates": [
                    14.42728794,
                    51.18082371
                ]
            },
            "properties": {
                "RSU coordinates": [
                    14.4303656,
                    51.1809315
                ],
                "Distance": 215.11,
                "Frequency": 5.9,
                "RSSI": -67.15,
                "LOS": "True"
            }
        },
        {
            "type": "Feature",
            "geometry": {
                "type": "Point",
                "coordinates": [
                    14.42738722,
                    51.1809315
                ]
            },
            "properties": {
                "RSU coordinates": [
                    14.4303656,
                    51.1809315
                ],
                "Distance": 207.85,
                "Frequency": 5.9,
                "RSSI": -66.86,
                "LOS": "True"
            }
        },
        {
            "type": "Feature",
            "geometry": {
                "type": "Point",
                "coordinates": [
                    14.42748649,
                    51.18103929
                ]
            },
            "properties": {
                "RSU coordinates": [
                    14.4303656,
                    51.1809315
                ],
                "Distance": 201.28,
                "Frequency": 5.9,
                "RSSI": -66.58,
                "LOS": "True"
            }
        },
        {
            "type": "Feature",
            "geometry": {
                "type": "Point",
                "coordinates": [
                    14.4274865,
                    51.18082371
                ]
            },
            "properties": {
                "RSU coordinates": [
                    14.4303656,
                    51.1809315
                ],
                "Distance": 201.28,
                "Frequency": 5.9,
                "RSSI": -81.58,
                "LOS": "False"
            }
        },
        {
            "type": "Feature",
            "geometry": {
                "type": "Point",
                "coordinates": [
                    14.42758577,
                    51.1809315
                ]
            },
            "properties": {
                "RSU coordinates": [
                    14.4303656,
                    51.1809315
                ],
                "Distance": 193.99,
                "Frequency": 5.9,
                "RSSI": -66.27,
                "LOS": "True"
            }
        },
        {
            "type": "Feature",
            "geometry": {
                "type": "Point",
                "coordinates": [
                    14.42768505,
                    51.18103929
                ]
            },
            "properties": {
                "RSU coordinates": [
                    14.4303656,
                    51.1809315
                ],
                "Distance": 187.45,
                "Frequency": 5.9,
                "RSSI": -65.97,
                "LOS": "True"
            }
        },
        {
            "type": "Feature",
            "geometry": {
                "type": "Point",
                "coordinates": [
                    14.42768506,
                    51.18082371
                ]
            },
            "properties": {
                "RSU coordinates": [
                    14.4303656,
                    51.1809315
                ],
                "Distance": 187.45,
                "Frequency": 5.9,
                "RSSI": -80.97,
                "LOS": "False"
            }
        },
        {
            "type": "Feature",
            "geometry": {
                "type": "Point",
                "coordinates": [
                    14.42778433,
                    51.1809315
                ]
            },
            "properties": {
                "RSU coordinates": [
                    14.4303656,
                    51.1809315
                ],
                "Distance": 180.13,
                "Frequency": 5.9,
                "RSSI": -65.63,
                "LOS": "True"
            }
        },
        {
            "type": "Feature",
            "geometry": {
                "type": "Point",
                "coordinates": [
                    14.42788361,
                    51.18103929
                ]
            },
            "properties": {
                "RSU coordinates": [
                    14.4303656,
                    51.1809315
                ],
                "Distance": 173.62,
                "Frequency": 5.9,
                "RSSI": -65.32,
                "LOS": "True"
            }
        },
        {
            "type": "Feature",
            "geometry": {
                "type": "Point",
                "coordinates": [
                    14.42788362,
                    51.18082371
                ]
            },
            "properties": {
                "RSU coordinates": [
                    14.4303656,
                    51.1809315
                ],
                "Distance": 173.62,
                "Frequency": 5.9,
                "RSSI": -80.32,
                "LOS": "False"
            }
        },
        {
            "type": "Feature",
            "geometry": {
                "type": "Point",
                "coordinates": [
                    14.42798289,
                    51.1809315
                ]
            },
            "properties": {
                "RSU coordinates": [
                    14.4303656,
                    51.1809315
                ],
                "Distance": 166.28,
                "Frequency": 5.9,
                "RSSI": -64.94,
                "LOS": "True"
            }
        },
        {
            "type": "Feature",
            "geometry": {
                "type": "Point",
                "coordinates": [
                    14.42808217,
                    51.18103929
                ]
            },
            "properties": {
                "RSU coordinates": [
                    14.4303656,
                    51.1809315
                ],
                "Distance": 159.8,
                "Frequency": 5.9,
                "RSSI": -64.6,
                "LOS": "True"
            }
        },
        {
            "type": "Feature",
            "geometry": {
                "type": "Point",
                "coordinates": [
                    14.42808218,
                    51.18082371
                ]
            },
            "properties": {
                "RSU coordinates": [
                    14.4303656,
                    51.1809315
                ],
                "Distance": 159.8,
                "Frequency": 5.9,
                "RSSI": -94.6,
                "LOS": "False"
            }
        },
        {
            "type": "Feature",
            "geometry": {
                "type": "Point",
                "coordinates": [
                    14.42818145,
                    51.1809315
                ]
            },
            "properties": {
                "RSU coordinates": [
                    14.4303656,
                    51.1809315
                ],
                "Distance": 152.42,
                "Frequency": 5.9,
                "RSSI": -64.2,
                "LOS": "True"
            }
        },
        {
            "type": "Feature",
            "geometry": {
                "type": "Point",
                "coordinates": [
                    14.42828073,
                    51.18103929
                ]
            },
            "properties": {
                "RSU coordinates": [
                    14.4303656,
                    51.1809315
                ],
                "Distance": 145.99,
                "Frequency": 5.9,
                "RSSI": -63.83,
                "LOS": "True"
            }
        },
        {
            "type": "Feature",
            "geometry": {
                "type": "Point",
                "coordinates": [
                    14.42828074,
                    51.18082371
                ]
            },
            "properties": {
                "RSU coordinates": [
                    14.4303656,
                    51.1809315
                ],
                "Distance": 145.99,
                "Frequency": 5.9,
                "RSSI": -93.83,
                "LOS": "False"
            }
        },
        {
            "type": "Feature",
            "geometry": {
                "type": "Point",
                "coordinates": [
                    14.42838001,
                    51.1809315
                ]
            },
            "properties": {
                "RSU coordinates": [
                    14.4303656,
                    51.1809315
                ],
                "Distance": 138.56,
                "Frequency": 5.9,
                "RSSI": -63.38,
                "LOS": "True"
            }
        },
        {
            "type": "Feature",
            "geometry": {
                "type": "Point",
                "coordinates": [
                    14.42847929,
                    51.18103929
                ]
            },
            "properties": {
                "RSU coordinates": [
                    14.4303656,
                    51.1809315
                ],
                "Distance": 132.18,
                "Frequency": 5.9,
                "RSSI": -62.98,
                "LOS": "True"
            }
        },
        {
            "type": "Feature",
            "geometry": {
                "type": "Point",
                "coordinates": [
                    14.42847929,
                    51.18082371
                ]
            },
            "properties": {
                "RSU coordinates": [
                    14.4303656,
                    51.1809315
                ],
                "Distance": 132.18,
                "Frequency": 5.9,
                "RSSI": -92.97999999999999,
                "LOS": "False"
            }
        },
        {
            "type": "Feature",
            "geometry": {
                "type": "Point",
                "coordinates": [
                    14.42857857,
                    51.1809315
                ]
            },
            "properties": {
                "RSU coordinates": [
                    14.4303656,
                    51.1809315
                ],
                "Distance": 124.71,
                "Frequency": 5.9,
                "RSSI": -62.48,
                "LOS": "True"
            }
        },
        {
            "type": "Feature",
            "geometry": {
                "type": "Point",
                "coordinates": [
                    14.42867784,
                    51.18103929
                ]
            },
            "properties": {
                "RSU coordinates": [
                    14.4303656,
                    51.1809315
                ],
                "Distance": 118.39,
                "Frequency": 5.9,
                "RSSI": -62.03,
                "LOS": "True"
            }
        },
        {
            "type": "Feature",
            "geometry": {
                "type": "Point",
                "coordinates": [
                    14.42857858,
                    51.18071591
                ]
            },
            "properties": {
                "RSU coordinates": [
                    14.4303656,
                    51.1809315
                ],
                "Distance": 127.0,
                "Frequency": 5.9,
                "RSSI": -92.63,
                "LOS": "False"
            }
        },
        {
            "type": "Feature",
            "geometry": {
                "type": "Point",
                "coordinates": [
                    14.42867785,
                    51.18082371
                ]
            },
            "properties": {
                "RSU coordinates": [
                    14.4303656,
                    51.1809315
                ],
                "Distance": 118.39,
                "Frequency": 5.9,
                "RSSI": -92.03,
                "LOS": "False"
            }
        },
        {
            "type": "Feature",
            "geometry": {
                "type": "Point",
                "coordinates": [
                    14.42877713,
                    51.1809315
                ]
            },
            "properties": {
                "RSU coordinates": [
                    14.4303656,
                    51.1809315
                ],
                "Distance": 110.85,
                "Frequency": 5.9,
                "RSSI": -61.47,
                "LOS": "True"
            }
        },
        {
            "type": "Feature",
            "geometry": {
                "type": "Point",
                "coordinates": [
                    14.4288764,
                    51.18103929
                ]
            },
            "properties": {
                "RSU coordinates": [
                    14.4303656,
                    51.1809315
                ],
                "Distance": 104.61,
                "Frequency": 5.9,
                "RSSI": -60.97,
                "LOS": "True"
            }
        },
        {
            "type": "Feature",
            "geometry": {
                "type": "Point",
                "coordinates": [
                    14.42877714,
                    51.18071591
                ]
            },
            "properties": {
                "RSU coordinates": [
                    14.4303656,
                    51.1809315
                ],
                "Distance": 113.42,
                "Frequency": 5.9,
                "RSSI": -91.66,
                "LOS": "False"
            }
        },
        {
            "type": "Feature",
            "geometry": {
                "type": "Point",
                "coordinates": [
                    14.42897569,
                    51.1809315
                ]
            },
            "properties": {
                "RSU coordinates": [
                    14.4303656,
                    51.1809315
                ],
                "Distance": 96.99,
                "Frequency": 5.9,
                "RSSI": -60.32,
                "LOS": "True"
            }
        },
        {
            "type": "Feature",
            "geometry": {
                "type": "Point",
                "coordinates": [
                    14.42907496,
                    51.18103929
                ]
            },
            "properties": {
                "RSU coordinates": [
                    14.4303656,
                    51.1809315
                ],
                "Distance": 90.86,
                "Frequency": 5.9,
                "RSSI": -59.76,
                "LOS": "True"
            }
        },
        {
            "type": "Feature",
            "geometry": {
                "type": "Point",
                "coordinates": [
                    14.42897569,
                    51.18071591
                ]
            },
            "properties": {
                "RSU coordinates": [
                    14.4303656,
                    51.1809315
                ],
                "Distance": 99.92,
                "Frequency": 5.9,
                "RSSI": -90.58,
                "LOS": "False"
            }
        },
        {
            "type": "Feature",
            "geometry": {
                "type": "Point",
                "coordinates": [
                    14.42917425,
                    51.1809315
                ]
            },
            "properties": {
                "RSU coordinates": [
                    14.4303656,
                    51.1809315
                ],
                "Distance": 83.14,
                "Frequency": 5.9,
                "RSSI": -59.0,
                "LOS": "True"
            }
        },
        {
            "type": "Feature",
            "geometry": {
                "type": "Point",
                "coordinates": [
                    14.42927352,
                    51.18103929
                ]
            },
            "properties": {
                "RSU coordinates": [
                    14.4303656,
                    51.1809315
                ],
                "Distance": 77.15,
                "Frequency": 5.9,
                "RSSI": -58.36,
                "LOS": "True"
            }
        },
        {
            "type": "Feature",
            "geometry": {
                "type": "Point",
                "coordinates": [
                    14.42917425,
                    51.18071591
                ]
            },
            "properties": {
                "RSU coordinates": [
                    14.4303656,
                    51.1809315
                ],
                "Distance": 86.53,
                "Frequency": 5.9,
                "RSSI": -89.34,
                "LOS": "False"
            }
        },
        {
            "type": "Feature",
            "geometry": {
                "type": "Point",
                "coordinates": [
                    14.42937281,
                    51.1809315
                ]
            },
            "properties": {
                "RSU coordinates": [
                    14.4303656,
                    51.1809315
                ],
                "Distance": 69.28,
                "Frequency": 5.9,
                "RSSI": -57.44,
                "LOS": "True"
            }
        },
        {
            "type": "Feature",
            "geometry": {
                "type": "Point",
                "coordinates": [
                    14.42947208,
                    51.18103929
                ]
            },
            "properties": {
                "RSU coordinates": [
                    14.4303656,
                    51.1809315
                ],
                "Distance": 63.5,
                "Frequency": 5.9,
                "RSSI": -56.69,
                "LOS": "True"
            }
        },
        {
            "type": "Feature",
            "geometry": {
                "type": "Point",
                "coordinates": [
                    14.42937281,
                    51.18071591
                ]
            },
            "properties": {
                "RSU coordinates": [
                    14.4303656,
                    51.1809315
                ],
                "Distance": 73.32,
                "Frequency": 5.9,
                "RSSI": -72.92,
                "LOS": "False"
            }
        },
        {
            "type": "Feature",
            "geometry": {
                "type": "Point",
                "coordinates": [
                    14.42947209,
                    51.18082371
                ]
            },
            "properties": {
                "RSU coordinates": [
                    14.4303656,
                    51.1809315
                ],
                "Distance": 63.5,
                "Frequency": 5.9,
                "RSSI": -71.69,
                "LOS": "False"
            }
        },
        {
            "type": "Feature",
            "geometry": {
                "type": "Point",
                "coordinates": [
                    14.42957136,
                    51.1809315
                ]
            },
            "properties": {
                "RSU coordinates": [
                    14.4303656,
                    51.1809315
                ],
                "Distance": 55.43,
                "Frequency": 5.9,
                "RSSI": -55.52,
                "LOS": "True"
            }
        },
        {
            "type": "Feature",
            "geometry": {
                "type": "Point",
                "coordinates": [
                    14.42967064,
                    51.18103929
                ]
            },
            "properties": {
                "RSU coordinates": [
                    14.4303656,
                    51.1809315
                ],
                "Distance": 49.96,
                "Frequency": 5.9,
                "RSSI": -54.63,
                "LOS": "True"
            }
        },
        {
            "type": "Feature",
            "geometry": {
                "type": "Point",
                "coordinates": [
                    14.4298692,
                    51.18125488
                ]
            },
            "properties": {
                "RSU coordinates": [
                    14.4303656,
                    51.1809315
                ],
                "Distance": 49.96,
                "Frequency": 5.9,
                "RSSI": -99.63,
                "LOS": "False"
            }
        },
        {
            "type": "Feature",
            "geometry": {
                "type": "Point",
                "coordinates": [
                    14.42957137,
                    51.18071591
                ]
            },
            "properties": {
                "RSU coordinates": [
                    14.4303656,
                    51.1809315
                ],
                "Distance": 60.4,
                "Frequency": 5.9,
                "RSSI": -71.25999999999999,
                "LOS": "False"
            }
        },
        {
            "type": "Feature",
            "geometry": {
                "type": "Point",
                "coordinates": [
                    14.42976992,
                    51.1809315
                ]
            },
            "properties": {
                "RSU coordinates": [
                    14.4303656,
                    51.1809315
                ],
                "Distance": 41.57,
                "Frequency": 5.9,
                "RSSI": -53.06,
                "LOS": "True"
            }
        },
        {
            "type": "Feature",
            "geometry": {
                "type": "Point",
                "coordinates": [
                    14.4298692,
                    51.18103929
                ]
            },
            "properties": {
                "RSU coordinates": [
                    14.4303656,
                    51.1809315
                ],
                "Distance": 36.66,
                "Frequency": 5.9,
                "RSSI": -51.98,
                "LOS": "True"
            }
        },
        {
            "type": "Feature",
            "geometry": {
                "type": "Point",
                "coordinates": [
                    14.43046488,
                    51.18168606
                ]
            },
            "properties": {
                "RSU coordinates": [
                    14.4303656,
                    51.1809315
                ],
                "Distance": 84.29,
                "Frequency": 5.9,
                "RSSI": -89.12,
                "LOS": "False"
            }
        },
        {
            "type": "Feature",
            "geometry": {
                "type": "Point",
                "coordinates": [
                    14.42937282,
                    51.18028474
                ]
            },
            "properties": {
                "RSU coordinates": [
                    14.4303656,
                    51.1809315
                ],
                "Distance": 99.92,
                "Frequency": 5.9,
                "RSSI": -90.58,
                "LOS": "False"
            }
        },
        {
            "type": "Feature",
            "geometry": {
                "type": "Point",
                "coordinates": [
                    14.42957137,
                    51.18050033
                ]
            },
            "properties": {
                "RSU coordinates": [
                    14.4303656,
                    51.1809315
                ],
                "Distance": 73.32,
                "Frequency": 5.9,
                "RSSI": -72.92,
                "LOS": "False"
            }
        },
        {
            "type": "Feature",
            "geometry": {
                "type": "Point",
                "coordinates": [
                    14.42967065,
                    51.18060812
                ]
            },
            "properties": {
                "RSU coordinates": [
                    14.4303656,
                    51.1809315
                ],
                "Distance": 60.4,
                "Frequency": 5.9,
                "RSSI": -71.25999999999999,
                "LOS": "False"
            }
        },
        {
            "type": "Feature",
            "geometry": {
                "type": "Point",
                "coordinates": [
                    14.42976993,
                    51.18071591
                ]
            },
            "properties": {
                "RSU coordinates": [
                    14.4303656,
                    51.1809315
                ],
                "Distance": 48.0,
                "Frequency": 5.9,
                "RSSI": -69.28999999999999,
                "LOS": "False"
            }
        },
        {
            "type": "Feature",
            "geometry": {
                "type": "Point",
                "coordinates": [
                    14.42996848,
                    51.1809315
                ]
            },
            "properties": {
                "RSU coordinates": [
                    14.4303656,
                    51.1809315
                ],
                "Distance": 27.71,
                "Frequency": 5.9,
                "RSSI": -49.58,
                "LOS": "True"
            }
        },
        {
            "type": "Feature",
            "geometry": {
                "type": "Point",
                "coordinates": [
                    14.43006776,
                    51.18103929
                ]
            },
            "properties": {
                "RSU coordinates": [
                    14.4303656,
                    51.1809315
                ],
                "Distance": 24.0,
                "Frequency": 5.9,
                "RSSI": -48.34,
                "LOS": "True"
            }
        },
        {
            "type": "Feature",
            "geometry": {
                "type": "Point",
                "coordinates": [
                    14.4294721,
                    51.18017694
                ]
            },
            "properties": {
                "RSU coordinates": [
                    14.4303656,
                    51.1809315
                ],
                "Distance": 104.61,
                "Frequency": 5.9,
                "RSSI": -90.97,
                "LOS": "False"
            }
        },
        {
            "type": "Feature",
            "geometry": {
                "type": "Point",
                "coordinates": [
                    14.42957138,
                    51.18028474
                ]
            },
            "properties": {
                "RSU coordinates": [
                    14.4303656,
                    51.1809315
                ],
                "Distance": 90.86,
                "Frequency": 5.9,
                "RSSI": -74.75999999999999,
                "LOS": "False"
            }
        },
        {
            "type": "Feature",
            "geometry": {
                "type": "Point",
                "coordinates": [
                    14.42967065,
                    51.18039253
                ]
            },
            "properties": {
                "RSU coordinates": [
                    14.4303656,
                    51.1809315
                ],
                "Distance": 77.15,
                "Frequency": 5.9,
                "RSSI": -73.36,
                "LOS": "False"
            }
        },
        {
            "type": "Feature",
            "geometry": {
                "type": "Point",
                "coordinates": [
                    14.42976993,
                    51.18050033
                ]
            },
            "properties": {
                "RSU coordinates": [
                    14.4303656,
                    51.1809315
                ],
                "Distance": 63.5,
                "Frequency": 5.9,
                "RSSI": -71.69,
                "LOS": "False"
            }
        },
        {
            "type": "Feature",
            "geometry": {
                "type": "Point",
                "coordinates": [
                    14.42986921,
                    51.18060812
                ]
            },
            "properties": {
                "RSU coordinates": [
                    14.4303656,
                    51.1809315
                ],
                "Distance": 49.96,
                "Frequency": 5.9,
                "RSSI": -69.63,
                "LOS": "False"
            }
        },
        {
            "type": "Feature",
            "geometry": {
                "type": "Point",
                "coordinates": [
                    14.42996848,
                    51.18071591
                ]
            },
            "properties": {
                "RSU coordinates": [
                    14.4303656,
                    51.1809315
                ],
                "Distance": 36.66,
                "Frequency": 5.9,
                "RSSI": -66.97999999999999,
                "LOS": "False"
            }
        },
        {
            "type": "Feature",
            "geometry": {
                "type": "Point",
                "coordinates": [
                    14.43016704,
                    51.1809315
                ]
            },
            "properties": {
                "RSU coordinates": [
                    14.4303656,
                    51.1809315
                ],
                "Distance": 13.86,
                "Frequency": 5.9,
                "RSSI": -43.63,
                "LOS": "True"
            }
        },
        {
            "type": "Feature",
            "geometry": {
                "type": "Point",
                "coordinates": [
                    14.43026632,
                    51.18103929
                ]
            },
            "properties": {
                "RSU coordinates": [
                    14.4303656,
                    51.1809315
                ],
                "Distance": 13.86,
                "Frequency": 5.9,
                "RSSI": -43.63,
                "LOS": "True"
            }
        },
        {
            "type": "Feature",
            "geometry": {
                "type": "Point",
                "coordinates": [
                    14.43046488,
                    51.18125488
                ]
            },
            "properties": {
                "RSU coordinates": [
                    14.4303656,
                    51.1809315
                ],
                "Distance": 36.66,
                "Frequency": 5.9,
                "RSSI": -66.97999999999999,
                "LOS": "False"
            }
        },
        {
            "type": "Feature",
            "geometry": {
                "type": "Point",
                "coordinates": [
                    14.43056416,
                    51.18136267
                ]
            },
            "properties": {
                "RSU coordinates": [
                    14.4303656,
                    51.1809315
                ],
                "Distance": 49.96,
                "Frequency": 5.9,
                "RSSI": -99.63,
                "LOS": "False"
            }
        },
        {
            "type": "Feature",
            "geometry": {
                "type": "Point",
                "coordinates": [
                    14.42976993,
                    51.18028474
                ]
            },
            "properties": {
                "RSU coordinates": [
                    14.4303656,
                    51.1809315
                ],
                "Distance": 83.14,
                "Frequency": 5.9,
                "RSSI": -89.0,
                "LOS": "False"
            }
        },
        {
            "type": "Feature",
            "geometry": {
                "type": "Point",
                "coordinates": [
                    14.42986921,
                    51.18039253
                ]
            },
            "properties": {
                "RSU coordinates": [
                    14.4303656,
                    51.1809315
                ],
                "Distance": 69.28,
                "Frequency": 5.9,
                "RSSI": -87.44,
                "LOS": "False"
            }
        },
        {
            "type": "Feature",
            "geometry": {
                "type": "Point",
                "coordinates": [
                    14.42996849,
                    51.18050033
                ]
            },
            "properties": {
                "RSU coordinates": [
                    14.4303656,
                    51.1809315
                ],
                "Distance": 55.43,
                "Frequency": 5.9,
                "RSSI": -70.52000000000001,
                "LOS": "False"
            }
        },
        {
            "type": "Feature",
            "geometry": {
                "type": "Point",
                "coordinates": [
                    14.43006776,
                    51.18060812
                ]
            },
            "properties": {
                "RSU coordinates": [
                    14.4303656,
                    51.1809315
                ],
                "Distance": 41.57,
                "Frequency": 5.9,
                "RSSI": -68.06,
                "LOS": "False"
            }
        },
        {
            "type": "Feature",
            "geometry": {
                "type": "Point",
                "coordinates": [
                    14.43026632,
                    51.18082371
                ]
            },
            "properties": {
                "RSU coordinates": [
                    14.4303656,
                    51.1809315
                ],
                "Distance": 13.86,
                "Frequency": 5.9,
                "RSSI": -43.63,
                "LOS": "True"
            }
        },
        {
            "type": "Feature",
            "geometry": {
                "type": "Point",
                "coordinates": [
                    14.43066344,
                    51.18125488
                ]
            },
            "properties": {
                "RSU coordinates": [
                    14.4303656,
                    51.1809315
                ],
                "Distance": 41.57,
                "Frequency": 5.9,
                "RSSI": -83.06,
                "LOS": "False"
            }
        },
        {
            "type": "Feature",
            "geometry": {
                "type": "Point",
                "coordinates": [
                    14.43076272,
                    51.18136267
                ]
            },
            "properties": {
                "RSU coordinates": [
                    14.4303656,
                    51.1809315
                ],
                "Distance": 55.43,
                "Frequency": 5.9,
                "RSSI": -85.52000000000001,
                "LOS": "False"
            }
        },
        {
            "type": "Feature",
            "geometry": {
                "type": "Point",
                "coordinates": [
                    14.42986921,
                    51.18017694
                ]
            },
            "properties": {
                "RSU coordinates": [
                    14.4303656,
                    51.1809315
                ],
                "Distance": 90.86,
                "Frequency": 5.9,
                "RSSI": -89.75999999999999,
                "LOS": "False"
            }
        },
        {
            "type": "Feature",
            "geometry": {
                "type": "Point",
                "coordinates": [
                    14.42996849,
                    51.18028474
                ]
            },
            "properties": {
                "RSU coordinates": [
                    14.4303656,
                    51.1809315
                ],
                "Distance": 77.15,
                "Frequency": 5.9,
                "RSSI": -88.36,
                "LOS": "False"
            }
        },
        {
            "type": "Feature",
            "geometry": {
                "type": "Point",
                "coordinates": [
                    14.43006776,
                    51.18039253
                ]
            },
            "properties": {
                "RSU coordinates": [
                    14.4303656,
                    51.1809315
                ],
                "Distance": 63.5,
                "Frequency": 5.9,
                "RSSI": -86.69,
                "LOS": "False"
            }
        },
        {
            "type": "Feature",
            "geometry": {
                "type": "Point",
                "coordinates": [
                    14.43016704,
                    51.18050033
                ]
            },
            "properties": {
                "RSU coordinates": [
                    14.4303656,
                    51.1809315
                ],
                "Distance": 49.96,
                "Frequency": 5.9,
                "RSSI": -69.63,
                "LOS": "False"
            }
        },
        {
            "type": "Feature",
            "geometry": {
                "type": "Point",
                "coordinates": [
                    14.43026632,
                    51.18060812
                ]
            },
            "properties": {
                "RSU coordinates": [
                    14.4303656,
                    51.1809315
                ],
                "Distance": 36.66,
                "Frequency": 5.9,
                "RSSI": -51.98,
                "LOS": "True"
            }
        },
        {
            "type": "Feature",
            "geometry": {
                "type": "Point",
                "coordinates": [
                    14.4303656,
                    51.18071591
                ]
            },
            "properties": {
                "RSU coordinates": [
                    14.4303656,
                    51.1809315
                ],
                "Distance": 24.0,
                "Frequency": 5.9,
                "RSSI": -48.34,
                "LOS": "True"
            }
        },
        {
            "type": "Feature",
            "geometry": {
                "type": "Point",
                "coordinates": [
                    14.43056416,
                    51.1809315
                ]
            },
            "properties": {
                "RSU coordinates": [
                    14.4303656,
                    51.1809315
                ],
                "Distance": 13.86,
                "Frequency": 5.9,
                "RSSI": -43.63,
                "LOS": "True"
            }
        },
        {
            "type": "Feature",
            "geometry": {
                "type": "Point",
                "coordinates": [
                    14.43066344,
                    51.18103929
                ]
            },
            "properties": {
                "RSU coordinates": [
                    14.4303656,
                    51.1809315
                ],
                "Distance": 24.0,
                "Frequency": 5.9,
                "RSSI": -48.34,
                "LOS": "True"
            }
        },
        {
            "type": "Feature",
            "geometry": {
                "type": "Point",
                "coordinates": [
                    14.43076272,
                    51.18114709
                ]
            },
            "properties": {
                "RSU coordinates": [
                    14.4303656,
                    51.1809315
                ],
                "Distance": 36.66,
                "Frequency": 5.9,
                "RSSI": -66.97999999999999,
                "LOS": "False"
            }
        },
        {
            "type": "Feature",
            "geometry": {
                "type": "Point",
                "coordinates": [
                    14.43096128,
                    51.18136267
                ]
            },
            "properties": {
                "RSU coordinates": [
                    14.4303656,
                    51.1809315
                ],
                "Distance": 63.5,
                "Frequency": 5.9,
                "RSSI": -86.69,
                "LOS": "False"
            }
        },
        {
            "type": "Feature",
            "geometry": {
                "type": "Point",
                "coordinates": [
                    14.43006777,
                    51.18017694
                ]
            },
            "properties": {
                "RSU coordinates": [
                    14.4303656,
                    51.1809315
                ],
                "Distance": 86.53,
                "Frequency": 5.9,
                "RSSI": -74.34,
                "LOS": "False"
            }
        },
        {
            "type": "Feature",
            "geometry": {
                "type": "Point",
                "coordinates": [
                    14.43016704,
                    51.18028474
                ]
            },
            "properties": {
                "RSU coordinates": [
                    14.4303656,
                    51.1809315
                ],
                "Distance": 73.32,
                "Frequency": 5.9,
                "RSSI": -72.92,
                "LOS": "False"
            }
        },
        {
            "type": "Feature",
            "geometry": {
                "type": "Point",
                "coordinates": [
                    14.43026632,
                    51.18039253
                ]
            },
            "properties": {
                "RSU coordinates": [
                    14.4303656,
                    51.1809315
                ],
                "Distance": 60.4,
                "Frequency": 5.9,
                "RSSI": -56.26,
                "LOS": "True"
            }
        },
        {
            "type": "Feature",
            "geometry": {
                "type": "Point",
                "coordinates": [
                    14.4303656,
                    51.18050033
                ]
            },
            "properties": {
                "RSU coordinates": [
                    14.4303656,
                    51.1809315
                ],
                "Distance": 48.0,
                "Frequency": 5.9,
                "RSSI": -54.29,
                "LOS": "True"
            }
        },
        {
            "type": "Feature",
            "geometry": {
                "type": "Point",
                "coordinates": [
                    14.43046488,
                    51.18060812
                ]
            },
            "properties": {
                "RSU coordinates": [
                    14.4303656,
                    51.1809315
                ],
                "Distance": 36.66,
                "Frequency": 5.9,
                "RSSI": -51.98,
                "LOS": "True"
            }
        },
        {
            "type": "Feature",
            "geometry": {
                "type": "Point",
                "coordinates": [
                    14.43076272,
                    51.1809315
                ]
            },
            "properties": {
                "RSU coordinates": [
                    14.4303656,
                    51.1809315
                ],
                "Distance": 27.71,
                "Frequency": 5.9,
                "RSSI": -49.58,
                "LOS": "True"
            }
        },
        {
            "type": "Feature",
            "geometry": {
                "type": "Point",
                "coordinates": [
                    14.430862,
                    51.18103929
                ]
            },
            "properties": {
                "RSU coordinates": [
                    14.4303656,
                    51.1809315
                ],
                "Distance": 36.66,
                "Frequency": 5.9,
                "RSSI": -51.98,
                "LOS": "True"
            }
        },
        {
            "type": "Feature",
            "geometry": {
                "type": "Point",
                "coordinates": [
                    14.43096128,
                    51.18114709
                ]
            },
            "properties": {
                "RSU coordinates": [
                    14.4303656,
                    51.1809315
                ],
                "Distance": 48.0,
                "Frequency": 5.9,
                "RSSI": -54.29,
                "LOS": "True"
            }
        },
        {
            "type": "Feature",
            "geometry": {
                "type": "Point",
                "coordinates": [
                    14.43106056,
                    51.18125488
                ]
            },
            "properties": {
                "RSU coordinates": [
                    14.4303656,
                    51.1809315
                ],
                "Distance": 60.4,
                "Frequency": 5.9,
                "RSSI": -86.25999999999999,
                "LOS": "False"
            }
        },
        {
            "type": "Feature",
            "geometry": {
                "type": "Point",
                "coordinates": [
                    14.43026632,
                    51.18017694
                ]
            },
            "properties": {
                "RSU coordinates": [
                    14.4303656,
                    51.1809315
                ],
                "Distance": 84.29,
                "Frequency": 5.9,
                "RSSI": -59.12,
                "LOS": "True"
            }
        },
        {
            "type": "Feature",
            "geometry": {
                "type": "Point",
                "coordinates": [
                    14.4303656,
                    51.18028474
                ]
            },
            "properties": {
                "RSU coordinates": [
                    14.4303656,
                    51.1809315
                ],
                "Distance": 72.0,
                "Frequency": 5.9,
                "RSSI": -57.77,
                "LOS": "True"
            }
        },
        {
            "type": "Feature",
            "geometry": {
                "type": "Point",
                "coordinates": [
                    14.43096128,
                    51.1809315
                ]
            },
            "properties": {
                "RSU coordinates": [
                    14.4303656,
                    51.1809315
                ],
                "Distance": 41.57,
                "Frequency": 5.9,
                "RSSI": -53.06,
                "LOS": "True"
            }
        },
        {
            "type": "Feature",
            "geometry": {
                "type": "Point",
                "coordinates": [
                    14.43106056,
                    51.18103929
                ]
            },
            "properties": {
                "RSU coordinates": [
                    14.4303656,
                    51.1809315
                ],
                "Distance": 49.96,
                "Frequency": 5.9,
                "RSSI": -54.63,
                "LOS": "True"
            }
        },
        {
            "type": "Feature",
            "geometry": {
                "type": "Point",
                "coordinates": [
                    14.43016705,
                    51.17985356
                ]
            },
            "properties": {
                "RSU coordinates": [
                    14.4303656,
                    51.1809315
                ],
                "Distance": 120.8,
                "Frequency": 5.9,
                "RSSI": -62.2,
                "LOS": "True"
            }
        },
        {
            "type": "Feature",
            "geometry": {
                "type": "Point",
                "coordinates": [
                    14.43026632,
                    51.17996136
                ]
            },
            "properties": {
                "RSU coordinates": [
                    14.4303656,
                    51.1809315
                ],
                "Distance": 108.22,
                "Frequency": 5.9,
                "RSSI": -61.26,
                "LOS": "True"
            }
        },
        {
            "type": "Feature",
            "geometry": {
                "type": "Point",
                "coordinates": [
                    14.4303656,
                    51.18006915
                ]
            },
            "properties": {
                "RSU coordinates": [
                    14.4303656,
                    51.1809315
                ],
                "Distance": 96.0,
                "Frequency": 5.9,
                "RSSI": -60.23,
                "LOS": "True"
            }
        },
        {
            "type": "Feature",
            "geometry": {
                "type": "Point",
                "coordinates": [
                    14.43076271,
                    51.18050033
                ]
            },
            "properties": {
                "RSU coordinates": [
                    14.4303656,
                    51.1809315
                ],
                "Distance": 55.43,
                "Frequency": 5.9,
                "RSSI": -85.52000000000001,
                "LOS": "False"
            }
        },
        {
            "type": "Feature",
            "geometry": {
                "type": "Point",
                "coordinates": [
                    14.43115984,
                    51.1809315
                ]
            },
            "properties": {
                "RSU coordinates": [
                    14.4303656,
                    51.1809315
                ],
                "Distance": 55.43,
                "Frequency": 5.9,
                "RSSI": -55.52,
                "LOS": "True"
            }
        },
        {
            "type": "Feature",
            "geometry": {
                "type": "Point",
                "coordinates": [
                    14.43125912,
                    51.18103929
                ]
            },
            "properties": {
                "RSU coordinates": [
                    14.4303656,
                    51.1809315
                ],
                "Distance": 63.5,
                "Frequency": 5.9,
                "RSSI": -56.69,
                "LOS": "True"
            }
        },
        {
            "type": "Feature",
            "geometry": {
                "type": "Point",
                "coordinates": [
                    14.43016705,
                    51.17963798
                ]
            },
            "properties": {
                "RSU coordinates": [
                    14.4303656,
                    51.1809315
                ],
                "Distance": 144.67,
                "Frequency": 5.9,
                "RSSI": -63.75,
                "LOS": "True"
            }
        },
        {
            "type": "Feature",
            "geometry": {
                "type": "Point",
                "coordinates": [
                    14.43026632,
                    51.17974577
                ]
            },
            "properties": {
                "RSU coordinates": [
                    14.4303656,
                    51.1809315
                ],
                "Distance": 132.18,
                "Frequency": 5.9,
                "RSSI": -62.98,
                "LOS": "True"
            }
        },
        {
            "type": "Feature",
            "geometry": {
                "type": "Point",
                "coordinates": [
                    14.43135839,
                    51.1809315
                ]
            },
            "properties": {
                "RSU coordinates": [
                    14.4303656,
                    51.1809315
                ],
                "Distance": 69.28,
                "Frequency": 5.9,
                "RSSI": -57.44,
                "LOS": "True"
            }
        },
        {
            "type": "Feature",
            "geometry": {
                "type": "Point",
                "coordinates": [
                    14.43145768,
                    51.18103929
                ]
            },
            "properties": {
                "RSU coordinates": [
                    14.4303656,
                    51.1809315
                ],
                "Distance": 77.15,
                "Frequency": 5.9,
                "RSSI": -58.36,
                "LOS": "True"
            }
        },
        {
            "type": "Feature",
            "geometry": {
                "type": "Point",
                "coordinates": [
                    14.43155696,
                    51.18114709
                ]
            },
            "properties": {
                "RSU coordinates": [
                    14.4303656,
                    51.1809315
                ],
                "Distance": 86.53,
                "Frequency": 5.9,
                "RSSI": -89.34,
                "LOS": "False"
            }
        },
        {
            "type": "Feature",
            "geometry": {
                "type": "Point",
                "coordinates": [
                    14.43016705,
                    51.17942239
                ]
            },
            "properties": {
                "RSU coordinates": [
                    14.4303656,
                    51.1809315
                ],
                "Distance": 168.57,
                "Frequency": 5.9,
                "RSSI": -65.06,
                "LOS": "True"
            }
        },
        {
            "type": "Feature",
            "geometry": {
                "type": "Point",
                "coordinates": [
                    14.43026632,
                    51.17953018
                ]
            },
            "properties": {
                "RSU coordinates": [
                    14.4303656,
                    51.1809315
                ],
                "Distance": 156.15,
                "Frequency": 5.9,
                "RSSI": -64.41,
                "LOS": "True"
            }
        },
        {
            "type": "Feature",
            "geometry": {
                "type": "Point",
                "coordinates": [
                    14.43165624,
                    51.18103929
                ]
            },
            "properties": {
                "RSU coordinates": [
                    14.4303656,
                    51.1809315
                ],
                "Distance": 90.86,
                "Frequency": 5.9,
                "RSSI": -59.76,
                "LOS": "True"
            }
        },
        {
            "type": "Feature",
            "geometry": {
                "type": "Point",
                "coordinates": [
                    14.43006777,
                    51.17909901
                ]
            },
            "properties": {
                "RSU coordinates": [
                    14.4303656,
                    51.1809315
                ],
                "Distance": 205.06,
                "Frequency": 5.9,
                "RSSI": -81.74,
                "LOS": "False"
            }
        },
        {
            "type": "Feature",
            "geometry": {
                "type": "Point",
                "coordinates": [
                    14.43016705,
                    51.1792068
                ]
            },
            "properties": {
                "RSU coordinates": [
                    14.4303656,
                    51.1809315
                ],
                "Distance": 192.5,
                "Frequency": 5.9,
                "RSSI": -66.2,
                "LOS": "True"
            }
        },
        {
            "type": "Feature",
            "geometry": {
                "type": "Point",
                "coordinates": [
                    14.43026632,
                    51.1793146
                ]
            },
            "properties": {
                "RSU coordinates": [
                    14.4303656,
                    51.1809315
                ],
                "Distance": 180.13,
                "Frequency": 5.9,
                "RSSI": -65.63,
                "LOS": "True"
            }
        },
        {
            "type": "Feature",
            "geometry": {
                "type": "Point",
                "coordinates": [
                    14.4318548,
                    51.18103929
                ]
            },
            "properties": {
                "RSU coordinates": [
                    14.4303656,
                    51.1809315
                ],
                "Distance": 104.61,
                "Frequency": 5.9,
                "RSSI": -60.97,
                "LOS": "True"
            }
        },
        {
            "type": "Feature",
            "geometry": {
                "type": "Point",
                "coordinates": [
                    14.43006777,
                    51.17888342
                ]
            },
            "properties": {
                "RSU coordinates": [
                    14.4303656,
                    51.1809315
                ],
                "Distance": 228.95,
                "Frequency": 5.9,
                "RSSI": -67.69,
                "LOS": "True"
            }
        },
        {
            "type": "Feature",
            "geometry": {
                "type": "Point",
                "coordinates": [
                    14.43016705,
                    51.17899122
                ]
            },
            "properties": {
                "RSU coordinates": [
                    14.4303656,
                    51.1809315
                ],
                "Distance": 216.44,
                "Frequency": 5.9,
                "RSSI": -67.21,
                "LOS": "True"
            }
        },
        {
            "type": "Feature",
            "geometry": {
                "type": "Point",
                "coordinates": [
                    14.43205336,
                    51.18103929
                ]
            },
            "properties": {
                "RSU coordinates": [
                    14.4303656,
                    51.1809315
                ],
                "Distance": 118.39,
                "Frequency": 5.9,
                "RSSI": -62.03,
                "LOS": "True"
            }
        },
        {
            "type": "Feature",
            "geometry": {
                "type": "Point",
                "coordinates": [
                    14.4299685,
                    51.17856004
                ]
            },
            "properties": {
                "RSU coordinates": [
                    14.4303656,
                    51.1809315
                ],
                "Distance": 265.45,
                "Frequency": 5.9,
                "RSSI": -83.96,
                "LOS": "False"
            }
        },
        {
            "type": "Feature",
            "geometry": {
                "type": "Point",
                "coordinates": [
                    14.43225191,
                    51.18103929
                ]
            },
            "properties": {
                "RSU coordinates": [
                    14.4303656,
                    51.1809315
                ],
                "Distance": 132.18,
                "Frequency": 5.9,
                "RSSI": -62.98,
                "LOS": "True"
            }
        },
        {
            "type": "Feature",
            "geometry": {
                "type": "Point",
                "coordinates": [
                    14.43245047,
                    51.18103929
                ]
            },
            "properties": {
                "RSU coordinates": [
                    14.4303656,
                    51.1809315
                ],
                "Distance": 145.99,
                "Frequency": 5.9,
                "RSSI": -63.83,
                "LOS": "True"
            }
        },
        {
            "type": "Feature",
            "geometry": {
                "type": "Point",
                "coordinates": [
                    14.43254976,
                    51.18114709
                ]
            },
            "properties": {
                "RSU coordinates": [
                    14.4303656,
                    51.1809315
                ],
                "Distance": 154.3,
                "Frequency": 5.9,
                "RSSI": -64.3,
                "LOS": "True"
            }
        },
        {
            "type": "Feature",
            "geometry": {
                "type": "Point",
                "coordinates": [
                    14.43264903,
                    51.18103929
                ]
            },
            "properties": {
                "RSU coordinates": [
                    14.4303656,
                    51.1809315
                ],
                "Distance": 159.8,
                "Frequency": 5.9,
                "RSSI": -64.6,
                "LOS": "True"
            }
        },
        {
            "type": "Feature",
            "geometry": {
                "type": "Point",
                "coordinates": [
                    14.43274832,
                    51.18114709
                ]
            },
            "properties": {
                "RSU coordinates": [
                    14.4303656,
                    51.1809315
                ],
                "Distance": 168.0,
                "Frequency": 5.9,
                "RSSI": -65.03,
                "LOS": "True"
            }
        },
        {
            "type": "Feature",
            "geometry": {
                "type": "Point",
                "coordinates": [
                    14.43294688,
                    51.18114709
                ]
            },
            "properties": {
                "RSU coordinates": [
                    14.4303656,
                    51.1809315
                ],
                "Distance": 181.73,
                "Frequency": 5.9,
                "RSSI": -65.71,
                "LOS": "True"
            }
        },
        {
            "type": "Feature",
            "geometry": {
                "type": "Point",
                "coordinates": [
                    14.43304615,
                    51.18103929
                ]
            },
            "properties": {
                "RSU coordinates": [
                    14.4303656,
                    51.1809315
                ],
                "Distance": 187.45,
                "Frequency": 5.9,
                "RSSI": -95.97,
                "LOS": "False"
            }
        },
        {
            "type": "Feature",
            "geometry": {
                "type": "Point",
                "coordinates": [
                    14.43314544,
                    51.18114709
                ]
            },
            "properties": {
                "RSU coordinates": [
                    14.4303656,
                    51.1809315
                ],
                "Distance": 195.47,
                "Frequency": 5.9,
                "RSSI": -66.33,
                "LOS": "True"
            }
        },
        {
            "type": "Feature",
            "geometry": {
                "type": "Point",
                "coordinates": [
                    14.43324471,
                    51.18103929
                ]
            },
            "properties": {
                "RSU coordinates": [
                    14.4303656,
                    51.1809315
                ],
                "Distance": 201.28,
                "Frequency": 5.9,
                "RSSI": -96.58,
                "LOS": "False"
            }
        },
        {
            "type": "Feature",
            "geometry": {
                "type": "Point",
                "coordinates": [
                    14.433344,
                    51.18114709
                ]
            },
            "properties": {
                "RSU coordinates": [
                    14.4303656,
                    51.1809315
                ],
                "Distance": 209.23,
                "Frequency": 5.9,
                "RSSI": -66.92,
                "LOS": "True"
            }
        },
        {
            "type": "Feature",
            "geometry": {
                "type": "Point",
                "coordinates": [
                    14.43344327,
                    51.18103929
                ]
            },
            "properties": {
                "RSU coordinates": [
                    14.4303656,
                    51.1809315
                ],
                "Distance": 215.11,
                "Frequency": 5.9,
                "RSSI": -97.15,
                "LOS": "False"
            }
        },
        {
            "type": "Feature",
            "geometry": {
                "type": "Point",
                "coordinates": [
                    14.43354256,
                    51.18114709
                ]
            },
            "properties": {
                "RSU coordinates": [
                    14.4303656,
                    51.1809315
                ],
                "Distance": 223.0,
                "Frequency": 5.9,
                "RSSI": -67.46,
                "LOS": "True"
            }
        },
        {
            "type": "Feature",
            "geometry": {
                "type": "Point",
                "coordinates": [
                    14.43364185,
                    51.18125488
                ]
            },
            "properties": {
                "RSU coordinates": [
                    14.4303656,
                    51.1809315
                ],
                "Distance": 231.45,
                "Frequency": 5.9,
                "RSSI": -67.78,
                "LOS": "True"
            }
        },
        {
            "type": "Feature",
            "geometry": {
                "type": "Point",
                "coordinates": [
                    14.43364183,
                    51.18103929
                ]
            },
            "properties": {
                "RSU coordinates": [
                    14.4303656,
                    51.1809315
                ],
                "Distance": 228.95,
                "Frequency": 5.9,
                "RSSI": -97.69,
                "LOS": "False"
            }
        },
        {
            "type": "Feature",
            "geometry": {
                "type": "Point",
                "coordinates": [
                    14.43384041,
                    51.18125488
                ]
            },
            "properties": {
                "RSU coordinates": [
                    14.4303656,
                    51.1809315
                ],
                "Distance": 245.14,
                "Frequency": 5.9,
                "RSSI": -68.27,
                "LOS": "True"
            }
        },
        {
            "type": "Feature",
            "geometry": {
                "type": "Point",
                "coordinates": [
                    14.43473394,
                    51.18136267
                ]
            },
            "properties": {
                "RSU coordinates": [
                    14.4303656,
                    51.1809315
                ],
                "Distance": 308.6,
                "Frequency": 5.9,
                "RSSI": -70.25,
                "LOS": "True"
            }
        },
        {
            "type": "Feature",
            "geometry": {
                "type": "Point",
                "coordinates": [
                    14.43582604,
                    51.18147047
                ]
            },
            "properties": {
                "RSU coordinates": [
                    14.4303656,
                    51.1809315
                ],
                "Distance": 385.75,
                "Frequency": 5.9,
                "RSSI": -72.16,
                "LOS": "True"
            }
        }
    ]
}