{
    "type": "FeatureCollection",
    "features": [
        {
            "type": "Feature",
            "geometry": {
                "type": "Point",
                "coordinates": [
                    8.22162427,
                    50.02085261
                ]
            },
            "properties": {
                "RSU coordinates": [
                    8.2243364,
                    50.0210682
                ],
                "Distance": 195.47,
                "Frequency": 5.9,
                "RSSI": -96.33,
                "LOS": "False"
            }
        },
        {
            "type": "Feature",
            "geometry": {
                "type": "Point",
                "coordinates": [
                    8.22181799,
                    50.02085261
                ]
            },
            "properties": {
                "RSU coordinates": [
                    8.2243364,
                    50.0210682
                ],
                "Distance": 181.73,
                "Frequency": 5.9,
                "RSSI": -95.71,
                "LOS": "False"
            }
        },
        {
            "type": "Feature",
            "geometry": {
                "type": "Point",
                "coordinates": [
                    8.22152743,
                    50.02031364
                ]
            },
            "properties": {
                "RSU coordinates": [
                    8.2243364,
                    50.0210682
                ],
                "Distance": 217.77,
                "Frequency": 5.9,
                "RSSI": -97.26,
                "LOS": "False"
            }
        },
        {
            "type": "Feature",
            "geometry": {
                "type": "Point",
                "coordinates": [
                    8.22220544,
                    50.02085261
                ]
            },
            "properties": {
                "RSU coordinates": [
                    8.2243364,
                    50.0210682
                ],
                "Distance": 154.3,
                "Frequency": 5.9,
                "RSSI": -79.3,
                "LOS": "False"
            }
        },
        {
            "type": "Feature",
            "geometry": {
                "type": "Point",
                "coordinates": [
                    8.22201173,
                    50.02042144
                ]
            },
            "properties": {
                "RSU coordinates": [
                    8.2243364,
                    50.0210682
                ],
                "Distance": 181.2,
                "Frequency": 5.9,
                "RSSI": -95.68,
                "LOS": "False"
            }
        },
        {
            "type": "Feature",
            "geometry": {
                "type": "Point",
                "coordinates": [
                    8.22239916,
                    50.02085261
                ]
            },
            "properties": {
                "RSU coordinates": [
                    8.2243364,
                    50.0210682
                ],
                "Distance": 140.63,
                "Frequency": 5.9,
                "RSSI": -93.50999999999999,
                "LOS": "False"
            }
        },
        {
            "type": "Feature",
            "geometry": {
                "type": "Point",
                "coordinates": [
                    8.22356148,
                    50.02214614
                ]
            },
            "properties": {
                "RSU coordinates": [
                    8.2243364,
                    50.0210682
                ],
                "Distance": 132.18,
                "Frequency": 5.9,
                "RSSI": -92.97999999999999,
                "LOS": "False"
            }
        },
        {
            "type": "Feature",
            "geometry": {
                "type": "Point",
                "coordinates": [
                    8.22230231,
                    50.02052923
                ]
            },
            "properties": {
                "RSU coordinates": [
                    8.2243364,
                    50.0210682
                ],
                "Distance": 157.38,
                "Frequency": 5.9,
                "RSSI": -94.47,
                "LOS": "False"
            }
        },
        {
            "type": "Feature",
            "geometry": {
                "type": "Point",
                "coordinates": [
                    8.22365835,
                    50.02203834
                ]
            },
            "properties": {
                "RSU coordinates": [
                    8.2243364,
                    50.0210682
                ],
                "Distance": 118.39,
                "Frequency": 5.9,
                "RSSI": -77.03,
                "LOS": "False"
            }
        },
        {
            "type": "Feature",
            "geometry": {
                "type": "Point",
                "coordinates": [
                    8.22288347,
                    50.02096041
                ]
            },
            "properties": {
                "RSU coordinates": [
                    8.2243364,
                    50.0210682
                ],
                "Distance": 104.61,
                "Frequency": 5.9,
                "RSSI": -90.97,
                "LOS": "False"
            }
        },
        {
            "type": "Feature",
            "geometry": {
                "type": "Point",
                "coordinates": [
                    8.22298033,
                    50.0210682
                ]
            },
            "properties": {
                "RSU coordinates": [
                    8.2243364,
                    50.0210682
                ],
                "Distance": 96.99,
                "Frequency": 5.9,
                "RSSI": -90.32,
                "LOS": "False"
            }
        },
        {
            "type": "Feature",
            "geometry": {
                "type": "Point",
                "coordinates": [
                    8.22307719,
                    50.02117599
                ]
            },
            "properties": {
                "RSU coordinates": [
                    8.2243364,
                    50.0210682
                ],
                "Distance": 90.86,
                "Frequency": 5.9,
                "RSSI": -89.75999999999999,
                "LOS": "False"
            }
        },
        {
            "type": "Feature",
            "geometry": {
                "type": "Point",
                "coordinates": [
                    8.22317405,
                    50.02128379
                ]
            },
            "properties": {
                "RSU coordinates": [
                    8.2243364,
                    50.0210682
                ],
                "Distance": 86.53,
                "Frequency": 5.9,
                "RSSI": -89.34,
                "LOS": "False"
            }
        },
        {
            "type": "Feature",
            "geometry": {
                "type": "Point",
                "coordinates": [
                    8.22356149,
                    50.02171496
                ]
            },
            "properties": {
                "RSU coordinates": [
                    8.2243364,
                    50.0210682
                ],
                "Distance": 90.86,
                "Frequency": 5.9,
                "RSSI": -89.75999999999999,
                "LOS": "False"
            }
        },
        {
            "type": "Feature",
            "geometry": {
                "type": "Point",
                "coordinates": [
                    8.22278662,
                    50.02063703
                ]
            },
            "properties": {
                "RSU coordinates": [
                    8.2243364,
                    50.0210682
                ],
                "Distance": 120.8,
                "Frequency": 5.9,
                "RSSI": -92.2,
                "LOS": "False"
            }
        },
        {
            "type": "Feature",
            "geometry": {
                "type": "Point",
                "coordinates": [
                    8.22307719,
                    50.02096041
                ]
            },
            "properties": {
                "RSU coordinates": [
                    8.2243364,
                    50.0210682
                ],
                "Distance": 90.86,
                "Frequency": 5.9,
                "RSSI": -74.75999999999999,
                "LOS": "False"
            }
        },
        {
            "type": "Feature",
            "geometry": {
                "type": "Point",
                "coordinates": [
                    8.22317405,
                    50.0210682
                ]
            },
            "properties": {
                "RSU coordinates": [
                    8.2243364,
                    50.0210682
                ],
                "Distance": 83.14,
                "Frequency": 5.9,
                "RSSI": -74.0,
                "LOS": "False"
            }
        },
        {
            "type": "Feature",
            "geometry": {
                "type": "Point",
                "coordinates": [
                    8.22327091,
                    50.02117599
                ]
            },
            "properties": {
                "RSU coordinates": [
                    8.2243364,
                    50.0210682
                ],
                "Distance": 77.15,
                "Frequency": 5.9,
                "RSSI": -88.36,
                "LOS": "False"
            }
        },
        {
            "type": "Feature",
            "geometry": {
                "type": "Point",
                "coordinates": [
                    8.22356149,
                    50.02149937
                ]
            },
            "properties": {
                "RSU coordinates": [
                    8.2243364,
                    50.0210682
                ],
                "Distance": 73.32,
                "Frequency": 5.9,
                "RSSI": -87.92,
                "LOS": "False"
            }
        },
        {
            "type": "Feature",
            "geometry": {
                "type": "Point",
                "coordinates": [
                    8.22375522,
                    50.02171496
                ]
            },
            "properties": {
                "RSU coordinates": [
                    8.2243364,
                    50.0210682
                ],
                "Distance": 83.14,
                "Frequency": 5.9,
                "RSSI": -89.0,
                "LOS": "False"
            }
        },
        {
            "type": "Feature",
            "geometry": {
                "type": "Point",
                "coordinates": [
                    8.22385208,
                    50.02182276
                ]
            },
            "properties": {
                "RSU coordinates": [
                    8.2243364,
                    50.0210682
                ],
                "Distance": 90.86,
                "Frequency": 5.9,
                "RSSI": -74.75999999999999,
                "LOS": "False"
            }
        },
        {
            "type": "Feature",
            "geometry": {
                "type": "Point",
                "coordinates": [
                    8.22394894,
                    50.02193055
                ]
            },
            "properties": {
                "RSU coordinates": [
                    8.2243364,
                    50.0210682
                ],
                "Distance": 99.92,
                "Frequency": 5.9,
                "RSSI": -90.58,
                "LOS": "False"
            }
        },
        {
            "type": "Feature",
            "geometry": {
                "type": "Point",
                "coordinates": [
                    8.22414267,
                    50.02214614
                ]
            },
            "properties": {
                "RSU coordinates": [
                    8.2243364,
                    50.0210682
                ],
                "Distance": 120.8,
                "Frequency": 5.9,
                "RSSI": -92.2,
                "LOS": "False"
            }
        },
        {
            "type": "Feature",
            "geometry": {
                "type": "Point",
                "coordinates": [
                    8.22423954,
                    50.02225393
                ]
            },
            "properties": {
                "RSU coordinates": [
                    8.2243364,
                    50.0210682
                ],
                "Distance": 132.18,
                "Frequency": 5.9,
                "RSSI": -92.97999999999999,
                "LOS": "False"
            }
        },
        {
            "type": "Feature",
            "geometry": {
                "type": "Point",
                "coordinates": [
                    8.22327092,
                    50.02096041
                ]
            },
            "properties": {
                "RSU coordinates": [
                    8.2243364,
                    50.0210682
                ],
                "Distance": 77.15,
                "Frequency": 5.9,
                "RSSI": -58.36,
                "LOS": "True"
            }
        },
        {
            "type": "Feature",
            "geometry": {
                "type": "Point",
                "coordinates": [
                    8.22346464,
                    50.02117599
                ]
            },
            "properties": {
                "RSU coordinates": [
                    8.2243364,
                    50.0210682
                ],
                "Distance": 63.5,
                "Frequency": 5.9,
                "RSSI": -86.69,
                "LOS": "False"
            }
        },
        {
            "type": "Feature",
            "geometry": {
                "type": "Point",
                "coordinates": [
                    8.2235615,
                    50.02128379
                ]
            },
            "properties": {
                "RSU coordinates": [
                    8.2243364,
                    50.0210682
                ],
                "Distance": 60.4,
                "Frequency": 5.9,
                "RSSI": -71.25999999999999,
                "LOS": "False"
            }
        },
        {
            "type": "Feature",
            "geometry": {
                "type": "Point",
                "coordinates": [
                    8.22394895,
                    50.02171496
                ]
            },
            "properties": {
                "RSU coordinates": [
                    8.2243364,
                    50.0210682
                ],
                "Distance": 77.15,
                "Frequency": 5.9,
                "RSSI": -73.36,
                "LOS": "False"
            }
        },
        {
            "type": "Feature",
            "geometry": {
                "type": "Point",
                "coordinates": [
                    8.22414267,
                    50.02193055
                ]
            },
            "properties": {
                "RSU coordinates": [
                    8.2243364,
                    50.0210682
                ],
                "Distance": 96.99,
                "Frequency": 5.9,
                "RSSI": -90.32,
                "LOS": "False"
            }
        },
        {
            "type": "Feature",
            "geometry": {
                "type": "Point",
                "coordinates": [
                    8.22423954,
                    50.02203834
                ]
            },
            "properties": {
                "RSU coordinates": [
                    8.2243364,
                    50.0210682
                ],
                "Distance": 108.22,
                "Frequency": 5.9,
                "RSSI": -76.25999999999999,
                "LOS": "False"
            }
        },
        {
            "type": "Feature",
            "geometry": {
                "type": "Point",
                "coordinates": [
                    8.2243364,
                    50.02214614
                ]
            },
            "properties": {
                "RSU coordinates": [
                    8.2243364,
                    50.0210682
                ],
                "Distance": 120.0,
                "Frequency": 5.9,
                "RSSI": -92.15,
                "LOS": "False"
            }
        },
        {
            "type": "Feature",
            "geometry": {
                "type": "Point",
                "coordinates": [
                    8.22346464,
                    50.02096041
                ]
            },
            "properties": {
                "RSU coordinates": [
                    8.2243364,
                    50.0210682
                ],
                "Distance": 63.5,
                "Frequency": 5.9,
                "RSSI": -56.69,
                "LOS": "True"
            }
        },
        {
            "type": "Feature",
            "geometry": {
                "type": "Point",
                "coordinates": [
                    8.22365836,
                    50.02117599
                ]
            },
            "properties": {
                "RSU coordinates": [
                    8.2243364,
                    50.0210682
                ],
                "Distance": 49.96,
                "Frequency": 5.9,
                "RSSI": -69.63,
                "LOS": "False"
            }
        },
        {
            "type": "Feature",
            "geometry": {
                "type": "Point",
                "coordinates": [
                    8.22394895,
                    50.02149937
                ]
            },
            "properties": {
                "RSU coordinates": [
                    8.2243364,
                    50.0210682
                ],
                "Distance": 55.43,
                "Frequency": 5.9,
                "RSSI": -55.52,
                "LOS": "True"
            }
        },
        {
            "type": "Feature",
            "geometry": {
                "type": "Point",
                "coordinates": [
                    8.22404581,
                    50.02160717
                ]
            },
            "properties": {
                "RSU coordinates": [
                    8.2243364,
                    50.0210682
                ],
                "Distance": 63.5,
                "Frequency": 5.9,
                "RSSI": -56.69,
                "LOS": "True"
            }
        },
        {
            "type": "Feature",
            "geometry": {
                "type": "Point",
                "coordinates": [
                    8.22414267,
                    50.02171496
                ]
            },
            "properties": {
                "RSU coordinates": [
                    8.2243364,
                    50.0210682
                ],
                "Distance": 73.32,
                "Frequency": 5.9,
                "RSSI": -72.92,
                "LOS": "False"
            }
        },
        {
            "type": "Feature",
            "geometry": {
                "type": "Point",
                "coordinates": [
                    8.2243364,
                    50.02193055
                ]
            },
            "properties": {
                "RSU coordinates": [
                    8.2243364,
                    50.0210682
                ],
                "Distance": 96.0,
                "Frequency": 5.9,
                "RSSI": -90.22999999999999,
                "LOS": "False"
            }
        },
        {
            "type": "Feature",
            "geometry": {
                "type": "Point",
                "coordinates": [
                    8.22365836,
                    50.02096041
                ]
            },
            "properties": {
                "RSU coordinates": [
                    8.2243364,
                    50.0210682
                ],
                "Distance": 49.96,
                "Frequency": 5.9,
                "RSSI": -54.63,
                "LOS": "True"
            }
        },
        {
            "type": "Feature",
            "geometry": {
                "type": "Point",
                "coordinates": [
                    8.22375523,
                    50.0210682
                ]
            },
            "properties": {
                "RSU coordinates": [
                    8.2243364,
                    50.0210682
                ],
                "Distance": 41.57,
                "Frequency": 5.9,
                "RSSI": -53.06,
                "LOS": "True"
            }
        },
        {
            "type": "Feature",
            "geometry": {
                "type": "Point",
                "coordinates": [
                    8.22404581,
                    50.02139158
                ]
            },
            "properties": {
                "RSU coordinates": [
                    8.2243364,
                    50.0210682
                ],
                "Distance": 41.57,
                "Frequency": 5.9,
                "RSSI": -53.06,
                "LOS": "True"
            }
        },
        {
            "type": "Feature",
            "geometry": {
                "type": "Point",
                "coordinates": [
                    8.22414267,
                    50.02149937
                ]
            },
            "properties": {
                "RSU coordinates": [
                    8.2243364,
                    50.0210682
                ],
                "Distance": 49.96,
                "Frequency": 5.9,
                "RSSI": -54.63,
                "LOS": "True"
            }
        },
        {
            "type": "Feature",
            "geometry": {
                "type": "Point",
                "coordinates": [
                    8.22423954,
                    50.02160717
                ]
            },
            "properties": {
                "RSU coordinates": [
                    8.2243364,
                    50.0210682
                ],
                "Distance": 60.4,
                "Frequency": 5.9,
                "RSSI": -56.26,
                "LOS": "True"
            }
        },
        {
            "type": "Feature",
            "geometry": {
                "type": "Point",
                "coordinates": [
                    8.22346465,
                    50.02052923
                ]
            },
            "properties": {
                "RSU coordinates": [
                    8.2243364,
                    50.0210682
                ],
                "Distance": 86.53,
                "Frequency": 5.9,
                "RSSI": -89.34,
                "LOS": "False"
            }
        },
        {
            "type": "Feature",
            "geometry": {
                "type": "Point",
                "coordinates": [
                    8.22356151,
                    50.02063703
                ]
            },
            "properties": {
                "RSU coordinates": [
                    8.2243364,
                    50.0210682
                ],
                "Distance": 73.32,
                "Frequency": 5.9,
                "RSSI": -87.92,
                "LOS": "False"
            }
        },
        {
            "type": "Feature",
            "geometry": {
                "type": "Point",
                "coordinates": [
                    8.22365837,
                    50.02074482
                ]
            },
            "properties": {
                "RSU coordinates": [
                    8.2243364,
                    50.0210682
                ],
                "Distance": 60.4,
                "Frequency": 5.9,
                "RSSI": -86.25999999999999,
                "LOS": "False"
            }
        },
        {
            "type": "Feature",
            "geometry": {
                "type": "Point",
                "coordinates": [
                    8.22385209,
                    50.02096041
                ]
            },
            "properties": {
                "RSU coordinates": [
                    8.2243364,
                    50.0210682
                ],
                "Distance": 36.66,
                "Frequency": 5.9,
                "RSSI": -51.98,
                "LOS": "True"
            }
        },
        {
            "type": "Feature",
            "geometry": {
                "type": "Point",
                "coordinates": [
                    8.22394895,
                    50.0210682
                ]
            },
            "properties": {
                "RSU coordinates": [
                    8.2243364,
                    50.0210682
                ],
                "Distance": 27.71,
                "Frequency": 5.9,
                "RSSI": -49.58,
                "LOS": "True"
            }
        },
        {
            "type": "Feature",
            "geometry": {
                "type": "Point",
                "coordinates": [
                    8.22404581,
                    50.02117599
                ]
            },
            "properties": {
                "RSU coordinates": [
                    8.2243364,
                    50.0210682
                ],
                "Distance": 24.0,
                "Frequency": 5.9,
                "RSSI": -48.34,
                "LOS": "True"
            }
        },
        {
            "type": "Feature",
            "geometry": {
                "type": "Point",
                "coordinates": [
                    8.22414267,
                    50.02128379
                ]
            },
            "properties": {
                "RSU coordinates": [
                    8.2243364,
                    50.0210682
                ],
                "Distance": 27.71,
                "Frequency": 5.9,
                "RSSI": -49.58,
                "LOS": "True"
            }
        },
        {
            "type": "Feature",
            "geometry": {
                "type": "Point",
                "coordinates": [
                    8.22423954,
                    50.02139158
                ]
            },
            "properties": {
                "RSU coordinates": [
                    8.2243364,
                    50.0210682
                ],
                "Distance": 36.66,
                "Frequency": 5.9,
                "RSSI": -51.98,
                "LOS": "True"
            }
        },
        {
            "type": "Feature",
            "geometry": {
                "type": "Point",
                "coordinates": [
                    8.2243364,
                    50.02149937
                ]
            },
            "properties": {
                "RSU coordinates": [
                    8.2243364,
                    50.0210682
                ],
                "Distance": 48.0,
                "Frequency": 5.9,
                "RSSI": -54.29,
                "LOS": "True"
            }
        },
        {
            "type": "Feature",
            "geometry": {
                "type": "Point",
                "coordinates": [
                    8.22385209,
                    50.02074482
                ]
            },
            "properties": {
                "RSU coordinates": [
                    8.2243364,
                    50.0210682
                ],
                "Distance": 49.96,
                "Frequency": 5.9,
                "RSSI": -84.63,
                "LOS": "False"
            }
        },
        {
            "type": "Feature",
            "geometry": {
                "type": "Point",
                "coordinates": [
                    8.22394895,
                    50.02085261
                ]
            },
            "properties": {
                "RSU coordinates": [
                    8.2243364,
                    50.0210682
                ],
                "Distance": 36.66,
                "Frequency": 5.9,
                "RSSI": -66.97999999999999,
                "LOS": "False"
            }
        },
        {
            "type": "Feature",
            "geometry": {
                "type": "Point",
                "coordinates": [
                    8.22404581,
                    50.02096041
                ]
            },
            "properties": {
                "RSU coordinates": [
                    8.2243364,
                    50.0210682
                ],
                "Distance": 24.0,
                "Frequency": 5.9,
                "RSSI": -48.34,
                "LOS": "True"
            }
        },
        {
            "type": "Feature",
            "geometry": {
                "type": "Point",
                "coordinates": [
                    8.22414268,
                    50.0210682
                ]
            },
            "properties": {
                "RSU coordinates": [
                    8.2243364,
                    50.0210682
                ],
                "Distance": 13.86,
                "Frequency": 5.9,
                "RSSI": -43.63,
                "LOS": "True"
            }
        },
        {
            "type": "Feature",
            "geometry": {
                "type": "Point",
                "coordinates": [
                    8.22423954,
                    50.02117599
                ]
            },
            "properties": {
                "RSU coordinates": [
                    8.2243364,
                    50.0210682
                ],
                "Distance": 13.86,
                "Frequency": 5.9,
                "RSSI": -43.63,
                "LOS": "True"
            }
        },
        {
            "type": "Feature",
            "geometry": {
                "type": "Point",
                "coordinates": [
                    8.2243364,
                    50.02128379
                ]
            },
            "properties": {
                "RSU coordinates": [
                    8.2243364,
                    50.0210682
                ],
                "Distance": 24.0,
                "Frequency": 5.9,
                "RSSI": -48.34,
                "LOS": "True"
            }
        },
        {
            "type": "Feature",
            "geometry": {
                "type": "Point",
                "coordinates": [
                    8.22443326,
                    50.02139158
                ]
            },
            "properties": {
                "RSU coordinates": [
                    8.2243364,
                    50.0210682
                ],
                "Distance": 36.66,
                "Frequency": 5.9,
                "RSSI": -66.97999999999999,
                "LOS": "False"
            }
        },
        {
            "type": "Feature",
            "geometry": {
                "type": "Point",
                "coordinates": [
                    8.22453013,
                    50.02149937
                ]
            },
            "properties": {
                "RSU coordinates": [
                    8.2243364,
                    50.0210682
                ],
                "Distance": 49.96,
                "Frequency": 5.9,
                "RSSI": -99.63,
                "LOS": "False"
            }
        },
        {
            "type": "Feature",
            "geometry": {
                "type": "Point",
                "coordinates": [
                    8.22414268,
                    50.02085261
                ]
            },
            "properties": {
                "RSU coordinates": [
                    8.2243364,
                    50.0210682
                ],
                "Distance": 27.71,
                "Frequency": 5.9,
                "RSSI": -64.58,
                "LOS": "False"
            }
        },
        {
            "type": "Feature",
            "geometry": {
                "type": "Point",
                "coordinates": [
                    8.22423954,
                    50.02096041
                ]
            },
            "properties": {
                "RSU coordinates": [
                    8.2243364,
                    50.0210682
                ],
                "Distance": 13.86,
                "Frequency": 5.9,
                "RSSI": -43.63,
                "LOS": "True"
            }
        },
        {
            "type": "Feature",
            "geometry": {
                "type": "Point",
                "coordinates": [
                    8.22453013,
                    50.02128379
                ]
            },
            "properties": {
                "RSU coordinates": [
                    8.2243364,
                    50.0210682
                ],
                "Distance": 27.71,
                "Frequency": 5.9,
                "RSSI": -79.58,
                "LOS": "False"
            }
        },
        {
            "type": "Feature",
            "geometry": {
                "type": "Point",
                "coordinates": [
                    8.22462699,
                    50.02139158
                ]
            },
            "properties": {
                "RSU coordinates": [
                    8.2243364,
                    50.0210682
                ],
                "Distance": 41.57,
                "Frequency": 5.9,
                "RSSI": -83.06,
                "LOS": "False"
            }
        },
        {
            "type": "Feature",
            "geometry": {
                "type": "Point",
                "coordinates": [
                    8.22472385,
                    50.02149937
                ]
            },
            "properties": {
                "RSU coordinates": [
                    8.2243364,
                    50.0210682
                ],
                "Distance": 55.43,
                "Frequency": 5.9,
                "RSSI": -85.52000000000001,
                "LOS": "False"
            }
        },
        {
            "type": "Feature",
            "geometry": {
                "type": "Point",
                "coordinates": [
                    8.22482072,
                    50.02160717
                ]
            },
            "properties": {
                "RSU coordinates": [
                    8.2243364,
                    50.0210682
                ],
                "Distance": 69.28,
                "Frequency": 5.9,
                "RSSI": -87.44,
                "LOS": "False"
            }
        },
        {
            "type": "Feature",
            "geometry": {
                "type": "Point",
                "coordinates": [
                    8.22414268,
                    50.02063703
                ]
            },
            "properties": {
                "RSU coordinates": [
                    8.2243364,
                    50.0210682
                ],
                "Distance": 49.96,
                "Frequency": 5.9,
                "RSSI": -69.63,
                "LOS": "False"
            }
        },
        {
            "type": "Feature",
            "geometry": {
                "type": "Point",
                "coordinates": [
                    8.22423954,
                    50.02074482
                ]
            },
            "properties": {
                "RSU coordinates": [
                    8.2243364,
                    50.0210682
                ],
                "Distance": 36.66,
                "Frequency": 5.9,
                "RSSI": -66.97999999999999,
                "LOS": "False"
            }
        },
        {
            "type": "Feature",
            "geometry": {
                "type": "Point",
                "coordinates": [
                    8.2243364,
                    50.02085261
                ]
            },
            "properties": {
                "RSU coordinates": [
                    8.2243364,
                    50.0210682
                ],
                "Distance": 24.0,
                "Frequency": 5.9,
                "RSSI": -63.34,
                "LOS": "False"
            }
        },
        {
            "type": "Feature",
            "geometry": {
                "type": "Point",
                "coordinates": [
                    8.22443326,
                    50.02096041
                ]
            },
            "properties": {
                "RSU coordinates": [
                    8.2243364,
                    50.0210682
                ],
                "Distance": 13.86,
                "Frequency": 5.9,
                "RSSI": -43.63,
                "LOS": "True"
            }
        },
        {
            "type": "Feature",
            "geometry": {
                "type": "Point",
                "coordinates": [
                    8.22462699,
                    50.02117599
                ]
            },
            "properties": {
                "RSU coordinates": [
                    8.2243364,
                    50.0210682
                ],
                "Distance": 24.0,
                "Frequency": 5.9,
                "RSSI": -78.34,
                "LOS": "False"
            }
        },
        {
            "type": "Feature",
            "geometry": {
                "type": "Point",
                "coordinates": [
                    8.22472385,
                    50.02128379
                ]
            },
            "properties": {
                "RSU coordinates": [
                    8.2243364,
                    50.0210682
                ],
                "Distance": 36.66,
                "Frequency": 5.9,
                "RSSI": -81.97999999999999,
                "LOS": "False"
            }
        },
        {
            "type": "Feature",
            "geometry": {
                "type": "Point",
                "coordinates": [
                    8.22482072,
                    50.02139158
                ]
            },
            "properties": {
                "RSU coordinates": [
                    8.2243364,
                    50.0210682
                ],
                "Distance": 49.96,
                "Frequency": 5.9,
                "RSSI": -84.63,
                "LOS": "False"
            }
        },
        {
            "type": "Feature",
            "geometry": {
                "type": "Point",
                "coordinates": [
                    8.22491758,
                    50.02149937
                ]
            },
            "properties": {
                "RSU coordinates": [
                    8.2243364,
                    50.0210682
                ],
                "Distance": 63.5,
                "Frequency": 5.9,
                "RSSI": -71.69,
                "LOS": "False"
            }
        },
        {
            "type": "Feature",
            "geometry": {
                "type": "Point",
                "coordinates": [
                    8.22501444,
                    50.02160717
                ]
            },
            "properties": {
                "RSU coordinates": [
                    8.2243364,
                    50.0210682
                ],
                "Distance": 77.15,
                "Frequency": 5.9,
                "RSSI": -73.36,
                "LOS": "False"
            }
        },
        {
            "type": "Feature",
            "geometry": {
                "type": "Point",
                "coordinates": [
                    8.22414268,
                    50.02042144
                ]
            },
            "properties": {
                "RSU coordinates": [
                    8.2243364,
                    50.0210682
                ],
                "Distance": 73.32,
                "Frequency": 5.9,
                "RSSI": -87.92,
                "LOS": "False"
            }
        },
        {
            "type": "Feature",
            "geometry": {
                "type": "Point",
                "coordinates": [
                    8.2243364,
                    50.02063703
                ]
            },
            "properties": {
                "RSU coordinates": [
                    8.2243364,
                    50.0210682
                ],
                "Distance": 48.0,
                "Frequency": 5.9,
                "RSSI": -99.28999999999999,
                "LOS": "False"
            }
        },
        {
            "type": "Feature",
            "geometry": {
                "type": "Point",
                "coordinates": [
                    8.22443326,
                    50.02074482
                ]
            },
            "properties": {
                "RSU coordinates": [
                    8.2243364,
                    50.0210682
                ],
                "Distance": 36.66,
                "Frequency": 5.9,
                "RSSI": -51.98,
                "LOS": "True"
            }
        },
        {
            "type": "Feature",
            "geometry": {
                "type": "Point",
                "coordinates": [
                    8.22462699,
                    50.02096041
                ]
            },
            "properties": {
                "RSU coordinates": [
                    8.2243364,
                    50.0210682
                ],
                "Distance": 24.0,
                "Frequency": 5.9,
                "RSSI": -63.34,
                "LOS": "False"
            }
        },
        {
            "type": "Feature",
            "geometry": {
                "type": "Point",
                "coordinates": [
                    8.22472385,
                    50.0210682
                ]
            },
            "properties": {
                "RSU coordinates": [
                    8.2243364,
                    50.0210682
                ],
                "Distance": 27.71,
                "Frequency": 5.9,
                "RSSI": -64.58,
                "LOS": "False"
            }
        },
        {
            "type": "Feature",
            "geometry": {
                "type": "Point",
                "coordinates": [
                    8.22482071,
                    50.02117599
                ]
            },
            "properties": {
                "RSU coordinates": [
                    8.2243364,
                    50.0210682
                ],
                "Distance": 36.66,
                "Frequency": 5.9,
                "RSSI": -66.97999999999999,
                "LOS": "False"
            }
        },
        {
            "type": "Feature",
            "geometry": {
                "type": "Point",
                "coordinates": [
                    8.22491758,
                    50.02128379
                ]
            },
            "properties": {
                "RSU coordinates": [
                    8.2243364,
                    50.0210682
                ],
                "Distance": 48.0,
                "Frequency": 5.9,
                "RSSI": -84.28999999999999,
                "LOS": "False"
            }
        },
        {
            "type": "Feature",
            "geometry": {
                "type": "Point",
                "coordinates": [
                    8.22501444,
                    50.02139158
                ]
            },
            "properties": {
                "RSU coordinates": [
                    8.2243364,
                    50.0210682
                ],
                "Distance": 60.4,
                "Frequency": 5.9,
                "RSSI": -86.25999999999999,
                "LOS": "False"
            }
        },
        {
            "type": "Feature",
            "geometry": {
                "type": "Point",
                "coordinates": [
                    8.22443326,
                    50.02052923
                ]
            },
            "properties": {
                "RSU coordinates": [
                    8.2243364,
                    50.0210682
                ],
                "Distance": 60.4,
                "Frequency": 5.9,
                "RSSI": -56.26,
                "LOS": "True"
            }
        },
        {
            "type": "Feature",
            "geometry": {
                "type": "Point",
                "coordinates": [
                    8.22462699,
                    50.02074482
                ]
            },
            "properties": {
                "RSU coordinates": [
                    8.2243364,
                    50.0210682
                ],
                "Distance": 41.57,
                "Frequency": 5.9,
                "RSSI": -83.06,
                "LOS": "False"
            }
        },
        {
            "type": "Feature",
            "geometry": {
                "type": "Point",
                "coordinates": [
                    8.22472385,
                    50.02085261
                ]
            },
            "properties": {
                "RSU coordinates": [
                    8.2243364,
                    50.0210682
                ],
                "Distance": 36.66,
                "Frequency": 5.9,
                "RSSI": -81.97999999999999,
                "LOS": "False"
            }
        },
        {
            "type": "Feature",
            "geometry": {
                "type": "Point",
                "coordinates": [
                    8.22482071,
                    50.02096041
                ]
            },
            "properties": {
                "RSU coordinates": [
                    8.2243364,
                    50.0210682
                ],
                "Distance": 36.66,
                "Frequency": 5.9,
                "RSSI": -66.97999999999999,
                "LOS": "False"
            }
        },
        {
            "type": "Feature",
            "geometry": {
                "type": "Point",
                "coordinates": [
                    8.22491757,
                    50.0210682
                ]
            },
            "properties": {
                "RSU coordinates": [
                    8.2243364,
                    50.0210682
                ],
                "Distance": 41.57,
                "Frequency": 5.9,
                "RSSI": -68.06,
                "LOS": "False"
            }
        },
        {
            "type": "Feature",
            "geometry": {
                "type": "Point",
                "coordinates": [
                    8.22501444,
                    50.02117599
                ]
            },
            "properties": {
                "RSU coordinates": [
                    8.2243364,
                    50.0210682
                ],
                "Distance": 49.96,
                "Frequency": 5.9,
                "RSSI": -69.63,
                "LOS": "False"
            }
        },
        {
            "type": "Feature",
            "geometry": {
                "type": "Point",
                "coordinates": [
                    8.2251113,
                    50.02128379
                ]
            },
            "properties": {
                "RSU coordinates": [
                    8.2243364,
                    50.0210682
                ],
                "Distance": 60.4,
                "Frequency": 5.9,
                "RSSI": -71.25999999999999,
                "LOS": "False"
            }
        },
        {
            "type": "Feature",
            "geometry": {
                "type": "Point",
                "coordinates": [
                    8.22443326,
                    50.02031364
                ]
            },
            "properties": {
                "RSU coordinates": [
                    8.2243364,
                    50.0210682
                ],
                "Distance": 84.29,
                "Frequency": 5.9,
                "RSSI": -59.12,
                "LOS": "True"
            }
        },
        {
            "type": "Feature",
            "geometry": {
                "type": "Point",
                "coordinates": [
                    8.22453012,
                    50.02042144
                ]
            },
            "properties": {
                "RSU coordinates": [
                    8.2243364,
                    50.0210682
                ],
                "Distance": 73.32,
                "Frequency": 5.9,
                "RSSI": -72.92,
                "LOS": "False"
            }
        },
        {
            "type": "Feature",
            "geometry": {
                "type": "Point",
                "coordinates": [
                    8.22472385,
                    50.02063703
                ]
            },
            "properties": {
                "RSU coordinates": [
                    8.2243364,
                    50.0210682
                ],
                "Distance": 55.43,
                "Frequency": 5.9,
                "RSSI": -85.52000000000001,
                "LOS": "False"
            }
        },
        {
            "type": "Feature",
            "geometry": {
                "type": "Point",
                "coordinates": [
                    8.22482071,
                    50.02074482
                ]
            },
            "properties": {
                "RSU coordinates": [
                    8.2243364,
                    50.0210682
                ],
                "Distance": 49.96,
                "Frequency": 5.9,
                "RSSI": -84.63,
                "LOS": "False"
            }
        },
        {
            "type": "Feature",
            "geometry": {
                "type": "Point",
                "coordinates": [
                    8.22491757,
                    50.02085261
                ]
            },
            "properties": {
                "RSU coordinates": [
                    8.2243364,
                    50.0210682
                ],
                "Distance": 48.0,
                "Frequency": 5.9,
                "RSSI": -69.28999999999999,
                "LOS": "False"
            }
        },
        {
            "type": "Feature",
            "geometry": {
                "type": "Point",
                "coordinates": [
                    8.22501444,
                    50.02096041
                ]
            },
            "properties": {
                "RSU coordinates": [
                    8.2243364,
                    50.0210682
                ],
                "Distance": 49.96,
                "Frequency": 5.9,
                "RSSI": -69.63,
                "LOS": "False"
            }
        },
        {
            "type": "Feature",
            "geometry": {
                "type": "Point",
                "coordinates": [
                    8.2251113,
                    50.0210682
                ]
            },
            "properties": {
                "RSU coordinates": [
                    8.2243364,
                    50.0210682
                ],
                "Distance": 55.43,
                "Frequency": 5.9,
                "RSSI": -70.52000000000001,
                "LOS": "False"
            }
        },
        {
            "type": "Feature",
            "geometry": {
                "type": "Point",
                "coordinates": [
                    8.22530503,
                    50.02128379
                ]
            },
            "properties": {
                "RSU coordinates": [
                    8.2243364,
                    50.0210682
                ],
                "Distance": 73.32,
                "Frequency": 5.9,
                "RSSI": -72.92,
                "LOS": "False"
            }
        },
        {
            "type": "Feature",
            "geometry": {
                "type": "Point",
                "coordinates": [
                    8.22540189,
                    50.02139158
                ]
            },
            "properties": {
                "RSU coordinates": [
                    8.2243364,
                    50.0210682
                ],
                "Distance": 84.29,
                "Frequency": 5.9,
                "RSSI": -89.12,
                "LOS": "False"
            }
        },
        {
            "type": "Feature",
            "geometry": {
                "type": "Point",
                "coordinates": [
                    8.22453012,
                    50.02020585
                ]
            },
            "properties": {
                "RSU coordinates": [
                    8.2243364,
                    50.0210682
                ],
                "Distance": 96.99,
                "Frequency": 5.9,
                "RSSI": -60.32,
                "LOS": "True"
            }
        },
        {
            "type": "Feature",
            "geometry": {
                "type": "Point",
                "coordinates": [
                    8.22501443,
                    50.02074482
                ]
            },
            "properties": {
                "RSU coordinates": [
                    8.2243364,
                    50.0210682
                ],
                "Distance": 60.4,
                "Frequency": 5.9,
                "RSSI": -86.25999999999999,
                "LOS": "False"
            }
        },
        {
            "type": "Feature",
            "geometry": {
                "type": "Point",
                "coordinates": [
                    8.2251113,
                    50.02085261
                ]
            },
            "properties": {
                "RSU coordinates": [
                    8.2243364,
                    50.0210682
                ],
                "Distance": 60.4,
                "Frequency": 5.9,
                "RSSI": -71.25999999999999,
                "LOS": "False"
            }
        },
        {
            "type": "Feature",
            "geometry": {
                "type": "Point",
                "coordinates": [
                    8.22520816,
                    50.02096041
                ]
            },
            "properties": {
                "RSU coordinates": [
                    8.2243364,
                    50.0210682
                ],
                "Distance": 63.5,
                "Frequency": 5.9,
                "RSSI": -71.69,
                "LOS": "False"
            }
        },
        {
            "type": "Feature",
            "geometry": {
                "type": "Point",
                "coordinates": [
                    8.22530502,
                    50.0210682
                ]
            },
            "properties": {
                "RSU coordinates": [
                    8.2243364,
                    50.0210682
                ],
                "Distance": 69.28,
                "Frequency": 5.9,
                "RSSI": -72.44,
                "LOS": "False"
            }
        },
        {
            "type": "Feature",
            "geometry": {
                "type": "Point",
                "coordinates": [
                    8.22559562,
                    50.02139158
                ]
            },
            "properties": {
                "RSU coordinates": [
                    8.2243364,
                    50.0210682
                ],
                "Distance": 96.99,
                "Frequency": 5.9,
                "RSSI": -75.32,
                "LOS": "False"
            }
        },
        {
            "type": "Feature",
            "geometry": {
                "type": "Point",
                "coordinates": [
                    8.22453012,
                    50.01999026
                ]
            },
            "properties": {
                "RSU coordinates": [
                    8.2243364,
                    50.0210682
                ],
                "Distance": 120.8,
                "Frequency": 5.9,
                "RSSI": -62.2,
                "LOS": "True"
            }
        },
        {
            "type": "Feature",
            "geometry": {
                "type": "Point",
                "coordinates": [
                    8.22520816,
                    50.02074482
                ]
            },
            "properties": {
                "RSU coordinates": [
                    8.2243364,
                    50.0210682
                ],
                "Distance": 72.0,
                "Frequency": 5.9,
                "RSSI": -72.77000000000001,
                "LOS": "False"
            }
        },
        {
            "type": "Feature",
            "geometry": {
                "type": "Point",
                "coordinates": [
                    8.22540188,
                    50.02096041
                ]
            },
            "properties": {
                "RSU coordinates": [
                    8.2243364,
                    50.0210682
                ],
                "Distance": 77.15,
                "Frequency": 5.9,
                "RSSI": -73.36,
                "LOS": "False"
            }
        },
        {
            "type": "Feature",
            "geometry": {
                "type": "Point",
                "coordinates": [
                    8.22453012,
                    50.01977468
                ]
            },
            "properties": {
                "RSU coordinates": [
                    8.2243364,
                    50.0210682
                ],
                "Distance": 144.67,
                "Frequency": 5.9,
                "RSSI": -93.75,
                "LOS": "False"
            }
        },
        {
            "type": "Feature",
            "geometry": {
                "type": "Point",
                "coordinates": [
                    8.22462698,
                    50.01988247
                ]
            },
            "properties": {
                "RSU coordinates": [
                    8.2243364,
                    50.0210682
                ],
                "Distance": 133.63,
                "Frequency": 5.9,
                "RSSI": -63.07,
                "LOS": "True"
            }
        },
        {
            "type": "Feature",
            "geometry": {
                "type": "Point",
                "coordinates": [
                    8.22540188,
                    50.02074482
                ]
            },
            "properties": {
                "RSU coordinates": [
                    8.2243364,
                    50.0210682
                ],
                "Distance": 84.29,
                "Frequency": 5.9,
                "RSSI": -89.12,
                "LOS": "False"
            }
        },
        {
            "type": "Feature",
            "geometry": {
                "type": "Point",
                "coordinates": [
                    8.22549874,
                    50.02085261
                ]
            },
            "properties": {
                "RSU coordinates": [
                    8.2243364,
                    50.0210682
                ],
                "Distance": 86.53,
                "Frequency": 5.9,
                "RSSI": -89.34,
                "LOS": "False"
            }
        },
        {
            "type": "Feature",
            "geometry": {
                "type": "Point",
                "coordinates": [
                    8.22462698,
                    50.01966688
                ]
            },
            "properties": {
                "RSU coordinates": [
                    8.2243364,
                    50.0210682
                ],
                "Distance": 157.38,
                "Frequency": 5.9,
                "RSSI": -64.47,
                "LOS": "True"
            }
        },
        {
            "type": "Feature",
            "geometry": {
                "type": "Point",
                "coordinates": [
                    8.22569247,
                    50.02085261
                ]
            },
            "properties": {
                "RSU coordinates": [
                    8.2243364,
                    50.0210682
                ],
                "Distance": 99.92,
                "Frequency": 5.9,
                "RSSI": -90.58,
                "LOS": "False"
            }
        },
        {
            "type": "Feature",
            "geometry": {
                "type": "Point",
                "coordinates": [
                    8.22578933,
                    50.02096041
                ]
            },
            "properties": {
                "RSU coordinates": [
                    8.2243364,
                    50.0210682
                ],
                "Distance": 104.61,
                "Frequency": 5.9,
                "RSSI": -90.97,
                "LOS": "False"
            }
        },
        {
            "type": "Feature",
            "geometry": {
                "type": "Point",
                "coordinates": [
                    8.22462698,
                    50.0194513
                ]
            },
            "properties": {
                "RSU coordinates": [
                    8.2243364,
                    50.0210682
                ],
                "Distance": 181.2,
                "Frequency": 5.9,
                "RSSI": -80.68,
                "LOS": "False"
            }
        },
        {
            "type": "Feature",
            "geometry": {
                "type": "Point",
                "coordinates": [
                    8.22472384,
                    50.01955909
                ]
            },
            "properties": {
                "RSU coordinates": [
                    8.2243364,
                    50.0210682
                ],
                "Distance": 170.27,
                "Frequency": 5.9,
                "RSSI": -65.15,
                "LOS": "True"
            }
        },
        {
            "type": "Feature",
            "geometry": {
                "type": "Point",
                "coordinates": [
                    8.22462698,
                    50.01923571
                ]
            },
            "properties": {
                "RSU coordinates": [
                    8.2243364,
                    50.0210682
                ],
                "Distance": 205.06,
                "Frequency": 5.9,
                "RSSI": -96.74,
                "LOS": "False"
            }
        },
        {
            "type": "Feature",
            "geometry": {
                "type": "Point",
                "coordinates": [
                    8.22472384,
                    50.0193435
                ]
            },
            "properties": {
                "RSU coordinates": [
                    8.2243364,
                    50.0210682
                ],
                "Distance": 193.99,
                "Frequency": 5.9,
                "RSSI": -66.27,
                "LOS": "True"
            }
        },
        {
            "type": "Feature",
            "geometry": {
                "type": "Point",
                "coordinates": [
                    8.22462697,
                    50.01902012
                ]
            },
            "properties": {
                "RSU coordinates": [
                    8.2243364,
                    50.0210682
                ],
                "Distance": 228.95,
                "Frequency": 5.9,
                "RSSI": -97.69,
                "LOS": "False"
            }
        },
        {
            "type": "Feature",
            "geometry": {
                "type": "Point",
                "coordinates": [
                    8.22472383,
                    50.01912792
                ]
            },
            "properties": {
                "RSU coordinates": [
                    8.2243364,
                    50.0210682
                ],
                "Distance": 217.77,
                "Frequency": 5.9,
                "RSSI": -67.26,
                "LOS": "True"
            }
        },
        {
            "type": "Feature",
            "geometry": {
                "type": "Point",
                "coordinates": [
                    8.22482069,
                    50.01923571
                ]
            },
            "properties": {
                "RSU coordinates": [
                    8.2243364,
                    50.0210682
                ],
                "Distance": 206.92,
                "Frequency": 5.9,
                "RSSI": -96.82,
                "LOS": "False"
            }
        },
        {
            "type": "Feature",
            "geometry": {
                "type": "Point",
                "coordinates": [
                    8.22472383,
                    50.01891233
                ]
            },
            "properties": {
                "RSU coordinates": [
                    8.2243364,
                    50.0210682
                ],
                "Distance": 241.59,
                "Frequency": 5.9,
                "RSSI": -83.15,
                "LOS": "False"
            }
        },
        {
            "type": "Feature",
            "geometry": {
                "type": "Point",
                "coordinates": [
                    8.22482069,
                    50.01902012
                ]
            },
            "properties": {
                "RSU coordinates": [
                    8.2243364,
                    50.0210682
                ],
                "Distance": 230.62,
                "Frequency": 5.9,
                "RSSI": -67.75,
                "LOS": "True"
            }
        },
        {
            "type": "Feature",
            "geometry": {
                "type": "Point",
                "coordinates": [
                    8.22472383,
                    50.01869674
                ]
            },
            "properties": {
                "RSU coordinates": [
                    8.2243364,
                    50.0210682
                ],
                "Distance": 265.45,
                "Frequency": 5.9,
                "RSSI": -98.96,
                "LOS": "False"
            }
        },
        {
            "type": "Feature",
            "geometry": {
                "type": "Point",
                "coordinates": [
                    8.22482069,
                    50.01880453
                ]
            },
            "properties": {
                "RSU coordinates": [
                    8.2243364,
                    50.0210682
                ],
                "Distance": 254.37,
                "Frequency": 5.9,
                "RSSI": -68.59,
                "LOS": "True"
            }
        },
        {
            "type": "Feature",
            "geometry": {
                "type": "Point",
                "coordinates": [
                    8.22472383,
                    50.01848115
                ]
            },
            "properties": {
                "RSU coordinates": [
                    8.2243364,
                    50.0210682
                ],
                "Distance": 289.33,
                "Frequency": 5.9,
                "RSSI": -99.7,
                "LOS": "False"
            }
        },
        {
            "type": "Feature",
            "geometry": {
                "type": "Point",
                "coordinates": [
                    8.22482069,
                    50.01858895
                ]
            },
            "properties": {
                "RSU coordinates": [
                    8.2243364,
                    50.0210682
                ],
                "Distance": 278.17,
                "Frequency": 5.9,
                "RSSI": -69.36,
                "LOS": "True"
            }
        },
        {
            "type": "Feature",
            "geometry": {
                "type": "Point",
                "coordinates": [
                    8.22491755,
                    50.01869674
                ]
            },
            "properties": {
                "RSU coordinates": [
                    8.2243364,
                    50.0210682
                ],
                "Distance": 267.25,
                "Frequency": 5.9,
                "RSSI": -69.01,
                "LOS": "True"
            }
        },
        {
            "type": "Feature",
            "geometry": {
                "type": "Point",
                "coordinates": [
                    8.22491754,
                    50.01826557
                ]
            },
            "properties": {
                "RSU coordinates": [
                    8.2243364,
                    50.0210682
                ],
                "Distance": 314.76,
                "Frequency": 5.9,
                "RSSI": -85.42,
                "LOS": "False"
            }
        },
        {
            "type": "Feature",
            "geometry": {
                "type": "Point",
                "coordinates": [
                    8.2250144,
                    50.01837336
                ]
            },
            "properties": {
                "RSU coordinates": [
                    8.2243364,
                    50.0210682
                ],
                "Distance": 303.89,
                "Frequency": 5.9,
                "RSSI": -70.12,
                "LOS": "True"
            }
        },
        {
            "type": "Feature",
            "geometry": {
                "type": "Point",
                "coordinates": [
                    8.22491754,
                    50.01804998
                ]
            },
            "properties": {
                "RSU coordinates": [
                    8.2243364,
                    50.0210682
                ],
                "Distance": 338.56,
                "Frequency": 5.9,
                "RSSI": -86.04,
                "LOS": "False"
            }
        },
        {
            "type": "Feature",
            "geometry": {
                "type": "Point",
                "coordinates": [
                    8.2250144,
                    50.01815777
                ]
            },
            "properties": {
                "RSU coordinates": [
                    8.2243364,
                    50.0210682
                ],
                "Distance": 327.61,
                "Frequency": 5.9,
                "RSSI": -85.76,
                "LOS": "False"
            }
        },
        {
            "type": "Feature",
            "geometry": {
                "type": "Point",
                "coordinates": [
                    8.22511125,
                    50.01804998
                ]
            },
            "properties": {
                "RSU coordinates": [
                    8.2243364,
                    50.0210682
                ],
                "Distance": 340.54,
                "Frequency": 5.9,
                "RSSI": -71.09,
                "LOS": "True"
            }
        },
        {
            "type": "Feature",
            "geometry": {
                "type": "Point",
                "coordinates": [
                    8.22501439,
                    50.01751101
                ]
            },
            "properties": {
                "RSU coordinates": [
                    8.2243364,
                    50.0210682
                ],
                "Distance": 398.96,
                "Frequency": 5.9,
                "RSSI": -87.45,
                "LOS": "False"
            }
        },
        {
            "type": "Feature",
            "geometry": {
                "type": "Point",
                "coordinates": [
                    8.2252081,
                    50.0177266
                ]
            },
            "properties": {
                "RSU coordinates": [
                    8.2243364,
                    50.0210682
                ],
                "Distance": 377.19,
                "Frequency": 5.9,
                "RSSI": -86.97,
                "LOS": "False"
            }
        },
        {
            "type": "Feature",
            "geometry": {
                "type": "Point",
                "coordinates": [
                    8.2252081,
                    50.01751101
                ]
            },
            "properties": {
                "RSU coordinates": [
                    8.2243364,
                    50.0210682
                ],
                "Distance": 400.88,
                "Frequency": 5.9,
                "RSSI": -87.49,
                "LOS": "False"
            }
        }
    ]
}