{
    "type": "FeatureCollection",
    "features": [
        {
            "type": "Feature",
            "geometry": {
                "type": "Point",
                "coordinates": [
                    8.26281166,
                    50.00392407
                ]
            },
            "properties": {
                "RSU coordinates": [
                    8.2650387,
                    50.0033851
                ],
                "Distance": 170.27,
                "Frequency": 5.9,
                "RSSI": -95.15,
                "LOS": "False"
            }
        },
        {
            "type": "Feature",
            "geometry": {
                "type": "Point",
                "coordinates": [
                    8.26290848,
                    50.00403186
                ]
            },
            "properties": {
                "RSU coordinates": [
                    8.2650387,
                    50.0033851
                ],
                "Distance": 168.57,
                "Frequency": 5.9,
                "RSSI": -95.06,
                "LOS": "False"
            }
        },
        {
            "type": "Feature",
            "geometry": {
                "type": "Point",
                "coordinates": [
                    8.26300532,
                    50.00392407
                ]
            },
            "properties": {
                "RSU coordinates": [
                    8.2650387,
                    50.0033851
                ],
                "Distance": 157.38,
                "Frequency": 5.9,
                "RSSI": -94.47,
                "LOS": "False"
            }
        },
        {
            "type": "Feature",
            "geometry": {
                "type": "Point",
                "coordinates": [
                    8.26319897,
                    50.00392407
                ]
            },
            "properties": {
                "RSU coordinates": [
                    8.2650387,
                    50.0033851
                ],
                "Distance": 144.67,
                "Frequency": 5.9,
                "RSSI": -93.75,
                "LOS": "False"
            }
        },
        {
            "type": "Feature",
            "geometry": {
                "type": "Point",
                "coordinates": [
                    8.2632958,
                    50.00381627
                ]
            },
            "properties": {
                "RSU coordinates": [
                    8.2650387,
                    50.0033851
                ],
                "Distance": 133.63,
                "Frequency": 5.9,
                "RSSI": -93.07,
                "LOS": "False"
            }
        },
        {
            "type": "Feature",
            "geometry": {
                "type": "Point",
                "coordinates": [
                    8.26348946,
                    50.00381627
                ]
            },
            "properties": {
                "RSU coordinates": [
                    8.2650387,
                    50.0033851
                ],
                "Distance": 120.8,
                "Frequency": 5.9,
                "RSSI": -92.2,
                "LOS": "False"
            }
        },
        {
            "type": "Feature",
            "geometry": {
                "type": "Point",
                "coordinates": [
                    8.26377994,
                    50.00370848
                ]
            },
            "properties": {
                "RSU coordinates": [
                    8.2650387,
                    50.0033851
                ],
                "Distance": 96.99,
                "Frequency": 5.9,
                "RSSI": -75.32,
                "LOS": "False"
            }
        },
        {
            "type": "Feature",
            "geometry": {
                "type": "Point",
                "coordinates": [
                    8.2639736,
                    50.00370848
                ]
            },
            "properties": {
                "RSU coordinates": [
                    8.2650387,
                    50.0033851
                ],
                "Distance": 84.29,
                "Frequency": 5.9,
                "RSSI": -89.12,
                "LOS": "False"
            }
        },
        {
            "type": "Feature",
            "geometry": {
                "type": "Point",
                "coordinates": [
                    8.26445773,
                    50.00424745
                ]
            },
            "properties": {
                "RSU coordinates": [
                    8.2650387,
                    50.0033851
                ],
                "Distance": 104.61,
                "Frequency": 5.9,
                "RSSI": -90.97,
                "LOS": "False"
            }
        },
        {
            "type": "Feature",
            "geometry": {
                "type": "Point",
                "coordinates": [
                    8.26407043,
                    50.00360069
                ]
            },
            "properties": {
                "RSU coordinates": [
                    8.2650387,
                    50.0033851
                ],
                "Distance": 73.32,
                "Frequency": 5.9,
                "RSSI": -72.92,
                "LOS": "False"
            }
        },
        {
            "type": "Feature",
            "geometry": {
                "type": "Point",
                "coordinates": [
                    8.26455456,
                    50.00413966
                ]
            },
            "properties": {
                "RSU coordinates": [
                    8.2650387,
                    50.0033851
                ],
                "Distance": 90.86,
                "Frequency": 5.9,
                "RSSI": -89.75999999999999,
                "LOS": "False"
            }
        },
        {
            "type": "Feature",
            "geometry": {
                "type": "Point",
                "coordinates": [
                    8.26426408,
                    50.00360069
                ]
            },
            "properties": {
                "RSU coordinates": [
                    8.2650387,
                    50.0033851
                ],
                "Distance": 60.4,
                "Frequency": 5.9,
                "RSSI": -86.25999999999999,
                "LOS": "False"
            }
        },
        {
            "type": "Feature",
            "geometry": {
                "type": "Point",
                "coordinates": [
                    8.26397361,
                    50.00306172
                ]
            },
            "properties": {
                "RSU coordinates": [
                    8.2650387,
                    50.0033851
                ],
                "Distance": 84.29,
                "Frequency": 5.9,
                "RSSI": -89.12,
                "LOS": "False"
            }
        },
        {
            "type": "Feature",
            "geometry": {
                "type": "Point",
                "coordinates": [
                    8.26436091,
                    50.00349289
                ]
            },
            "properties": {
                "RSU coordinates": [
                    8.2650387,
                    50.0033851
                ],
                "Distance": 49.96,
                "Frequency": 5.9,
                "RSSI": -69.63,
                "LOS": "False"
            }
        },
        {
            "type": "Feature",
            "geometry": {
                "type": "Point",
                "coordinates": [
                    8.26455456,
                    50.00370848
                ]
            },
            "properties": {
                "RSU coordinates": [
                    8.2650387,
                    50.0033851
                ],
                "Distance": 49.96,
                "Frequency": 5.9,
                "RSSI": -84.63,
                "LOS": "False"
            }
        },
        {
            "type": "Feature",
            "geometry": {
                "type": "Point",
                "coordinates": [
                    8.26416727,
                    50.00306172
                ]
            },
            "properties": {
                "RSU coordinates": [
                    8.2650387,
                    50.0033851
                ],
                "Distance": 72.0,
                "Frequency": 5.9,
                "RSSI": -87.77000000000001,
                "LOS": "False"
            }
        },
        {
            "type": "Feature",
            "geometry": {
                "type": "Point",
                "coordinates": [
                    8.26455457,
                    50.00349289
                ]
            },
            "properties": {
                "RSU coordinates": [
                    8.2650387,
                    50.0033851
                ],
                "Distance": 36.66,
                "Frequency": 5.9,
                "RSSI": -66.97999999999999,
                "LOS": "False"
            }
        },
        {
            "type": "Feature",
            "geometry": {
                "type": "Point",
                "coordinates": [
                    8.26445774,
                    50.00316951
                ]
            },
            "properties": {
                "RSU coordinates": [
                    8.2650387,
                    50.0033851
                ],
                "Distance": 48.0,
                "Frequency": 5.9,
                "RSSI": -69.28999999999999,
                "LOS": "False"
            }
        },
        {
            "type": "Feature",
            "geometry": {
                "type": "Point",
                "coordinates": [
                    8.26465139,
                    50.0033851
                ]
            },
            "properties": {
                "RSU coordinates": [
                    8.2650387,
                    50.0033851
                ],
                "Distance": 27.71,
                "Frequency": 5.9,
                "RSSI": -64.58,
                "LOS": "False"
            }
        },
        {
            "type": "Feature",
            "geometry": {
                "type": "Point",
                "coordinates": [
                    8.26484505,
                    50.00360069
                ]
            },
            "properties": {
                "RSU coordinates": [
                    8.2650387,
                    50.0033851
                ],
                "Distance": 27.71,
                "Frequency": 5.9,
                "RSSI": -64.58,
                "LOS": "False"
            }
        },
        {
            "type": "Feature",
            "geometry": {
                "type": "Point",
                "coordinates": [
                    8.26145639,
                    49.99961232
                ]
            },
            "properties": {
                "RSU coordinates": [
                    8.2650387,
                    50.0033851
                ],
                "Distance": 492.05,
                "Frequency": 5.9,
                "RSSI": -89.25,
                "LOS": "False"
            }
        },
        {
            "type": "Feature",
            "geometry": {
                "type": "Point",
                "coordinates": [
                    8.2615532,
                    49.99972012
                ]
            },
            "properties": {
                "RSU coordinates": [
                    8.2650387,
                    50.0033851
                ],
                "Distance": 478.2,
                "Frequency": 5.9,
                "RSSI": -89.0,
                "LOS": "False"
            }
        },
        {
            "type": "Feature",
            "geometry": {
                "type": "Point",
                "coordinates": [
                    8.26165001,
                    49.99982791
                ]
            },
            "properties": {
                "RSU coordinates": [
                    8.2650387,
                    50.0033851
                ],
                "Distance": 464.34,
                "Frequency": 5.9,
                "RSSI": -88.75,
                "LOS": "False"
            }
        },
        {
            "type": "Feature",
            "geometry": {
                "type": "Point",
                "coordinates": [
                    8.26174683,
                    49.99993571
                ]
            },
            "properties": {
                "RSU coordinates": [
                    8.2650387,
                    50.0033851
                ],
                "Distance": 450.49,
                "Frequency": 5.9,
                "RSSI": -88.49,
                "LOS": "False"
            }
        },
        {
            "type": "Feature",
            "geometry": {
                "type": "Point",
                "coordinates": [
                    8.26184364,
                    50.0000435
                ]
            },
            "properties": {
                "RSU coordinates": [
                    8.2650387,
                    50.0033851
                ],
                "Distance": 436.64,
                "Frequency": 5.9,
                "RSSI": -88.22,
                "LOS": "False"
            }
        },
        {
            "type": "Feature",
            "geometry": {
                "type": "Point",
                "coordinates": [
                    8.26194045,
                    50.00015129
                ]
            },
            "properties": {
                "RSU coordinates": [
                    8.2650387,
                    50.0033851
                ],
                "Distance": 422.79,
                "Frequency": 5.9,
                "RSSI": -87.95,
                "LOS": "False"
            }
        },
        {
            "type": "Feature",
            "geometry": {
                "type": "Point",
                "coordinates": [
                    8.26203727,
                    50.00025909
                ]
            },
            "properties": {
                "RSU coordinates": [
                    8.2650387,
                    50.0033851
                ],
                "Distance": 408.94,
                "Frequency": 5.9,
                "RSSI": -87.66,
                "LOS": "False"
            }
        },
        {
            "type": "Feature",
            "geometry": {
                "type": "Point",
                "coordinates": [
                    8.26213408,
                    50.00036688
                ]
            },
            "properties": {
                "RSU coordinates": [
                    8.2650387,
                    50.0033851
                ],
                "Distance": 395.09,
                "Frequency": 5.9,
                "RSSI": -87.37,
                "LOS": "False"
            }
        },
        {
            "type": "Feature",
            "geometry": {
                "type": "Point",
                "coordinates": [
                    8.26223089,
                    50.00047467
                ]
            },
            "properties": {
                "RSU coordinates": [
                    8.2650387,
                    50.0033851
                ],
                "Distance": 381.24,
                "Frequency": 5.9,
                "RSSI": -87.06,
                "LOS": "False"
            }
        },
        {
            "type": "Feature",
            "geometry": {
                "type": "Point",
                "coordinates": [
                    8.26242452,
                    50.00069026
                ]
            },
            "properties": {
                "RSU coordinates": [
                    8.2650387,
                    50.0033851
                ],
                "Distance": 353.54,
                "Frequency": 5.9,
                "RSSI": -86.41,
                "LOS": "False"
            }
        },
        {
            "type": "Feature",
            "geometry": {
                "type": "Point",
                "coordinates": [
                    8.26484505,
                    50.0033851
                ]
            },
            "properties": {
                "RSU coordinates": [
                    8.2650387,
                    50.0033851
                ],
                "Distance": 13.86,
                "Frequency": 5.9,
                "RSSI": -58.63,
                "LOS": "False"
            }
        },
        {
            "type": "Feature",
            "geometry": {
                "type": "Point",
                "coordinates": [
                    8.26513553,
                    50.00370848
                ]
            },
            "properties": {
                "RSU coordinates": [
                    8.2650387,
                    50.0033851
                ],
                "Distance": 36.66,
                "Frequency": 5.9,
                "RSSI": -96.97999999999999,
                "LOS": "False"
            }
        },
        {
            "type": "Feature",
            "geometry": {
                "type": "Point",
                "coordinates": [
                    8.26319907,
                    50.00133702
                ]
            },
            "properties": {
                "RSU coordinates": [
                    8.2650387,
                    50.0033851
                ],
                "Distance": 263.27,
                "Frequency": 5.9,
                "RSSI": -98.89,
                "LOS": "False"
            }
        },
        {
            "type": "Feature",
            "geometry": {
                "type": "Point",
                "coordinates": [
                    8.26339271,
                    50.00155261
                ]
            },
            "properties": {
                "RSU coordinates": [
                    8.2650387,
                    50.0033851
                ],
                "Distance": 235.56,
                "Frequency": 5.9,
                "RSSI": -67.93,
                "LOS": "True"
            }
        },
        {
            "type": "Feature",
            "geometry": {
                "type": "Point",
                "coordinates": [
                    8.26348953,
                    50.0016604
                ]
            },
            "properties": {
                "RSU coordinates": [
                    8.2650387,
                    50.0033851
                ],
                "Distance": 221.7,
                "Frequency": 5.9,
                "RSSI": -67.41,
                "LOS": "True"
            }
        },
        {
            "type": "Feature",
            "geometry": {
                "type": "Point",
                "coordinates": [
                    8.26358635,
                    50.0017682
                ]
            },
            "properties": {
                "RSU coordinates": [
                    8.2650387,
                    50.0033851
                ],
                "Distance": 207.85,
                "Frequency": 5.9,
                "RSSI": -66.86,
                "LOS": "True"
            }
        },
        {
            "type": "Feature",
            "geometry": {
                "type": "Point",
                "coordinates": [
                    8.26368317,
                    50.00187599
                ]
            },
            "properties": {
                "RSU coordinates": [
                    8.2650387,
                    50.0033851
                ],
                "Distance": 193.99,
                "Frequency": 5.9,
                "RSSI": -66.27,
                "LOS": "True"
            }
        },
        {
            "type": "Feature",
            "geometry": {
                "type": "Point",
                "coordinates": [
                    8.26377999,
                    50.00198378
                ]
            },
            "properties": {
                "RSU coordinates": [
                    8.2650387,
                    50.0033851
                ],
                "Distance": 180.13,
                "Frequency": 5.9,
                "RSSI": -65.63,
                "LOS": "True"
            }
        },
        {
            "type": "Feature",
            "geometry": {
                "type": "Point",
                "coordinates": [
                    8.26387681,
                    50.00209158
                ]
            },
            "properties": {
                "RSU coordinates": [
                    8.2650387,
                    50.0033851
                ],
                "Distance": 166.28,
                "Frequency": 5.9,
                "RSSI": -64.94,
                "LOS": "True"
            }
        },
        {
            "type": "Feature",
            "geometry": {
                "type": "Point",
                "coordinates": [
                    8.26397363,
                    50.00219937
                ]
            },
            "properties": {
                "RSU coordinates": [
                    8.2650387,
                    50.0033851
                ],
                "Distance": 152.42,
                "Frequency": 5.9,
                "RSSI": -64.2,
                "LOS": "True"
            }
        },
        {
            "type": "Feature",
            "geometry": {
                "type": "Point",
                "coordinates": [
                    8.26407045,
                    50.00230716
                ]
            },
            "properties": {
                "RSU coordinates": [
                    8.2650387,
                    50.0033851
                ],
                "Distance": 138.56,
                "Frequency": 5.9,
                "RSSI": -63.38,
                "LOS": "True"
            }
        },
        {
            "type": "Feature",
            "geometry": {
                "type": "Point",
                "coordinates": [
                    8.26416728,
                    50.00241496
                ]
            },
            "properties": {
                "RSU coordinates": [
                    8.2650387,
                    50.0033851
                ],
                "Distance": 124.71,
                "Frequency": 5.9,
                "RSSI": -62.48,
                "LOS": "True"
            }
        },
        {
            "type": "Feature",
            "geometry": {
                "type": "Point",
                "coordinates": [
                    8.2642641,
                    50.00252275
                ]
            },
            "properties": {
                "RSU coordinates": [
                    8.2650387,
                    50.0033851
                ],
                "Distance": 110.85,
                "Frequency": 5.9,
                "RSSI": -61.47,
                "LOS": "True"
            }
        },
        {
            "type": "Feature",
            "geometry": {
                "type": "Point",
                "coordinates": [
                    8.26436092,
                    50.00263054
                ]
            },
            "properties": {
                "RSU coordinates": [
                    8.2650387,
                    50.0033851
                ],
                "Distance": 96.99,
                "Frequency": 5.9,
                "RSSI": -60.32,
                "LOS": "True"
            }
        },
        {
            "type": "Feature",
            "geometry": {
                "type": "Point",
                "coordinates": [
                    8.26445775,
                    50.00273834
                ]
            },
            "properties": {
                "RSU coordinates": [
                    8.2650387,
                    50.0033851
                ],
                "Distance": 83.14,
                "Frequency": 5.9,
                "RSSI": -59.0,
                "LOS": "True"
            }
        },
        {
            "type": "Feature",
            "geometry": {
                "type": "Point",
                "coordinates": [
                    8.26455457,
                    50.00284613
                ]
            },
            "properties": {
                "RSU coordinates": [
                    8.2650387,
                    50.0033851
                ],
                "Distance": 69.28,
                "Frequency": 5.9,
                "RSSI": -57.44,
                "LOS": "True"
            }
        },
        {
            "type": "Feature",
            "geometry": {
                "type": "Point",
                "coordinates": [
                    8.2646514,
                    50.00295393
                ]
            },
            "properties": {
                "RSU coordinates": [
                    8.2650387,
                    50.0033851
                ],
                "Distance": 55.43,
                "Frequency": 5.9,
                "RSSI": -55.52,
                "LOS": "True"
            }
        },
        {
            "type": "Feature",
            "geometry": {
                "type": "Point",
                "coordinates": [
                    8.26474822,
                    50.00306172
                ]
            },
            "properties": {
                "RSU coordinates": [
                    8.2650387,
                    50.0033851
                ],
                "Distance": 41.57,
                "Frequency": 5.9,
                "RSSI": -53.06,
                "LOS": "True"
            }
        },
        {
            "type": "Feature",
            "geometry": {
                "type": "Point",
                "coordinates": [
                    8.26484505,
                    50.00316951
                ]
            },
            "properties": {
                "RSU coordinates": [
                    8.2650387,
                    50.0033851
                ],
                "Distance": 27.71,
                "Frequency": 5.9,
                "RSSI": -49.58,
                "LOS": "True"
            }
        },
        {
            "type": "Feature",
            "geometry": {
                "type": "Point",
                "coordinates": [
                    8.26494187,
                    50.00327731
                ]
            },
            "properties": {
                "RSU coordinates": [
                    8.2650387,
                    50.0033851
                ],
                "Distance": 13.86,
                "Frequency": 5.9,
                "RSSI": -43.63,
                "LOS": "True"
            }
        },
        {
            "type": "Feature",
            "geometry": {
                "type": "Point",
                "coordinates": [
                    8.26513553,
                    50.00349289
                ]
            },
            "properties": {
                "RSU coordinates": [
                    8.2650387,
                    50.0033851
                ],
                "Distance": 13.86,
                "Frequency": 5.9,
                "RSSI": -43.63,
                "LOS": "True"
            }
        },
        {
            "type": "Feature",
            "geometry": {
                "type": "Point",
                "coordinates": [
                    8.26523235,
                    50.00360069
                ]
            },
            "properties": {
                "RSU coordinates": [
                    8.2650387,
                    50.0033851
                ],
                "Distance": 27.71,
                "Frequency": 5.9,
                "RSSI": -49.58,
                "LOS": "True"
            }
        },
        {
            "type": "Feature",
            "geometry": {
                "type": "Point",
                "coordinates": [
                    8.26532918,
                    50.00370848
                ]
            },
            "properties": {
                "RSU coordinates": [
                    8.2650387,
                    50.0033851
                ],
                "Distance": 41.57,
                "Frequency": 5.9,
                "RSSI": -53.06,
                "LOS": "True"
            }
        },
        {
            "type": "Feature",
            "geometry": {
                "type": "Point",
                "coordinates": [
                    8.26542601,
                    50.00381627
                ]
            },
            "properties": {
                "RSU coordinates": [
                    8.2650387,
                    50.0033851
                ],
                "Distance": 55.43,
                "Frequency": 5.9,
                "RSSI": -55.52,
                "LOS": "True"
            }
        },
        {
            "type": "Feature",
            "geometry": {
                "type": "Point",
                "coordinates": [
                    8.26552284,
                    50.00392407
                ]
            },
            "properties": {
                "RSU coordinates": [
                    8.2650387,
                    50.0033851
                ],
                "Distance": 69.28,
                "Frequency": 5.9,
                "RSSI": -57.44,
                "LOS": "True"
            }
        },
        {
            "type": "Feature",
            "geometry": {
                "type": "Point",
                "coordinates": [
                    8.26561967,
                    50.00403186
                ]
            },
            "properties": {
                "RSU coordinates": [
                    8.2650387,
                    50.0033851
                ],
                "Distance": 83.14,
                "Frequency": 5.9,
                "RSSI": -59.0,
                "LOS": "True"
            }
        },
        {
            "type": "Feature",
            "geometry": {
                "type": "Point",
                "coordinates": [
                    8.2657165,
                    50.00413966
                ]
            },
            "properties": {
                "RSU coordinates": [
                    8.2650387,
                    50.0033851
                ],
                "Distance": 96.99,
                "Frequency": 5.9,
                "RSSI": -75.32,
                "LOS": "False"
            }
        },
        {
            "type": "Feature",
            "geometry": {
                "type": "Point",
                "coordinates": [
                    8.26581333,
                    50.00424745
                ]
            },
            "properties": {
                "RSU coordinates": [
                    8.2650387,
                    50.0033851
                ],
                "Distance": 110.85,
                "Frequency": 5.9,
                "RSSI": -76.47,
                "LOS": "False"
            }
        },
        {
            "type": "Feature",
            "geometry": {
                "type": "Point",
                "coordinates": [
                    8.26591016,
                    50.00435524
                ]
            },
            "properties": {
                "RSU coordinates": [
                    8.2650387,
                    50.0033851
                ],
                "Distance": 124.71,
                "Frequency": 5.9,
                "RSSI": -77.47999999999999,
                "LOS": "False"
            }
        },
        {
            "type": "Feature",
            "geometry": {
                "type": "Point",
                "coordinates": [
                    8.26513553,
                    50.00327731
                ]
            },
            "properties": {
                "RSU coordinates": [
                    8.2650387,
                    50.0033851
                ],
                "Distance": 13.86,
                "Frequency": 5.9,
                "RSSI": -58.63,
                "LOS": "False"
            }
        },
        {
            "type": "Feature",
            "geometry": {
                "type": "Point",
                "coordinates": [
                    8.26542601,
                    50.00360069
                ]
            },
            "properties": {
                "RSU coordinates": [
                    8.2650387,
                    50.0033851
                ],
                "Distance": 36.66,
                "Frequency": 5.9,
                "RSSI": -66.97999999999999,
                "LOS": "False"
            }
        },
        {
            "type": "Feature",
            "geometry": {
                "type": "Point",
                "coordinates": [
                    8.26552284,
                    50.00370848
                ]
            },
            "properties": {
                "RSU coordinates": [
                    8.2650387,
                    50.0033851
                ],
                "Distance": 49.96,
                "Frequency": 5.9,
                "RSSI": -54.63,
                "LOS": "True"
            }
        },
        {
            "type": "Feature",
            "geometry": {
                "type": "Point",
                "coordinates": [
                    8.26561967,
                    50.00381627
                ]
            },
            "properties": {
                "RSU coordinates": [
                    8.2650387,
                    50.0033851
                ],
                "Distance": 63.5,
                "Frequency": 5.9,
                "RSSI": -56.69,
                "LOS": "True"
            }
        },
        {
            "type": "Feature",
            "geometry": {
                "type": "Point",
                "coordinates": [
                    8.26571649,
                    50.00392407
                ]
            },
            "properties": {
                "RSU coordinates": [
                    8.2650387,
                    50.0033851
                ],
                "Distance": 77.15,
                "Frequency": 5.9,
                "RSSI": -58.36,
                "LOS": "True"
            }
        },
        {
            "type": "Feature",
            "geometry": {
                "type": "Point",
                "coordinates": [
                    8.26581332,
                    50.00403186
                ]
            },
            "properties": {
                "RSU coordinates": [
                    8.2650387,
                    50.0033851
                ],
                "Distance": 90.86,
                "Frequency": 5.9,
                "RSSI": -59.76,
                "LOS": "True"
            }
        },
        {
            "type": "Feature",
            "geometry": {
                "type": "Point",
                "coordinates": [
                    8.26591015,
                    50.00413966
                ]
            },
            "properties": {
                "RSU coordinates": [
                    8.2650387,
                    50.0033851
                ],
                "Distance": 104.61,
                "Frequency": 5.9,
                "RSSI": -60.97,
                "LOS": "True"
            }
        },
        {
            "type": "Feature",
            "geometry": {
                "type": "Point",
                "coordinates": [
                    8.26600698,
                    50.00424745
                ]
            },
            "properties": {
                "RSU coordinates": [
                    8.2650387,
                    50.0033851
                ],
                "Distance": 118.39,
                "Frequency": 5.9,
                "RSSI": -62.03,
                "LOS": "True"
            }
        },
        {
            "type": "Feature",
            "geometry": {
                "type": "Point",
                "coordinates": [
                    8.26610382,
                    50.00435524
                ]
            },
            "properties": {
                "RSU coordinates": [
                    8.2650387,
                    50.0033851
                ],
                "Distance": 132.18,
                "Frequency": 5.9,
                "RSSI": -62.98,
                "LOS": "True"
            }
        },
        {
            "type": "Feature",
            "geometry": {
                "type": "Point",
                "coordinates": [
                    8.26620065,
                    50.00446304
                ]
            },
            "properties": {
                "RSU coordinates": [
                    8.2650387,
                    50.0033851
                ],
                "Distance": 145.99,
                "Frequency": 5.9,
                "RSSI": -63.83,
                "LOS": "True"
            }
        },
        {
            "type": "Feature",
            "geometry": {
                "type": "Point",
                "coordinates": [
                    8.26629748,
                    50.00457083
                ]
            },
            "properties": {
                "RSU coordinates": [
                    8.2650387,
                    50.0033851
                ],
                "Distance": 159.8,
                "Frequency": 5.9,
                "RSSI": -64.6,
                "LOS": "True"
            }
        },
        {
            "type": "Feature",
            "geometry": {
                "type": "Point",
                "coordinates": [
                    8.26639431,
                    50.00467862
                ]
            },
            "properties": {
                "RSU coordinates": [
                    8.2650387,
                    50.0033851
                ],
                "Distance": 173.62,
                "Frequency": 5.9,
                "RSSI": -65.32,
                "LOS": "True"
            }
        },
        {
            "type": "Feature",
            "geometry": {
                "type": "Point",
                "coordinates": [
                    8.26649114,
                    50.00478642
                ]
            },
            "properties": {
                "RSU coordinates": [
                    8.2650387,
                    50.0033851
                ],
                "Distance": 187.45,
                "Frequency": 5.9,
                "RSSI": -65.97,
                "LOS": "True"
            }
        },
        {
            "type": "Feature",
            "geometry": {
                "type": "Point",
                "coordinates": [
                    8.26658798,
                    50.00489421
                ]
            },
            "properties": {
                "RSU coordinates": [
                    8.2650387,
                    50.0033851
                ],
                "Distance": 201.28,
                "Frequency": 5.9,
                "RSSI": -66.58,
                "LOS": "True"
            }
        },
        {
            "type": "Feature",
            "geometry": {
                "type": "Point",
                "coordinates": [
                    8.26668481,
                    50.005002
                ]
            },
            "properties": {
                "RSU coordinates": [
                    8.2650387,
                    50.0033851
                ],
                "Distance": 215.11,
                "Frequency": 5.9,
                "RSSI": -67.15,
                "LOS": "True"
            }
        },
        {
            "type": "Feature",
            "geometry": {
                "type": "Point",
                "coordinates": [
                    8.26678164,
                    50.0051098
                ]
            },
            "properties": {
                "RSU coordinates": [
                    8.2650387,
                    50.0033851
                ],
                "Distance": 228.95,
                "Frequency": 5.9,
                "RSSI": -67.69,
                "LOS": "True"
            }
        },
        {
            "type": "Feature",
            "geometry": {
                "type": "Point",
                "coordinates": [
                    8.26687848,
                    50.00521759
                ]
            },
            "properties": {
                "RSU coordinates": [
                    8.2650387,
                    50.0033851
                ],
                "Distance": 242.78,
                "Frequency": 5.9,
                "RSSI": -68.19,
                "LOS": "True"
            }
        },
        {
            "type": "Feature",
            "geometry": {
                "type": "Point",
                "coordinates": [
                    8.26697531,
                    50.00532538
                ]
            },
            "properties": {
                "RSU coordinates": [
                    8.2650387,
                    50.0033851
                ],
                "Distance": 256.62,
                "Frequency": 5.9,
                "RSSI": -68.67,
                "LOS": "True"
            }
        },
        {
            "type": "Feature",
            "geometry": {
                "type": "Point",
                "coordinates": [
                    8.26707215,
                    50.00543318
                ]
            },
            "properties": {
                "RSU coordinates": [
                    8.2650387,
                    50.0033851
                ],
                "Distance": 270.47,
                "Frequency": 5.9,
                "RSSI": -69.12,
                "LOS": "True"
            }
        },
        {
            "type": "Feature",
            "geometry": {
                "type": "Point",
                "coordinates": [
                    8.26716898,
                    50.00554097
                ]
            },
            "properties": {
                "RSU coordinates": [
                    8.2650387,
                    50.0033851
                ],
                "Distance": 284.31,
                "Frequency": 5.9,
                "RSSI": -69.55,
                "LOS": "True"
            }
        },
        {
            "type": "Feature",
            "geometry": {
                "type": "Point",
                "coordinates": [
                    8.26726582,
                    50.00564877
                ]
            },
            "properties": {
                "RSU coordinates": [
                    8.2650387,
                    50.0033851
                ],
                "Distance": 298.15,
                "Frequency": 5.9,
                "RSSI": -69.95,
                "LOS": "True"
            }
        },
        {
            "type": "Feature",
            "geometry": {
                "type": "Point",
                "coordinates": [
                    8.26736266,
                    50.00575656
                ]
            },
            "properties": {
                "RSU coordinates": [
                    8.2650387,
                    50.0033851
                ],
                "Distance": 312.0,
                "Frequency": 5.9,
                "RSSI": -70.34,
                "LOS": "True"
            }
        },
        {
            "type": "Feature",
            "geometry": {
                "type": "Point",
                "coordinates": [
                    8.26745949,
                    50.00586435
                ]
            },
            "properties": {
                "RSU coordinates": [
                    8.2650387,
                    50.0033851
                ],
                "Distance": 325.85,
                "Frequency": 5.9,
                "RSSI": -70.71,
                "LOS": "True"
            }
        },
        {
            "type": "Feature",
            "geometry": {
                "type": "Point",
                "coordinates": [
                    8.26494187,
                    50.00284613
                ]
            },
            "properties": {
                "RSU coordinates": [
                    8.2650387,
                    50.0033851
                ],
                "Distance": 60.4,
                "Frequency": 5.9,
                "RSSI": -86.25999999999999,
                "LOS": "False"
            }
        },
        {
            "type": "Feature",
            "geometry": {
                "type": "Point",
                "coordinates": [
                    8.2650387,
                    50.00295393
                ]
            },
            "properties": {
                "RSU coordinates": [
                    8.2650387,
                    50.0033851
                ],
                "Distance": 48.0,
                "Frequency": 5.9,
                "RSSI": -84.28999999999999,
                "LOS": "False"
            }
        },
        {
            "type": "Feature",
            "geometry": {
                "type": "Point",
                "coordinates": [
                    8.26513553,
                    50.00306172
                ]
            },
            "properties": {
                "RSU coordinates": [
                    8.2650387,
                    50.0033851
                ],
                "Distance": 36.66,
                "Frequency": 5.9,
                "RSSI": -81.97999999999999,
                "LOS": "False"
            }
        },
        {
            "type": "Feature",
            "geometry": {
                "type": "Point",
                "coordinates": [
                    8.26523235,
                    50.00316951
                ]
            },
            "properties": {
                "RSU coordinates": [
                    8.2650387,
                    50.0033851
                ],
                "Distance": 27.71,
                "Frequency": 5.9,
                "RSSI": -64.58,
                "LOS": "False"
            }
        },
        {
            "type": "Feature",
            "geometry": {
                "type": "Point",
                "coordinates": [
                    8.26542601,
                    50.0033851
                ]
            },
            "properties": {
                "RSU coordinates": [
                    8.2650387,
                    50.0033851
                ],
                "Distance": 27.71,
                "Frequency": 5.9,
                "RSSI": -79.58,
                "LOS": "False"
            }
        },
        {
            "type": "Feature",
            "geometry": {
                "type": "Point",
                "coordinates": [
                    8.26600698,
                    50.00403186
                ]
            },
            "properties": {
                "RSU coordinates": [
                    8.2650387,
                    50.0033851
                ],
                "Distance": 99.92,
                "Frequency": 5.9,
                "RSSI": -90.58,
                "LOS": "False"
            }
        },
        {
            "type": "Feature",
            "geometry": {
                "type": "Point",
                "coordinates": [
                    8.26610381,
                    50.00413966
                ]
            },
            "properties": {
                "RSU coordinates": [
                    8.2650387,
                    50.0033851
                ],
                "Distance": 113.42,
                "Frequency": 5.9,
                "RSSI": -91.66,
                "LOS": "False"
            }
        },
        {
            "type": "Feature",
            "geometry": {
                "type": "Point",
                "coordinates": [
                    8.26629747,
                    50.00435524
                ]
            },
            "properties": {
                "RSU coordinates": [
                    8.2650387,
                    50.0033851
                ],
                "Distance": 140.63,
                "Frequency": 5.9,
                "RSSI": -93.50999999999999,
                "LOS": "False"
            }
        },
        {
            "type": "Feature",
            "geometry": {
                "type": "Point",
                "coordinates": [
                    8.26639431,
                    50.00446304
                ]
            },
            "properties": {
                "RSU coordinates": [
                    8.2650387,
                    50.0033851
                ],
                "Distance": 154.3,
                "Frequency": 5.9,
                "RSSI": -94.3,
                "LOS": "False"
            }
        },
        {
            "type": "Feature",
            "geometry": {
                "type": "Point",
                "coordinates": [
                    8.26649114,
                    50.00457083
                ]
            },
            "properties": {
                "RSU coordinates": [
                    8.2650387,
                    50.0033851
                ],
                "Distance": 168.0,
                "Frequency": 5.9,
                "RSSI": -65.03,
                "LOS": "True"
            }
        },
        {
            "type": "Feature",
            "geometry": {
                "type": "Point",
                "coordinates": [
                    8.26687847,
                    50.005002
                ]
            },
            "properties": {
                "RSU coordinates": [
                    8.2650387,
                    50.0033851
                ],
                "Distance": 223.0,
                "Frequency": 5.9,
                "RSSI": -82.46,
                "LOS": "False"
            }
        },
        {
            "type": "Feature",
            "geometry": {
                "type": "Point",
                "coordinates": [
                    8.26726581,
                    50.00543318
                ]
            },
            "properties": {
                "RSU coordinates": [
                    8.2650387,
                    50.0033851
                ],
                "Distance": 278.17,
                "Frequency": 5.9,
                "RSSI": -84.36,
                "LOS": "False"
            }
        },
        {
            "type": "Feature",
            "geometry": {
                "type": "Point",
                "coordinates": [
                    8.26765316,
                    50.00586435
                ]
            },
            "properties": {
                "RSU coordinates": [
                    8.2650387,
                    50.0033851
                ],
                "Distance": 333.42,
                "Frequency": 5.9,
                "RSSI": -70.91,
                "LOS": "True"
            }
        },
        {
            "type": "Feature",
            "geometry": {
                "type": "Point",
                "coordinates": [
                    8.26775,
                    50.00597215
                ]
            },
            "properties": {
                "RSU coordinates": [
                    8.2650387,
                    50.0033851
                ],
                "Distance": 347.24,
                "Frequency": 5.9,
                "RSSI": -71.26,
                "LOS": "True"
            }
        },
        {
            "type": "Feature",
            "geometry": {
                "type": "Point",
                "coordinates": [
                    8.26784683,
                    50.00607994
                ]
            },
            "properties": {
                "RSU coordinates": [
                    8.2650387,
                    50.0033851
                ],
                "Distance": 361.07,
                "Frequency": 5.9,
                "RSSI": -71.59,
                "LOS": "True"
            }
        },
        {
            "type": "Feature",
            "geometry": {
                "type": "Point",
                "coordinates": [
                    8.26794367,
                    50.00618773
                ]
            },
            "properties": {
                "RSU coordinates": [
                    8.2650387,
                    50.0033851
                ],
                "Distance": 374.89,
                "Frequency": 5.9,
                "RSSI": -71.92,
                "LOS": "True"
            }
        },
        {
            "type": "Feature",
            "geometry": {
                "type": "Point",
                "coordinates": [
                    8.26494187,
                    50.00263054
                ]
            },
            "properties": {
                "RSU coordinates": [
                    8.2650387,
                    50.0033851
                ],
                "Distance": 84.29,
                "Frequency": 5.9,
                "RSSI": -89.12,
                "LOS": "False"
            }
        },
        {
            "type": "Feature",
            "geometry": {
                "type": "Point",
                "coordinates": [
                    8.2650387,
                    50.00273834
                ]
            },
            "properties": {
                "RSU coordinates": [
                    8.2650387,
                    50.0033851
                ],
                "Distance": 72.0,
                "Frequency": 5.9,
                "RSSI": -87.77000000000001,
                "LOS": "False"
            }
        },
        {
            "type": "Feature",
            "geometry": {
                "type": "Point",
                "coordinates": [
                    8.26513553,
                    50.00284613
                ]
            },
            "properties": {
                "RSU coordinates": [
                    8.2650387,
                    50.0033851
                ],
                "Distance": 60.4,
                "Frequency": 5.9,
                "RSSI": -86.25999999999999,
                "LOS": "False"
            }
        },
        {
            "type": "Feature",
            "geometry": {
                "type": "Point",
                "coordinates": [
                    8.26523235,
                    50.00295393
                ]
            },
            "properties": {
                "RSU coordinates": [
                    8.2650387,
                    50.0033851
                ],
                "Distance": 49.96,
                "Frequency": 5.9,
                "RSSI": -84.63,
                "LOS": "False"
            }
        },
        {
            "type": "Feature",
            "geometry": {
                "type": "Point",
                "coordinates": [
                    8.26552283,
                    50.00327731
                ]
            },
            "properties": {
                "RSU coordinates": [
                    8.2650387,
                    50.0033851
                ],
                "Distance": 36.66,
                "Frequency": 5.9,
                "RSSI": -66.97999999999999,
                "LOS": "False"
            }
        },
        {
            "type": "Feature",
            "geometry": {
                "type": "Point",
                "coordinates": [
                    8.26561966,
                    50.0033851
                ]
            },
            "properties": {
                "RSU coordinates": [
                    8.2650387,
                    50.0033851
                ],
                "Distance": 41.57,
                "Frequency": 5.9,
                "RSSI": -83.06,
                "LOS": "False"
            }
        },
        {
            "type": "Feature",
            "geometry": {
                "type": "Point",
                "coordinates": [
                    8.26571649,
                    50.00349289
                ]
            },
            "properties": {
                "RSU coordinates": [
                    8.2650387,
                    50.0033851
                ],
                "Distance": 49.96,
                "Frequency": 5.9,
                "RSSI": -84.63,
                "LOS": "False"
            }
        },
        {
            "type": "Feature",
            "geometry": {
                "type": "Point",
                "coordinates": [
                    8.2672658,
                    50.00521759
                ]
            },
            "properties": {
                "RSU coordinates": [
                    8.2650387,
                    50.0033851
                ],
                "Distance": 258.86,
                "Frequency": 5.9,
                "RSSI": -98.74,
                "LOS": "False"
            }
        },
        {
            "type": "Feature",
            "geometry": {
                "type": "Point",
                "coordinates": [
                    8.26513553,
                    50.00263054
                ]
            },
            "properties": {
                "RSU coordinates": [
                    8.2650387,
                    50.0033851
                ],
                "Distance": 84.29,
                "Frequency": 5.9,
                "RSSI": -89.12,
                "LOS": "False"
            }
        },
        {
            "type": "Feature",
            "geometry": {
                "type": "Point",
                "coordinates": [
                    8.26552283,
                    50.00306172
                ]
            },
            "properties": {
                "RSU coordinates": [
                    8.2650387,
                    50.0033851
                ],
                "Distance": 49.96,
                "Frequency": 5.9,
                "RSSI": -84.63,
                "LOS": "False"
            }
        },
        {
            "type": "Feature",
            "geometry": {
                "type": "Point",
                "coordinates": [
                    8.26571649,
                    50.00327731
                ]
            },
            "properties": {
                "RSU coordinates": [
                    8.2650387,
                    50.0033851
                ],
                "Distance": 49.96,
                "Frequency": 5.9,
                "RSSI": -69.63,
                "LOS": "False"
            }
        },
        {
            "type": "Feature",
            "geometry": {
                "type": "Point",
                "coordinates": [
                    8.26600696,
                    50.00316951
                ]
            },
            "properties": {
                "RSU coordinates": [
                    8.2650387,
                    50.0033851
                ],
                "Distance": 73.32,
                "Frequency": 5.9,
                "RSSI": -87.92,
                "LOS": "False"
            }
        },
        {
            "type": "Feature",
            "geometry": {
                "type": "Point",
                "coordinates": [
                    8.26629744,
                    50.00306172
                ]
            },
            "properties": {
                "RSU coordinates": [
                    8.2650387,
                    50.0033851
                ],
                "Distance": 96.99,
                "Frequency": 5.9,
                "RSSI": -90.32,
                "LOS": "False"
            }
        }
    ]
}