{
    "type": "FeatureCollection",
    "features": [
        {
            "type": "Feature",
            "geometry": {
                "type": "Point",
                "coordinates": [
                    6.93986324,
                    49.24266512
                ]
            },
            "properties": {
                "RSU coordinates": [
                    6.9447249,
                    49.2412638
                ],
                "Distance": 386.24,
                "Frequency": 5.9,
                "RSSI": -87.17,
                "LOS": "False"
            }
        },
        {
            "type": "Feature",
            "geometry": {
                "type": "Point",
                "coordinates": [
                    6.94062587,
                    49.24244953
                ]
            },
            "properties": {
                "RSU coordinates": [
                    6.9447249,
                    49.2412638
                ],
                "Distance": 325.85,
                "Frequency": 5.9,
                "RSSI": -70.71,
                "LOS": "True"
            }
        },
        {
            "type": "Feature",
            "geometry": {
                "type": "Point",
                "coordinates": [
                    6.94081652,
                    49.24244953
                ]
            },
            "properties": {
                "RSU coordinates": [
                    6.9447249,
                    49.2412638
                ],
                "Distance": 313.23,
                "Frequency": 5.9,
                "RSSI": -70.38,
                "LOS": "True"
            }
        },
        {
            "type": "Feature",
            "geometry": {
                "type": "Point",
                "coordinates": [
                    6.94100718,
                    49.24244953
                ]
            },
            "properties": {
                "RSU coordinates": [
                    6.9447249,
                    49.2412638
                ],
                "Distance": 300.72,
                "Frequency": 5.9,
                "RSSI": -70.03,
                "LOS": "True"
            }
        },
        {
            "type": "Feature",
            "geometry": {
                "type": "Point",
                "coordinates": [
                    6.94110251,
                    49.24234174
                ]
            },
            "properties": {
                "RSU coordinates": [
                    6.9447249,
                    49.2412638
                ],
                "Distance": 289.33,
                "Frequency": 5.9,
                "RSSI": -69.7,
                "LOS": "True"
            }
        },
        {
            "type": "Feature",
            "geometry": {
                "type": "Point",
                "coordinates": [
                    6.94129316,
                    49.24234174
                ]
            },
            "properties": {
                "RSU coordinates": [
                    6.9447249,
                    49.2412638
                ],
                "Distance": 276.78,
                "Frequency": 5.9,
                "RSSI": -69.31,
                "LOS": "True"
            }
        },
        {
            "type": "Feature",
            "geometry": {
                "type": "Point",
                "coordinates": [
                    6.9413885,
                    49.24223394
                ]
            },
            "properties": {
                "RSU coordinates": [
                    6.9447249,
                    49.2412638
                ],
                "Distance": 265.45,
                "Frequency": 5.9,
                "RSSI": -68.96,
                "LOS": "True"
            }
        },
        {
            "type": "Feature",
            "geometry": {
                "type": "Point",
                "coordinates": [
                    6.94148381,
                    49.24234174
                ]
            },
            "properties": {
                "RSU coordinates": [
                    6.9447249,
                    49.2412638
                ],
                "Distance": 264.36,
                "Frequency": 5.9,
                "RSSI": -68.92,
                "LOS": "True"
            }
        },
        {
            "type": "Feature",
            "geometry": {
                "type": "Point",
                "coordinates": [
                    6.94157915,
                    49.24223394
                ]
            },
            "properties": {
                "RSU coordinates": [
                    6.9447249,
                    49.2412638
                ],
                "Distance": 252.86,
                "Frequency": 5.9,
                "RSSI": -68.54,
                "LOS": "True"
            }
        },
        {
            "type": "Feature",
            "geometry": {
                "type": "Point",
                "coordinates": [
                    6.9417698,
                    49.24223394
                ]
            },
            "properties": {
                "RSU coordinates": [
                    6.9447249,
                    49.2412638
                ],
                "Distance": 240.4,
                "Frequency": 5.9,
                "RSSI": -68.11,
                "LOS": "True"
            }
        },
        {
            "type": "Feature",
            "geometry": {
                "type": "Point",
                "coordinates": [
                    6.94186513,
                    49.24212615
                ]
            },
            "properties": {
                "RSU coordinates": [
                    6.9447249,
                    49.2412638
                ],
                "Distance": 228.95,
                "Frequency": 5.9,
                "RSSI": -67.69,
                "LOS": "True"
            }
        },
        {
            "type": "Feature",
            "geometry": {
                "type": "Point",
                "coordinates": [
                    6.94196045,
                    49.24223394
                ]
            },
            "properties": {
                "RSU coordinates": [
                    6.9447249,
                    49.2412638
                ],
                "Distance": 228.11,
                "Frequency": 5.9,
                "RSSI": -97.66,
                "LOS": "False"
            }
        },
        {
            "type": "Feature",
            "geometry": {
                "type": "Point",
                "coordinates": [
                    6.94205578,
                    49.24212615
                ]
            },
            "properties": {
                "RSU coordinates": [
                    6.9447249,
                    49.2412638
                ],
                "Distance": 216.44,
                "Frequency": 5.9,
                "RSSI": -67.21,
                "LOS": "True"
            }
        },
        {
            "type": "Feature",
            "geometry": {
                "type": "Point",
                "coordinates": [
                    6.94215111,
                    49.24201836
                ]
            },
            "properties": {
                "RSU coordinates": [
                    6.9447249,
                    49.2412638
                ],
                "Distance": 205.06,
                "Frequency": 5.9,
                "RSSI": -66.74,
                "LOS": "True"
            }
        },
        {
            "type": "Feature",
            "geometry": {
                "type": "Point",
                "coordinates": [
                    6.94224643,
                    49.24212615
                ]
            },
            "properties": {
                "RSU coordinates": [
                    6.9447249,
                    49.2412638
                ],
                "Distance": 204.12,
                "Frequency": 5.9,
                "RSSI": -66.7,
                "LOS": "True"
            }
        },
        {
            "type": "Feature",
            "geometry": {
                "type": "Point",
                "coordinates": [
                    6.94234176,
                    49.24201836
                ]
            },
            "properties": {
                "RSU coordinates": [
                    6.9447249,
                    49.2412638
                ],
                "Distance": 192.5,
                "Frequency": 5.9,
                "RSSI": -66.2,
                "LOS": "True"
            }
        },
        {
            "type": "Feature",
            "geometry": {
                "type": "Point",
                "coordinates": [
                    6.94243709,
                    49.24191056
                ]
            },
            "properties": {
                "RSU coordinates": [
                    6.9447249,
                    49.2412638
                ],
                "Distance": 181.2,
                "Frequency": 5.9,
                "RSSI": -65.68,
                "LOS": "True"
            }
        },
        {
            "type": "Feature",
            "geometry": {
                "type": "Point",
                "coordinates": [
                    6.94253242,
                    49.24201836
                ]
            },
            "properties": {
                "RSU coordinates": [
                    6.9447249,
                    49.2412638
                ],
                "Distance": 180.13,
                "Frequency": 5.9,
                "RSSI": -65.63,
                "LOS": "True"
            }
        },
        {
            "type": "Feature",
            "geometry": {
                "type": "Point",
                "coordinates": [
                    6.94262775,
                    49.24191056
                ]
            },
            "properties": {
                "RSU coordinates": [
                    6.9447249,
                    49.2412638
                ],
                "Distance": 168.57,
                "Frequency": 5.9,
                "RSSI": -65.06,
                "LOS": "True"
            }
        },
        {
            "type": "Feature",
            "geometry": {
                "type": "Point",
                "coordinates": [
                    6.9428184,
                    49.24191056
                ]
            },
            "properties": {
                "RSU coordinates": [
                    6.9447249,
                    49.2412638
                ],
                "Distance": 156.15,
                "Frequency": 5.9,
                "RSSI": -64.41,
                "LOS": "True"
            }
        },
        {
            "type": "Feature",
            "geometry": {
                "type": "Point",
                "coordinates": [
                    6.94291372,
                    49.24180277
                ]
            },
            "properties": {
                "RSU coordinates": [
                    6.9447249,
                    49.2412638
                ],
                "Distance": 144.67,
                "Frequency": 5.9,
                "RSSI": -63.75,
                "LOS": "True"
            }
        },
        {
            "type": "Feature",
            "geometry": {
                "type": "Point",
                "coordinates": [
                    6.94300905,
                    49.24169497
                ]
            },
            "properties": {
                "RSU coordinates": [
                    6.9447249,
                    49.2412638
                ],
                "Distance": 133.63,
                "Frequency": 5.9,
                "RSSI": -78.07,
                "LOS": "False"
            }
        },
        {
            "type": "Feature",
            "geometry": {
                "type": "Point",
                "coordinates": [
                    6.94310437,
                    49.24180277
                ]
            },
            "properties": {
                "RSU coordinates": [
                    6.9447249,
                    49.2412638
                ],
                "Distance": 132.18,
                "Frequency": 5.9,
                "RSSI": -62.98,
                "LOS": "True"
            }
        },
        {
            "type": "Feature",
            "geometry": {
                "type": "Point",
                "coordinates": [
                    6.9431997,
                    49.24169497
                ]
            },
            "properties": {
                "RSU coordinates": [
                    6.9447249,
                    49.2412638
                ],
                "Distance": 120.8,
                "Frequency": 5.9,
                "RSSI": -62.2,
                "LOS": "True"
            }
        },
        {
            "type": "Feature",
            "geometry": {
                "type": "Point",
                "coordinates": [
                    6.94329503,
                    49.24158718
                ]
            },
            "properties": {
                "RSU coordinates": [
                    6.9447249,
                    49.2412638
                ],
                "Distance": 109.98,
                "Frequency": 5.9,
                "RSSI": -91.4,
                "LOS": "False"
            }
        },
        {
            "type": "Feature",
            "geometry": {
                "type": "Point",
                "coordinates": [
                    6.94339035,
                    49.24169497
                ]
            },
            "properties": {
                "RSU coordinates": [
                    6.9447249,
                    49.2412638
                ],
                "Distance": 108.22,
                "Frequency": 5.9,
                "RSSI": -61.26,
                "LOS": "True"
            }
        },
        {
            "type": "Feature",
            "geometry": {
                "type": "Point",
                "coordinates": [
                    6.94348568,
                    49.24158718
                ]
            },
            "properties": {
                "RSU coordinates": [
                    6.9447249,
                    49.2412638
                ],
                "Distance": 96.99,
                "Frequency": 5.9,
                "RSSI": -60.32,
                "LOS": "True"
            }
        },
        {
            "type": "Feature",
            "geometry": {
                "type": "Point",
                "coordinates": [
                    6.943581,
                    49.24169497
                ]
            },
            "properties": {
                "RSU coordinates": [
                    6.9447249,
                    49.2412638
                ],
                "Distance": 96.0,
                "Frequency": 5.9,
                "RSSI": -60.23,
                "LOS": "True"
            }
        },
        {
            "type": "Feature",
            "geometry": {
                "type": "Point",
                "coordinates": [
                    6.94424827,
                    49.24244953
                ]
            },
            "properties": {
                "RSU coordinates": [
                    6.9447249,
                    49.2412638
                ],
                "Distance": 136.47,
                "Frequency": 5.9,
                "RSSI": -78.25,
                "LOS": "False"
            }
        },
        {
            "type": "Feature",
            "geometry": {
                "type": "Point",
                "coordinates": [
                    6.94443892,
                    49.24266512
                ]
            },
            "properties": {
                "RSU coordinates": [
                    6.9447249,
                    49.2412638
                ],
                "Distance": 157.38,
                "Frequency": 5.9,
                "RSSI": -94.47,
                "LOS": "False"
            }
        },
        {
            "type": "Feature",
            "geometry": {
                "type": "Point",
                "coordinates": [
                    6.94367633,
                    49.24158718
                ]
            },
            "properties": {
                "RSU coordinates": [
                    6.9447249,
                    49.2412638
                ],
                "Distance": 84.29,
                "Frequency": 5.9,
                "RSSI": -59.12,
                "LOS": "True"
            }
        },
        {
            "type": "Feature",
            "geometry": {
                "type": "Point",
                "coordinates": [
                    6.9443436,
                    49.24234174
                ]
            },
            "properties": {
                "RSU coordinates": [
                    6.9447249,
                    49.2412638
                ],
                "Distance": 123.16,
                "Frequency": 5.9,
                "RSSI": -77.37,
                "LOS": "False"
            }
        },
        {
            "type": "Feature",
            "geometry": {
                "type": "Point",
                "coordinates": [
                    6.94377166,
                    49.24147939
                ]
            },
            "properties": {
                "RSU coordinates": [
                    6.9447249,
                    49.2412638
                ],
                "Distance": 73.32,
                "Frequency": 5.9,
                "RSSI": -87.92,
                "LOS": "False"
            }
        },
        {
            "type": "Feature",
            "geometry": {
                "type": "Point",
                "coordinates": [
                    6.94386698,
                    49.24158718
                ]
            },
            "properties": {
                "RSU coordinates": [
                    6.9447249,
                    49.2412638
                ],
                "Distance": 72.0,
                "Frequency": 5.9,
                "RSSI": -57.77,
                "LOS": "True"
            }
        },
        {
            "type": "Feature",
            "geometry": {
                "type": "Point",
                "coordinates": [
                    6.9439623,
                    49.24169497
                ]
            },
            "properties": {
                "RSU coordinates": [
                    6.9447249,
                    49.2412638
                ],
                "Distance": 73.32,
                "Frequency": 5.9,
                "RSSI": -87.92,
                "LOS": "False"
            }
        },
        {
            "type": "Feature",
            "geometry": {
                "type": "Point",
                "coordinates": [
                    6.94443892,
                    49.24223394
                ]
            },
            "properties": {
                "RSU coordinates": [
                    6.9447249,
                    49.2412638
                ],
                "Distance": 109.98,
                "Frequency": 5.9,
                "RSSI": -76.4,
                "LOS": "False"
            }
        },
        {
            "type": "Feature",
            "geometry": {
                "type": "Point",
                "coordinates": [
                    6.94453425,
                    49.24234174
                ]
            },
            "properties": {
                "RSU coordinates": [
                    6.9447249,
                    49.2412638
                ],
                "Distance": 120.8,
                "Frequency": 5.9,
                "RSSI": -77.2,
                "LOS": "False"
            }
        },
        {
            "type": "Feature",
            "geometry": {
                "type": "Point",
                "coordinates": [
                    6.9439623,
                    49.24147939
                ]
            },
            "properties": {
                "RSU coordinates": [
                    6.9447249,
                    49.2412638
                ],
                "Distance": 60.4,
                "Frequency": 5.9,
                "RSSI": -56.26,
                "LOS": "True"
            }
        },
        {
            "type": "Feature",
            "geometry": {
                "type": "Point",
                "coordinates": [
                    6.94443892,
                    49.24201836
                ]
            },
            "properties": {
                "RSU coordinates": [
                    6.9447249,
                    49.2412638
                ],
                "Distance": 86.53,
                "Frequency": 5.9,
                "RSSI": -74.34,
                "LOS": "False"
            }
        },
        {
            "type": "Feature",
            "geometry": {
                "type": "Point",
                "coordinates": [
                    6.94453425,
                    49.24212615
                ]
            },
            "properties": {
                "RSU coordinates": [
                    6.9447249,
                    49.2412638
                ],
                "Distance": 96.99,
                "Frequency": 5.9,
                "RSSI": -75.32,
                "LOS": "False"
            }
        },
        {
            "type": "Feature",
            "geometry": {
                "type": "Point",
                "coordinates": [
                    6.94462957,
                    49.24223394
                ]
            },
            "properties": {
                "RSU coordinates": [
                    6.9447249,
                    49.2412638
                ],
                "Distance": 108.22,
                "Frequency": 5.9,
                "RSSI": -76.25999999999999,
                "LOS": "False"
            }
        },
        {
            "type": "Feature",
            "geometry": {
                "type": "Point",
                "coordinates": [
                    6.9447249,
                    49.24234174
                ]
            },
            "properties": {
                "RSU coordinates": [
                    6.9447249,
                    49.2412638
                ],
                "Distance": 120.0,
                "Frequency": 5.9,
                "RSSI": -92.15,
                "LOS": "False"
            }
        },
        {
            "type": "Feature",
            "geometry": {
                "type": "Point",
                "coordinates": [
                    6.94415295,
                    49.24147939
                ]
            },
            "properties": {
                "RSU coordinates": [
                    6.9447249,
                    49.2412638
                ],
                "Distance": 48.0,
                "Frequency": 5.9,
                "RSSI": -54.29,
                "LOS": "True"
            }
        },
        {
            "type": "Feature",
            "geometry": {
                "type": "Point",
                "coordinates": [
                    6.94453425,
                    49.24191056
                ]
            },
            "properties": {
                "RSU coordinates": [
                    6.9447249,
                    49.2412638
                ],
                "Distance": 73.32,
                "Frequency": 5.9,
                "RSSI": -72.92,
                "LOS": "False"
            }
        },
        {
            "type": "Feature",
            "geometry": {
                "type": "Point",
                "coordinates": [
                    6.94462957,
                    49.24201836
                ]
            },
            "properties": {
                "RSU coordinates": [
                    6.9447249,
                    49.2412638
                ],
                "Distance": 84.29,
                "Frequency": 5.9,
                "RSSI": -74.12,
                "LOS": "False"
            }
        },
        {
            "type": "Feature",
            "geometry": {
                "type": "Point",
                "coordinates": [
                    6.9447249,
                    49.24212615
                ]
            },
            "properties": {
                "RSU coordinates": [
                    6.9447249,
                    49.2412638
                ],
                "Distance": 96.0,
                "Frequency": 5.9,
                "RSSI": -90.22999999999999,
                "LOS": "False"
            }
        },
        {
            "type": "Feature",
            "geometry": {
                "type": "Point",
                "coordinates": [
                    6.94415296,
                    49.2412638
                ]
            },
            "properties": {
                "RSU coordinates": [
                    6.9447249,
                    49.2412638
                ],
                "Distance": 41.57,
                "Frequency": 5.9,
                "RSSI": -98.06,
                "LOS": "False"
            }
        },
        {
            "type": "Feature",
            "geometry": {
                "type": "Point",
                "coordinates": [
                    6.94424828,
                    49.24137159
                ]
            },
            "properties": {
                "RSU coordinates": [
                    6.9447249,
                    49.2412638
                ],
                "Distance": 36.66,
                "Frequency": 5.9,
                "RSSI": -51.98,
                "LOS": "True"
            }
        },
        {
            "type": "Feature",
            "geometry": {
                "type": "Point",
                "coordinates": [
                    6.9443436,
                    49.24147939
                ]
            },
            "properties": {
                "RSU coordinates": [
                    6.9447249,
                    49.2412638
                ],
                "Distance": 36.66,
                "Frequency": 5.9,
                "RSSI": -51.98,
                "LOS": "True"
            }
        },
        {
            "type": "Feature",
            "geometry": {
                "type": "Point",
                "coordinates": [
                    6.94443893,
                    49.24158718
                ]
            },
            "properties": {
                "RSU coordinates": [
                    6.9447249,
                    49.2412638
                ],
                "Distance": 41.57,
                "Frequency": 5.9,
                "RSSI": -83.06,
                "LOS": "False"
            }
        },
        {
            "type": "Feature",
            "geometry": {
                "type": "Point",
                "coordinates": [
                    6.94453425,
                    49.24169497
                ]
            },
            "properties": {
                "RSU coordinates": [
                    6.9447249,
                    49.2412638
                ],
                "Distance": 49.96,
                "Frequency": 5.9,
                "RSSI": -84.63,
                "LOS": "False"
            }
        },
        {
            "type": "Feature",
            "geometry": {
                "type": "Point",
                "coordinates": [
                    6.94462957,
                    49.24180277
                ]
            },
            "properties": {
                "RSU coordinates": [
                    6.9447249,
                    49.2412638
                ],
                "Distance": 60.4,
                "Frequency": 5.9,
                "RSSI": -71.25999999999999,
                "LOS": "False"
            }
        },
        {
            "type": "Feature",
            "geometry": {
                "type": "Point",
                "coordinates": [
                    6.9447249,
                    49.24191056
                ]
            },
            "properties": {
                "RSU coordinates": [
                    6.9447249,
                    49.2412638
                ],
                "Distance": 72.0,
                "Frequency": 5.9,
                "RSSI": -87.77000000000001,
                "LOS": "False"
            }
        },
        {
            "type": "Feature",
            "geometry": {
                "type": "Point",
                "coordinates": [
                    6.94386699,
                    49.24072483
                ]
            },
            "properties": {
                "RSU coordinates": [
                    6.9447249,
                    49.2412638
                ],
                "Distance": 86.53,
                "Frequency": 5.9,
                "RSSI": -89.34,
                "LOS": "False"
            }
        },
        {
            "type": "Feature",
            "geometry": {
                "type": "Point",
                "coordinates": [
                    6.94424828,
                    49.24115601
                ]
            },
            "properties": {
                "RSU coordinates": [
                    6.9447249,
                    49.2412638
                ],
                "Distance": 36.66,
                "Frequency": 5.9,
                "RSSI": -81.97999999999999,
                "LOS": "False"
            }
        },
        {
            "type": "Feature",
            "geometry": {
                "type": "Point",
                "coordinates": [
                    6.94443893,
                    49.24137159
                ]
            },
            "properties": {
                "RSU coordinates": [
                    6.9447249,
                    49.2412638
                ],
                "Distance": 24.0,
                "Frequency": 5.9,
                "RSSI": -48.34,
                "LOS": "True"
            }
        },
        {
            "type": "Feature",
            "geometry": {
                "type": "Point",
                "coordinates": [
                    6.94462958,
                    49.24158718
                ]
            },
            "properties": {
                "RSU coordinates": [
                    6.9447249,
                    49.2412638
                ],
                "Distance": 36.66,
                "Frequency": 5.9,
                "RSSI": -66.97999999999999,
                "LOS": "False"
            }
        },
        {
            "type": "Feature",
            "geometry": {
                "type": "Point",
                "coordinates": [
                    6.9447249,
                    49.24169497
                ]
            },
            "properties": {
                "RSU coordinates": [
                    6.9447249,
                    49.2412638
                ],
                "Distance": 48.0,
                "Frequency": 5.9,
                "RSSI": -84.28999999999999,
                "LOS": "False"
            }
        },
        {
            "type": "Feature",
            "geometry": {
                "type": "Point",
                "coordinates": [
                    6.94415296,
                    49.24083263
                ]
            },
            "properties": {
                "RSU coordinates": [
                    6.9447249,
                    49.2412638
                ],
                "Distance": 63.5,
                "Frequency": 5.9,
                "RSSI": -71.69,
                "LOS": "False"
            }
        },
        {
            "type": "Feature",
            "geometry": {
                "type": "Point",
                "coordinates": [
                    6.94424828,
                    49.24094042
                ]
            },
            "properties": {
                "RSU coordinates": [
                    6.9447249,
                    49.2412638
                ],
                "Distance": 49.96,
                "Frequency": 5.9,
                "RSSI": -84.63,
                "LOS": "False"
            }
        },
        {
            "type": "Feature",
            "geometry": {
                "type": "Point",
                "coordinates": [
                    6.94434361,
                    49.24104821
                ]
            },
            "properties": {
                "RSU coordinates": [
                    6.9447249,
                    49.2412638
                ],
                "Distance": 36.66,
                "Frequency": 5.9,
                "RSSI": -81.97999999999999,
                "LOS": "False"
            }
        },
        {
            "type": "Feature",
            "geometry": {
                "type": "Point",
                "coordinates": [
                    6.94443893,
                    49.24115601
                ]
            },
            "properties": {
                "RSU coordinates": [
                    6.9447249,
                    49.2412638
                ],
                "Distance": 24.0,
                "Frequency": 5.9,
                "RSSI": -63.34,
                "LOS": "False"
            }
        },
        {
            "type": "Feature",
            "geometry": {
                "type": "Point",
                "coordinates": [
                    6.94462958,
                    49.24137159
                ]
            },
            "properties": {
                "RSU coordinates": [
                    6.9447249,
                    49.2412638
                ],
                "Distance": 13.86,
                "Frequency": 5.9,
                "RSSI": -43.63,
                "LOS": "True"
            }
        },
        {
            "type": "Feature",
            "geometry": {
                "type": "Point",
                "coordinates": [
                    6.9447249,
                    49.24147939
                ]
            },
            "properties": {
                "RSU coordinates": [
                    6.9447249,
                    49.2412638
                ],
                "Distance": 24.0,
                "Frequency": 5.9,
                "RSSI": -63.34,
                "LOS": "False"
            }
        },
        {
            "type": "Feature",
            "geometry": {
                "type": "Point",
                "coordinates": [
                    6.94529685,
                    49.24212615
                ]
            },
            "properties": {
                "RSU coordinates": [
                    6.9447249,
                    49.2412638
                ],
                "Distance": 104.61,
                "Frequency": 5.9,
                "RSSI": -60.97,
                "LOS": "True"
            }
        },
        {
            "type": "Feature",
            "geometry": {
                "type": "Point",
                "coordinates": [
                    6.94453425,
                    49.24104821
                ]
            },
            "properties": {
                "RSU coordinates": [
                    6.9447249,
                    49.2412638
                ],
                "Distance": 27.71,
                "Frequency": 5.9,
                "RSSI": -64.58,
                "LOS": "False"
            }
        },
        {
            "type": "Feature",
            "geometry": {
                "type": "Point",
                "coordinates": [
                    6.94482022,
                    49.24137159
                ]
            },
            "properties": {
                "RSU coordinates": [
                    6.9447249,
                    49.2412638
                ],
                "Distance": 13.86,
                "Frequency": 5.9,
                "RSSI": -43.63,
                "LOS": "True"
            }
        },
        {
            "type": "Feature",
            "geometry": {
                "type": "Point",
                "coordinates": [
                    6.94491555,
                    49.24147939
                ]
            },
            "properties": {
                "RSU coordinates": [
                    6.9447249,
                    49.2412638
                ],
                "Distance": 27.71,
                "Frequency": 5.9,
                "RSSI": -49.58,
                "LOS": "True"
            }
        },
        {
            "type": "Feature",
            "geometry": {
                "type": "Point",
                "coordinates": [
                    6.94501087,
                    49.24158718
                ]
            },
            "properties": {
                "RSU coordinates": [
                    6.9447249,
                    49.2412638
                ],
                "Distance": 41.57,
                "Frequency": 5.9,
                "RSSI": -53.06,
                "LOS": "True"
            }
        },
        {
            "type": "Feature",
            "geometry": {
                "type": "Point",
                "coordinates": [
                    6.9451062,
                    49.24169497
                ]
            },
            "properties": {
                "RSU coordinates": [
                    6.9447249,
                    49.2412638
                ],
                "Distance": 55.43,
                "Frequency": 5.9,
                "RSSI": -55.52,
                "LOS": "True"
            }
        },
        {
            "type": "Feature",
            "geometry": {
                "type": "Point",
                "coordinates": [
                    6.94520153,
                    49.24180277
                ]
            },
            "properties": {
                "RSU coordinates": [
                    6.9447249,
                    49.2412638
                ],
                "Distance": 69.28,
                "Frequency": 5.9,
                "RSSI": -57.44,
                "LOS": "True"
            }
        },
        {
            "type": "Feature",
            "geometry": {
                "type": "Point",
                "coordinates": [
                    6.94453425,
                    49.24083263
                ]
            },
            "properties": {
                "RSU coordinates": [
                    6.9447249,
                    49.2412638
                ],
                "Distance": 49.96,
                "Frequency": 5.9,
                "RSSI": -99.63,
                "LOS": "False"
            }
        },
        {
            "type": "Feature",
            "geometry": {
                "type": "Point",
                "coordinates": [
                    6.94462958,
                    49.24094042
                ]
            },
            "properties": {
                "RSU coordinates": [
                    6.9447249,
                    49.2412638
                ],
                "Distance": 36.66,
                "Frequency": 5.9,
                "RSSI": -96.97999999999999,
                "LOS": "False"
            }
        },
        {
            "type": "Feature",
            "geometry": {
                "type": "Point",
                "coordinates": [
                    6.94491555,
                    49.2412638
                ]
            },
            "properties": {
                "RSU coordinates": [
                    6.9447249,
                    49.2412638
                ],
                "Distance": 13.86,
                "Frequency": 5.9,
                "RSSI": -43.63,
                "LOS": "True"
            }
        },
        {
            "type": "Feature",
            "geometry": {
                "type": "Point",
                "coordinates": [
                    6.9451062,
                    49.24147939
                ]
            },
            "properties": {
                "RSU coordinates": [
                    6.9447249,
                    49.2412638
                ],
                "Distance": 36.66,
                "Frequency": 5.9,
                "RSSI": -66.97999999999999,
                "LOS": "False"
            }
        },
        {
            "type": "Feature",
            "geometry": {
                "type": "Point",
                "coordinates": [
                    6.94482022,
                    49.24094042
                ]
            },
            "properties": {
                "RSU coordinates": [
                    6.9447249,
                    49.2412638
                ],
                "Distance": 36.66,
                "Frequency": 5.9,
                "RSSI": -96.97999999999999,
                "LOS": "False"
            }
        },
        {
            "type": "Feature",
            "geometry": {
                "type": "Point",
                "coordinates": [
                    6.94491555,
                    49.24104821
                ]
            },
            "properties": {
                "RSU coordinates": [
                    6.9447249,
                    49.2412638
                ],
                "Distance": 27.71,
                "Frequency": 5.9,
                "RSSI": -79.58,
                "LOS": "False"
            }
        },
        {
            "type": "Feature",
            "geometry": {
                "type": "Point",
                "coordinates": [
                    6.94501087,
                    49.24115601
                ]
            },
            "properties": {
                "RSU coordinates": [
                    6.9447249,
                    49.2412638
                ],
                "Distance": 24.0,
                "Frequency": 5.9,
                "RSSI": -48.34,
                "LOS": "True"
            }
        },
        {
            "type": "Feature",
            "geometry": {
                "type": "Point",
                "coordinates": [
                    6.94529685,
                    49.24147939
                ]
            },
            "properties": {
                "RSU coordinates": [
                    6.9447249,
                    49.2412638
                ],
                "Distance": 48.0,
                "Frequency": 5.9,
                "RSSI": -69.28999999999999,
                "LOS": "False"
            }
        },
        {
            "type": "Feature",
            "geometry": {
                "type": "Point",
                "coordinates": [
                    6.94539217,
                    49.24158718
                ]
            },
            "properties": {
                "RSU coordinates": [
                    6.9447249,
                    49.2412638
                ],
                "Distance": 60.4,
                "Frequency": 5.9,
                "RSSI": -86.25999999999999,
                "LOS": "False"
            }
        },
        {
            "type": "Feature",
            "geometry": {
                "type": "Point",
                "coordinates": [
                    6.9454875,
                    49.24169497
                ]
            },
            "properties": {
                "RSU coordinates": [
                    6.9447249,
                    49.2412638
                ],
                "Distance": 73.32,
                "Frequency": 5.9,
                "RSSI": -87.92,
                "LOS": "False"
            }
        },
        {
            "type": "Feature",
            "geometry": {
                "type": "Point",
                "coordinates": [
                    6.94501087,
                    49.24094042
                ]
            },
            "properties": {
                "RSU coordinates": [
                    6.9447249,
                    49.2412638
                ],
                "Distance": 41.57,
                "Frequency": 5.9,
                "RSSI": -83.06,
                "LOS": "False"
            }
        },
        {
            "type": "Feature",
            "geometry": {
                "type": "Point",
                "coordinates": [
                    6.94520152,
                    49.24115601
                ]
            },
            "properties": {
                "RSU coordinates": [
                    6.9447249,
                    49.2412638
                ],
                "Distance": 36.66,
                "Frequency": 5.9,
                "RSSI": -51.98,
                "LOS": "True"
            }
        },
        {
            "type": "Feature",
            "geometry": {
                "type": "Point",
                "coordinates": [
                    6.9454875,
                    49.24147939
                ]
            },
            "properties": {
                "RSU coordinates": [
                    6.9447249,
                    49.2412638
                ],
                "Distance": 60.4,
                "Frequency": 5.9,
                "RSSI": -86.25999999999999,
                "LOS": "False"
            }
        },
        {
            "type": "Feature",
            "geometry": {
                "type": "Point",
                "coordinates": [
                    6.94558282,
                    49.24158718
                ]
            },
            "properties": {
                "RSU coordinates": [
                    6.9447249,
                    49.2412638
                ],
                "Distance": 72.0,
                "Frequency": 5.9,
                "RSSI": -87.77000000000001,
                "LOS": "False"
            }
        },
        {
            "type": "Feature",
            "geometry": {
                "type": "Point",
                "coordinates": [
                    6.94567815,
                    49.24169497
                ]
            },
            "properties": {
                "RSU coordinates": [
                    6.9447249,
                    49.2412638
                ],
                "Distance": 84.29,
                "Frequency": 5.9,
                "RSSI": -89.12,
                "LOS": "False"
            }
        },
        {
            "type": "Feature",
            "geometry": {
                "type": "Point",
                "coordinates": [
                    6.94510619,
                    49.24083263
                ]
            },
            "properties": {
                "RSU coordinates": [
                    6.9447249,
                    49.2412638
                ],
                "Distance": 55.43,
                "Frequency": 5.9,
                "RSSI": -85.52000000000001,
                "LOS": "False"
            }
        },
        {
            "type": "Feature",
            "geometry": {
                "type": "Point",
                "coordinates": [
                    6.94520152,
                    49.24094042
                ]
            },
            "properties": {
                "RSU coordinates": [
                    6.9447249,
                    49.2412638
                ],
                "Distance": 49.96,
                "Frequency": 5.9,
                "RSSI": -84.63,
                "LOS": "False"
            }
        },
        {
            "type": "Feature",
            "geometry": {
                "type": "Point",
                "coordinates": [
                    6.94529684,
                    49.24104821
                ]
            },
            "properties": {
                "RSU coordinates": [
                    6.9447249,
                    49.2412638
                ],
                "Distance": 48.0,
                "Frequency": 5.9,
                "RSSI": -54.29,
                "LOS": "True"
            }
        },
        {
            "type": "Feature",
            "geometry": {
                "type": "Point",
                "coordinates": [
                    6.94539217,
                    49.24115601
                ]
            },
            "properties": {
                "RSU coordinates": [
                    6.9447249,
                    49.2412638
                ],
                "Distance": 49.96,
                "Frequency": 5.9,
                "RSSI": -54.63,
                "LOS": "True"
            }
        },
        {
            "type": "Feature",
            "geometry": {
                "type": "Point",
                "coordinates": [
                    6.94548749,
                    49.24104821
                ]
            },
            "properties": {
                "RSU coordinates": [
                    6.9447249,
                    49.2412638
                ],
                "Distance": 60.4,
                "Frequency": 5.9,
                "RSSI": -56.26,
                "LOS": "True"
            }
        },
        {
            "type": "Feature",
            "geometry": {
                "type": "Point",
                "coordinates": [
                    6.94567814,
                    49.24104821
                ]
            },
            "properties": {
                "RSU coordinates": [
                    6.9447249,
                    49.2412638
                ],
                "Distance": 73.32,
                "Frequency": 5.9,
                "RSSI": -57.92,
                "LOS": "True"
            }
        },
        {
            "type": "Feature",
            "geometry": {
                "type": "Point",
                "coordinates": [
                    6.94577346,
                    49.24094042
                ]
            },
            "properties": {
                "RSU coordinates": [
                    6.9447249,
                    49.2412638
                ],
                "Distance": 84.29,
                "Frequency": 5.9,
                "RSSI": -59.12,
                "LOS": "True"
            }
        },
        {
            "type": "Feature",
            "geometry": {
                "type": "Point",
                "coordinates": [
                    6.94586878,
                    49.24104821
                ]
            },
            "properties": {
                "RSU coordinates": [
                    6.9447249,
                    49.2412638
                ],
                "Distance": 86.53,
                "Frequency": 5.9,
                "RSSI": -59.34,
                "LOS": "True"
            }
        },
        {
            "type": "Feature",
            "geometry": {
                "type": "Point",
                "coordinates": [
                    6.94586878,
                    49.24083263
                ]
            },
            "properties": {
                "RSU coordinates": [
                    6.9447249,
                    49.2412638
                ],
                "Distance": 96.0,
                "Frequency": 5.9,
                "RSSI": -90.22999999999999,
                "LOS": "False"
            }
        },
        {
            "type": "Feature",
            "geometry": {
                "type": "Point",
                "coordinates": [
                    6.9459641,
                    49.24094042
                ]
            },
            "properties": {
                "RSU coordinates": [
                    6.9447249,
                    49.2412638
                ],
                "Distance": 96.99,
                "Frequency": 5.9,
                "RSSI": -60.32,
                "LOS": "True"
            }
        },
        {
            "type": "Feature",
            "geometry": {
                "type": "Point",
                "coordinates": [
                    6.94605942,
                    49.24083263
                ]
            },
            "properties": {
                "RSU coordinates": [
                    6.9447249,
                    49.2412638
                ],
                "Distance": 108.22,
                "Frequency": 5.9,
                "RSSI": -61.26,
                "LOS": "True"
            }
        },
        {
            "type": "Feature",
            "geometry": {
                "type": "Point",
                "coordinates": [
                    6.94615475,
                    49.24094042
                ]
            },
            "properties": {
                "RSU coordinates": [
                    6.9447249,
                    49.2412638
                ],
                "Distance": 109.98,
                "Frequency": 5.9,
                "RSSI": -61.4,
                "LOS": "True"
            }
        },
        {
            "type": "Feature",
            "geometry": {
                "type": "Point",
                "coordinates": [
                    6.94625007,
                    49.24083263
                ]
            },
            "properties": {
                "RSU coordinates": [
                    6.9447249,
                    49.2412638
                ],
                "Distance": 120.8,
                "Frequency": 5.9,
                "RSSI": -62.2,
                "LOS": "True"
            }
        },
        {
            "type": "Feature",
            "geometry": {
                "type": "Point",
                "coordinates": [
                    6.9463454,
                    49.24094042
                ]
            },
            "properties": {
                "RSU coordinates": [
                    6.9447249,
                    49.2412638
                ],
                "Distance": 123.16,
                "Frequency": 5.9,
                "RSSI": -77.37,
                "LOS": "False"
            }
        },
        {
            "type": "Feature",
            "geometry": {
                "type": "Point",
                "coordinates": [
                    6.94634539,
                    49.24072483
                ]
            },
            "properties": {
                "RSU coordinates": [
                    6.9447249,
                    49.2412638
                ],
                "Distance": 132.18,
                "Frequency": 5.9,
                "RSSI": -92.97999999999999,
                "LOS": "False"
            }
        },
        {
            "type": "Feature",
            "geometry": {
                "type": "Point",
                "coordinates": [
                    6.94644072,
                    49.24083263
                ]
            },
            "properties": {
                "RSU coordinates": [
                    6.9447249,
                    49.2412638
                ],
                "Distance": 133.63,
                "Frequency": 5.9,
                "RSSI": -63.07,
                "LOS": "True"
            }
        },
        {
            "type": "Feature",
            "geometry": {
                "type": "Point",
                "coordinates": [
                    6.94653604,
                    49.24094042
                ]
            },
            "properties": {
                "RSU coordinates": [
                    6.9447249,
                    49.2412638
                ],
                "Distance": 136.47,
                "Frequency": 5.9,
                "RSSI": -93.25,
                "LOS": "False"
            }
        },
        {
            "type": "Feature",
            "geometry": {
                "type": "Point",
                "coordinates": [
                    6.94653604,
                    49.24072483
                ]
            },
            "properties": {
                "RSU coordinates": [
                    6.9447249,
                    49.2412638
                ],
                "Distance": 144.67,
                "Frequency": 5.9,
                "RSSI": -63.75,
                "LOS": "True"
            }
        },
        {
            "type": "Feature",
            "geometry": {
                "type": "Point",
                "coordinates": [
                    6.94663136,
                    49.24083263
                ]
            },
            "properties": {
                "RSU coordinates": [
                    6.9447249,
                    49.2412638
                ],
                "Distance": 146.64,
                "Frequency": 5.9,
                "RSSI": -63.87,
                "LOS": "True"
            }
        },
        {
            "type": "Feature",
            "geometry": {
                "type": "Point",
                "coordinates": [
                    6.94663135,
                    49.24061704
                ]
            },
            "properties": {
                "RSU coordinates": [
                    6.9447249,
                    49.2412638
                ],
                "Distance": 156.15,
                "Frequency": 5.9,
                "RSSI": -94.41,
                "LOS": "False"
            }
        },
        {
            "type": "Feature",
            "geometry": {
                "type": "Point",
                "coordinates": [
                    6.94672668,
                    49.24072483
                ]
            },
            "properties": {
                "RSU coordinates": [
                    6.9447249,
                    49.2412638
                ],
                "Distance": 157.38,
                "Frequency": 5.9,
                "RSSI": -64.47,
                "LOS": "True"
            }
        },
        {
            "type": "Feature",
            "geometry": {
                "type": "Point",
                "coordinates": [
                    6.94682201,
                    49.24083263
                ]
            },
            "properties": {
                "RSU coordinates": [
                    6.9447249,
                    49.2412638
                ],
                "Distance": 159.8,
                "Frequency": 5.9,
                "RSSI": -79.6,
                "LOS": "False"
            }
        },
        {
            "type": "Feature",
            "geometry": {
                "type": "Point",
                "coordinates": [
                    6.946822,
                    49.24061704
                ]
            },
            "properties": {
                "RSU coordinates": [
                    6.9447249,
                    49.2412638
                ],
                "Distance": 168.57,
                "Frequency": 5.9,
                "RSSI": -65.06,
                "LOS": "True"
            }
        },
        {
            "type": "Feature",
            "geometry": {
                "type": "Point",
                "coordinates": [
                    6.94691733,
                    49.24072483
                ]
            },
            "properties": {
                "RSU coordinates": [
                    6.9447249,
                    49.2412638
                ],
                "Distance": 170.27,
                "Frequency": 5.9,
                "RSSI": -65.15,
                "LOS": "True"
            }
        },
        {
            "type": "Feature",
            "geometry": {
                "type": "Point",
                "coordinates": [
                    6.94701266,
                    49.24083263
                ]
            },
            "properties": {
                "RSU coordinates": [
                    6.9447249,
                    49.2412638
                ],
                "Distance": 173.07,
                "Frequency": 5.9,
                "RSSI": -95.29,
                "LOS": "False"
            }
        },
        {
            "type": "Feature",
            "geometry": {
                "type": "Point",
                "coordinates": [
                    6.94701265,
                    49.24061704
                ]
            },
            "properties": {
                "RSU coordinates": [
                    6.9447249,
                    49.2412638
                ],
                "Distance": 181.2,
                "Frequency": 5.9,
                "RSSI": -65.68,
                "LOS": "True"
            }
        },
        {
            "type": "Feature",
            "geometry": {
                "type": "Point",
                "coordinates": [
                    6.94710796,
                    49.24050924
                ]
            },
            "properties": {
                "RSU coordinates": [
                    6.9447249,
                    49.2412638
                ],
                "Distance": 192.5,
                "Frequency": 5.9,
                "RSSI": -66.2,
                "LOS": "True"
            }
        },
        {
            "type": "Feature",
            "geometry": {
                "type": "Point",
                "coordinates": [
                    6.94720329,
                    49.24061704
                ]
            },
            "properties": {
                "RSU coordinates": [
                    6.9447249,
                    49.2412638
                ],
                "Distance": 193.99,
                "Frequency": 5.9,
                "RSSI": -66.27,
                "LOS": "True"
            }
        },
        {
            "type": "Feature",
            "geometry": {
                "type": "Point",
                "coordinates": [
                    6.94729861,
                    49.24050924
                ]
            },
            "properties": {
                "RSU coordinates": [
                    6.9447249,
                    49.2412638
                ],
                "Distance": 205.06,
                "Frequency": 5.9,
                "RSSI": -66.74,
                "LOS": "True"
            }
        },
        {
            "type": "Feature",
            "geometry": {
                "type": "Point",
                "coordinates": [
                    6.94739394,
                    49.24061704
                ]
            },
            "properties": {
                "RSU coordinates": [
                    6.9447249,
                    49.2412638
                ],
                "Distance": 206.92,
                "Frequency": 5.9,
                "RSSI": -66.82,
                "LOS": "True"
            }
        },
        {
            "type": "Feature",
            "geometry": {
                "type": "Point",
                "coordinates": [
                    6.94739392,
                    49.24040145
                ]
            },
            "properties": {
                "RSU coordinates": [
                    6.9447249,
                    49.2412638
                ],
                "Distance": 216.44,
                "Frequency": 5.9,
                "RSSI": -82.21,
                "LOS": "False"
            }
        },
        {
            "type": "Feature",
            "geometry": {
                "type": "Point",
                "coordinates": [
                    6.94748925,
                    49.24050924
                ]
            },
            "properties": {
                "RSU coordinates": [
                    6.9447249,
                    49.2412638
                ],
                "Distance": 217.77,
                "Frequency": 5.9,
                "RSSI": -67.26,
                "LOS": "True"
            }
        },
        {
            "type": "Feature",
            "geometry": {
                "type": "Point",
                "coordinates": [
                    6.94758458,
                    49.24061704
                ]
            },
            "properties": {
                "RSU coordinates": [
                    6.9447249,
                    49.2412638
                ],
                "Distance": 219.96,
                "Frequency": 5.9,
                "RSSI": -82.34,
                "LOS": "False"
            }
        },
        {
            "type": "Feature",
            "geometry": {
                "type": "Point",
                "coordinates": [
                    6.94758457,
                    49.24040145
                ]
            },
            "properties": {
                "RSU coordinates": [
                    6.9447249,
                    49.2412638
                ],
                "Distance": 228.95,
                "Frequency": 5.9,
                "RSSI": -67.69,
                "LOS": "True"
            }
        },
        {
            "type": "Feature",
            "geometry": {
                "type": "Point",
                "coordinates": [
                    6.9476799,
                    49.24050924
                ]
            },
            "properties": {
                "RSU coordinates": [
                    6.9447249,
                    49.2412638
                ],
                "Distance": 230.62,
                "Frequency": 5.9,
                "RSSI": -67.75,
                "LOS": "True"
            }
        },
        {
            "type": "Feature",
            "geometry": {
                "type": "Point",
                "coordinates": [
                    6.94777523,
                    49.24061704
                ]
            },
            "properties": {
                "RSU coordinates": [
                    6.9447249,
                    49.2412638
                ],
                "Distance": 233.1,
                "Frequency": 5.9,
                "RSSI": -97.84,
                "LOS": "False"
            }
        },
        {
            "type": "Feature",
            "geometry": {
                "type": "Point",
                "coordinates": [
                    6.94777521,
                    49.24040145
                ]
            },
            "properties": {
                "RSU coordinates": [
                    6.9447249,
                    49.2412638
                ],
                "Distance": 241.59,
                "Frequency": 5.9,
                "RSSI": -68.15,
                "LOS": "True"
            }
        },
        {
            "type": "Feature",
            "geometry": {
                "type": "Point",
                "coordinates": [
                    6.94787054,
                    49.24050924
                ]
            },
            "properties": {
                "RSU coordinates": [
                    6.9447249,
                    49.2412638
                ],
                "Distance": 243.57,
                "Frequency": 5.9,
                "RSSI": -83.22,
                "LOS": "False"
            }
        },
        {
            "type": "Feature",
            "geometry": {
                "type": "Point",
                "coordinates": [
                    6.94796587,
                    49.24061704
                ]
            },
            "properties": {
                "RSU coordinates": [
                    6.9447249,
                    49.2412638
                ],
                "Distance": 246.32,
                "Frequency": 5.9,
                "RSSI": -98.31,
                "LOS": "False"
            }
        },
        {
            "type": "Feature",
            "geometry": {
                "type": "Point",
                "coordinates": [
                    6.94787053,
                    49.24029366
                ]
            },
            "properties": {
                "RSU coordinates": [
                    6.9447249,
                    49.2412638
                ],
                "Distance": 252.86,
                "Frequency": 5.9,
                "RSSI": -83.54,
                "LOS": "False"
            }
        },
        {
            "type": "Feature",
            "geometry": {
                "type": "Point",
                "coordinates": [
                    6.94796586,
                    49.24040145
                ]
            },
            "properties": {
                "RSU coordinates": [
                    6.9447249,
                    49.2412638
                ],
                "Distance": 254.37,
                "Frequency": 5.9,
                "RSSI": -83.59,
                "LOS": "False"
            }
        },
        {
            "type": "Feature",
            "geometry": {
                "type": "Point",
                "coordinates": [
                    6.94806119,
                    49.24050924
                ]
            },
            "properties": {
                "RSU coordinates": [
                    6.9447249,
                    49.2412638
                ],
                "Distance": 256.62,
                "Frequency": 5.9,
                "RSSI": -83.67,
                "LOS": "False"
            }
        },
        {
            "type": "Feature",
            "geometry": {
                "type": "Point",
                "coordinates": [
                    6.94806117,
                    49.24029366
                ]
            },
            "properties": {
                "RSU coordinates": [
                    6.9447249,
                    49.2412638
                ],
                "Distance": 265.45,
                "Frequency": 5.9,
                "RSSI": -83.96,
                "LOS": "False"
            }
        },
        {
            "type": "Feature",
            "geometry": {
                "type": "Point",
                "coordinates": [
                    6.9481565,
                    49.24040145
                ]
            },
            "properties": {
                "RSU coordinates": [
                    6.9447249,
                    49.2412638
                ],
                "Distance": 267.25,
                "Frequency": 5.9,
                "RSSI": -69.01,
                "LOS": "True"
            }
        },
        {
            "type": "Feature",
            "geometry": {
                "type": "Point",
                "coordinates": [
                    6.94825183,
                    49.24050924
                ]
            },
            "properties": {
                "RSU coordinates": [
                    6.9447249,
                    49.2412638
                ],
                "Distance": 269.76,
                "Frequency": 5.9,
                "RSSI": -84.09,
                "LOS": "False"
            }
        },
        {
            "type": "Feature",
            "geometry": {
                "type": "Point",
                "coordinates": [
                    6.94815649,
                    49.24018586
                ]
            },
            "properties": {
                "RSU coordinates": [
                    6.9447249,
                    49.2412638
                ],
                "Distance": 276.78,
                "Frequency": 5.9,
                "RSSI": -99.31,
                "LOS": "False"
            }
        },
        {
            "type": "Feature",
            "geometry": {
                "type": "Point",
                "coordinates": [
                    6.94825182,
                    49.24029366
                ]
            },
            "properties": {
                "RSU coordinates": [
                    6.9447249,
                    49.2412638
                ],
                "Distance": 278.17,
                "Frequency": 5.9,
                "RSSI": -99.36,
                "LOS": "False"
            }
        },
        {
            "type": "Feature",
            "geometry": {
                "type": "Point",
                "coordinates": [
                    6.94834715,
                    49.24040145
                ]
            },
            "properties": {
                "RSU coordinates": [
                    6.9447249,
                    49.2412638
                ],
                "Distance": 280.23,
                "Frequency": 5.9,
                "RSSI": -84.42,
                "LOS": "False"
            }
        },
        {
            "type": "Feature",
            "geometry": {
                "type": "Point",
                "coordinates": [
                    6.94844248,
                    49.24050924
                ]
            },
            "properties": {
                "RSU coordinates": [
                    6.9447249,
                    49.2412638
                ],
                "Distance": 282.96,
                "Frequency": 5.9,
                "RSSI": -99.5,
                "LOS": "False"
            }
        },
        {
            "type": "Feature",
            "geometry": {
                "type": "Point",
                "coordinates": [
                    6.94834713,
                    49.24018586
                ]
            },
            "properties": {
                "RSU coordinates": [
                    6.9447249,
                    49.2412638
                ],
                "Distance": 289.33,
                "Frequency": 5.9,
                "RSSI": -99.7,
                "LOS": "False"
            }
        },
        {
            "type": "Feature",
            "geometry": {
                "type": "Point",
                "coordinates": [
                    6.94853779,
                    49.24040145
                ]
            },
            "properties": {
                "RSU coordinates": [
                    6.9447249,
                    49.2412638
                ],
                "Distance": 293.28,
                "Frequency": 5.9,
                "RSSI": -84.81,
                "LOS": "False"
            }
        },
        {
            "type": "Feature",
            "geometry": {
                "type": "Point",
                "coordinates": [
                    6.94891906,
                    49.24018586
                ]
            },
            "properties": {
                "RSU coordinates": [
                    6.9447249,
                    49.2412638
                ],
                "Distance": 327.61,
                "Frequency": 5.9,
                "RSSI": -85.76,
                "LOS": "False"
            }
        }
    ]
}