{
    "type": "FeatureCollection",
    "features": [
        {
            "type": "Feature",
            "geometry": {
                "type": "Point",
                "coordinates": [
                    9.49790274,
                    48.02025448
                ]
            },
            "properties": {
                "RSU coordinates": [
                    9.4994845,
                    48.0182064
                ],
                "Distance": 256.62,
                "Frequency": 5.9,
                "RSSI": -98.67,
                "LOS": "False"
            }
        },
        {
            "type": "Feature",
            "geometry": {
                "type": "Point",
                "coordinates": [
                    9.49799579,
                    48.02014668
                ]
            },
            "properties": {
                "RSU coordinates": [
                    9.4994845,
                    48.0182064
                ],
                "Distance": 242.78,
                "Frequency": 5.9,
                "RSSI": -98.19,
                "LOS": "False"
            }
        },
        {
            "type": "Feature",
            "geometry": {
                "type": "Point",
                "coordinates": [
                    9.49808883,
                    48.02003889
                ]
            },
            "properties": {
                "RSU coordinates": [
                    9.4994845,
                    48.0182064
                ],
                "Distance": 228.95,
                "Frequency": 5.9,
                "RSSI": -97.69,
                "LOS": "False"
            }
        },
        {
            "type": "Feature",
            "geometry": {
                "type": "Point",
                "coordinates": [
                    9.49818188,
                    48.0199311
                ]
            },
            "properties": {
                "RSU coordinates": [
                    9.4994845,
                    48.0182064
                ],
                "Distance": 215.11,
                "Frequency": 5.9,
                "RSSI": -97.15,
                "LOS": "False"
            }
        },
        {
            "type": "Feature",
            "geometry": {
                "type": "Point",
                "coordinates": [
                    9.49808885,
                    48.01960772
                ]
            },
            "properties": {
                "RSU coordinates": [
                    9.4994845,
                    48.0182064
                ],
                "Distance": 187.45,
                "Frequency": 5.9,
                "RSSI": -95.97,
                "LOS": "False"
            }
        },
        {
            "type": "Feature",
            "geometry": {
                "type": "Point",
                "coordinates": [
                    9.49818189,
                    48.01971551
                ]
            },
            "properties": {
                "RSU coordinates": [
                    9.4994845,
                    48.0182064
                ],
                "Distance": 193.99,
                "Frequency": 5.9,
                "RSSI": -96.27,
                "LOS": "False"
            }
        },
        {
            "type": "Feature",
            "geometry": {
                "type": "Point",
                "coordinates": [
                    9.49827493,
                    48.0198233
                ]
            },
            "properties": {
                "RSU coordinates": [
                    9.4994845,
                    48.0182064
                ],
                "Distance": 201.28,
                "Frequency": 5.9,
                "RSSI": -96.58,
                "LOS": "False"
            }
        },
        {
            "type": "Feature",
            "geometry": {
                "type": "Point",
                "coordinates": [
                    9.49818189,
                    48.01949992
                ]
            },
            "properties": {
                "RSU coordinates": [
                    9.4994845,
                    48.0182064
                ],
                "Distance": 173.62,
                "Frequency": 5.9,
                "RSSI": -95.32,
                "LOS": "False"
            }
        },
        {
            "type": "Feature",
            "geometry": {
                "type": "Point",
                "coordinates": [
                    9.49827493,
                    48.01960772
                ]
            },
            "properties": {
                "RSU coordinates": [
                    9.4994845,
                    48.0182064
                ],
                "Distance": 180.13,
                "Frequency": 5.9,
                "RSSI": -95.63,
                "LOS": "False"
            }
        },
        {
            "type": "Feature",
            "geometry": {
                "type": "Point",
                "coordinates": [
                    9.49836797,
                    48.01971551
                ]
            },
            "properties": {
                "RSU coordinates": [
                    9.4994845,
                    48.0182064
                ],
                "Distance": 187.45,
                "Frequency": 5.9,
                "RSSI": -95.97,
                "LOS": "False"
            }
        },
        {
            "type": "Feature",
            "geometry": {
                "type": "Point",
                "coordinates": [
                    9.49827494,
                    48.01939213
                ]
            },
            "properties": {
                "RSU coordinates": [
                    9.4994845,
                    48.0182064
                ],
                "Distance": 159.8,
                "Frequency": 5.9,
                "RSSI": -79.6,
                "LOS": "False"
            }
        },
        {
            "type": "Feature",
            "geometry": {
                "type": "Point",
                "coordinates": [
                    9.49836798,
                    48.01949992
                ]
            },
            "properties": {
                "RSU coordinates": [
                    9.4994845,
                    48.0182064
                ],
                "Distance": 166.28,
                "Frequency": 5.9,
                "RSSI": -94.94,
                "LOS": "False"
            }
        },
        {
            "type": "Feature",
            "geometry": {
                "type": "Point",
                "coordinates": [
                    9.49846102,
                    48.01960772
                ]
            },
            "properties": {
                "RSU coordinates": [
                    9.4994845,
                    48.0182064
                ],
                "Distance": 173.62,
                "Frequency": 5.9,
                "RSSI": -95.32,
                "LOS": "False"
            }
        },
        {
            "type": "Feature",
            "geometry": {
                "type": "Point",
                "coordinates": [
                    9.49790279,
                    48.01874537
                ]
            },
            "properties": {
                "RSU coordinates": [
                    9.4994845,
                    48.0182064
                ],
                "Distance": 132.18,
                "Frequency": 5.9,
                "RSSI": -92.97999999999999,
                "LOS": "False"
            }
        },
        {
            "type": "Feature",
            "geometry": {
                "type": "Point",
                "coordinates": [
                    9.49808886,
                    48.01896096
                ]
            },
            "properties": {
                "RSU coordinates": [
                    9.4994845,
                    48.0182064
                ],
                "Distance": 133.63,
                "Frequency": 5.9,
                "RSSI": -93.07,
                "LOS": "False"
            }
        },
        {
            "type": "Feature",
            "geometry": {
                "type": "Point",
                "coordinates": [
                    9.49836798,
                    48.01928434
                ]
            },
            "properties": {
                "RSU coordinates": [
                    9.4994845,
                    48.0182064
                ],
                "Distance": 145.99,
                "Frequency": 5.9,
                "RSSI": -78.83,
                "LOS": "False"
            }
        },
        {
            "type": "Feature",
            "geometry": {
                "type": "Point",
                "coordinates": [
                    9.49846102,
                    48.01939213
                ]
            },
            "properties": {
                "RSU coordinates": [
                    9.4994845,
                    48.0182064
                ],
                "Distance": 152.42,
                "Frequency": 5.9,
                "RSSI": -94.2,
                "LOS": "False"
            }
        },
        {
            "type": "Feature",
            "geometry": {
                "type": "Point",
                "coordinates": [
                    9.49855407,
                    48.01949992
                ]
            },
            "properties": {
                "RSU coordinates": [
                    9.4994845,
                    48.0182064
                ],
                "Distance": 159.8,
                "Frequency": 5.9,
                "RSSI": -79.6,
                "LOS": "False"
            }
        },
        {
            "type": "Feature",
            "geometry": {
                "type": "Point",
                "coordinates": [
                    9.49874015,
                    48.01971551
                ]
            },
            "properties": {
                "RSU coordinates": [
                    9.4994845,
                    48.0182064
                ],
                "Distance": 176.91,
                "Frequency": 5.9,
                "RSSI": -95.48,
                "LOS": "False"
            }
        },
        {
            "type": "Feature",
            "geometry": {
                "type": "Point",
                "coordinates": [
                    9.49799583,
                    48.01863757
                ]
            },
            "properties": {
                "RSU coordinates": [
                    9.4994845,
                    48.0182064
                ],
                "Distance": 120.8,
                "Frequency": 5.9,
                "RSSI": -92.2,
                "LOS": "False"
            }
        },
        {
            "type": "Feature",
            "geometry": {
                "type": "Point",
                "coordinates": [
                    9.49808887,
                    48.01874537
                ]
            },
            "properties": {
                "RSU coordinates": [
                    9.4994845,
                    48.0182064
                ],
                "Distance": 120.0,
                "Frequency": 5.9,
                "RSSI": -92.15,
                "LOS": "False"
            }
        },
        {
            "type": "Feature",
            "geometry": {
                "type": "Point",
                "coordinates": [
                    9.49827495,
                    48.01896096
                ]
            },
            "properties": {
                "RSU coordinates": [
                    9.4994845,
                    48.0182064
                ],
                "Distance": 123.16,
                "Frequency": 5.9,
                "RSSI": -92.37,
                "LOS": "False"
            }
        },
        {
            "type": "Feature",
            "geometry": {
                "type": "Point",
                "coordinates": [
                    9.49846103,
                    48.01917654
                ]
            },
            "properties": {
                "RSU coordinates": [
                    9.4994845,
                    48.0182064
                ],
                "Distance": 132.18,
                "Frequency": 5.9,
                "RSSI": -92.97999999999999,
                "LOS": "False"
            }
        },
        {
            "type": "Feature",
            "geometry": {
                "type": "Point",
                "coordinates": [
                    9.49855407,
                    48.01928434
                ]
            },
            "properties": {
                "RSU coordinates": [
                    9.4994845,
                    48.0182064
                ],
                "Distance": 138.56,
                "Frequency": 5.9,
                "RSSI": -93.38,
                "LOS": "False"
            }
        },
        {
            "type": "Feature",
            "geometry": {
                "type": "Point",
                "coordinates": [
                    9.49864711,
                    48.01939213
                ]
            },
            "properties": {
                "RSU coordinates": [
                    9.4994845,
                    48.0182064
                ],
                "Distance": 145.99,
                "Frequency": 5.9,
                "RSSI": -93.83,
                "LOS": "False"
            }
        },
        {
            "type": "Feature",
            "geometry": {
                "type": "Point",
                "coordinates": [
                    9.49883319,
                    48.01960772
                ]
            },
            "properties": {
                "RSU coordinates": [
                    9.4994845,
                    48.0182064
                ],
                "Distance": 163.36,
                "Frequency": 5.9,
                "RSSI": -94.79,
                "LOS": "False"
            }
        },
        {
            "type": "Feature",
            "geometry": {
                "type": "Point",
                "coordinates": [
                    9.49818191,
                    48.01863757
                ]
            },
            "properties": {
                "RSU coordinates": [
                    9.4994845,
                    48.0182064
                ],
                "Distance": 108.22,
                "Frequency": 5.9,
                "RSSI": -91.25999999999999,
                "LOS": "False"
            }
        },
        {
            "type": "Feature",
            "geometry": {
                "type": "Point",
                "coordinates": [
                    9.49827495,
                    48.01874537
                ]
            },
            "properties": {
                "RSU coordinates": [
                    9.4994845,
                    48.0182064
                ],
                "Distance": 108.22,
                "Frequency": 5.9,
                "RSSI": -91.25999999999999,
                "LOS": "False"
            }
        },
        {
            "type": "Feature",
            "geometry": {
                "type": "Point",
                "coordinates": [
                    9.49864711,
                    48.01917654
                ]
            },
            "properties": {
                "RSU coordinates": [
                    9.4994845,
                    48.0182064
                ],
                "Distance": 124.71,
                "Frequency": 5.9,
                "RSSI": -92.47999999999999,
                "LOS": "False"
            }
        },
        {
            "type": "Feature",
            "geometry": {
                "type": "Point",
                "coordinates": [
                    9.49874016,
                    48.01928434
                ]
            },
            "properties": {
                "RSU coordinates": [
                    9.4994845,
                    48.0182064
                ],
                "Distance": 132.18,
                "Frequency": 5.9,
                "RSSI": -92.97999999999999,
                "LOS": "False"
            }
        },
        {
            "type": "Feature",
            "geometry": {
                "type": "Point",
                "coordinates": [
                    9.49892624,
                    48.01949992
                ]
            },
            "properties": {
                "RSU coordinates": [
                    9.4994845,
                    48.0182064
                ],
                "Distance": 149.88,
                "Frequency": 5.9,
                "RSSI": -94.05,
                "LOS": "False"
            }
        },
        {
            "type": "Feature",
            "geometry": {
                "type": "Point",
                "coordinates": [
                    9.498368,
                    48.01863757
                ]
            },
            "properties": {
                "RSU coordinates": [
                    9.4994845,
                    48.0182064
                ],
                "Distance": 96.0,
                "Frequency": 5.9,
                "RSSI": -90.22999999999999,
                "LOS": "False"
            }
        },
        {
            "type": "Feature",
            "geometry": {
                "type": "Point",
                "coordinates": [
                    9.49846104,
                    48.01874537
                ]
            },
            "properties": {
                "RSU coordinates": [
                    9.4994845,
                    48.0182064
                ],
                "Distance": 96.99,
                "Frequency": 5.9,
                "RSSI": -75.32,
                "LOS": "False"
            }
        },
        {
            "type": "Feature",
            "geometry": {
                "type": "Point",
                "coordinates": [
                    9.49855408,
                    48.01885316
                ]
            },
            "properties": {
                "RSU coordinates": [
                    9.4994845,
                    48.0182064
                ],
                "Distance": 99.92,
                "Frequency": 5.9,
                "RSSI": -90.58,
                "LOS": "False"
            }
        },
        {
            "type": "Feature",
            "geometry": {
                "type": "Point",
                "coordinates": [
                    9.49864712,
                    48.01896096
                ]
            },
            "properties": {
                "RSU coordinates": [
                    9.4994845,
                    48.0182064
                ],
                "Distance": 104.61,
                "Frequency": 5.9,
                "RSSI": -75.97,
                "LOS": "False"
            }
        },
        {
            "type": "Feature",
            "geometry": {
                "type": "Point",
                "coordinates": [
                    9.49892624,
                    48.01928434
                ]
            },
            "properties": {
                "RSU coordinates": [
                    9.4994845,
                    48.0182064
                ],
                "Distance": 127.0,
                "Frequency": 5.9,
                "RSSI": -92.63,
                "LOS": "False"
            }
        },
        {
            "type": "Feature",
            "geometry": {
                "type": "Point",
                "coordinates": [
                    9.49901928,
                    48.01939213
                ]
            },
            "properties": {
                "RSU coordinates": [
                    9.4994845,
                    48.0182064
                ],
                "Distance": 136.47,
                "Frequency": 5.9,
                "RSSI": -93.25,
                "LOS": "False"
            }
        },
        {
            "type": "Feature",
            "geometry": {
                "type": "Point",
                "coordinates": [
                    9.49920537,
                    48.01960772
                ]
            },
            "properties": {
                "RSU coordinates": [
                    9.4994845,
                    48.0182064
                ],
                "Distance": 157.38,
                "Frequency": 5.9,
                "RSSI": -94.47,
                "LOS": "False"
            }
        },
        {
            "type": "Feature",
            "geometry": {
                "type": "Point",
                "coordinates": [
                    9.4994845,
                    48.0199311
                ]
            },
            "properties": {
                "RSU coordinates": [
                    9.4994845,
                    48.0182064
                ],
                "Distance": 192.0,
                "Frequency": 5.9,
                "RSSI": -96.18,
                "LOS": "False"
            }
        },
        {
            "type": "Feature",
            "geometry": {
                "type": "Point",
                "coordinates": [
                    9.49753067,
                    48.01745184
                ]
            },
            "properties": {
                "RSU coordinates": [
                    9.4994845,
                    48.0182064
                ],
                "Distance": 168.0,
                "Frequency": 5.9,
                "RSSI": -95.03,
                "LOS": "False"
            }
        },
        {
            "type": "Feature",
            "geometry": {
                "type": "Point",
                "coordinates": [
                    9.498368,
                    48.01842199
                ]
            },
            "properties": {
                "RSU coordinates": [
                    9.4994845,
                    48.0182064
                ],
                "Distance": 86.53,
                "Frequency": 5.9,
                "RSSI": -89.34,
                "LOS": "False"
            }
        },
        {
            "type": "Feature",
            "geometry": {
                "type": "Point",
                "coordinates": [
                    9.49846104,
                    48.01852978
                ]
            },
            "properties": {
                "RSU coordinates": [
                    9.4994845,
                    48.0182064
                ],
                "Distance": 84.29,
                "Frequency": 5.9,
                "RSSI": -89.12,
                "LOS": "False"
            }
        },
        {
            "type": "Feature",
            "geometry": {
                "type": "Point",
                "coordinates": [
                    9.49855408,
                    48.01863757
                ]
            },
            "properties": {
                "RSU coordinates": [
                    9.4994845,
                    48.0182064
                ],
                "Distance": 84.29,
                "Frequency": 5.9,
                "RSSI": -89.12,
                "LOS": "False"
            }
        },
        {
            "type": "Feature",
            "geometry": {
                "type": "Point",
                "coordinates": [
                    9.49864712,
                    48.01874537
                ]
            },
            "properties": {
                "RSU coordinates": [
                    9.4994845,
                    48.0182064
                ],
                "Distance": 86.53,
                "Frequency": 5.9,
                "RSSI": -74.34,
                "LOS": "False"
            }
        },
        {
            "type": "Feature",
            "geometry": {
                "type": "Point",
                "coordinates": [
                    9.49874016,
                    48.01885316
                ]
            },
            "properties": {
                "RSU coordinates": [
                    9.4994845,
                    48.0182064
                ],
                "Distance": 90.86,
                "Frequency": 5.9,
                "RSSI": -74.75999999999999,
                "LOS": "False"
            }
        },
        {
            "type": "Feature",
            "geometry": {
                "type": "Point",
                "coordinates": [
                    9.4988332,
                    48.01896096
                ]
            },
            "properties": {
                "RSU coordinates": [
                    9.4994845,
                    48.0182064
                ],
                "Distance": 96.99,
                "Frequency": 5.9,
                "RSSI": -75.32,
                "LOS": "False"
            }
        },
        {
            "type": "Feature",
            "geometry": {
                "type": "Point",
                "coordinates": [
                    9.49892624,
                    48.01906875
                ]
            },
            "properties": {
                "RSU coordinates": [
                    9.4994845,
                    48.0182064
                ],
                "Distance": 104.61,
                "Frequency": 5.9,
                "RSSI": -75.97,
                "LOS": "False"
            }
        },
        {
            "type": "Feature",
            "geometry": {
                "type": "Point",
                "coordinates": [
                    9.49901929,
                    48.01917654
                ]
            },
            "properties": {
                "RSU coordinates": [
                    9.4994845,
                    48.0182064
                ],
                "Distance": 113.42,
                "Frequency": 5.9,
                "RSSI": -91.66,
                "LOS": "False"
            }
        },
        {
            "type": "Feature",
            "geometry": {
                "type": "Point",
                "coordinates": [
                    9.49911233,
                    48.01928434
                ]
            },
            "properties": {
                "RSU coordinates": [
                    9.4994845,
                    48.0182064
                ],
                "Distance": 123.16,
                "Frequency": 5.9,
                "RSSI": -77.37,
                "LOS": "False"
            }
        },
        {
            "type": "Feature",
            "geometry": {
                "type": "Point",
                "coordinates": [
                    9.49929841,
                    48.01949992
                ]
            },
            "properties": {
                "RSU coordinates": [
                    9.4994845,
                    48.0182064
                ],
                "Distance": 144.67,
                "Frequency": 5.9,
                "RSSI": -93.75,
                "LOS": "False"
            }
        },
        {
            "type": "Feature",
            "geometry": {
                "type": "Point",
                "coordinates": [
                    9.49939146,
                    48.01960772
                ]
            },
            "properties": {
                "RSU coordinates": [
                    9.4994845,
                    48.0182064
                ],
                "Distance": 156.15,
                "Frequency": 5.9,
                "RSSI": -79.41,
                "LOS": "False"
            }
        },
        {
            "type": "Feature",
            "geometry": {
                "type": "Point",
                "coordinates": [
                    9.4994845,
                    48.01971551
                ]
            },
            "properties": {
                "RSU coordinates": [
                    9.4994845,
                    48.0182064
                ],
                "Distance": 168.0,
                "Frequency": 5.9,
                "RSSI": -95.03,
                "LOS": "False"
            }
        },
        {
            "type": "Feature",
            "geometry": {
                "type": "Point",
                "coordinates": [
                    9.49780978,
                    48.01755964
                ]
            },
            "properties": {
                "RSU coordinates": [
                    9.4994845,
                    48.0182064
                ],
                "Distance": 144.0,
                "Frequency": 5.9,
                "RSSI": -78.71000000000001,
                "LOS": "False"
            }
        },
        {
            "type": "Feature",
            "geometry": {
                "type": "Point",
                "coordinates": [
                    9.49790282,
                    48.01766743
                ]
            },
            "properties": {
                "RSU coordinates": [
                    9.4994845,
                    48.0182064
                ],
                "Distance": 132.18,
                "Frequency": 5.9,
                "RSSI": -92.97999999999999,
                "LOS": "False"
            }
        },
        {
            "type": "Feature",
            "geometry": {
                "type": "Point",
                "coordinates": [
                    9.49818193,
                    48.01799081
                ]
            },
            "properties": {
                "RSU coordinates": [
                    9.4994845,
                    48.0182064
                ],
                "Distance": 99.92,
                "Frequency": 5.9,
                "RSSI": -90.58,
                "LOS": "False"
            }
        },
        {
            "type": "Feature",
            "geometry": {
                "type": "Point",
                "coordinates": [
                    9.49864713,
                    48.01852978
                ]
            },
            "properties": {
                "RSU coordinates": [
                    9.4994845,
                    48.0182064
                ],
                "Distance": 72.0,
                "Frequency": 5.9,
                "RSSI": -87.77000000000001,
                "LOS": "False"
            }
        },
        {
            "type": "Feature",
            "geometry": {
                "type": "Point",
                "coordinates": [
                    9.49874017,
                    48.01863757
                ]
            },
            "properties": {
                "RSU coordinates": [
                    9.4994845,
                    48.0182064
                ],
                "Distance": 73.32,
                "Frequency": 5.9,
                "RSSI": -72.92,
                "LOS": "False"
            }
        },
        {
            "type": "Feature",
            "geometry": {
                "type": "Point",
                "coordinates": [
                    9.49883321,
                    48.01874537
                ]
            },
            "properties": {
                "RSU coordinates": [
                    9.4994845,
                    48.0182064
                ],
                "Distance": 77.15,
                "Frequency": 5.9,
                "RSSI": -73.36,
                "LOS": "False"
            }
        },
        {
            "type": "Feature",
            "geometry": {
                "type": "Point",
                "coordinates": [
                    9.49892625,
                    48.01885316
                ]
            },
            "properties": {
                "RSU coordinates": [
                    9.4994845,
                    48.0182064
                ],
                "Distance": 83.14,
                "Frequency": 5.9,
                "RSSI": -74.0,
                "LOS": "False"
            }
        },
        {
            "type": "Feature",
            "geometry": {
                "type": "Point",
                "coordinates": [
                    9.49901929,
                    48.01896096
                ]
            },
            "properties": {
                "RSU coordinates": [
                    9.4994845,
                    48.0182064
                ],
                "Distance": 90.86,
                "Frequency": 5.9,
                "RSSI": -74.75999999999999,
                "LOS": "False"
            }
        },
        {
            "type": "Feature",
            "geometry": {
                "type": "Point",
                "coordinates": [
                    9.49911233,
                    48.01906875
                ]
            },
            "properties": {
                "RSU coordinates": [
                    9.4994845,
                    48.0182064
                ],
                "Distance": 99.92,
                "Frequency": 5.9,
                "RSSI": -90.58,
                "LOS": "False"
            }
        },
        {
            "type": "Feature",
            "geometry": {
                "type": "Point",
                "coordinates": [
                    9.49920537,
                    48.01917654
                ]
            },
            "properties": {
                "RSU coordinates": [
                    9.4994845,
                    48.0182064
                ],
                "Distance": 109.98,
                "Frequency": 5.9,
                "RSSI": -76.4,
                "LOS": "False"
            }
        },
        {
            "type": "Feature",
            "geometry": {
                "type": "Point",
                "coordinates": [
                    9.49939146,
                    48.01939213
                ]
            },
            "properties": {
                "RSU coordinates": [
                    9.4994845,
                    48.0182064
                ],
                "Distance": 132.18,
                "Frequency": 5.9,
                "RSSI": -77.97999999999999,
                "LOS": "False"
            }
        },
        {
            "type": "Feature",
            "geometry": {
                "type": "Point",
                "coordinates": [
                    9.4994845,
                    48.01949992
                ]
            },
            "properties": {
                "RSU coordinates": [
                    9.4994845,
                    48.0182064
                ],
                "Distance": 144.0,
                "Frequency": 5.9,
                "RSSI": -93.71000000000001,
                "LOS": "False"
            }
        },
        {
            "type": "Feature",
            "geometry": {
                "type": "Point",
                "coordinates": [
                    9.49957754,
                    48.01960772
                ]
            },
            "properties": {
                "RSU coordinates": [
                    9.4994845,
                    48.0182064
                ],
                "Distance": 156.15,
                "Frequency": 5.9,
                "RSSI": -94.41,
                "LOS": "False"
            }
        },
        {
            "type": "Feature",
            "geometry": {
                "type": "Point",
                "coordinates": [
                    9.4980889,
                    48.01766743
                ]
            },
            "properties": {
                "RSU coordinates": [
                    9.4994845,
                    48.0182064
                ],
                "Distance": 120.0,
                "Frequency": 5.9,
                "RSSI": -77.15,
                "LOS": "False"
            }
        },
        {
            "type": "Feature",
            "geometry": {
                "type": "Point",
                "coordinates": [
                    9.49836801,
                    48.01799081
                ]
            },
            "properties": {
                "RSU coordinates": [
                    9.4994845,
                    48.0182064
                ],
                "Distance": 86.53,
                "Frequency": 5.9,
                "RSSI": -89.34,
                "LOS": "False"
            }
        },
        {
            "type": "Feature",
            "geometry": {
                "type": "Point",
                "coordinates": [
                    9.49883321,
                    48.01852978
                ]
            },
            "properties": {
                "RSU coordinates": [
                    9.4994845,
                    48.0182064
                ],
                "Distance": 60.4,
                "Frequency": 5.9,
                "RSSI": -71.25999999999999,
                "LOS": "False"
            }
        },
        {
            "type": "Feature",
            "geometry": {
                "type": "Point",
                "coordinates": [
                    9.49901929,
                    48.01874537
                ]
            },
            "properties": {
                "RSU coordinates": [
                    9.4994845,
                    48.0182064
                ],
                "Distance": 69.28,
                "Frequency": 5.9,
                "RSSI": -72.44,
                "LOS": "False"
            }
        },
        {
            "type": "Feature",
            "geometry": {
                "type": "Point",
                "coordinates": [
                    9.49911233,
                    48.01885316
                ]
            },
            "properties": {
                "RSU coordinates": [
                    9.4994845,
                    48.0182064
                ],
                "Distance": 77.15,
                "Frequency": 5.9,
                "RSSI": -73.36,
                "LOS": "False"
            }
        },
        {
            "type": "Feature",
            "geometry": {
                "type": "Point",
                "coordinates": [
                    9.49920537,
                    48.01896096
                ]
            },
            "properties": {
                "RSU coordinates": [
                    9.4994845,
                    48.0182064
                ],
                "Distance": 86.53,
                "Frequency": 5.9,
                "RSSI": -74.34,
                "LOS": "False"
            }
        },
        {
            "type": "Feature",
            "geometry": {
                "type": "Point",
                "coordinates": [
                    9.49929841,
                    48.01906875
                ]
            },
            "properties": {
                "RSU coordinates": [
                    9.4994845,
                    48.0182064
                ],
                "Distance": 96.99,
                "Frequency": 5.9,
                "RSSI": -75.32,
                "LOS": "False"
            }
        },
        {
            "type": "Feature",
            "geometry": {
                "type": "Point",
                "coordinates": [
                    9.49939146,
                    48.01917654
                ]
            },
            "properties": {
                "RSU coordinates": [
                    9.4994845,
                    48.0182064
                ],
                "Distance": 108.22,
                "Frequency": 5.9,
                "RSSI": -76.25999999999999,
                "LOS": "False"
            }
        },
        {
            "type": "Feature",
            "geometry": {
                "type": "Point",
                "coordinates": [
                    9.4994845,
                    48.01928434
                ]
            },
            "properties": {
                "RSU coordinates": [
                    9.4994845,
                    48.0182064
                ],
                "Distance": 120.0,
                "Frequency": 5.9,
                "RSSI": -77.15,
                "LOS": "False"
            }
        },
        {
            "type": "Feature",
            "geometry": {
                "type": "Point",
                "coordinates": [
                    9.49827498,
                    48.01766743
                ]
            },
            "properties": {
                "RSU coordinates": [
                    9.4994845,
                    48.0182064
                ],
                "Distance": 108.22,
                "Frequency": 5.9,
                "RSSI": -76.25999999999999,
                "LOS": "False"
            }
        },
        {
            "type": "Feature",
            "geometry": {
                "type": "Point",
                "coordinates": [
                    9.49836802,
                    48.01777523
                ]
            },
            "properties": {
                "RSU coordinates": [
                    9.4994845,
                    48.0182064
                ],
                "Distance": 96.0,
                "Frequency": 5.9,
                "RSSI": -75.22999999999999,
                "LOS": "False"
            }
        },
        {
            "type": "Feature",
            "geometry": {
                "type": "Point",
                "coordinates": [
                    9.49846105,
                    48.01788302
                ]
            },
            "properties": {
                "RSU coordinates": [
                    9.4994845,
                    48.0182064
                ],
                "Distance": 84.29,
                "Frequency": 5.9,
                "RSSI": -89.12,
                "LOS": "False"
            }
        },
        {
            "type": "Feature",
            "geometry": {
                "type": "Point",
                "coordinates": [
                    9.49855409,
                    48.01799081
                ]
            },
            "properties": {
                "RSU coordinates": [
                    9.4994845,
                    48.0182064
                ],
                "Distance": 73.32,
                "Frequency": 5.9,
                "RSSI": -87.92,
                "LOS": "False"
            }
        },
        {
            "type": "Feature",
            "geometry": {
                "type": "Point",
                "coordinates": [
                    9.49883321,
                    48.01831419
                ]
            },
            "properties": {
                "RSU coordinates": [
                    9.4994845,
                    48.0182064
                ],
                "Distance": 49.96,
                "Frequency": 5.9,
                "RSSI": -84.63,
                "LOS": "False"
            }
        },
        {
            "type": "Feature",
            "geometry": {
                "type": "Point",
                "coordinates": [
                    9.49901929,
                    48.01852978
                ]
            },
            "properties": {
                "RSU coordinates": [
                    9.4994845,
                    48.0182064
                ],
                "Distance": 49.96,
                "Frequency": 5.9,
                "RSSI": -69.63,
                "LOS": "False"
            }
        },
        {
            "type": "Feature",
            "geometry": {
                "type": "Point",
                "coordinates": [
                    9.49911233,
                    48.01863757
                ]
            },
            "properties": {
                "RSU coordinates": [
                    9.4994845,
                    48.0182064
                ],
                "Distance": 55.43,
                "Frequency": 5.9,
                "RSSI": -70.52000000000001,
                "LOS": "False"
            }
        },
        {
            "type": "Feature",
            "geometry": {
                "type": "Point",
                "coordinates": [
                    9.49920537,
                    48.01874537
                ]
            },
            "properties": {
                "RSU coordinates": [
                    9.4994845,
                    48.0182064
                ],
                "Distance": 63.5,
                "Frequency": 5.9,
                "RSSI": -86.69,
                "LOS": "False"
            }
        },
        {
            "type": "Feature",
            "geometry": {
                "type": "Point",
                "coordinates": [
                    9.49929842,
                    48.01885316
                ]
            },
            "properties": {
                "RSU coordinates": [
                    9.4994845,
                    48.0182064
                ],
                "Distance": 73.32,
                "Frequency": 5.9,
                "RSSI": -72.92,
                "LOS": "False"
            }
        },
        {
            "type": "Feature",
            "geometry": {
                "type": "Point",
                "coordinates": [
                    9.49939146,
                    48.01896096
                ]
            },
            "properties": {
                "RSU coordinates": [
                    9.4994845,
                    48.0182064
                ],
                "Distance": 84.29,
                "Frequency": 5.9,
                "RSSI": -74.12,
                "LOS": "False"
            }
        },
        {
            "type": "Feature",
            "geometry": {
                "type": "Point",
                "coordinates": [
                    9.4994845,
                    48.01906875
                ]
            },
            "properties": {
                "RSU coordinates": [
                    9.4994845,
                    48.0182064
                ],
                "Distance": 96.0,
                "Frequency": 5.9,
                "RSSI": -75.22999999999999,
                "LOS": "False"
            }
        },
        {
            "type": "Feature",
            "geometry": {
                "type": "Point",
                "coordinates": [
                    9.49957754,
                    48.01917654
                ]
            },
            "properties": {
                "RSU coordinates": [
                    9.4994845,
                    48.0182064
                ],
                "Distance": 108.22,
                "Frequency": 5.9,
                "RSSI": -76.25999999999999,
                "LOS": "False"
            }
        },
        {
            "type": "Feature",
            "geometry": {
                "type": "Point",
                "coordinates": [
                    9.49967059,
                    48.01928434
                ]
            },
            "properties": {
                "RSU coordinates": [
                    9.4994845,
                    48.0182064
                ],
                "Distance": 120.8,
                "Frequency": 5.9,
                "RSSI": -77.2,
                "LOS": "False"
            }
        },
        {
            "type": "Feature",
            "geometry": {
                "type": "Point",
                "coordinates": [
                    9.49976363,
                    48.01939213
                ]
            },
            "properties": {
                "RSU coordinates": [
                    9.4994845,
                    48.0182064
                ],
                "Distance": 133.63,
                "Frequency": 5.9,
                "RSSI": -93.07,
                "LOS": "False"
            }
        },
        {
            "type": "Feature",
            "geometry": {
                "type": "Point",
                "coordinates": [
                    9.49985667,
                    48.01949992
                ]
            },
            "properties": {
                "RSU coordinates": [
                    9.4994845,
                    48.0182064
                ],
                "Distance": 146.64,
                "Frequency": 5.9,
                "RSSI": -93.87,
                "LOS": "False"
            }
        },
        {
            "type": "Feature",
            "geometry": {
                "type": "Point",
                "coordinates": [
                    9.49874017,
                    48.01799081
                ]
            },
            "properties": {
                "RSU coordinates": [
                    9.4994845,
                    48.0182064
                ],
                "Distance": 60.4,
                "Frequency": 5.9,
                "RSSI": -71.25999999999999,
                "LOS": "False"
            }
        },
        {
            "type": "Feature",
            "geometry": {
                "type": "Point",
                "coordinates": [
                    9.49901929,
                    48.01831419
                ]
            },
            "properties": {
                "RSU coordinates": [
                    9.4994845,
                    48.0182064
                ],
                "Distance": 36.66,
                "Frequency": 5.9,
                "RSSI": -66.97999999999999,
                "LOS": "False"
            }
        },
        {
            "type": "Feature",
            "geometry": {
                "type": "Point",
                "coordinates": [
                    9.49911233,
                    48.01842199
                ]
            },
            "properties": {
                "RSU coordinates": [
                    9.4994845,
                    48.0182064
                ],
                "Distance": 36.66,
                "Frequency": 5.9,
                "RSSI": -66.97999999999999,
                "LOS": "False"
            }
        },
        {
            "type": "Feature",
            "geometry": {
                "type": "Point",
                "coordinates": [
                    9.49920538,
                    48.01852978
                ]
            },
            "properties": {
                "RSU coordinates": [
                    9.4994845,
                    48.0182064
                ],
                "Distance": 41.57,
                "Frequency": 5.9,
                "RSSI": -68.06,
                "LOS": "False"
            }
        },
        {
            "type": "Feature",
            "geometry": {
                "type": "Point",
                "coordinates": [
                    9.49929842,
                    48.01863757
                ]
            },
            "properties": {
                "RSU coordinates": [
                    9.4994845,
                    48.0182064
                ],
                "Distance": 49.96,
                "Frequency": 5.9,
                "RSSI": -84.63,
                "LOS": "False"
            }
        },
        {
            "type": "Feature",
            "geometry": {
                "type": "Point",
                "coordinates": [
                    9.49939146,
                    48.01874537
                ]
            },
            "properties": {
                "RSU coordinates": [
                    9.4994845,
                    48.0182064
                ],
                "Distance": 60.4,
                "Frequency": 5.9,
                "RSSI": -71.25999999999999,
                "LOS": "False"
            }
        },
        {
            "type": "Feature",
            "geometry": {
                "type": "Point",
                "coordinates": [
                    9.4994845,
                    48.01885316
                ]
            },
            "properties": {
                "RSU coordinates": [
                    9.4994845,
                    48.0182064
                ],
                "Distance": 72.0,
                "Frequency": 5.9,
                "RSSI": -72.77000000000001,
                "LOS": "False"
            }
        },
        {
            "type": "Feature",
            "geometry": {
                "type": "Point",
                "coordinates": [
                    9.49957754,
                    48.01896096
                ]
            },
            "properties": {
                "RSU coordinates": [
                    9.4994845,
                    48.0182064
                ],
                "Distance": 84.29,
                "Frequency": 5.9,
                "RSSI": -74.12,
                "LOS": "False"
            }
        },
        {
            "type": "Feature",
            "geometry": {
                "type": "Point",
                "coordinates": [
                    9.49967059,
                    48.01906875
                ]
            },
            "properties": {
                "RSU coordinates": [
                    9.4994845,
                    48.0182064
                ],
                "Distance": 96.99,
                "Frequency": 5.9,
                "RSSI": -90.32,
                "LOS": "False"
            }
        },
        {
            "type": "Feature",
            "geometry": {
                "type": "Point",
                "coordinates": [
                    9.49976363,
                    48.01917654
                ]
            },
            "properties": {
                "RSU coordinates": [
                    9.4994845,
                    48.0182064
                ],
                "Distance": 109.98,
                "Frequency": 5.9,
                "RSSI": -91.4,
                "LOS": "False"
            }
        },
        {
            "type": "Feature",
            "geometry": {
                "type": "Point",
                "coordinates": [
                    9.49892626,
                    48.01799081
                ]
            },
            "properties": {
                "RSU coordinates": [
                    9.4994845,
                    48.0182064
                ],
                "Distance": 48.0,
                "Frequency": 5.9,
                "RSSI": -54.29,
                "LOS": "True"
            }
        },
        {
            "type": "Feature",
            "geometry": {
                "type": "Point",
                "coordinates": [
                    9.4990193,
                    48.01809861
                ]
            },
            "properties": {
                "RSU coordinates": [
                    9.4994845,
                    48.0182064
                ],
                "Distance": 36.66,
                "Frequency": 5.9,
                "RSSI": -66.97999999999999,
                "LOS": "False"
            }
        },
        {
            "type": "Feature",
            "geometry": {
                "type": "Point",
                "coordinates": [
                    9.49929842,
                    48.01842199
                ]
            },
            "properties": {
                "RSU coordinates": [
                    9.4994845,
                    48.0182064
                ],
                "Distance": 27.71,
                "Frequency": 5.9,
                "RSSI": -64.58,
                "LOS": "False"
            }
        },
        {
            "type": "Feature",
            "geometry": {
                "type": "Point",
                "coordinates": [
                    9.49939146,
                    48.01852978
                ]
            },
            "properties": {
                "RSU coordinates": [
                    9.4994845,
                    48.0182064
                ],
                "Distance": 36.66,
                "Frequency": 5.9,
                "RSSI": -66.97999999999999,
                "LOS": "False"
            }
        },
        {
            "type": "Feature",
            "geometry": {
                "type": "Point",
                "coordinates": [
                    9.4994845,
                    48.01863757
                ]
            },
            "properties": {
                "RSU coordinates": [
                    9.4994845,
                    48.0182064
                ],
                "Distance": 48.0,
                "Frequency": 5.9,
                "RSSI": -69.28999999999999,
                "LOS": "False"
            }
        },
        {
            "type": "Feature",
            "geometry": {
                "type": "Point",
                "coordinates": [
                    9.49957754,
                    48.01874537
                ]
            },
            "properties": {
                "RSU coordinates": [
                    9.4994845,
                    48.0182064
                ],
                "Distance": 60.4,
                "Frequency": 5.9,
                "RSSI": -71.25999999999999,
                "LOS": "False"
            }
        },
        {
            "type": "Feature",
            "geometry": {
                "type": "Point",
                "coordinates": [
                    9.49967058,
                    48.01885316
                ]
            },
            "properties": {
                "RSU coordinates": [
                    9.4994845,
                    48.0182064
                ],
                "Distance": 73.32,
                "Frequency": 5.9,
                "RSSI": -72.92,
                "LOS": "False"
            }
        },
        {
            "type": "Feature",
            "geometry": {
                "type": "Point",
                "coordinates": [
                    9.49920538,
                    48.01809861
                ]
            },
            "properties": {
                "RSU coordinates": [
                    9.4994845,
                    48.0182064
                ],
                "Distance": 24.0,
                "Frequency": 5.9,
                "RSSI": -48.34,
                "LOS": "True"
            }
        },
        {
            "type": "Feature",
            "geometry": {
                "type": "Point",
                "coordinates": [
                    9.49939146,
                    48.01831419
                ]
            },
            "properties": {
                "RSU coordinates": [
                    9.4994845,
                    48.0182064
                ],
                "Distance": 13.86,
                "Frequency": 5.9,
                "RSSI": -43.63,
                "LOS": "True"
            }
        },
        {
            "type": "Feature",
            "geometry": {
                "type": "Point",
                "coordinates": [
                    9.49957754,
                    48.01852978
                ]
            },
            "properties": {
                "RSU coordinates": [
                    9.4994845,
                    48.0182064
                ],
                "Distance": 36.66,
                "Frequency": 5.9,
                "RSSI": -66.97999999999999,
                "LOS": "False"
            }
        },
        {
            "type": "Feature",
            "geometry": {
                "type": "Point",
                "coordinates": [
                    9.49920538,
                    48.01788302
                ]
            },
            "properties": {
                "RSU coordinates": [
                    9.4994845,
                    48.0182064
                ],
                "Distance": 41.57,
                "Frequency": 5.9,
                "RSSI": -83.06,
                "LOS": "False"
            }
        },
        {
            "type": "Feature",
            "geometry": {
                "type": "Point",
                "coordinates": [
                    9.49929842,
                    48.01799081
                ]
            },
            "properties": {
                "RSU coordinates": [
                    9.4994845,
                    48.0182064
                ],
                "Distance": 27.71,
                "Frequency": 5.9,
                "RSSI": -79.58,
                "LOS": "False"
            }
        },
        {
            "type": "Feature",
            "geometry": {
                "type": "Point",
                "coordinates": [
                    9.49929842,
                    48.01777523
                ]
            },
            "properties": {
                "RSU coordinates": [
                    9.4994845,
                    48.0182064
                ],
                "Distance": 49.96,
                "Frequency": 5.9,
                "RSSI": -84.63,
                "LOS": "False"
            }
        },
        {
            "type": "Feature",
            "geometry": {
                "type": "Point",
                "coordinates": [
                    9.49939146,
                    48.01788302
                ]
            },
            "properties": {
                "RSU coordinates": [
                    9.4994845,
                    48.0182064
                ],
                "Distance": 36.66,
                "Frequency": 5.9,
                "RSSI": -66.97999999999999,
                "LOS": "False"
            }
        },
        {
            "type": "Feature",
            "geometry": {
                "type": "Point",
                "coordinates": [
                    9.4994845,
                    48.01799081
                ]
            },
            "properties": {
                "RSU coordinates": [
                    9.4994845,
                    48.0182064
                ],
                "Distance": 24.0,
                "Frequency": 5.9,
                "RSSI": -63.34,
                "LOS": "False"
            }
        },
        {
            "type": "Feature",
            "geometry": {
                "type": "Point",
                "coordinates": [
                    9.49957754,
                    48.01809861
                ]
            },
            "properties": {
                "RSU coordinates": [
                    9.4994845,
                    48.0182064
                ],
                "Distance": 13.86,
                "Frequency": 5.9,
                "RSSI": -43.63,
                "LOS": "True"
            }
        },
        {
            "type": "Feature",
            "geometry": {
                "type": "Point",
                "coordinates": [
                    9.49967058,
                    48.0182064
                ]
            },
            "properties": {
                "RSU coordinates": [
                    9.4994845,
                    48.0182064
                ],
                "Distance": 13.86,
                "Frequency": 5.9,
                "RSSI": -43.63,
                "LOS": "True"
            }
        },
        {
            "type": "Feature",
            "geometry": {
                "type": "Point",
                "coordinates": [
                    9.49976362,
                    48.01831419
                ]
            },
            "properties": {
                "RSU coordinates": [
                    9.4994845,
                    48.0182064
                ],
                "Distance": 24.0,
                "Frequency": 5.9,
                "RSSI": -48.34,
                "LOS": "True"
            }
        },
        {
            "type": "Feature",
            "geometry": {
                "type": "Point",
                "coordinates": [
                    9.4994845,
                    48.01777523
                ]
            },
            "properties": {
                "RSU coordinates": [
                    9.4994845,
                    48.0182064
                ],
                "Distance": 48.0,
                "Frequency": 5.9,
                "RSSI": -99.28999999999999,
                "LOS": "False"
            }
        },
        {
            "type": "Feature",
            "geometry": {
                "type": "Point",
                "coordinates": [
                    9.49976362,
                    48.01809861
                ]
            },
            "properties": {
                "RSU coordinates": [
                    9.4994845,
                    48.0182064
                ],
                "Distance": 24.0,
                "Frequency": 5.9,
                "RSSI": -48.34,
                "LOS": "True"
            }
        },
        {
            "type": "Feature",
            "geometry": {
                "type": "Point",
                "coordinates": [
                    9.49985666,
                    48.0182064
                ]
            },
            "properties": {
                "RSU coordinates": [
                    9.4994845,
                    48.0182064
                ],
                "Distance": 27.71,
                "Frequency": 5.9,
                "RSSI": -64.58,
                "LOS": "False"
            }
        },
        {
            "type": "Feature",
            "geometry": {
                "type": "Point",
                "coordinates": [
                    9.49994971,
                    48.01831419
                ]
            },
            "properties": {
                "RSU coordinates": [
                    9.4994845,
                    48.0182064
                ],
                "Distance": 36.66,
                "Frequency": 5.9,
                "RSSI": -66.97999999999999,
                "LOS": "False"
            }
        },
        {
            "type": "Feature",
            "geometry": {
                "type": "Point",
                "coordinates": [
                    9.50004275,
                    48.01842199
                ]
            },
            "properties": {
                "RSU coordinates": [
                    9.4994845,
                    48.0182064
                ],
                "Distance": 48.0,
                "Frequency": 5.9,
                "RSSI": -84.28999999999999,
                "LOS": "False"
            }
        },
        {
            "type": "Feature",
            "geometry": {
                "type": "Point",
                "coordinates": [
                    9.50032188,
                    48.01874537
                ]
            },
            "properties": {
                "RSU coordinates": [
                    9.4994845,
                    48.0182064
                ],
                "Distance": 86.53,
                "Frequency": 5.9,
                "RSSI": -89.34,
                "LOS": "False"
            }
        },
        {
            "type": "Feature",
            "geometry": {
                "type": "Point",
                "coordinates": [
                    9.49911234,
                    48.01712846
                ]
            },
            "properties": {
                "RSU coordinates": [
                    9.4994845,
                    48.0182064
                ],
                "Distance": 123.16,
                "Frequency": 5.9,
                "RSSI": -92.37,
                "LOS": "False"
            }
        },
        {
            "type": "Feature",
            "geometry": {
                "type": "Point",
                "coordinates": [
                    9.49920538,
                    48.01723626
                ]
            },
            "properties": {
                "RSU coordinates": [
                    9.4994845,
                    48.0182064
                ],
                "Distance": 109.98,
                "Frequency": 5.9,
                "RSSI": -91.4,
                "LOS": "False"
            }
        },
        {
            "type": "Feature",
            "geometry": {
                "type": "Point",
                "coordinates": [
                    9.49967058,
                    48.01777523
                ]
            },
            "properties": {
                "RSU coordinates": [
                    9.4994845,
                    48.0182064
                ],
                "Distance": 49.96,
                "Frequency": 5.9,
                "RSSI": -84.63,
                "LOS": "False"
            }
        },
        {
            "type": "Feature",
            "geometry": {
                "type": "Point",
                "coordinates": [
                    9.49985666,
                    48.01799081
                ]
            },
            "properties": {
                "RSU coordinates": [
                    9.4994845,
                    48.0182064
                ],
                "Distance": 36.66,
                "Frequency": 5.9,
                "RSSI": -51.98,
                "LOS": "True"
            }
        },
        {
            "type": "Feature",
            "geometry": {
                "type": "Point",
                "coordinates": [
                    9.4999497,
                    48.01809861
                ]
            },
            "properties": {
                "RSU coordinates": [
                    9.4994845,
                    48.0182064
                ],
                "Distance": 36.66,
                "Frequency": 5.9,
                "RSSI": -81.97999999999999,
                "LOS": "False"
            }
        },
        {
            "type": "Feature",
            "geometry": {
                "type": "Point",
                "coordinates": [
                    9.50004275,
                    48.0182064
                ]
            },
            "properties": {
                "RSU coordinates": [
                    9.4994845,
                    48.0182064
                ],
                "Distance": 41.57,
                "Frequency": 5.9,
                "RSSI": -68.06,
                "LOS": "False"
            }
        },
        {
            "type": "Feature",
            "geometry": {
                "type": "Point",
                "coordinates": [
                    9.50013579,
                    48.01831419
                ]
            },
            "properties": {
                "RSU coordinates": [
                    9.4994845,
                    48.0182064
                ],
                "Distance": 49.96,
                "Frequency": 5.9,
                "RSSI": -69.63,
                "LOS": "False"
            }
        },
        {
            "type": "Feature",
            "geometry": {
                "type": "Point",
                "coordinates": [
                    9.50032187,
                    48.01852978
                ]
            },
            "properties": {
                "RSU coordinates": [
                    9.4994845,
                    48.0182064
                ],
                "Distance": 72.0,
                "Frequency": 5.9,
                "RSSI": -87.77000000000001,
                "LOS": "False"
            }
        },
        {
            "type": "Feature",
            "geometry": {
                "type": "Point",
                "coordinates": [
                    9.50041492,
                    48.01863757
                ]
            },
            "properties": {
                "RSU coordinates": [
                    9.4994845,
                    48.0182064
                ],
                "Distance": 84.29,
                "Frequency": 5.9,
                "RSSI": -89.12,
                "LOS": "False"
            }
        },
        {
            "type": "Feature",
            "geometry": {
                "type": "Point",
                "coordinates": [
                    9.49911235,
                    48.01691288
                ]
            },
            "properties": {
                "RSU coordinates": [
                    9.4994845,
                    48.0182064
                ],
                "Distance": 146.64,
                "Frequency": 5.9,
                "RSSI": -93.87,
                "LOS": "False"
            }
        },
        {
            "type": "Feature",
            "geometry": {
                "type": "Point",
                "coordinates": [
                    9.49967058,
                    48.01755964
                ]
            },
            "properties": {
                "RSU coordinates": [
                    9.4994845,
                    48.0182064
                ],
                "Distance": 73.32,
                "Frequency": 5.9,
                "RSSI": -87.92,
                "LOS": "False"
            }
        },
        {
            "type": "Feature",
            "geometry": {
                "type": "Point",
                "coordinates": [
                    9.49976362,
                    48.01766743
                ]
            },
            "properties": {
                "RSU coordinates": [
                    9.4994845,
                    48.0182064
                ],
                "Distance": 63.5,
                "Frequency": 5.9,
                "RSSI": -86.69,
                "LOS": "False"
            }
        },
        {
            "type": "Feature",
            "geometry": {
                "type": "Point",
                "coordinates": [
                    9.4999497,
                    48.01788302
                ]
            },
            "properties": {
                "RSU coordinates": [
                    9.4994845,
                    48.0182064
                ],
                "Distance": 49.96,
                "Frequency": 5.9,
                "RSSI": -54.63,
                "LOS": "True"
            }
        },
        {
            "type": "Feature",
            "geometry": {
                "type": "Point",
                "coordinates": [
                    9.50013579,
                    48.01809861
                ]
            },
            "properties": {
                "RSU coordinates": [
                    9.4994845,
                    48.0182064
                ],
                "Distance": 49.96,
                "Frequency": 5.9,
                "RSSI": -84.63,
                "LOS": "False"
            }
        },
        {
            "type": "Feature",
            "geometry": {
                "type": "Point",
                "coordinates": [
                    9.500601,
                    48.01863757
                ]
            },
            "properties": {
                "RSU coordinates": [
                    9.4994845,
                    48.0182064
                ],
                "Distance": 96.0,
                "Frequency": 5.9,
                "RSSI": -90.22999999999999,
                "LOS": "False"
            }
        },
        {
            "type": "Feature",
            "geometry": {
                "type": "Point",
                "coordinates": [
                    9.4999497,
                    48.01766743
                ]
            },
            "properties": {
                "RSU coordinates": [
                    9.4994845,
                    48.0182064
                ],
                "Distance": 69.28,
                "Frequency": 5.9,
                "RSSI": -87.44,
                "LOS": "False"
            }
        },
        {
            "type": "Feature",
            "geometry": {
                "type": "Point",
                "coordinates": [
                    9.50004274,
                    48.01777523
                ]
            },
            "properties": {
                "RSU coordinates": [
                    9.4994845,
                    48.0182064
                ],
                "Distance": 63.5,
                "Frequency": 5.9,
                "RSSI": -86.69,
                "LOS": "False"
            }
        },
        {
            "type": "Feature",
            "geometry": {
                "type": "Point",
                "coordinates": [
                    9.50013578,
                    48.01788302
                ]
            },
            "properties": {
                "RSU coordinates": [
                    9.4994845,
                    48.0182064
                ],
                "Distance": 60.4,
                "Frequency": 5.9,
                "RSSI": -71.25999999999999,
                "LOS": "False"
            }
        },
        {
            "type": "Feature",
            "geometry": {
                "type": "Point",
                "coordinates": [
                    9.50022883,
                    48.01799081
                ]
            },
            "properties": {
                "RSU coordinates": [
                    9.4994845,
                    48.0182064
                ],
                "Distance": 60.4,
                "Frequency": 5.9,
                "RSSI": -86.25999999999999,
                "LOS": "False"
            }
        },
        {
            "type": "Feature",
            "geometry": {
                "type": "Point",
                "coordinates": [
                    9.50032187,
                    48.01809861
                ]
            },
            "properties": {
                "RSU coordinates": [
                    9.4994845,
                    48.0182064
                ],
                "Distance": 63.5,
                "Frequency": 5.9,
                "RSSI": -86.69,
                "LOS": "False"
            }
        },
        {
            "type": "Feature",
            "geometry": {
                "type": "Point",
                "coordinates": [
                    9.50050795,
                    48.01831419
                ]
            },
            "properties": {
                "RSU coordinates": [
                    9.4994845,
                    48.0182064
                ],
                "Distance": 77.15,
                "Frequency": 5.9,
                "RSSI": -88.36,
                "LOS": "False"
            }
        },
        {
            "type": "Feature",
            "geometry": {
                "type": "Point",
                "coordinates": [
                    9.500601,
                    48.01842199
                ]
            },
            "properties": {
                "RSU coordinates": [
                    9.4994845,
                    48.0182064
                ],
                "Distance": 86.53,
                "Frequency": 5.9,
                "RSSI": -89.34,
                "LOS": "False"
            }
        },
        {
            "type": "Feature",
            "geometry": {
                "type": "Point",
                "coordinates": [
                    9.50022882,
                    48.01777523
                ]
            },
            "properties": {
                "RSU coordinates": [
                    9.4994845,
                    48.0182064
                ],
                "Distance": 73.32,
                "Frequency": 5.9,
                "RSSI": -87.92,
                "LOS": "False"
            }
        },
        {
            "type": "Feature",
            "geometry": {
                "type": "Point",
                "coordinates": [
                    9.50032186,
                    48.01788302
                ]
            },
            "properties": {
                "RSU coordinates": [
                    9.4994845,
                    48.0182064
                ],
                "Distance": 72.0,
                "Frequency": 5.9,
                "RSSI": -87.77000000000001,
                "LOS": "False"
            }
        },
        {
            "type": "Feature",
            "geometry": {
                "type": "Point",
                "coordinates": [
                    9.5004149,
                    48.01777523
                ]
            },
            "properties": {
                "RSU coordinates": [
                    9.4994845,
                    48.0182064
                ],
                "Distance": 84.29,
                "Frequency": 5.9,
                "RSSI": -74.12,
                "LOS": "False"
            }
        },
        {
            "type": "Feature",
            "geometry": {
                "type": "Point",
                "coordinates": [
                    9.50097316,
                    48.01842199
                ]
            },
            "properties": {
                "RSU coordinates": [
                    9.4994845,
                    48.0182064
                ],
                "Distance": 113.42,
                "Frequency": 5.9,
                "RSSI": -91.66,
                "LOS": "False"
            }
        },
        {
            "type": "Feature",
            "geometry": {
                "type": "Point",
                "coordinates": [
                    9.50060098,
                    48.01777523
                ]
            },
            "properties": {
                "RSU coordinates": [
                    9.4994845,
                    48.0182064
                ],
                "Distance": 96.0,
                "Frequency": 5.9,
                "RSSI": -90.22999999999999,
                "LOS": "False"
            }
        },
        {
            "type": "Feature",
            "geometry": {
                "type": "Point",
                "coordinates": [
                    9.50069402,
                    48.01766743
                ]
            },
            "properties": {
                "RSU coordinates": [
                    9.4994845,
                    48.0182064
                ],
                "Distance": 108.22,
                "Frequency": 5.9,
                "RSSI": -76.25999999999999,
                "LOS": "False"
            }
        },
        {
            "type": "Feature",
            "geometry": {
                "type": "Point",
                "coordinates": [
                    9.50078706,
                    48.01755964
                ]
            },
            "properties": {
                "RSU coordinates": [
                    9.4994845,
                    48.0182064
                ],
                "Distance": 120.8,
                "Frequency": 5.9,
                "RSSI": -77.2,
                "LOS": "False"
            }
        }
    ]
}