{
    "type": "FeatureCollection",
    "features": [
        {
            "type": "Feature",
            "geometry": {
                "type": "Point",
                "coordinates": [
                    11.86302991,
                    53.07585146
                ]
            },
            "properties": {
                "RSU coordinates": [
                    11.864791,
                    53.0750969
                ],
                "Distance": 144.67,
                "Frequency": 5.9,
                "RSSI": -63.75,
                "LOS": "True"
            }
        },
        {
            "type": "Feature",
            "geometry": {
                "type": "Point",
                "coordinates": [
                    11.86334069,
                    53.07574366
                ]
            },
            "properties": {
                "RSU coordinates": [
                    11.864791,
                    53.0750969
                ],
                "Distance": 120.8,
                "Frequency": 5.9,
                "RSSI": -62.2,
                "LOS": "True"
            }
        },
        {
            "type": "Feature",
            "geometry": {
                "type": "Point",
                "coordinates": [
                    11.86365148,
                    53.07563587
                ]
            },
            "properties": {
                "RSU coordinates": [
                    11.864791,
                    53.0750969
                ],
                "Distance": 96.99,
                "Frequency": 5.9,
                "RSSI": -60.32,
                "LOS": "True"
            }
        },
        {
            "type": "Feature",
            "geometry": {
                "type": "Point",
                "coordinates": [
                    11.86375507,
                    53.07552807
                ]
            },
            "properties": {
                "RSU coordinates": [
                    11.864791,
                    53.0750969
                ],
                "Distance": 84.29,
                "Frequency": 5.9,
                "RSSI": -59.12,
                "LOS": "True"
            }
        },
        {
            "type": "Feature",
            "geometry": {
                "type": "Point",
                "coordinates": [
                    11.86458381,
                    53.07617484
                ]
            },
            "properties": {
                "RSU coordinates": [
                    11.864791,
                    53.0750969
                ],
                "Distance": 120.8,
                "Frequency": 5.9,
                "RSSI": -92.2,
                "LOS": "False"
            }
        },
        {
            "type": "Feature",
            "geometry": {
                "type": "Point",
                "coordinates": [
                    11.86406585,
                    53.07542028
                ]
            },
            "properties": {
                "RSU coordinates": [
                    11.864791,
                    53.0750969
                ],
                "Distance": 60.4,
                "Frequency": 5.9,
                "RSSI": -56.26,
                "LOS": "True"
            }
        },
        {
            "type": "Feature",
            "geometry": {
                "type": "Point",
                "coordinates": [
                    11.86458381,
                    53.07595925
                ]
            },
            "properties": {
                "RSU coordinates": [
                    11.864791,
                    53.0750969
                ],
                "Distance": 96.99,
                "Frequency": 5.9,
                "RSSI": -90.32,
                "LOS": "False"
            }
        },
        {
            "type": "Feature",
            "geometry": {
                "type": "Point",
                "coordinates": [
                    11.86199415,
                    53.07304882
                ]
            },
            "properties": {
                "RSU coordinates": [
                    11.864791,
                    53.0750969
                ],
                "Distance": 294.92,
                "Frequency": 5.9,
                "RSSI": -99.86,
                "LOS": "False"
            }
        },
        {
            "type": "Feature",
            "geometry": {
                "type": "Point",
                "coordinates": [
                    11.86209773,
                    53.07315662
                ]
            },
            "properties": {
                "RSU coordinates": [
                    11.864791,
                    53.0750969
                ],
                "Distance": 281.25,
                "Frequency": 5.9,
                "RSSI": -99.45,
                "LOS": "False"
            }
        },
        {
            "type": "Feature",
            "geometry": {
                "type": "Point",
                "coordinates": [
                    11.86220131,
                    53.07326441
                ]
            },
            "properties": {
                "RSU coordinates": [
                    11.864791,
                    53.0750969
                ],
                "Distance": 267.61,
                "Frequency": 5.9,
                "RSSI": -99.03,
                "LOS": "False"
            }
        },
        {
            "type": "Feature",
            "geometry": {
                "type": "Point",
                "coordinates": [
                    11.86230489,
                    53.0733722
                ]
            },
            "properties": {
                "RSU coordinates": [
                    11.864791,
                    53.0750969
                ],
                "Distance": 253.99,
                "Frequency": 5.9,
                "RSSI": -98.58,
                "LOS": "False"
            }
        },
        {
            "type": "Feature",
            "geometry": {
                "type": "Point",
                "coordinates": [
                    11.8636515,
                    53.07477352
                ]
            },
            "properties": {
                "RSU coordinates": [
                    11.864791,
                    53.0750969
                ],
                "Distance": 84.29,
                "Frequency": 5.9,
                "RSSI": -89.12,
                "LOS": "False"
            }
        },
        {
            "type": "Feature",
            "geometry": {
                "type": "Point",
                "coordinates": [
                    11.86396226,
                    53.0750969
                ]
            },
            "properties": {
                "RSU coordinates": [
                    11.864791,
                    53.0750969
                ],
                "Distance": 55.43,
                "Frequency": 5.9,
                "RSSI": -85.52000000000001,
                "LOS": "False"
            }
        },
        {
            "type": "Feature",
            "geometry": {
                "type": "Point",
                "coordinates": [
                    11.86406586,
                    53.07520469
                ]
            },
            "properties": {
                "RSU coordinates": [
                    11.864791,
                    53.0750969
                ],
                "Distance": 49.96,
                "Frequency": 5.9,
                "RSSI": -99.63,
                "LOS": "False"
            }
        },
        {
            "type": "Feature",
            "geometry": {
                "type": "Point",
                "coordinates": [
                    11.86458381,
                    53.07574366
                ]
            },
            "properties": {
                "RSU coordinates": [
                    11.864791,
                    53.0750969
                ],
                "Distance": 73.32,
                "Frequency": 5.9,
                "RSSI": -87.92,
                "LOS": "False"
            }
        },
        {
            "type": "Feature",
            "geometry": {
                "type": "Point",
                "coordinates": [
                    11.86220133,
                    53.07304882
                ]
            },
            "properties": {
                "RSU coordinates": [
                    11.864791,
                    53.0750969
                ],
                "Distance": 286.33,
                "Frequency": 5.9,
                "RSSI": -99.61,
                "LOS": "False"
            }
        },
        {
            "type": "Feature",
            "geometry": {
                "type": "Point",
                "coordinates": [
                    11.86230491,
                    53.07315662
                ]
            },
            "properties": {
                "RSU coordinates": [
                    11.864791,
                    53.0750969
                ],
                "Distance": 272.59,
                "Frequency": 5.9,
                "RSSI": -99.18,
                "LOS": "False"
            }
        },
        {
            "type": "Feature",
            "geometry": {
                "type": "Point",
                "coordinates": [
                    11.86240849,
                    53.07326441
                ]
            },
            "properties": {
                "RSU coordinates": [
                    11.864791,
                    53.0750969
                ],
                "Distance": 258.86,
                "Frequency": 5.9,
                "RSSI": -98.74,
                "LOS": "False"
            }
        },
        {
            "type": "Feature",
            "geometry": {
                "type": "Point",
                "coordinates": [
                    11.86251207,
                    53.0733722
                ]
            },
            "properties": {
                "RSU coordinates": [
                    11.864791,
                    53.0750969
                ],
                "Distance": 245.14,
                "Frequency": 5.9,
                "RSSI": -98.27,
                "LOS": "False"
            }
        },
        {
            "type": "Feature",
            "geometry": {
                "type": "Point",
                "coordinates": [
                    11.86261565,
                    53.07348
                ]
            },
            "properties": {
                "RSU coordinates": [
                    11.864791,
                    53.0750969
                ],
                "Distance": 231.45,
                "Frequency": 5.9,
                "RSSI": -97.78,
                "LOS": "False"
            }
        },
        {
            "type": "Feature",
            "geometry": {
                "type": "Point",
                "coordinates": [
                    11.86271924,
                    53.07358779
                ]
            },
            "properties": {
                "RSU coordinates": [
                    11.864791,
                    53.0750969
                ],
                "Distance": 217.77,
                "Frequency": 5.9,
                "RSSI": -97.26,
                "LOS": "False"
            }
        },
        {
            "type": "Feature",
            "geometry": {
                "type": "Point",
                "coordinates": [
                    11.86282282,
                    53.07369558
                ]
            },
            "properties": {
                "RSU coordinates": [
                    11.864791,
                    53.0750969
                ],
                "Distance": 204.12,
                "Frequency": 5.9,
                "RSSI": -96.7,
                "LOS": "False"
            }
        },
        {
            "type": "Feature",
            "geometry": {
                "type": "Point",
                "coordinates": [
                    11.8629264,
                    53.07380338
                ]
            },
            "properties": {
                "RSU coordinates": [
                    11.864791,
                    53.0750969
                ],
                "Distance": 190.49,
                "Frequency": 5.9,
                "RSSI": -96.11,
                "LOS": "False"
            }
        },
        {
            "type": "Feature",
            "geometry": {
                "type": "Point",
                "coordinates": [
                    11.86344433,
                    53.07434234
                ]
            },
            "properties": {
                "RSU coordinates": [
                    11.864791,
                    53.0750969
                ],
                "Distance": 123.16,
                "Frequency": 5.9,
                "RSSI": -77.37,
                "LOS": "False"
            }
        },
        {
            "type": "Feature",
            "geometry": {
                "type": "Point",
                "coordinates": [
                    11.86354792,
                    53.07445014
                ]
            },
            "properties": {
                "RSU coordinates": [
                    11.864791,
                    53.0750969
                ],
                "Distance": 109.98,
                "Frequency": 5.9,
                "RSSI": -76.4,
                "LOS": "False"
            }
        },
        {
            "type": "Feature",
            "geometry": {
                "type": "Point",
                "coordinates": [
                    11.8636515,
                    53.07455793
                ]
            },
            "properties": {
                "RSU coordinates": [
                    11.864791,
                    53.0750969
                ],
                "Distance": 96.99,
                "Frequency": 5.9,
                "RSSI": -75.32,
                "LOS": "False"
            }
        },
        {
            "type": "Feature",
            "geometry": {
                "type": "Point",
                "coordinates": [
                    11.86375509,
                    53.07466573
                ]
            },
            "properties": {
                "RSU coordinates": [
                    11.864791,
                    53.0750969
                ],
                "Distance": 84.29,
                "Frequency": 5.9,
                "RSSI": -89.12,
                "LOS": "False"
            }
        },
        {
            "type": "Feature",
            "geometry": {
                "type": "Point",
                "coordinates": [
                    11.86385868,
                    53.07477352
                ]
            },
            "properties": {
                "RSU coordinates": [
                    11.864791,
                    53.0750969
                ],
                "Distance": 72.0,
                "Frequency": 5.9,
                "RSSI": -87.77000000000001,
                "LOS": "False"
            }
        },
        {
            "type": "Feature",
            "geometry": {
                "type": "Point",
                "coordinates": [
                    11.86396227,
                    53.07488131
                ]
            },
            "properties": {
                "RSU coordinates": [
                    11.864791,
                    53.0750969
                ],
                "Distance": 60.4,
                "Frequency": 5.9,
                "RSSI": -86.25999999999999,
                "LOS": "False"
            }
        },
        {
            "type": "Feature",
            "geometry": {
                "type": "Point",
                "coordinates": [
                    11.86437663,
                    53.07531249
                ]
            },
            "properties": {
                "RSU coordinates": [
                    11.864791,
                    53.0750969
                ],
                "Distance": 36.66,
                "Frequency": 5.9,
                "RSSI": -51.98,
                "LOS": "True"
            }
        },
        {
            "type": "Feature",
            "geometry": {
                "type": "Point",
                "coordinates": [
                    11.86468741,
                    53.07563587
                ]
            },
            "properties": {
                "RSU coordinates": [
                    11.864791,
                    53.0750969
                ],
                "Distance": 60.4,
                "Frequency": 5.9,
                "RSSI": -86.25999999999999,
                "LOS": "False"
            }
        },
        {
            "type": "Feature",
            "geometry": {
                "type": "Point",
                "coordinates": [
                    11.86499819,
                    53.07595925
                ]
            },
            "properties": {
                "RSU coordinates": [
                    11.864791,
                    53.0750969
                ],
                "Distance": 96.99,
                "Frequency": 5.9,
                "RSSI": -60.32,
                "LOS": "True"
            }
        },
        {
            "type": "Feature",
            "geometry": {
                "type": "Point",
                "coordinates": [
                    11.86282283,
                    53.07348
                ]
            },
            "properties": {
                "RSU coordinates": [
                    11.864791,
                    53.0750969
                ],
                "Distance": 223.0,
                "Frequency": 5.9,
                "RSSI": -97.46,
                "LOS": "False"
            }
        },
        {
            "type": "Feature",
            "geometry": {
                "type": "Point",
                "coordinates": [
                    11.86292641,
                    53.07358779
                ]
            },
            "properties": {
                "RSU coordinates": [
                    11.864791,
                    53.0750969
                ],
                "Distance": 209.23,
                "Frequency": 5.9,
                "RSSI": -96.92,
                "LOS": "False"
            }
        },
        {
            "type": "Feature",
            "geometry": {
                "type": "Point",
                "coordinates": [
                    11.86303,
                    53.07369558
                ]
            },
            "properties": {
                "RSU coordinates": [
                    11.864791,
                    53.0750969
                ],
                "Distance": 195.47,
                "Frequency": 5.9,
                "RSSI": -96.33,
                "LOS": "False"
            }
        },
        {
            "type": "Feature",
            "geometry": {
                "type": "Point",
                "coordinates": [
                    11.86313358,
                    53.07380338
                ]
            },
            "properties": {
                "RSU coordinates": [
                    11.864791,
                    53.0750969
                ],
                "Distance": 181.73,
                "Frequency": 5.9,
                "RSSI": -95.71,
                "LOS": "False"
            }
        },
        {
            "type": "Feature",
            "geometry": {
                "type": "Point",
                "coordinates": [
                    11.86323716,
                    53.07391117
                ]
            },
            "properties": {
                "RSU coordinates": [
                    11.864791,
                    53.0750969
                ],
                "Distance": 168.0,
                "Frequency": 5.9,
                "RSSI": -95.03,
                "LOS": "False"
            }
        },
        {
            "type": "Feature",
            "geometry": {
                "type": "Point",
                "coordinates": [
                    11.86334075,
                    53.07401896
                ]
            },
            "properties": {
                "RSU coordinates": [
                    11.864791,
                    53.0750969
                ],
                "Distance": 154.3,
                "Frequency": 5.9,
                "RSSI": -94.3,
                "LOS": "False"
            }
        },
        {
            "type": "Feature",
            "geometry": {
                "type": "Point",
                "coordinates": [
                    11.86344434,
                    53.07412676
                ]
            },
            "properties": {
                "RSU coordinates": [
                    11.864791,
                    53.0750969
                ],
                "Distance": 140.63,
                "Frequency": 5.9,
                "RSSI": -93.50999999999999,
                "LOS": "False"
            }
        },
        {
            "type": "Feature",
            "geometry": {
                "type": "Point",
                "coordinates": [
                    11.86354792,
                    53.07423455
                ]
            },
            "properties": {
                "RSU coordinates": [
                    11.864791,
                    53.0750969
                ],
                "Distance": 127.0,
                "Frequency": 5.9,
                "RSSI": -92.63,
                "LOS": "False"
            }
        },
        {
            "type": "Feature",
            "geometry": {
                "type": "Point",
                "coordinates": [
                    11.86365151,
                    53.07434234
                ]
            },
            "properties": {
                "RSU coordinates": [
                    11.864791,
                    53.0750969
                ],
                "Distance": 113.42,
                "Frequency": 5.9,
                "RSSI": -91.66,
                "LOS": "False"
            }
        },
        {
            "type": "Feature",
            "geometry": {
                "type": "Point",
                "coordinates": [
                    11.8637551,
                    53.07445014
                ]
            },
            "properties": {
                "RSU coordinates": [
                    11.864791,
                    53.0750969
                ],
                "Distance": 99.92,
                "Frequency": 5.9,
                "RSSI": -75.58,
                "LOS": "False"
            }
        },
        {
            "type": "Feature",
            "geometry": {
                "type": "Point",
                "coordinates": [
                    11.86385868,
                    53.07455793
                ]
            },
            "properties": {
                "RSU coordinates": [
                    11.864791,
                    53.0750969
                ],
                "Distance": 86.53,
                "Frequency": 5.9,
                "RSSI": -74.34,
                "LOS": "False"
            }
        },
        {
            "type": "Feature",
            "geometry": {
                "type": "Point",
                "coordinates": [
                    11.86396227,
                    53.07466573
                ]
            },
            "properties": {
                "RSU coordinates": [
                    11.864791,
                    53.0750969
                ],
                "Distance": 73.32,
                "Frequency": 5.9,
                "RSSI": -72.92,
                "LOS": "False"
            }
        },
        {
            "type": "Feature",
            "geometry": {
                "type": "Point",
                "coordinates": [
                    11.86406586,
                    53.07477352
                ]
            },
            "properties": {
                "RSU coordinates": [
                    11.864791,
                    53.0750969
                ],
                "Distance": 60.4,
                "Frequency": 5.9,
                "RSSI": -56.26,
                "LOS": "True"
            }
        },
        {
            "type": "Feature",
            "geometry": {
                "type": "Point",
                "coordinates": [
                    11.86416945,
                    53.07488131
                ]
            },
            "properties": {
                "RSU coordinates": [
                    11.864791,
                    53.0750969
                ],
                "Distance": 48.0,
                "Frequency": 5.9,
                "RSSI": -84.28999999999999,
                "LOS": "False"
            }
        },
        {
            "type": "Feature",
            "geometry": {
                "type": "Point",
                "coordinates": [
                    11.86448022,
                    53.07520469
                ]
            },
            "properties": {
                "RSU coordinates": [
                    11.864791,
                    53.0750969
                ],
                "Distance": 24.0,
                "Frequency": 5.9,
                "RSSI": -48.34,
                "LOS": "True"
            }
        },
        {
            "type": "Feature",
            "geometry": {
                "type": "Point",
                "coordinates": [
                    11.86468741,
                    53.07542028
                ]
            },
            "properties": {
                "RSU coordinates": [
                    11.864791,
                    53.0750969
                ],
                "Distance": 36.66,
                "Frequency": 5.9,
                "RSSI": -81.97999999999999,
                "LOS": "False"
            }
        },
        {
            "type": "Feature",
            "geometry": {
                "type": "Point",
                "coordinates": [
                    11.86499819,
                    53.07574366
                ]
            },
            "properties": {
                "RSU coordinates": [
                    11.864791,
                    53.0750969
                ],
                "Distance": 73.32,
                "Frequency": 5.9,
                "RSSI": -57.92,
                "LOS": "True"
            }
        },
        {
            "type": "Feature",
            "geometry": {
                "type": "Point",
                "coordinates": [
                    11.8637551,
                    53.07423455
                ]
            },
            "properties": {
                "RSU coordinates": [
                    11.864791,
                    53.0750969
                ],
                "Distance": 118.39,
                "Frequency": 5.9,
                "RSSI": -92.03,
                "LOS": "False"
            }
        },
        {
            "type": "Feature",
            "geometry": {
                "type": "Point",
                "coordinates": [
                    11.86385869,
                    53.07434234
                ]
            },
            "properties": {
                "RSU coordinates": [
                    11.864791,
                    53.0750969
                ],
                "Distance": 104.61,
                "Frequency": 5.9,
                "RSSI": -90.97,
                "LOS": "False"
            }
        },
        {
            "type": "Feature",
            "geometry": {
                "type": "Point",
                "coordinates": [
                    11.86396228,
                    53.07445014
                ]
            },
            "properties": {
                "RSU coordinates": [
                    11.864791,
                    53.0750969
                ],
                "Distance": 90.86,
                "Frequency": 5.9,
                "RSSI": -89.75999999999999,
                "LOS": "False"
            }
        },
        {
            "type": "Feature",
            "geometry": {
                "type": "Point",
                "coordinates": [
                    11.86406587,
                    53.07455793
                ]
            },
            "properties": {
                "RSU coordinates": [
                    11.864791,
                    53.0750969
                ],
                "Distance": 77.15,
                "Frequency": 5.9,
                "RSSI": -88.36,
                "LOS": "False"
            }
        },
        {
            "type": "Feature",
            "geometry": {
                "type": "Point",
                "coordinates": [
                    11.86416945,
                    53.07466573
                ]
            },
            "properties": {
                "RSU coordinates": [
                    11.864791,
                    53.0750969
                ],
                "Distance": 63.5,
                "Frequency": 5.9,
                "RSSI": -86.69,
                "LOS": "False"
            }
        },
        {
            "type": "Feature",
            "geometry": {
                "type": "Point",
                "coordinates": [
                    11.86427304,
                    53.07477352
                ]
            },
            "properties": {
                "RSU coordinates": [
                    11.864791,
                    53.0750969
                ],
                "Distance": 49.96,
                "Frequency": 5.9,
                "RSSI": -69.63,
                "LOS": "False"
            }
        },
        {
            "type": "Feature",
            "geometry": {
                "type": "Point",
                "coordinates": [
                    11.864791,
                    53.07531249
                ]
            },
            "properties": {
                "RSU coordinates": [
                    11.864791,
                    53.0750969
                ],
                "Distance": 24.0,
                "Frequency": 5.9,
                "RSSI": -63.34,
                "LOS": "False"
            }
        },
        {
            "type": "Feature",
            "geometry": {
                "type": "Point",
                "coordinates": [
                    11.86489459,
                    53.07542028
                ]
            },
            "properties": {
                "RSU coordinates": [
                    11.864791,
                    53.0750969
                ],
                "Distance": 36.66,
                "Frequency": 5.9,
                "RSSI": -51.98,
                "LOS": "True"
            }
        },
        {
            "type": "Feature",
            "geometry": {
                "type": "Point",
                "coordinates": [
                    11.86406587,
                    53.07434234
                ]
            },
            "properties": {
                "RSU coordinates": [
                    11.864791,
                    53.0750969
                ],
                "Distance": 96.99,
                "Frequency": 5.9,
                "RSSI": -90.32,
                "LOS": "False"
            }
        },
        {
            "type": "Feature",
            "geometry": {
                "type": "Point",
                "coordinates": [
                    11.86416946,
                    53.07445014
                ]
            },
            "properties": {
                "RSU coordinates": [
                    11.864791,
                    53.0750969
                ],
                "Distance": 83.14,
                "Frequency": 5.9,
                "RSSI": -89.0,
                "LOS": "False"
            }
        },
        {
            "type": "Feature",
            "geometry": {
                "type": "Point",
                "coordinates": [
                    11.86427305,
                    53.07455793
                ]
            },
            "properties": {
                "RSU coordinates": [
                    11.864791,
                    53.0750969
                ],
                "Distance": 69.28,
                "Frequency": 5.9,
                "RSSI": -87.44,
                "LOS": "False"
            }
        },
        {
            "type": "Feature",
            "geometry": {
                "type": "Point",
                "coordinates": [
                    11.86437664,
                    53.07466573
                ]
            },
            "properties": {
                "RSU coordinates": [
                    11.864791,
                    53.0750969
                ],
                "Distance": 55.43,
                "Frequency": 5.9,
                "RSSI": -85.52000000000001,
                "LOS": "False"
            }
        },
        {
            "type": "Feature",
            "geometry": {
                "type": "Point",
                "coordinates": [
                    11.86468741,
                    53.07498911
                ]
            },
            "properties": {
                "RSU coordinates": [
                    11.864791,
                    53.0750969
                ],
                "Distance": 13.86,
                "Frequency": 5.9,
                "RSSI": -43.63,
                "LOS": "True"
            }
        },
        {
            "type": "Feature",
            "geometry": {
                "type": "Point",
                "coordinates": [
                    11.86510178,
                    53.07542028
                ]
            },
            "properties": {
                "RSU coordinates": [
                    11.864791,
                    53.0750969
                ],
                "Distance": 41.57,
                "Frequency": 5.9,
                "RSSI": -98.06,
                "LOS": "False"
            }
        },
        {
            "type": "Feature",
            "geometry": {
                "type": "Point",
                "coordinates": [
                    11.86427305,
                    53.07434234
                ]
            },
            "properties": {
                "RSU coordinates": [
                    11.864791,
                    53.0750969
                ],
                "Distance": 90.86,
                "Frequency": 5.9,
                "RSSI": -89.75999999999999,
                "LOS": "False"
            }
        },
        {
            "type": "Feature",
            "geometry": {
                "type": "Point",
                "coordinates": [
                    11.86468741,
                    53.07477352
                ]
            },
            "properties": {
                "RSU coordinates": [
                    11.864791,
                    53.0750969
                ],
                "Distance": 36.66,
                "Frequency": 5.9,
                "RSSI": -66.97999999999999,
                "LOS": "False"
            }
        },
        {
            "type": "Feature",
            "geometry": {
                "type": "Point",
                "coordinates": [
                    11.864791,
                    53.07488131
                ]
            },
            "properties": {
                "RSU coordinates": [
                    11.864791,
                    53.0750969
                ],
                "Distance": 24.0,
                "Frequency": 5.9,
                "RSSI": -63.34,
                "LOS": "False"
            }
        },
        {
            "type": "Feature",
            "geometry": {
                "type": "Point",
                "coordinates": [
                    11.86489459,
                    53.07498911
                ]
            },
            "properties": {
                "RSU coordinates": [
                    11.864791,
                    53.0750969
                ],
                "Distance": 13.86,
                "Frequency": 5.9,
                "RSSI": -43.63,
                "LOS": "True"
            }
        },
        {
            "type": "Feature",
            "geometry": {
                "type": "Point",
                "coordinates": [
                    11.86530896,
                    53.07542028
                ]
            },
            "properties": {
                "RSU coordinates": [
                    11.864791,
                    53.0750969
                ],
                "Distance": 49.96,
                "Frequency": 5.9,
                "RSSI": -99.63,
                "LOS": "False"
            }
        },
        {
            "type": "Feature",
            "geometry": {
                "type": "Point",
                "coordinates": [
                    11.86468741,
                    53.07455793
                ]
            },
            "properties": {
                "RSU coordinates": [
                    11.864791,
                    53.0750969
                ],
                "Distance": 60.4,
                "Frequency": 5.9,
                "RSSI": -86.25999999999999,
                "LOS": "False"
            }
        },
        {
            "type": "Feature",
            "geometry": {
                "type": "Point",
                "coordinates": [
                    11.86510177,
                    53.07498911
                ]
            },
            "properties": {
                "RSU coordinates": [
                    11.864791,
                    53.0750969
                ],
                "Distance": 24.0,
                "Frequency": 5.9,
                "RSSI": -63.34,
                "LOS": "False"
            }
        },
        {
            "type": "Feature",
            "geometry": {
                "type": "Point",
                "coordinates": [
                    11.86520537,
                    53.0750969
                ]
            },
            "properties": {
                "RSU coordinates": [
                    11.864791,
                    53.0750969
                ],
                "Distance": 27.71,
                "Frequency": 5.9,
                "RSSI": -64.58,
                "LOS": "False"
            }
        },
        {
            "type": "Feature",
            "geometry": {
                "type": "Point",
                "coordinates": [
                    11.86551615,
                    53.07542028
                ]
            },
            "properties": {
                "RSU coordinates": [
                    11.864791,
                    53.0750969
                ],
                "Distance": 60.4,
                "Frequency": 5.9,
                "RSSI": -86.25999999999999,
                "LOS": "False"
            }
        },
        {
            "type": "Feature",
            "geometry": {
                "type": "Point",
                "coordinates": [
                    11.86520537,
                    53.07488131
                ]
            },
            "properties": {
                "RSU coordinates": [
                    11.864791,
                    53.0750969
                ],
                "Distance": 36.66,
                "Frequency": 5.9,
                "RSSI": -51.98,
                "LOS": "True"
            }
        },
        {
            "type": "Feature",
            "geometry": {
                "type": "Point",
                "coordinates": [
                    11.86530896,
                    53.07498911
                ]
            },
            "properties": {
                "RSU coordinates": [
                    11.864791,
                    53.0750969
                ],
                "Distance": 36.66,
                "Frequency": 5.9,
                "RSSI": -66.97999999999999,
                "LOS": "False"
            }
        },
        {
            "type": "Feature",
            "geometry": {
                "type": "Point",
                "coordinates": [
                    11.86541255,
                    53.0750969
                ]
            },
            "properties": {
                "RSU coordinates": [
                    11.864791,
                    53.0750969
                ],
                "Distance": 41.57,
                "Frequency": 5.9,
                "RSSI": -68.06,
                "LOS": "False"
            }
        },
        {
            "type": "Feature",
            "geometry": {
                "type": "Point",
                "coordinates": [
                    11.86551614,
                    53.07520469
                ]
            },
            "properties": {
                "RSU coordinates": [
                    11.864791,
                    53.0750969
                ],
                "Distance": 49.96,
                "Frequency": 5.9,
                "RSSI": -99.63,
                "LOS": "False"
            }
        },
        {
            "type": "Feature",
            "geometry": {
                "type": "Point",
                "coordinates": [
                    11.86572333,
                    53.07542028
                ]
            },
            "properties": {
                "RSU coordinates": [
                    11.864791,
                    53.0750969
                ],
                "Distance": 72.0,
                "Frequency": 5.9,
                "RSSI": -87.77000000000001,
                "LOS": "False"
            }
        },
        {
            "type": "Feature",
            "geometry": {
                "type": "Point",
                "coordinates": [
                    11.86582693,
                    53.07552807
                ]
            },
            "properties": {
                "RSU coordinates": [
                    11.864791,
                    53.0750969
                ],
                "Distance": 84.29,
                "Frequency": 5.9,
                "RSSI": -89.12,
                "LOS": "False"
            }
        },
        {
            "type": "Feature",
            "geometry": {
                "type": "Point",
                "coordinates": [
                    11.86530896,
                    53.07477352
                ]
            },
            "properties": {
                "RSU coordinates": [
                    11.864791,
                    53.0750969
                ],
                "Distance": 49.96,
                "Frequency": 5.9,
                "RSSI": -54.63,
                "LOS": "True"
            }
        },
        {
            "type": "Feature",
            "geometry": {
                "type": "Point",
                "coordinates": [
                    11.86561974,
                    53.0750969
                ]
            },
            "properties": {
                "RSU coordinates": [
                    11.864791,
                    53.0750969
                ],
                "Distance": 55.43,
                "Frequency": 5.9,
                "RSSI": -70.52000000000001,
                "LOS": "False"
            }
        },
        {
            "type": "Feature",
            "geometry": {
                "type": "Point",
                "coordinates": [
                    11.86572333,
                    53.07520469
                ]
            },
            "properties": {
                "RSU coordinates": [
                    11.864791,
                    53.0750969
                ],
                "Distance": 63.5,
                "Frequency": 5.9,
                "RSSI": -86.69,
                "LOS": "False"
            }
        },
        {
            "type": "Feature",
            "geometry": {
                "type": "Point",
                "coordinates": [
                    11.86603411,
                    53.07552807
                ]
            },
            "properties": {
                "RSU coordinates": [
                    11.864791,
                    53.0750969
                ],
                "Distance": 96.0,
                "Frequency": 5.9,
                "RSSI": -90.22999999999999,
                "LOS": "False"
            }
        },
        {
            "type": "Feature",
            "geometry": {
                "type": "Point",
                "coordinates": [
                    11.86613771,
                    53.07563587
                ]
            },
            "properties": {
                "RSU coordinates": [
                    11.864791,
                    53.0750969
                ],
                "Distance": 108.22,
                "Frequency": 5.9,
                "RSSI": -91.25999999999999,
                "LOS": "False"
            }
        },
        {
            "type": "Feature",
            "geometry": {
                "type": "Point",
                "coordinates": [
                    11.86541255,
                    53.07466573
                ]
            },
            "properties": {
                "RSU coordinates": [
                    11.864791,
                    53.0750969
                ],
                "Distance": 63.5,
                "Frequency": 5.9,
                "RSSI": -71.69,
                "LOS": "False"
            }
        },
        {
            "type": "Feature",
            "geometry": {
                "type": "Point",
                "coordinates": [
                    11.86561973,
                    53.07488131
                ]
            },
            "properties": {
                "RSU coordinates": [
                    11.864791,
                    53.0750969
                ],
                "Distance": 60.4,
                "Frequency": 5.9,
                "RSSI": -71.25999999999999,
                "LOS": "False"
            }
        },
        {
            "type": "Feature",
            "geometry": {
                "type": "Point",
                "coordinates": [
                    11.86582692,
                    53.0750969
                ]
            },
            "properties": {
                "RSU coordinates": [
                    11.864791,
                    53.0750969
                ],
                "Distance": 69.28,
                "Frequency": 5.9,
                "RSSI": -72.44,
                "LOS": "False"
            }
        },
        {
            "type": "Feature",
            "geometry": {
                "type": "Point",
                "coordinates": [
                    11.86593051,
                    53.07520469
                ]
            },
            "properties": {
                "RSU coordinates": [
                    11.864791,
                    53.0750969
                ],
                "Distance": 77.15,
                "Frequency": 5.9,
                "RSSI": -88.36,
                "LOS": "False"
            }
        },
        {
            "type": "Feature",
            "geometry": {
                "type": "Point",
                "coordinates": [
                    11.8663449,
                    53.07563587
                ]
            },
            "properties": {
                "RSU coordinates": [
                    11.864791,
                    53.0750969
                ],
                "Distance": 120.0,
                "Frequency": 5.9,
                "RSSI": -92.15,
                "LOS": "False"
            }
        },
        {
            "type": "Feature",
            "geometry": {
                "type": "Point",
                "coordinates": [
                    11.86644849,
                    53.07574366
                ]
            },
            "properties": {
                "RSU coordinates": [
                    11.864791,
                    53.0750969
                ],
                "Distance": 132.18,
                "Frequency": 5.9,
                "RSSI": -92.97999999999999,
                "LOS": "False"
            }
        },
        {
            "type": "Feature",
            "geometry": {
                "type": "Point",
                "coordinates": [
                    11.86655209,
                    53.07585146
                ]
            },
            "properties": {
                "RSU coordinates": [
                    11.864791,
                    53.0750969
                ],
                "Distance": 144.67,
                "Frequency": 5.9,
                "RSSI": -93.75,
                "LOS": "False"
            }
        },
        {
            "type": "Feature",
            "geometry": {
                "type": "Point",
                "coordinates": [
                    11.86530895,
                    53.07434234
                ]
            },
            "properties": {
                "RSU coordinates": [
                    11.864791,
                    53.0750969
                ],
                "Distance": 90.86,
                "Frequency": 5.9,
                "RSSI": -89.75999999999999,
                "LOS": "False"
            }
        },
        {
            "type": "Feature",
            "geometry": {
                "type": "Point",
                "coordinates": [
                    11.86551613,
                    53.07455793
                ]
            },
            "properties": {
                "RSU coordinates": [
                    11.864791,
                    53.0750969
                ],
                "Distance": 77.15,
                "Frequency": 5.9,
                "RSSI": -88.36,
                "LOS": "False"
            }
        },
        {
            "type": "Feature",
            "geometry": {
                "type": "Point",
                "coordinates": [
                    11.86561973,
                    53.07466573
                ]
            },
            "properties": {
                "RSU coordinates": [
                    11.864791,
                    53.0750969
                ],
                "Distance": 73.32,
                "Frequency": 5.9,
                "RSSI": -57.92,
                "LOS": "True"
            }
        },
        {
            "type": "Feature",
            "geometry": {
                "type": "Point",
                "coordinates": [
                    11.86582691,
                    53.07488131
                ]
            },
            "properties": {
                "RSU coordinates": [
                    11.864791,
                    53.0750969
                ],
                "Distance": 73.32,
                "Frequency": 5.9,
                "RSSI": -72.92,
                "LOS": "False"
            }
        },
        {
            "type": "Feature",
            "geometry": {
                "type": "Point",
                "coordinates": [
                    11.8660341,
                    53.0750969
                ]
            },
            "properties": {
                "RSU coordinates": [
                    11.864791,
                    53.0750969
                ],
                "Distance": 83.14,
                "Frequency": 5.9,
                "RSSI": -74.0,
                "LOS": "False"
            }
        },
        {
            "type": "Feature",
            "geometry": {
                "type": "Point",
                "coordinates": [
                    11.8661377,
                    53.07520469
                ]
            },
            "properties": {
                "RSU coordinates": [
                    11.864791,
                    53.0750969
                ],
                "Distance": 90.86,
                "Frequency": 5.9,
                "RSSI": -89.75999999999999,
                "LOS": "False"
            }
        },
        {
            "type": "Feature",
            "geometry": {
                "type": "Point",
                "coordinates": [
                    11.86686288,
                    53.07595925
                ]
            },
            "properties": {
                "RSU coordinates": [
                    11.864791,
                    53.0750969
                ],
                "Distance": 168.57,
                "Frequency": 5.9,
                "RSSI": -95.06,
                "LOS": "False"
            }
        },
        {
            "type": "Feature",
            "geometry": {
                "type": "Point",
                "coordinates": [
                    11.86572332,
                    53.07455793
                ]
            },
            "properties": {
                "RSU coordinates": [
                    11.864791,
                    53.0750969
                ],
                "Distance": 86.53,
                "Frequency": 5.9,
                "RSSI": -59.34,
                "LOS": "True"
            }
        },
        {
            "type": "Feature",
            "geometry": {
                "type": "Point",
                "coordinates": [
                    11.86624129,
                    53.0750969
                ]
            },
            "properties": {
                "RSU coordinates": [
                    11.864791,
                    53.0750969
                ],
                "Distance": 96.99,
                "Frequency": 5.9,
                "RSSI": -75.32,
                "LOS": "False"
            }
        },
        {
            "type": "Feature",
            "geometry": {
                "type": "Point",
                "coordinates": [
                    11.86634488,
                    53.07520469
                ]
            },
            "properties": {
                "RSU coordinates": [
                    11.864791,
                    53.0750969
                ],
                "Distance": 104.61,
                "Frequency": 5.9,
                "RSSI": -90.97,
                "LOS": "False"
            }
        },
        {
            "type": "Feature",
            "geometry": {
                "type": "Point",
                "coordinates": [
                    11.86686287,
                    53.07574366
                ]
            },
            "properties": {
                "RSU coordinates": [
                    11.864791,
                    53.0750969
                ],
                "Distance": 156.15,
                "Frequency": 5.9,
                "RSSI": -94.41,
                "LOS": "False"
            }
        },
        {
            "type": "Feature",
            "geometry": {
                "type": "Point",
                "coordinates": [
                    11.8658269,
                    53.07445014
                ]
            },
            "properties": {
                "RSU coordinates": [
                    11.864791,
                    53.0750969
                ],
                "Distance": 99.92,
                "Frequency": 5.9,
                "RSSI": -60.58,
                "LOS": "True"
            }
        },
        {
            "type": "Feature",
            "geometry": {
                "type": "Point",
                "coordinates": [
                    11.86634487,
                    53.07498911
                ]
            },
            "properties": {
                "RSU coordinates": [
                    11.864791,
                    53.0750969
                ],
                "Distance": 104.61,
                "Frequency": 5.9,
                "RSSI": -90.97,
                "LOS": "False"
            }
        },
        {
            "type": "Feature",
            "geometry": {
                "type": "Point",
                "coordinates": [
                    11.86644847,
                    53.0750969
                ]
            },
            "properties": {
                "RSU coordinates": [
                    11.864791,
                    53.0750969
                ],
                "Distance": 110.85,
                "Frequency": 5.9,
                "RSSI": -76.47,
                "LOS": "False"
            }
        },
        {
            "type": "Feature",
            "geometry": {
                "type": "Point",
                "coordinates": [
                    11.86655207,
                    53.07520469
                ]
            },
            "properties": {
                "RSU coordinates": [
                    11.864791,
                    53.0750969
                ],
                "Distance": 118.39,
                "Frequency": 5.9,
                "RSSI": -92.03,
                "LOS": "False"
            }
        },
        {
            "type": "Feature",
            "geometry": {
                "type": "Point",
                "coordinates": [
                    11.86665566,
                    53.07531249
                ]
            },
            "properties": {
                "RSU coordinates": [
                    11.864791,
                    53.0750969
                ],
                "Distance": 127.0,
                "Frequency": 5.9,
                "RSSI": -92.63,
                "LOS": "False"
            }
        },
        {
            "type": "Feature",
            "geometry": {
                "type": "Point",
                "coordinates": [
                    11.86717365,
                    53.07585146
                ]
            },
            "properties": {
                "RSU coordinates": [
                    11.864791,
                    53.0750969
                ],
                "Distance": 180.13,
                "Frequency": 5.9,
                "RSSI": -95.63,
                "LOS": "False"
            }
        },
        {
            "type": "Feature",
            "geometry": {
                "type": "Point",
                "coordinates": [
                    11.86655206,
                    53.07498911
                ]
            },
            "properties": {
                "RSU coordinates": [
                    11.864791,
                    53.0750969
                ],
                "Distance": 118.39,
                "Frequency": 5.9,
                "RSSI": -92.03,
                "LOS": "False"
            }
        },
        {
            "type": "Feature",
            "geometry": {
                "type": "Point",
                "coordinates": [
                    11.86665565,
                    53.0750969
                ]
            },
            "properties": {
                "RSU coordinates": [
                    11.864791,
                    53.0750969
                ],
                "Distance": 124.71,
                "Frequency": 5.9,
                "RSSI": -77.47999999999999,
                "LOS": "False"
            }
        },
        {
            "type": "Feature",
            "geometry": {
                "type": "Point",
                "coordinates": [
                    11.86675925,
                    53.07520469
                ]
            },
            "properties": {
                "RSU coordinates": [
                    11.864791,
                    53.0750969
                ],
                "Distance": 132.18,
                "Frequency": 5.9,
                "RSSI": -92.97999999999999,
                "LOS": "False"
            }
        },
        {
            "type": "Feature",
            "geometry": {
                "type": "Point",
                "coordinates": [
                    11.86686285,
                    53.07531249
                ]
            },
            "properties": {
                "RSU coordinates": [
                    11.864791,
                    53.0750969
                ],
                "Distance": 140.63,
                "Frequency": 5.9,
                "RSSI": -93.50999999999999,
                "LOS": "False"
            }
        },
        {
            "type": "Feature",
            "geometry": {
                "type": "Point",
                "coordinates": [
                    11.86613767,
                    53.07434234
                ]
            },
            "properties": {
                "RSU coordinates": [
                    11.864791,
                    53.0750969
                ],
                "Distance": 123.16,
                "Frequency": 5.9,
                "RSSI": -62.37,
                "LOS": "True"
            }
        },
        {
            "type": "Feature",
            "geometry": {
                "type": "Point",
                "coordinates": [
                    11.86675924,
                    53.07498911
                ]
            },
            "properties": {
                "RSU coordinates": [
                    11.864791,
                    53.0750969
                ],
                "Distance": 132.18,
                "Frequency": 5.9,
                "RSSI": -92.97999999999999,
                "LOS": "False"
            }
        },
        {
            "type": "Feature",
            "geometry": {
                "type": "Point",
                "coordinates": [
                    11.86686284,
                    53.0750969
                ]
            },
            "properties": {
                "RSU coordinates": [
                    11.864791,
                    53.0750969
                ],
                "Distance": 138.56,
                "Frequency": 5.9,
                "RSSI": -78.38,
                "LOS": "False"
            }
        },
        {
            "type": "Feature",
            "geometry": {
                "type": "Point",
                "coordinates": [
                    11.86696643,
                    53.07520469
                ]
            },
            "properties": {
                "RSU coordinates": [
                    11.864791,
                    53.0750969
                ],
                "Distance": 145.99,
                "Frequency": 5.9,
                "RSSI": -93.83,
                "LOS": "False"
            }
        },
        {
            "type": "Feature",
            "geometry": {
                "type": "Point",
                "coordinates": [
                    11.86613766,
                    53.07412676
                ]
            },
            "properties": {
                "RSU coordinates": [
                    11.864791,
                    53.0750969
                ],
                "Distance": 140.63,
                "Frequency": 5.9,
                "RSSI": -93.50999999999999,
                "LOS": "False"
            }
        },
        {
            "type": "Feature",
            "geometry": {
                "type": "Point",
                "coordinates": [
                    11.86624126,
                    53.07423455
                ]
            },
            "properties": {
                "RSU coordinates": [
                    11.864791,
                    53.0750969
                ],
                "Distance": 136.47,
                "Frequency": 5.9,
                "RSSI": -63.25,
                "LOS": "True"
            }
        },
        {
            "type": "Feature",
            "geometry": {
                "type": "Point",
                "coordinates": [
                    11.86634485,
                    53.07434234
                ]
            },
            "properties": {
                "RSU coordinates": [
                    11.864791,
                    53.0750969
                ],
                "Distance": 133.63,
                "Frequency": 5.9,
                "RSSI": -93.07,
                "LOS": "False"
            }
        },
        {
            "type": "Feature",
            "geometry": {
                "type": "Point",
                "coordinates": [
                    11.86696642,
                    53.07498911
                ]
            },
            "properties": {
                "RSU coordinates": [
                    11.864791,
                    53.0750969
                ],
                "Distance": 145.99,
                "Frequency": 5.9,
                "RSSI": -93.83,
                "LOS": "False"
            }
        },
        {
            "type": "Feature",
            "geometry": {
                "type": "Point",
                "coordinates": [
                    11.86707002,
                    53.0750969
                ]
            },
            "properties": {
                "RSU coordinates": [
                    11.864791,
                    53.0750969
                ],
                "Distance": 152.42,
                "Frequency": 5.9,
                "RSSI": -79.2,
                "LOS": "False"
            }
        },
        {
            "type": "Feature",
            "geometry": {
                "type": "Point",
                "coordinates": [
                    11.86634484,
                    53.07412676
                ]
            },
            "properties": {
                "RSU coordinates": [
                    11.864791,
                    53.0750969
                ],
                "Distance": 149.88,
                "Frequency": 5.9,
                "RSSI": -64.05,
                "LOS": "True"
            }
        },
        {
            "type": "Feature",
            "geometry": {
                "type": "Point",
                "coordinates": [
                    11.86644844,
                    53.07423455
                ]
            },
            "properties": {
                "RSU coordinates": [
                    11.864791,
                    53.0750969
                ],
                "Distance": 146.64,
                "Frequency": 5.9,
                "RSSI": -93.87,
                "LOS": "False"
            }
        },
        {
            "type": "Feature",
            "geometry": {
                "type": "Point",
                "coordinates": [
                    11.86644843,
                    53.07401896
                ]
            },
            "properties": {
                "RSU coordinates": [
                    11.864791,
                    53.0750969
                ],
                "Distance": 163.36,
                "Frequency": 5.9,
                "RSSI": -64.79,
                "LOS": "True"
            }
        },
        {
            "type": "Feature",
            "geometry": {
                "type": "Point",
                "coordinates": [
                    11.86655202,
                    53.07412676
                ]
            },
            "properties": {
                "RSU coordinates": [
                    11.864791,
                    53.0750969
                ],
                "Distance": 159.8,
                "Frequency": 5.9,
                "RSSI": -79.6,
                "LOS": "False"
            }
        },
        {
            "type": "Feature",
            "geometry": {
                "type": "Point",
                "coordinates": [
                    11.86665561,
                    53.07401896
                ]
            },
            "properties": {
                "RSU coordinates": [
                    11.864791,
                    53.0750969
                ],
                "Distance": 173.07,
                "Frequency": 5.9,
                "RSSI": -65.29,
                "LOS": "True"
            }
        },
        {
            "type": "Feature",
            "geometry": {
                "type": "Point",
                "coordinates": [
                    11.86675919,
                    53.07391117
                ]
            },
            "properties": {
                "RSU coordinates": [
                    11.864791,
                    53.0750969
                ],
                "Distance": 186.42,
                "Frequency": 5.9,
                "RSSI": -65.93,
                "LOS": "True"
            }
        },
        {
            "type": "Feature",
            "geometry": {
                "type": "Point",
                "coordinates": [
                    11.86686279,
                    53.07401896
                ]
            },
            "properties": {
                "RSU coordinates": [
                    11.864791,
                    53.0750969
                ],
                "Distance": 183.3,
                "Frequency": 5.9,
                "RSSI": -95.78,
                "LOS": "False"
            }
        },
        {
            "type": "Feature",
            "geometry": {
                "type": "Point",
                "coordinates": [
                    11.86696637,
                    53.07391117
                ]
            },
            "properties": {
                "RSU coordinates": [
                    11.864791,
                    53.0750969
                ],
                "Distance": 196.45,
                "Frequency": 5.9,
                "RSSI": -81.37,
                "LOS": "False"
            }
        },
        {
            "type": "Feature",
            "geometry": {
                "type": "Point",
                "coordinates": [
                    11.86696636,
                    53.07369558
                ]
            },
            "properties": {
                "RSU coordinates": [
                    11.864791,
                    53.0750969
                ],
                "Distance": 213.32,
                "Frequency": 5.9,
                "RSSI": -82.08,
                "LOS": "False"
            }
        },
        {
            "type": "Feature",
            "geometry": {
                "type": "Point",
                "coordinates": [
                    11.86706995,
                    53.07380338
                ]
            },
            "properties": {
                "RSU coordinates": [
                    11.864791,
                    53.0750969
                ],
                "Distance": 209.69,
                "Frequency": 5.9,
                "RSSI": -66.93,
                "LOS": "True"
            }
        },
        {
            "type": "Feature",
            "geometry": {
                "type": "Point",
                "coordinates": [
                    11.86717354,
                    53.07369558
                ]
            },
            "properties": {
                "RSU coordinates": [
                    11.864791,
                    53.0750969
                ],
                "Distance": 223.0,
                "Frequency": 5.9,
                "RSSI": -82.46,
                "LOS": "False"
            }
        },
        {
            "type": "Feature",
            "geometry": {
                "type": "Point",
                "coordinates": [
                    11.86727713,
                    53.07380338
                ]
            },
            "properties": {
                "RSU coordinates": [
                    11.864791,
                    53.0750969
                ],
                "Distance": 219.96,
                "Frequency": 5.9,
                "RSSI": -97.34,
                "LOS": "False"
            }
        },
        {
            "type": "Feature",
            "geometry": {
                "type": "Point",
                "coordinates": [
                    11.86727712,
                    53.07358779
                ]
            },
            "properties": {
                "RSU coordinates": [
                    11.864791,
                    53.0750969
                ],
                "Distance": 236.37,
                "Frequency": 5.9,
                "RSSI": -82.96,
                "LOS": "False"
            }
        },
        {
            "type": "Feature",
            "geometry": {
                "type": "Point",
                "coordinates": [
                    11.86738071,
                    53.07369558
                ]
            },
            "properties": {
                "RSU coordinates": [
                    11.864791,
                    53.0750969
                ],
                "Distance": 233.1,
                "Frequency": 5.9,
                "RSSI": -97.84,
                "LOS": "False"
            }
        },
        {
            "type": "Feature",
            "geometry": {
                "type": "Point",
                "coordinates": [
                    11.8673807,
                    53.07348
                ]
            },
            "properties": {
                "RSU coordinates": [
                    11.864791,
                    53.0750969
                ],
                "Distance": 249.8,
                "Frequency": 5.9,
                "RSSI": -83.44,
                "LOS": "False"
            }
        },
        {
            "type": "Feature",
            "geometry": {
                "type": "Point",
                "coordinates": [
                    11.86748428,
                    53.0733722
                ]
            },
            "properties": {
                "RSU coordinates": [
                    11.864791,
                    53.0750969
                ],
                "Distance": 263.27,
                "Frequency": 5.9,
                "RSSI": -83.89,
                "LOS": "False"
            }
        },
        {
            "type": "Feature",
            "geometry": {
                "type": "Point",
                "coordinates": [
                    11.86758788,
                    53.07348
                ]
            },
            "properties": {
                "RSU coordinates": [
                    11.864791,
                    53.0750969
                ],
                "Distance": 259.6,
                "Frequency": 5.9,
                "RSSI": -98.77,
                "LOS": "False"
            }
        },
        {
            "type": "Feature",
            "geometry": {
                "type": "Point",
                "coordinates": [
                    11.86789863,
                    53.0733722
                ]
            },
            "properties": {
                "RSU coordinates": [
                    11.864791,
                    53.0750969
                ],
                "Distance": 282.96,
                "Frequency": 5.9,
                "RSSI": -84.5,
                "LOS": "False"
            }
        }
    ]
}