{
    "type": "FeatureCollection",
    "features": [
        {
            "type": "Feature",
            "geometry": {
                "type": "Point",
                "coordinates": [
                    7.60835195,
                    49.19552764
                ]
            },
            "properties": {
                "RSU coordinates": [
                    7.6103519,
                    49.1928328
                ],
                "Distance": 333.42,
                "Frequency": 5.9,
                "RSSI": -85.91,
                "LOS": "False"
            }
        },
        {
            "type": "Feature",
            "geometry": {
                "type": "Point",
                "coordinates": [
                    7.60844719,
                    49.19541985
                ]
            },
            "properties": {
                "RSU coordinates": [
                    7.6103519,
                    49.1928328
                ],
                "Distance": 319.6,
                "Frequency": 5.9,
                "RSSI": -85.55,
                "LOS": "False"
            }
        },
        {
            "type": "Feature",
            "geometry": {
                "type": "Point",
                "coordinates": [
                    7.60854243,
                    49.19531205
                ]
            },
            "properties": {
                "RSU coordinates": [
                    7.6103519,
                    49.1928328
                ],
                "Distance": 305.78,
                "Frequency": 5.9,
                "RSSI": -85.17,
                "LOS": "False"
            }
        },
        {
            "type": "Feature",
            "geometry": {
                "type": "Point",
                "coordinates": [
                    7.60863767,
                    49.19520426
                ]
            },
            "properties": {
                "RSU coordinates": [
                    7.6103519,
                    49.1928328
                ],
                "Distance": 291.97,
                "Frequency": 5.9,
                "RSSI": -84.77,
                "LOS": "False"
            }
        },
        {
            "type": "Feature",
            "geometry": {
                "type": "Point",
                "coordinates": [
                    7.60863767,
                    49.19498867
                ]
            },
            "properties": {
                "RSU coordinates": [
                    7.6103519,
                    49.1928328
                ],
                "Distance": 270.47,
                "Frequency": 5.9,
                "RSSI": -99.12,
                "LOS": "False"
            }
        },
        {
            "type": "Feature",
            "geometry": {
                "type": "Point",
                "coordinates": [
                    7.60873291,
                    49.19509647
                ]
            },
            "properties": {
                "RSU coordinates": [
                    7.6103519,
                    49.1928328
                ],
                "Distance": 278.17,
                "Frequency": 5.9,
                "RSSI": -84.36,
                "LOS": "False"
            }
        },
        {
            "type": "Feature",
            "geometry": {
                "type": "Point",
                "coordinates": [
                    7.60873291,
                    49.19488088
                ]
            },
            "properties": {
                "RSU coordinates": [
                    7.6103519,
                    49.1928328
                ],
                "Distance": 256.62,
                "Frequency": 5.9,
                "RSSI": -98.67,
                "LOS": "False"
            }
        },
        {
            "type": "Feature",
            "geometry": {
                "type": "Point",
                "coordinates": [
                    7.60882814,
                    49.19498867
                ]
            },
            "properties": {
                "RSU coordinates": [
                    7.6103519,
                    49.1928328
                ],
                "Distance": 264.36,
                "Frequency": 5.9,
                "RSSI": -98.92,
                "LOS": "False"
            }
        },
        {
            "type": "Feature",
            "geometry": {
                "type": "Point",
                "coordinates": [
                    7.60882815,
                    49.19477308
                ]
            },
            "properties": {
                "RSU coordinates": [
                    7.6103519,
                    49.1928328
                ],
                "Distance": 242.78,
                "Frequency": 5.9,
                "RSSI": -98.19,
                "LOS": "False"
            }
        },
        {
            "type": "Feature",
            "geometry": {
                "type": "Point",
                "coordinates": [
                    7.60892338,
                    49.19488088
                ]
            },
            "properties": {
                "RSU coordinates": [
                    7.6103519,
                    49.1928328
                ],
                "Distance": 250.57,
                "Frequency": 5.9,
                "RSSI": -83.46,
                "LOS": "False"
            }
        },
        {
            "type": "Feature",
            "geometry": {
                "type": "Point",
                "coordinates": [
                    7.60892339,
                    49.19466529
                ]
            },
            "properties": {
                "RSU coordinates": [
                    7.6103519,
                    49.1928328
                ],
                "Distance": 228.95,
                "Frequency": 5.9,
                "RSSI": -97.69,
                "LOS": "False"
            }
        },
        {
            "type": "Feature",
            "geometry": {
                "type": "Point",
                "coordinates": [
                    7.60901862,
                    49.19477308
                ]
            },
            "properties": {
                "RSU coordinates": [
                    7.6103519,
                    49.1928328
                ],
                "Distance": 236.78,
                "Frequency": 5.9,
                "RSSI": -97.98,
                "LOS": "False"
            }
        },
        {
            "type": "Feature",
            "geometry": {
                "type": "Point",
                "coordinates": [
                    7.60901862,
                    49.1945575
                ]
            },
            "properties": {
                "RSU coordinates": [
                    7.6103519,
                    49.1928328
                ],
                "Distance": 215.11,
                "Frequency": 5.9,
                "RSSI": -82.15,
                "LOS": "False"
            }
        },
        {
            "type": "Feature",
            "geometry": {
                "type": "Point",
                "coordinates": [
                    7.60911386,
                    49.1944497
                ]
            },
            "properties": {
                "RSU coordinates": [
                    7.6103519,
                    49.1928328
                ],
                "Distance": 201.28,
                "Frequency": 5.9,
                "RSSI": -81.58,
                "LOS": "False"
            }
        },
        {
            "type": "Feature",
            "geometry": {
                "type": "Point",
                "coordinates": [
                    7.6078759,
                    49.1928328
                ]
            },
            "properties": {
                "RSU coordinates": [
                    7.6103519,
                    49.1928328
                ],
                "Distance": 180.13,
                "Frequency": 5.9,
                "RSSI": -95.63,
                "LOS": "False"
            }
        },
        {
            "type": "Feature",
            "geometry": {
                "type": "Point",
                "coordinates": [
                    7.6092091,
                    49.19434191
                ]
            },
            "properties": {
                "RSU coordinates": [
                    7.6103519,
                    49.1928328
                ],
                "Distance": 187.45,
                "Frequency": 5.9,
                "RSSI": -80.97,
                "LOS": "False"
            }
        },
        {
            "type": "Feature",
            "geometry": {
                "type": "Point",
                "coordinates": [
                    7.60806637,
                    49.1928328
                ]
            },
            "properties": {
                "RSU coordinates": [
                    7.6103519,
                    49.1928328
                ],
                "Distance": 166.28,
                "Frequency": 5.9,
                "RSSI": -94.94,
                "LOS": "False"
            }
        },
        {
            "type": "Feature",
            "geometry": {
                "type": "Point",
                "coordinates": [
                    7.60911387,
                    49.19401853
                ]
            },
            "properties": {
                "RSU coordinates": [
                    7.6103519,
                    49.1928328
                ],
                "Distance": 159.8,
                "Frequency": 5.9,
                "RSSI": -94.6,
                "LOS": "False"
            }
        },
        {
            "type": "Feature",
            "geometry": {
                "type": "Point",
                "coordinates": [
                    7.60930433,
                    49.19423412
                ]
            },
            "properties": {
                "RSU coordinates": [
                    7.6103519,
                    49.1928328
                ],
                "Distance": 173.62,
                "Frequency": 5.9,
                "RSSI": -80.32,
                "LOS": "False"
            }
        },
        {
            "type": "Feature",
            "geometry": {
                "type": "Point",
                "coordinates": [
                    7.60825683,
                    49.1928328
                ]
            },
            "properties": {
                "RSU coordinates": [
                    7.6103519,
                    49.1928328
                ],
                "Distance": 152.42,
                "Frequency": 5.9,
                "RSSI": -94.2,
                "LOS": "False"
            }
        },
        {
            "type": "Feature",
            "geometry": {
                "type": "Point",
                "coordinates": [
                    7.60892342,
                    49.19358736
                ]
            },
            "properties": {
                "RSU coordinates": [
                    7.6103519,
                    49.1928328
                ],
                "Distance": 133.63,
                "Frequency": 5.9,
                "RSSI": -93.07,
                "LOS": "False"
            }
        },
        {
            "type": "Feature",
            "geometry": {
                "type": "Point",
                "coordinates": [
                    7.60939957,
                    49.19412632
                ]
            },
            "properties": {
                "RSU coordinates": [
                    7.6103519,
                    49.1928328
                ],
                "Distance": 159.8,
                "Frequency": 5.9,
                "RSSI": -79.6,
                "LOS": "False"
            }
        },
        {
            "type": "Feature",
            "geometry": {
                "type": "Point",
                "coordinates": [
                    7.60844729,
                    49.1928328
                ]
            },
            "properties": {
                "RSU coordinates": [
                    7.6103519,
                    49.1928328
                ],
                "Distance": 138.56,
                "Frequency": 5.9,
                "RSSI": -93.38,
                "LOS": "False"
            }
        },
        {
            "type": "Feature",
            "geometry": {
                "type": "Point",
                "coordinates": [
                    7.6088282,
                    49.19326397
                ]
            },
            "properties": {
                "RSU coordinates": [
                    7.6103519,
                    49.1928328
                ],
                "Distance": 120.8,
                "Frequency": 5.9,
                "RSSI": -92.2,
                "LOS": "False"
            }
        },
        {
            "type": "Feature",
            "geometry": {
                "type": "Point",
                "coordinates": [
                    7.60930434,
                    49.19380294
                ]
            },
            "properties": {
                "RSU coordinates": [
                    7.6103519,
                    49.1928328
                ],
                "Distance": 132.18,
                "Frequency": 5.9,
                "RSSI": -92.97999999999999,
                "LOS": "False"
            }
        },
        {
            "type": "Feature",
            "geometry": {
                "type": "Point",
                "coordinates": [
                    7.60939957,
                    49.19391074
                ]
            },
            "properties": {
                "RSU coordinates": [
                    7.6103519,
                    49.1928328
                ],
                "Distance": 138.56,
                "Frequency": 5.9,
                "RSSI": -78.38,
                "LOS": "False"
            }
        },
        {
            "type": "Feature",
            "geometry": {
                "type": "Point",
                "coordinates": [
                    7.6094948,
                    49.19401853
                ]
            },
            "properties": {
                "RSU coordinates": [
                    7.6103519,
                    49.1928328
                ],
                "Distance": 145.99,
                "Frequency": 5.9,
                "RSSI": -63.83,
                "LOS": "True"
            }
        },
        {
            "type": "Feature",
            "geometry": {
                "type": "Point",
                "coordinates": [
                    7.60730461,
                    49.19132369
                ]
            },
            "properties": {
                "RSU coordinates": [
                    7.6103519,
                    49.1928328
                ],
                "Distance": 278.17,
                "Frequency": 5.9,
                "RSSI": -99.36,
                "LOS": "False"
            }
        },
        {
            "type": "Feature",
            "geometry": {
                "type": "Point",
                "coordinates": [
                    7.60863775,
                    49.1928328
                ]
            },
            "properties": {
                "RSU coordinates": [
                    7.6103519,
                    49.1928328
                ],
                "Distance": 124.71,
                "Frequency": 5.9,
                "RSSI": -92.47999999999999,
                "LOS": "False"
            }
        },
        {
            "type": "Feature",
            "geometry": {
                "type": "Point",
                "coordinates": [
                    7.60959004,
                    49.19391074
                ]
            },
            "properties": {
                "RSU coordinates": [
                    7.6103519,
                    49.1928328
                ],
                "Distance": 132.18,
                "Frequency": 5.9,
                "RSSI": -77.97999999999999,
                "LOS": "False"
            }
        },
        {
            "type": "Feature",
            "geometry": {
                "type": "Point",
                "coordinates": [
                    7.60825685,
                    49.19218604
                ]
            },
            "properties": {
                "RSU coordinates": [
                    7.6103519,
                    49.1928328
                ],
                "Distance": 168.57,
                "Frequency": 5.9,
                "RSSI": -95.06,
                "LOS": "False"
            }
        },
        {
            "type": "Feature",
            "geometry": {
                "type": "Point",
                "coordinates": [
                    7.60882821,
                    49.1928328
                ]
            },
            "properties": {
                "RSU coordinates": [
                    7.6103519,
                    49.1928328
                ],
                "Distance": 110.85,
                "Frequency": 5.9,
                "RSSI": -76.47,
                "LOS": "False"
            }
        },
        {
            "type": "Feature",
            "geometry": {
                "type": "Point",
                "coordinates": [
                    7.60911389,
                    49.19315618
                ]
            },
            "properties": {
                "RSU coordinates": [
                    7.6103519,
                    49.1928328
                ],
                "Distance": 96.99,
                "Frequency": 5.9,
                "RSSI": -90.32,
                "LOS": "False"
            }
        },
        {
            "type": "Feature",
            "geometry": {
                "type": "Point",
                "coordinates": [
                    7.60930435,
                    49.19337177
                ]
            },
            "properties": {
                "RSU coordinates": [
                    7.6103519,
                    49.1928328
                ],
                "Distance": 96.99,
                "Frequency": 5.9,
                "RSSI": -75.32,
                "LOS": "False"
            }
        },
        {
            "type": "Feature",
            "geometry": {
                "type": "Point",
                "coordinates": [
                    7.60939958,
                    49.19347956
                ]
            },
            "properties": {
                "RSU coordinates": [
                    7.6103519,
                    49.1928328
                ],
                "Distance": 99.92,
                "Frequency": 5.9,
                "RSSI": -75.58,
                "LOS": "False"
            }
        },
        {
            "type": "Feature",
            "geometry": {
                "type": "Point",
                "coordinates": [
                    7.60949481,
                    49.19358736
                ]
            },
            "properties": {
                "RSU coordinates": [
                    7.6103519,
                    49.1928328
                ],
                "Distance": 104.61,
                "Frequency": 5.9,
                "RSSI": -75.97,
                "LOS": "False"
            }
        },
        {
            "type": "Feature",
            "geometry": {
                "type": "Point",
                "coordinates": [
                    7.60959004,
                    49.19369515
                ]
            },
            "properties": {
                "RSU coordinates": [
                    7.6103519,
                    49.1928328
                ],
                "Distance": 110.85,
                "Frequency": 5.9,
                "RSSI": -61.47,
                "LOS": "True"
            }
        },
        {
            "type": "Feature",
            "geometry": {
                "type": "Point",
                "coordinates": [
                    7.60968527,
                    49.19380294
                ]
            },
            "properties": {
                "RSU coordinates": [
                    7.6103519,
                    49.1928328
                ],
                "Distance": 118.39,
                "Frequency": 5.9,
                "RSSI": -92.03,
                "LOS": "False"
            }
        },
        {
            "type": "Feature",
            "geometry": {
                "type": "Point",
                "coordinates": [
                    7.60787597,
                    49.19153928
                ]
            },
            "properties": {
                "RSU coordinates": [
                    7.6103519,
                    49.1928328
                ],
                "Distance": 230.62,
                "Frequency": 5.9,
                "RSSI": -97.75,
                "LOS": "False"
            }
        },
        {
            "type": "Feature",
            "geometry": {
                "type": "Point",
                "coordinates": [
                    7.60797119,
                    49.19164707
                ]
            },
            "properties": {
                "RSU coordinates": [
                    7.6103519,
                    49.1928328
                ],
                "Distance": 217.77,
                "Frequency": 5.9,
                "RSSI": -97.26,
                "LOS": "False"
            }
        },
        {
            "type": "Feature",
            "geometry": {
                "type": "Point",
                "coordinates": [
                    7.60854254,
                    49.19229383
                ]
            },
            "properties": {
                "RSU coordinates": [
                    7.6103519,
                    49.1928328
                ],
                "Distance": 144.67,
                "Frequency": 5.9,
                "RSSI": -93.75,
                "LOS": "False"
            }
        },
        {
            "type": "Feature",
            "geometry": {
                "type": "Point",
                "coordinates": [
                    7.60892344,
                    49.19272501
                ]
            },
            "properties": {
                "RSU coordinates": [
                    7.6103519,
                    49.1928328
                ],
                "Distance": 104.61,
                "Frequency": 5.9,
                "RSSI": -90.97,
                "LOS": "False"
            }
        },
        {
            "type": "Feature",
            "geometry": {
                "type": "Point",
                "coordinates": [
                    7.60939959,
                    49.19326397
                ]
            },
            "properties": {
                "RSU coordinates": [
                    7.6103519,
                    49.1928328
                ],
                "Distance": 84.29,
                "Frequency": 5.9,
                "RSSI": -89.12,
                "LOS": "False"
            }
        },
        {
            "type": "Feature",
            "geometry": {
                "type": "Point",
                "coordinates": [
                    7.60949482,
                    49.19337177
                ]
            },
            "properties": {
                "RSU coordinates": [
                    7.6103519,
                    49.1928328
                ],
                "Distance": 86.53,
                "Frequency": 5.9,
                "RSSI": -89.34,
                "LOS": "False"
            }
        },
        {
            "type": "Feature",
            "geometry": {
                "type": "Point",
                "coordinates": [
                    7.60959005,
                    49.19347956
                ]
            },
            "properties": {
                "RSU coordinates": [
                    7.6103519,
                    49.1928328
                ],
                "Distance": 90.86,
                "Frequency": 5.9,
                "RSSI": -74.75999999999999,
                "LOS": "False"
            }
        },
        {
            "type": "Feature",
            "geometry": {
                "type": "Point",
                "coordinates": [
                    7.60968528,
                    49.19358736
                ]
            },
            "properties": {
                "RSU coordinates": [
                    7.6103519,
                    49.1928328
                ],
                "Distance": 96.99,
                "Frequency": 5.9,
                "RSSI": -60.32,
                "LOS": "True"
            }
        },
        {
            "type": "Feature",
            "geometry": {
                "type": "Point",
                "coordinates": [
                    7.60816165,
                    49.19164707
                ]
            },
            "properties": {
                "RSU coordinates": [
                    7.6103519,
                    49.1928328
                ],
                "Distance": 206.92,
                "Frequency": 5.9,
                "RSSI": -96.82,
                "LOS": "False"
            }
        },
        {
            "type": "Feature",
            "geometry": {
                "type": "Point",
                "coordinates": [
                    7.60920913,
                    49.1928328
                ]
            },
            "properties": {
                "RSU coordinates": [
                    7.6103519,
                    49.1928328
                ],
                "Distance": 83.14,
                "Frequency": 5.9,
                "RSSI": -59.0,
                "LOS": "True"
            }
        },
        {
            "type": "Feature",
            "geometry": {
                "type": "Point",
                "coordinates": [
                    7.60930436,
                    49.19294059
                ]
            },
            "properties": {
                "RSU coordinates": [
                    7.6103519,
                    49.1928328
                ],
                "Distance": 77.15,
                "Frequency": 5.9,
                "RSSI": -88.36,
                "LOS": "False"
            }
        },
        {
            "type": "Feature",
            "geometry": {
                "type": "Point",
                "coordinates": [
                    7.60959005,
                    49.19326397
                ]
            },
            "properties": {
                "RSU coordinates": [
                    7.6103519,
                    49.1928328
                ],
                "Distance": 73.32,
                "Frequency": 5.9,
                "RSSI": -87.92,
                "LOS": "False"
            }
        },
        {
            "type": "Feature",
            "geometry": {
                "type": "Point",
                "coordinates": [
                    7.60968528,
                    49.19337177
                ]
            },
            "properties": {
                "RSU coordinates": [
                    7.6103519,
                    49.1928328
                ],
                "Distance": 77.15,
                "Frequency": 5.9,
                "RSSI": -73.36,
                "LOS": "False"
            }
        },
        {
            "type": "Feature",
            "geometry": {
                "type": "Point",
                "coordinates": [
                    7.60978051,
                    49.19347956
                ]
            },
            "properties": {
                "RSU coordinates": [
                    7.6103519,
                    49.1928328
                ],
                "Distance": 83.14,
                "Frequency": 5.9,
                "RSSI": -59.0,
                "LOS": "True"
            }
        },
        {
            "type": "Feature",
            "geometry": {
                "type": "Point",
                "coordinates": [
                    7.60854255,
                    49.19186266
                ]
            },
            "properties": {
                "RSU coordinates": [
                    7.6103519,
                    49.1928328
                ],
                "Distance": 170.27,
                "Frequency": 5.9,
                "RSSI": -95.15,
                "LOS": "False"
            }
        },
        {
            "type": "Feature",
            "geometry": {
                "type": "Point",
                "coordinates": [
                    7.60939959,
                    49.1928328
                ]
            },
            "properties": {
                "RSU coordinates": [
                    7.6103519,
                    49.1928328
                ],
                "Distance": 69.28,
                "Frequency": 5.9,
                "RSSI": -57.44,
                "LOS": "True"
            }
        },
        {
            "type": "Feature",
            "geometry": {
                "type": "Point",
                "coordinates": [
                    7.60959005,
                    49.19304839
                ]
            },
            "properties": {
                "RSU coordinates": [
                    7.6103519,
                    49.1928328
                ],
                "Distance": 60.4,
                "Frequency": 5.9,
                "RSSI": -71.25999999999999,
                "LOS": "False"
            }
        },
        {
            "type": "Feature",
            "geometry": {
                "type": "Point",
                "coordinates": [
                    7.60968528,
                    49.19315618
                ]
            },
            "properties": {
                "RSU coordinates": [
                    7.6103519,
                    49.1928328
                ],
                "Distance": 60.4,
                "Frequency": 5.9,
                "RSSI": -86.25999999999999,
                "LOS": "False"
            }
        },
        {
            "type": "Feature",
            "geometry": {
                "type": "Point",
                "coordinates": [
                    7.60987574,
                    49.19337177
                ]
            },
            "properties": {
                "RSU coordinates": [
                    7.6103519,
                    49.1928328
                ],
                "Distance": 69.28,
                "Frequency": 5.9,
                "RSSI": -57.44,
                "LOS": "True"
            }
        },
        {
            "type": "Feature",
            "geometry": {
                "type": "Point",
                "coordinates": [
                    7.60911392,
                    49.19229383
                ]
            },
            "properties": {
                "RSU coordinates": [
                    7.6103519,
                    49.1928328
                ],
                "Distance": 108.22,
                "Frequency": 5.9,
                "RSSI": -91.25999999999999,
                "LOS": "False"
            }
        },
        {
            "type": "Feature",
            "geometry": {
                "type": "Point",
                "coordinates": [
                    7.60930437,
                    49.19250942
                ]
            },
            "properties": {
                "RSU coordinates": [
                    7.6103519,
                    49.1928328
                ],
                "Distance": 84.29,
                "Frequency": 5.9,
                "RSSI": -74.12,
                "LOS": "False"
            }
        },
        {
            "type": "Feature",
            "geometry": {
                "type": "Point",
                "coordinates": [
                    7.60959006,
                    49.1928328
                ]
            },
            "properties": {
                "RSU coordinates": [
                    7.6103519,
                    49.1928328
                ],
                "Distance": 55.43,
                "Frequency": 5.9,
                "RSSI": -55.52,
                "LOS": "True"
            }
        },
        {
            "type": "Feature",
            "geometry": {
                "type": "Point",
                "coordinates": [
                    7.60978051,
                    49.19304839
                ]
            },
            "properties": {
                "RSU coordinates": [
                    7.6103519,
                    49.1928328
                ],
                "Distance": 48.0,
                "Frequency": 5.9,
                "RSSI": -84.28999999999999,
                "LOS": "False"
            }
        },
        {
            "type": "Feature",
            "geometry": {
                "type": "Point",
                "coordinates": [
                    7.60987574,
                    49.19315618
                ]
            },
            "properties": {
                "RSU coordinates": [
                    7.6103519,
                    49.1928328
                ],
                "Distance": 49.96,
                "Frequency": 5.9,
                "RSSI": -54.63,
                "LOS": "True"
            }
        },
        {
            "type": "Feature",
            "geometry": {
                "type": "Point",
                "coordinates": [
                    7.60997097,
                    49.19326397
                ]
            },
            "properties": {
                "RSU coordinates": [
                    7.6103519,
                    49.1928328
                ],
                "Distance": 55.43,
                "Frequency": 5.9,
                "RSSI": -55.52,
                "LOS": "True"
            }
        },
        {
            "type": "Feature",
            "geometry": {
                "type": "Point",
                "coordinates": [
                    7.61006621,
                    49.19337177
                ]
            },
            "properties": {
                "RSU coordinates": [
                    7.6103519,
                    49.1928328
                ],
                "Distance": 63.5,
                "Frequency": 5.9,
                "RSSI": -71.69,
                "LOS": "False"
            }
        },
        {
            "type": "Feature",
            "geometry": {
                "type": "Point",
                "coordinates": [
                    7.6093996,
                    49.19240163
                ]
            },
            "properties": {
                "RSU coordinates": [
                    7.6103519,
                    49.1928328
                ],
                "Distance": 84.29,
                "Frequency": 5.9,
                "RSSI": -74.12,
                "LOS": "False"
            }
        },
        {
            "type": "Feature",
            "geometry": {
                "type": "Point",
                "coordinates": [
                    7.60959006,
                    49.19261721
                ]
            },
            "properties": {
                "RSU coordinates": [
                    7.6103519,
                    49.1928328
                ],
                "Distance": 60.4,
                "Frequency": 5.9,
                "RSSI": -86.25999999999999,
                "LOS": "False"
            }
        },
        {
            "type": "Feature",
            "geometry": {
                "type": "Point",
                "coordinates": [
                    7.60978052,
                    49.1928328
                ]
            },
            "properties": {
                "RSU coordinates": [
                    7.6103519,
                    49.1928328
                ],
                "Distance": 41.57,
                "Frequency": 5.9,
                "RSSI": -53.06,
                "LOS": "True"
            }
        },
        {
            "type": "Feature",
            "geometry": {
                "type": "Point",
                "coordinates": [
                    7.60997098,
                    49.19304839
                ]
            },
            "properties": {
                "RSU coordinates": [
                    7.6103519,
                    49.1928328
                ],
                "Distance": 36.66,
                "Frequency": 5.9,
                "RSSI": -51.98,
                "LOS": "True"
            }
        },
        {
            "type": "Feature",
            "geometry": {
                "type": "Point",
                "coordinates": [
                    7.61006621,
                    49.19315618
                ]
            },
            "properties": {
                "RSU coordinates": [
                    7.6103519,
                    49.1928328
                ],
                "Distance": 41.57,
                "Frequency": 5.9,
                "RSSI": -53.06,
                "LOS": "True"
            }
        },
        {
            "type": "Feature",
            "geometry": {
                "type": "Point",
                "coordinates": [
                    7.61016144,
                    49.19326397
                ]
            },
            "properties": {
                "RSU coordinates": [
                    7.6103519,
                    49.1928328
                ],
                "Distance": 49.96,
                "Frequency": 5.9,
                "RSSI": -84.63,
                "LOS": "False"
            }
        },
        {
            "type": "Feature",
            "geometry": {
                "type": "Point",
                "coordinates": [
                    7.60949483,
                    49.19229383
                ]
            },
            "properties": {
                "RSU coordinates": [
                    7.6103519,
                    49.1928328
                ],
                "Distance": 86.53,
                "Frequency": 5.9,
                "RSSI": -89.34,
                "LOS": "False"
            }
        },
        {
            "type": "Feature",
            "geometry": {
                "type": "Point",
                "coordinates": [
                    7.60959006,
                    49.19240163
                ]
            },
            "properties": {
                "RSU coordinates": [
                    7.6103519,
                    49.1928328
                ],
                "Distance": 73.32,
                "Frequency": 5.9,
                "RSSI": -87.92,
                "LOS": "False"
            }
        },
        {
            "type": "Feature",
            "geometry": {
                "type": "Point",
                "coordinates": [
                    7.60968529,
                    49.19250942
                ]
            },
            "properties": {
                "RSU coordinates": [
                    7.6103519,
                    49.1928328
                ],
                "Distance": 60.4,
                "Frequency": 5.9,
                "RSSI": -56.26,
                "LOS": "True"
            }
        },
        {
            "type": "Feature",
            "geometry": {
                "type": "Point",
                "coordinates": [
                    7.60978052,
                    49.19261721
                ]
            },
            "properties": {
                "RSU coordinates": [
                    7.6103519,
                    49.1928328
                ],
                "Distance": 48.0,
                "Frequency": 5.9,
                "RSSI": -69.28999999999999,
                "LOS": "False"
            }
        },
        {
            "type": "Feature",
            "geometry": {
                "type": "Point",
                "coordinates": [
                    7.60997098,
                    49.1928328
                ]
            },
            "properties": {
                "RSU coordinates": [
                    7.6103519,
                    49.1928328
                ],
                "Distance": 27.71,
                "Frequency": 5.9,
                "RSSI": -49.58,
                "LOS": "True"
            }
        },
        {
            "type": "Feature",
            "geometry": {
                "type": "Point",
                "coordinates": [
                    7.61006621,
                    49.19294059
                ]
            },
            "properties": {
                "RSU coordinates": [
                    7.6103519,
                    49.1928328
                ],
                "Distance": 24.0,
                "Frequency": 5.9,
                "RSSI": -48.34,
                "LOS": "True"
            }
        },
        {
            "type": "Feature",
            "geometry": {
                "type": "Point",
                "coordinates": [
                    7.61016144,
                    49.19304839
                ]
            },
            "properties": {
                "RSU coordinates": [
                    7.6103519,
                    49.1928328
                ],
                "Distance": 27.71,
                "Frequency": 5.9,
                "RSSI": -49.58,
                "LOS": "True"
            }
        },
        {
            "type": "Feature",
            "geometry": {
                "type": "Point",
                "coordinates": [
                    7.60949484,
                    49.19207824
                ]
            },
            "properties": {
                "RSU coordinates": [
                    7.6103519,
                    49.1928328
                ],
                "Distance": 104.61,
                "Frequency": 5.9,
                "RSSI": -90.97,
                "LOS": "False"
            }
        },
        {
            "type": "Feature",
            "geometry": {
                "type": "Point",
                "coordinates": [
                    7.60968529,
                    49.19229383
                ]
            },
            "properties": {
                "RSU coordinates": [
                    7.6103519,
                    49.1928328
                ],
                "Distance": 77.15,
                "Frequency": 5.9,
                "RSSI": -88.36,
                "LOS": "False"
            }
        },
        {
            "type": "Feature",
            "geometry": {
                "type": "Point",
                "coordinates": [
                    7.60997098,
                    49.19261721
                ]
            },
            "properties": {
                "RSU coordinates": [
                    7.6103519,
                    49.1928328
                ],
                "Distance": 36.66,
                "Frequency": 5.9,
                "RSSI": -51.98,
                "LOS": "True"
            }
        },
        {
            "type": "Feature",
            "geometry": {
                "type": "Point",
                "coordinates": [
                    7.61006621,
                    49.19272501
                ]
            },
            "properties": {
                "RSU coordinates": [
                    7.6103519,
                    49.1928328
                ],
                "Distance": 24.0,
                "Frequency": 5.9,
                "RSSI": -48.34,
                "LOS": "True"
            }
        },
        {
            "type": "Feature",
            "geometry": {
                "type": "Point",
                "coordinates": [
                    7.61016144,
                    49.1928328
                ]
            },
            "properties": {
                "RSU coordinates": [
                    7.6103519,
                    49.1928328
                ],
                "Distance": 13.86,
                "Frequency": 5.9,
                "RSSI": -43.63,
                "LOS": "True"
            }
        },
        {
            "type": "Feature",
            "geometry": {
                "type": "Point",
                "coordinates": [
                    7.61025667,
                    49.19294059
                ]
            },
            "properties": {
                "RSU coordinates": [
                    7.6103519,
                    49.1928328
                ],
                "Distance": 13.86,
                "Frequency": 5.9,
                "RSSI": -43.63,
                "LOS": "True"
            }
        },
        {
            "type": "Feature",
            "geometry": {
                "type": "Point",
                "coordinates": [
                    7.6103519,
                    49.19304839
                ]
            },
            "properties": {
                "RSU coordinates": [
                    7.6103519,
                    49.1928328
                ],
                "Distance": 24.0,
                "Frequency": 5.9,
                "RSSI": -63.34,
                "LOS": "False"
            }
        },
        {
            "type": "Feature",
            "geometry": {
                "type": "Point",
                "coordinates": [
                    7.61044713,
                    49.19315618
                ]
            },
            "properties": {
                "RSU coordinates": [
                    7.6103519,
                    49.1928328
                ],
                "Distance": 36.66,
                "Frequency": 5.9,
                "RSSI": -81.97999999999999,
                "LOS": "False"
            }
        },
        {
            "type": "Feature",
            "geometry": {
                "type": "Point",
                "coordinates": [
                    7.61054236,
                    49.19326397
                ]
            },
            "properties": {
                "RSU coordinates": [
                    7.6103519,
                    49.1928328
                ],
                "Distance": 49.96,
                "Frequency": 5.9,
                "RSSI": -99.63,
                "LOS": "False"
            }
        },
        {
            "type": "Feature",
            "geometry": {
                "type": "Point",
                "coordinates": [
                    7.60959007,
                    49.19197045
                ]
            },
            "properties": {
                "RSU coordinates": [
                    7.6103519,
                    49.1928328
                ],
                "Distance": 110.85,
                "Frequency": 5.9,
                "RSSI": -76.47,
                "LOS": "False"
            }
        },
        {
            "type": "Feature",
            "geometry": {
                "type": "Point",
                "coordinates": [
                    7.6096853,
                    49.19207824
                ]
            },
            "properties": {
                "RSU coordinates": [
                    7.6103519,
                    49.1928328
                ],
                "Distance": 96.99,
                "Frequency": 5.9,
                "RSSI": -60.32,
                "LOS": "True"
            }
        },
        {
            "type": "Feature",
            "geometry": {
                "type": "Point",
                "coordinates": [
                    7.60978052,
                    49.19218604
                ]
            },
            "properties": {
                "RSU coordinates": [
                    7.6103519,
                    49.1928328
                ],
                "Distance": 83.14,
                "Frequency": 5.9,
                "RSSI": -59.0,
                "LOS": "True"
            }
        },
        {
            "type": "Feature",
            "geometry": {
                "type": "Point",
                "coordinates": [
                    7.60987575,
                    49.19229383
                ]
            },
            "properties": {
                "RSU coordinates": [
                    7.6103519,
                    49.1928328
                ],
                "Distance": 69.28,
                "Frequency": 5.9,
                "RSSI": -57.44,
                "LOS": "True"
            }
        },
        {
            "type": "Feature",
            "geometry": {
                "type": "Point",
                "coordinates": [
                    7.60997098,
                    49.19240163
                ]
            },
            "properties": {
                "RSU coordinates": [
                    7.6103519,
                    49.1928328
                ],
                "Distance": 55.43,
                "Frequency": 5.9,
                "RSSI": -55.52,
                "LOS": "True"
            }
        },
        {
            "type": "Feature",
            "geometry": {
                "type": "Point",
                "coordinates": [
                    7.61006621,
                    49.19250942
                ]
            },
            "properties": {
                "RSU coordinates": [
                    7.6103519,
                    49.1928328
                ],
                "Distance": 41.57,
                "Frequency": 5.9,
                "RSSI": -53.06,
                "LOS": "True"
            }
        },
        {
            "type": "Feature",
            "geometry": {
                "type": "Point",
                "coordinates": [
                    7.61016144,
                    49.19261721
                ]
            },
            "properties": {
                "RSU coordinates": [
                    7.6103519,
                    49.1928328
                ],
                "Distance": 27.71,
                "Frequency": 5.9,
                "RSSI": -49.58,
                "LOS": "True"
            }
        },
        {
            "type": "Feature",
            "geometry": {
                "type": "Point",
                "coordinates": [
                    7.61025667,
                    49.19272501
                ]
            },
            "properties": {
                "RSU coordinates": [
                    7.6103519,
                    49.1928328
                ],
                "Distance": 13.86,
                "Frequency": 5.9,
                "RSSI": -43.63,
                "LOS": "True"
            }
        },
        {
            "type": "Feature",
            "geometry": {
                "type": "Point",
                "coordinates": [
                    7.61025667,
                    49.19250942
                ]
            },
            "properties": {
                "RSU coordinates": [
                    7.6103519,
                    49.1928328
                ],
                "Distance": 36.66,
                "Frequency": 5.9,
                "RSSI": -66.97999999999999,
                "LOS": "False"
            }
        },
        {
            "type": "Feature",
            "geometry": {
                "type": "Point",
                "coordinates": [
                    7.61044713,
                    49.19272501
                ]
            },
            "properties": {
                "RSU coordinates": [
                    7.6103519,
                    49.1928328
                ],
                "Distance": 13.86,
                "Frequency": 5.9,
                "RSSI": -43.63,
                "LOS": "True"
            }
        },
        {
            "type": "Feature",
            "geometry": {
                "type": "Point",
                "coordinates": [
                    7.61063759,
                    49.19294059
                ]
            },
            "properties": {
                "RSU coordinates": [
                    7.6103519,
                    49.1928328
                ],
                "Distance": 24.0,
                "Frequency": 5.9,
                "RSSI": -63.34,
                "LOS": "False"
            }
        },
        {
            "type": "Feature",
            "geometry": {
                "type": "Point",
                "coordinates": [
                    7.61082806,
                    49.19315618
                ]
            },
            "properties": {
                "RSU coordinates": [
                    7.6103519,
                    49.1928328
                ],
                "Distance": 49.96,
                "Frequency": 5.9,
                "RSSI": -84.63,
                "LOS": "False"
            }
        },
        {
            "type": "Feature",
            "geometry": {
                "type": "Point",
                "coordinates": [
                    7.61025667,
                    49.19229383
                ]
            },
            "properties": {
                "RSU coordinates": [
                    7.6103519,
                    49.1928328
                ],
                "Distance": 60.4,
                "Frequency": 5.9,
                "RSSI": -86.25999999999999,
                "LOS": "False"
            }
        },
        {
            "type": "Feature",
            "geometry": {
                "type": "Point",
                "coordinates": [
                    7.6103519,
                    49.19240163
                ]
            },
            "properties": {
                "RSU coordinates": [
                    7.6103519,
                    49.1928328
                ],
                "Distance": 48.0,
                "Frequency": 5.9,
                "RSSI": -84.28999999999999,
                "LOS": "False"
            }
        },
        {
            "type": "Feature",
            "geometry": {
                "type": "Point",
                "coordinates": [
                    7.61054236,
                    49.19261721
                ]
            },
            "properties": {
                "RSU coordinates": [
                    7.6103519,
                    49.1928328
                ],
                "Distance": 27.71,
                "Frequency": 5.9,
                "RSSI": -49.58,
                "LOS": "True"
            }
        },
        {
            "type": "Feature",
            "geometry": {
                "type": "Point",
                "coordinates": [
                    7.61073282,
                    49.1928328
                ]
            },
            "properties": {
                "RSU coordinates": [
                    7.6103519,
                    49.1928328
                ],
                "Distance": 27.71,
                "Frequency": 5.9,
                "RSSI": -79.58,
                "LOS": "False"
            }
        },
        {
            "type": "Feature",
            "geometry": {
                "type": "Point",
                "coordinates": [
                    7.61082805,
                    49.19294059
                ]
            },
            "properties": {
                "RSU coordinates": [
                    7.6103519,
                    49.1928328
                ],
                "Distance": 36.66,
                "Frequency": 5.9,
                "RSSI": -66.97999999999999,
                "LOS": "False"
            }
        },
        {
            "type": "Feature",
            "geometry": {
                "type": "Point",
                "coordinates": [
                    7.61092329,
                    49.19304839
                ]
            },
            "properties": {
                "RSU coordinates": [
                    7.6103519,
                    49.1928328
                ],
                "Distance": 48.0,
                "Frequency": 5.9,
                "RSSI": -69.28999999999999,
                "LOS": "False"
            }
        },
        {
            "type": "Feature",
            "geometry": {
                "type": "Point",
                "coordinates": [
                    7.61016144,
                    49.19197045
                ]
            },
            "properties": {
                "RSU coordinates": [
                    7.6103519,
                    49.1928328
                ],
                "Distance": 96.99,
                "Frequency": 5.9,
                "RSSI": -90.32,
                "LOS": "False"
            }
        },
        {
            "type": "Feature",
            "geometry": {
                "type": "Point",
                "coordinates": [
                    7.61025667,
                    49.19207824
                ]
            },
            "properties": {
                "RSU coordinates": [
                    7.6103519,
                    49.1928328
                ],
                "Distance": 84.29,
                "Frequency": 5.9,
                "RSSI": -89.12,
                "LOS": "False"
            }
        },
        {
            "type": "Feature",
            "geometry": {
                "type": "Point",
                "coordinates": [
                    7.6103519,
                    49.19218604
                ]
            },
            "properties": {
                "RSU coordinates": [
                    7.6103519,
                    49.1928328
                ],
                "Distance": 72.0,
                "Frequency": 5.9,
                "RSSI": -87.77000000000001,
                "LOS": "False"
            }
        },
        {
            "type": "Feature",
            "geometry": {
                "type": "Point",
                "coordinates": [
                    7.61063759,
                    49.19250942
                ]
            },
            "properties": {
                "RSU coordinates": [
                    7.6103519,
                    49.1928328
                ],
                "Distance": 41.57,
                "Frequency": 5.9,
                "RSSI": -53.06,
                "LOS": "True"
            }
        },
        {
            "type": "Feature",
            "geometry": {
                "type": "Point",
                "coordinates": [
                    7.61073282,
                    49.19261721
                ]
            },
            "properties": {
                "RSU coordinates": [
                    7.6103519,
                    49.1928328
                ],
                "Distance": 36.66,
                "Frequency": 5.9,
                "RSSI": -66.97999999999999,
                "LOS": "False"
            }
        },
        {
            "type": "Feature",
            "geometry": {
                "type": "Point",
                "coordinates": [
                    7.61092328,
                    49.1928328
                ]
            },
            "properties": {
                "RSU coordinates": [
                    7.6103519,
                    49.1928328
                ],
                "Distance": 41.57,
                "Frequency": 5.9,
                "RSSI": -83.06,
                "LOS": "False"
            }
        },
        {
            "type": "Feature",
            "geometry": {
                "type": "Point",
                "coordinates": [
                    7.61101852,
                    49.19294059
                ]
            },
            "properties": {
                "RSU coordinates": [
                    7.6103519,
                    49.1928328
                ],
                "Distance": 49.96,
                "Frequency": 5.9,
                "RSSI": -84.63,
                "LOS": "False"
            }
        },
        {
            "type": "Feature",
            "geometry": {
                "type": "Point",
                "coordinates": [
                    7.61111375,
                    49.19304839
                ]
            },
            "properties": {
                "RSU coordinates": [
                    7.6103519,
                    49.1928328
                ],
                "Distance": 60.4,
                "Frequency": 5.9,
                "RSSI": -71.25999999999999,
                "LOS": "False"
            }
        },
        {
            "type": "Feature",
            "geometry": {
                "type": "Point",
                "coordinates": [
                    7.61006622,
                    49.19164707
                ]
            },
            "properties": {
                "RSU coordinates": [
                    7.6103519,
                    49.1928328
                ],
                "Distance": 133.63,
                "Frequency": 5.9,
                "RSSI": -93.07,
                "LOS": "False"
            }
        },
        {
            "type": "Feature",
            "geometry": {
                "type": "Point",
                "coordinates": [
                    7.61016144,
                    49.19175486
                ]
            },
            "properties": {
                "RSU coordinates": [
                    7.6103519,
                    49.1928328
                ],
                "Distance": 120.8,
                "Frequency": 5.9,
                "RSSI": -92.2,
                "LOS": "False"
            }
        },
        {
            "type": "Feature",
            "geometry": {
                "type": "Point",
                "coordinates": [
                    7.61025667,
                    49.19186266
                ]
            },
            "properties": {
                "RSU coordinates": [
                    7.6103519,
                    49.1928328
                ],
                "Distance": 108.22,
                "Frequency": 5.9,
                "RSSI": -91.25999999999999,
                "LOS": "False"
            }
        },
        {
            "type": "Feature",
            "geometry": {
                "type": "Point",
                "coordinates": [
                    7.6103519,
                    49.19197045
                ]
            },
            "properties": {
                "RSU coordinates": [
                    7.6103519,
                    49.1928328
                ],
                "Distance": 96.0,
                "Frequency": 5.9,
                "RSSI": -90.22999999999999,
                "LOS": "False"
            }
        },
        {
            "type": "Feature",
            "geometry": {
                "type": "Point",
                "coordinates": [
                    7.61044713,
                    49.19207824
                ]
            },
            "properties": {
                "RSU coordinates": [
                    7.6103519,
                    49.1928328
                ],
                "Distance": 84.29,
                "Frequency": 5.9,
                "RSSI": -89.12,
                "LOS": "False"
            }
        },
        {
            "type": "Feature",
            "geometry": {
                "type": "Point",
                "coordinates": [
                    7.61054236,
                    49.19218604
                ]
            },
            "properties": {
                "RSU coordinates": [
                    7.6103519,
                    49.1928328
                ],
                "Distance": 73.32,
                "Frequency": 5.9,
                "RSSI": -87.92,
                "LOS": "False"
            }
        },
        {
            "type": "Feature",
            "geometry": {
                "type": "Point",
                "coordinates": [
                    7.61063759,
                    49.19229383
                ]
            },
            "properties": {
                "RSU coordinates": [
                    7.6103519,
                    49.1928328
                ],
                "Distance": 63.5,
                "Frequency": 5.9,
                "RSSI": -86.69,
                "LOS": "False"
            }
        },
        {
            "type": "Feature",
            "geometry": {
                "type": "Point",
                "coordinates": [
                    7.61082805,
                    49.19250942
                ]
            },
            "properties": {
                "RSU coordinates": [
                    7.6103519,
                    49.1928328
                ],
                "Distance": 49.96,
                "Frequency": 5.9,
                "RSSI": -54.63,
                "LOS": "True"
            }
        },
        {
            "type": "Feature",
            "geometry": {
                "type": "Point",
                "coordinates": [
                    7.61092328,
                    49.19261721
                ]
            },
            "properties": {
                "RSU coordinates": [
                    7.6103519,
                    49.1928328
                ],
                "Distance": 48.0,
                "Frequency": 5.9,
                "RSSI": -84.28999999999999,
                "LOS": "False"
            }
        },
        {
            "type": "Feature",
            "geometry": {
                "type": "Point",
                "coordinates": [
                    7.61101851,
                    49.19272501
                ]
            },
            "properties": {
                "RSU coordinates": [
                    7.6103519,
                    49.1928328
                ],
                "Distance": 49.96,
                "Frequency": 5.9,
                "RSSI": -99.63,
                "LOS": "False"
            }
        },
        {
            "type": "Feature",
            "geometry": {
                "type": "Point",
                "coordinates": [
                    7.61130421,
                    49.19304839
                ]
            },
            "properties": {
                "RSU coordinates": [
                    7.6103519,
                    49.1928328
                ],
                "Distance": 73.32,
                "Frequency": 5.9,
                "RSSI": -72.92,
                "LOS": "False"
            }
        },
        {
            "type": "Feature",
            "geometry": {
                "type": "Point",
                "coordinates": [
                    7.61006622,
                    49.19143148
                ]
            },
            "properties": {
                "RSU coordinates": [
                    7.6103519,
                    49.1928328
                ],
                "Distance": 157.38,
                "Frequency": 5.9,
                "RSSI": -94.47,
                "LOS": "False"
            }
        },
        {
            "type": "Feature",
            "geometry": {
                "type": "Point",
                "coordinates": [
                    7.6103519,
                    49.19175486
                ]
            },
            "properties": {
                "RSU coordinates": [
                    7.6103519,
                    49.1928328
                ],
                "Distance": 120.0,
                "Frequency": 5.9,
                "RSSI": -92.15,
                "LOS": "False"
            }
        },
        {
            "type": "Feature",
            "geometry": {
                "type": "Point",
                "coordinates": [
                    7.61044713,
                    49.19186266
                ]
            },
            "properties": {
                "RSU coordinates": [
                    7.6103519,
                    49.1928328
                ],
                "Distance": 108.22,
                "Frequency": 5.9,
                "RSSI": -76.25999999999999,
                "LOS": "False"
            }
        },
        {
            "type": "Feature",
            "geometry": {
                "type": "Point",
                "coordinates": [
                    7.61054236,
                    49.19197045
                ]
            },
            "properties": {
                "RSU coordinates": [
                    7.6103519,
                    49.1928328
                ],
                "Distance": 96.99,
                "Frequency": 5.9,
                "RSSI": -90.32,
                "LOS": "False"
            }
        },
        {
            "type": "Feature",
            "geometry": {
                "type": "Point",
                "coordinates": [
                    7.61092328,
                    49.19240163
                ]
            },
            "properties": {
                "RSU coordinates": [
                    7.6103519,
                    49.1928328
                ],
                "Distance": 63.5,
                "Frequency": 5.9,
                "RSSI": -56.69,
                "LOS": "True"
            }
        },
        {
            "type": "Feature",
            "geometry": {
                "type": "Point",
                "coordinates": [
                    7.61101851,
                    49.19250942
                ]
            },
            "properties": {
                "RSU coordinates": [
                    7.6103519,
                    49.1928328
                ],
                "Distance": 60.4,
                "Frequency": 5.9,
                "RSSI": -86.25999999999999,
                "LOS": "False"
            }
        },
        {
            "type": "Feature",
            "geometry": {
                "type": "Point",
                "coordinates": [
                    7.61044713,
                    49.19164707
                ]
            },
            "properties": {
                "RSU coordinates": [
                    7.6103519,
                    49.1928328
                ],
                "Distance": 132.18,
                "Frequency": 5.9,
                "RSSI": -92.97999999999999,
                "LOS": "False"
            }
        },
        {
            "type": "Feature",
            "geometry": {
                "type": "Point",
                "coordinates": [
                    7.61073282,
                    49.19197045
                ]
            },
            "properties": {
                "RSU coordinates": [
                    7.6103519,
                    49.1928328
                ],
                "Distance": 99.92,
                "Frequency": 5.9,
                "RSSI": -90.58,
                "LOS": "False"
            }
        },
        {
            "type": "Feature",
            "geometry": {
                "type": "Point",
                "coordinates": [
                    7.61101851,
                    49.19229383
                ]
            },
            "properties": {
                "RSU coordinates": [
                    7.6103519,
                    49.1928328
                ],
                "Distance": 77.15,
                "Frequency": 5.9,
                "RSSI": -58.36,
                "LOS": "True"
            }
        },
        {
            "type": "Feature",
            "geometry": {
                "type": "Point",
                "coordinates": [
                    7.61120897,
                    49.19250942
                ]
            },
            "properties": {
                "RSU coordinates": [
                    7.6103519,
                    49.1928328
                ],
                "Distance": 72.0,
                "Frequency": 5.9,
                "RSSI": -87.77000000000001,
                "LOS": "False"
            }
        },
        {
            "type": "Feature",
            "geometry": {
                "type": "Point",
                "coordinates": [
                    7.61111373,
                    49.19218604
                ]
            },
            "properties": {
                "RSU coordinates": [
                    7.6103519,
                    49.1928328
                ],
                "Distance": 90.86,
                "Frequency": 5.9,
                "RSSI": -59.76,
                "LOS": "True"
            }
        },
        {
            "type": "Feature",
            "geometry": {
                "type": "Point",
                "coordinates": [
                    7.61120896,
                    49.19207824
                ]
            },
            "properties": {
                "RSU coordinates": [
                    7.6103519,
                    49.1928328
                ],
                "Distance": 104.61,
                "Frequency": 5.9,
                "RSSI": -60.97,
                "LOS": "True"
            }
        },
        {
            "type": "Feature",
            "geometry": {
                "type": "Point",
                "coordinates": [
                    7.61130419,
                    49.19197045
                ]
            },
            "properties": {
                "RSU coordinates": [
                    7.6103519,
                    49.1928328
                ],
                "Distance": 118.39,
                "Frequency": 5.9,
                "RSSI": -62.03,
                "LOS": "True"
            }
        },
        {
            "type": "Feature",
            "geometry": {
                "type": "Point",
                "coordinates": [
                    7.61149465,
                    49.19197045
                ]
            },
            "properties": {
                "RSU coordinates": [
                    7.6103519,
                    49.1928328
                ],
                "Distance": 127.0,
                "Frequency": 5.9,
                "RSSI": -92.63,
                "LOS": "False"
            }
        },
        {
            "type": "Feature",
            "geometry": {
                "type": "Point",
                "coordinates": [
                    7.61158987,
                    49.19186266
                ]
            },
            "properties": {
                "RSU coordinates": [
                    7.6103519,
                    49.1928328
                ],
                "Distance": 140.63,
                "Frequency": 5.9,
                "RSSI": -63.51,
                "LOS": "True"
            }
        },
        {
            "type": "Feature",
            "geometry": {
                "type": "Point",
                "coordinates": [
                    7.61158987,
                    49.19164707
                ]
            },
            "properties": {
                "RSU coordinates": [
                    7.6103519,
                    49.1928328
                ],
                "Distance": 159.8,
                "Frequency": 5.9,
                "RSSI": -94.6,
                "LOS": "False"
            }
        },
        {
            "type": "Feature",
            "geometry": {
                "type": "Point",
                "coordinates": [
                    7.6116851,
                    49.19175486
                ]
            },
            "properties": {
                "RSU coordinates": [
                    7.6103519,
                    49.1928328
                ],
                "Distance": 154.3,
                "Frequency": 5.9,
                "RSSI": -64.3,
                "LOS": "True"
            }
        },
        {
            "type": "Feature",
            "geometry": {
                "type": "Point",
                "coordinates": [
                    7.61168509,
                    49.19153928
                ]
            },
            "properties": {
                "RSU coordinates": [
                    7.6103519,
                    49.1928328
                ],
                "Distance": 173.62,
                "Frequency": 5.9,
                "RSSI": -95.32,
                "LOS": "False"
            }
        },
        {
            "type": "Feature",
            "geometry": {
                "type": "Point",
                "coordinates": [
                    7.61178032,
                    49.19164707
                ]
            },
            "properties": {
                "RSU coordinates": [
                    7.6103519,
                    49.1928328
                ],
                "Distance": 168.0,
                "Frequency": 5.9,
                "RSSI": -65.03,
                "LOS": "True"
            }
        },
        {
            "type": "Feature",
            "geometry": {
                "type": "Point",
                "coordinates": [
                    7.61178032,
                    49.19143148
                ]
            },
            "properties": {
                "RSU coordinates": [
                    7.6103519,
                    49.1928328
                ],
                "Distance": 187.45,
                "Frequency": 5.9,
                "RSSI": -95.97,
                "LOS": "False"
            }
        },
        {
            "type": "Feature",
            "geometry": {
                "type": "Point",
                "coordinates": [
                    7.61187555,
                    49.19153928
                ]
            },
            "properties": {
                "RSU coordinates": [
                    7.6103519,
                    49.1928328
                ],
                "Distance": 181.73,
                "Frequency": 5.9,
                "RSSI": -65.71,
                "LOS": "True"
            }
        },
        {
            "type": "Feature",
            "geometry": {
                "type": "Point",
                "coordinates": [
                    7.61187554,
                    49.19132369
                ]
            },
            "properties": {
                "RSU coordinates": [
                    7.6103519,
                    49.1928328
                ],
                "Distance": 201.28,
                "Frequency": 5.9,
                "RSSI": -96.58,
                "LOS": "False"
            }
        },
        {
            "type": "Feature",
            "geometry": {
                "type": "Point",
                "coordinates": [
                    7.61197077,
                    49.19143148
                ]
            },
            "properties": {
                "RSU coordinates": [
                    7.6103519,
                    49.1928328
                ],
                "Distance": 195.47,
                "Frequency": 5.9,
                "RSSI": -66.33,
                "LOS": "True"
            }
        },
        {
            "type": "Feature",
            "geometry": {
                "type": "Point",
                "coordinates": [
                    7.61197077,
                    49.1912159
                ]
            },
            "properties": {
                "RSU coordinates": [
                    7.6103519,
                    49.1928328
                ],
                "Distance": 215.11,
                "Frequency": 5.9,
                "RSSI": -97.15,
                "LOS": "False"
            }
        },
        {
            "type": "Feature",
            "geometry": {
                "type": "Point",
                "coordinates": [
                    7.612066,
                    49.19132369
                ]
            },
            "properties": {
                "RSU coordinates": [
                    7.6103519,
                    49.1928328
                ],
                "Distance": 209.23,
                "Frequency": 5.9,
                "RSSI": -66.92,
                "LOS": "True"
            }
        },
        {
            "type": "Feature",
            "geometry": {
                "type": "Point",
                "coordinates": [
                    7.61216123,
                    49.19143148
                ]
            },
            "properties": {
                "RSU coordinates": [
                    7.6103519,
                    49.1928328
                ],
                "Distance": 204.12,
                "Frequency": 5.9,
                "RSSI": -66.7,
                "LOS": "True"
            }
        },
        {
            "type": "Feature",
            "geometry": {
                "type": "Point",
                "coordinates": [
                    7.61216122,
                    49.1912159
                ]
            },
            "properties": {
                "RSU coordinates": [
                    7.6103519,
                    49.1928328
                ],
                "Distance": 223.0,
                "Frequency": 5.9,
                "RSSI": -67.46,
                "LOS": "True"
            }
        },
        {
            "type": "Feature",
            "geometry": {
                "type": "Point",
                "coordinates": [
                    7.61225645,
                    49.19132369
                ]
            },
            "properties": {
                "RSU coordinates": [
                    7.6103519,
                    49.1928328
                ],
                "Distance": 217.77,
                "Frequency": 5.9,
                "RSSI": -67.26,
                "LOS": "True"
            }
        },
        {
            "type": "Feature",
            "geometry": {
                "type": "Point",
                "coordinates": [
                    7.61225645,
                    49.1911081
                ]
            },
            "properties": {
                "RSU coordinates": [
                    7.6103519,
                    49.1928328
                ],
                "Distance": 236.78,
                "Frequency": 5.9,
                "RSSI": -82.98,
                "LOS": "False"
            }
        },
        {
            "type": "Feature",
            "geometry": {
                "type": "Point",
                "coordinates": [
                    7.61235168,
                    49.1912159
                ]
            },
            "properties": {
                "RSU coordinates": [
                    7.6103519,
                    49.1928328
                ],
                "Distance": 231.45,
                "Frequency": 5.9,
                "RSSI": -67.78,
                "LOS": "True"
            }
        },
        {
            "type": "Feature",
            "geometry": {
                "type": "Point",
                "coordinates": [
                    7.61235167,
                    49.19100031
                ]
            },
            "properties": {
                "RSU coordinates": [
                    7.6103519,
                    49.1928328
                ],
                "Distance": 250.57,
                "Frequency": 5.9,
                "RSSI": -98.46,
                "LOS": "False"
            }
        },
        {
            "type": "Feature",
            "geometry": {
                "type": "Point",
                "coordinates": [
                    7.6124469,
                    49.1911081
                ]
            },
            "properties": {
                "RSU coordinates": [
                    7.6103519,
                    49.1928328
                ],
                "Distance": 245.14,
                "Frequency": 5.9,
                "RSSI": -68.27,
                "LOS": "True"
            }
        },
        {
            "type": "Feature",
            "geometry": {
                "type": "Point",
                "coordinates": [
                    7.61244689,
                    49.19089252
                ]
            },
            "properties": {
                "RSU coordinates": [
                    7.6103519,
                    49.1928328
                ],
                "Distance": 264.36,
                "Frequency": 5.9,
                "RSSI": -98.92,
                "LOS": "False"
            }
        },
        {
            "type": "Feature",
            "geometry": {
                "type": "Point",
                "coordinates": [
                    7.61254212,
                    49.19100031
                ]
            },
            "properties": {
                "RSU coordinates": [
                    7.6103519,
                    49.1928328
                ],
                "Distance": 258.86,
                "Frequency": 5.9,
                "RSSI": -68.74,
                "LOS": "True"
            }
        },
        {
            "type": "Feature",
            "geometry": {
                "type": "Point",
                "coordinates": [
                    7.61263734,
                    49.19089252
                ]
            },
            "properties": {
                "RSU coordinates": [
                    7.6103519,
                    49.1928328
                ],
                "Distance": 272.59,
                "Frequency": 5.9,
                "RSSI": -69.18,
                "LOS": "True"
            }
        },
        {
            "type": "Feature",
            "geometry": {
                "type": "Point",
                "coordinates": [
                    7.61273258,
                    49.19100031
                ]
            },
            "properties": {
                "RSU coordinates": [
                    7.6103519,
                    49.1928328
                ],
                "Distance": 267.61,
                "Frequency": 5.9,
                "RSSI": -69.03,
                "LOS": "True"
            }
        },
        {
            "type": "Feature",
            "geometry": {
                "type": "Point",
                "coordinates": [
                    7.61273257,
                    49.19078472
                ]
            },
            "properties": {
                "RSU coordinates": [
                    7.6103519,
                    49.1928328
                ],
                "Distance": 286.33,
                "Frequency": 5.9,
                "RSSI": -69.61,
                "LOS": "True"
            }
        },
        {
            "type": "Feature",
            "geometry": {
                "type": "Point",
                "coordinates": [
                    7.6128278,
                    49.19089252
                ]
            },
            "properties": {
                "RSU coordinates": [
                    7.6103519,
                    49.1928328
                ],
                "Distance": 281.25,
                "Frequency": 5.9,
                "RSSI": -69.45,
                "LOS": "True"
            }
        },
        {
            "type": "Feature",
            "geometry": {
                "type": "Point",
                "coordinates": [
                    7.61282779,
                    49.19067693
                ]
            },
            "properties": {
                "RSU coordinates": [
                    7.6103519,
                    49.1928328
                ],
                "Distance": 300.08,
                "Frequency": 5.9,
                "RSSI": -70.01,
                "LOS": "True"
            }
        },
        {
            "type": "Feature",
            "geometry": {
                "type": "Point",
                "coordinates": [
                    7.61292302,
                    49.19078472
                ]
            },
            "properties": {
                "RSU coordinates": [
                    7.6103519,
                    49.1928328
                ],
                "Distance": 294.92,
                "Frequency": 5.9,
                "RSSI": -69.86,
                "LOS": "True"
            }
        },
        {
            "type": "Feature",
            "geometry": {
                "type": "Point",
                "coordinates": [
                    7.61292301,
                    49.19056913
                ]
            },
            "properties": {
                "RSU coordinates": [
                    7.6103519,
                    49.1928328
                ],
                "Distance": 313.84,
                "Frequency": 5.9,
                "RSSI": -70.39,
                "LOS": "True"
            }
        },
        {
            "type": "Feature",
            "geometry": {
                "type": "Point",
                "coordinates": [
                    7.61301823,
                    49.19046134
                ]
            },
            "properties": {
                "RSU coordinates": [
                    7.6103519,
                    49.1928328
                ],
                "Distance": 327.61,
                "Frequency": 5.9,
                "RSSI": -70.76,
                "LOS": "True"
            }
        },
        {
            "type": "Feature",
            "geometry": {
                "type": "Point",
                "coordinates": [
                    7.61311345,
                    49.19035355
                ]
            },
            "properties": {
                "RSU coordinates": [
                    7.6103519,
                    49.1928328
                ],
                "Distance": 341.39,
                "Frequency": 5.9,
                "RSSI": -71.11,
                "LOS": "True"
            }
        },
        {
            "type": "Feature",
            "geometry": {
                "type": "Point",
                "coordinates": [
                    7.61320868,
                    49.19046134
                ]
            },
            "properties": {
                "RSU coordinates": [
                    7.6103519,
                    49.1928328
                ],
                "Distance": 336.0,
                "Frequency": 5.9,
                "RSSI": -85.98,
                "LOS": "False"
            }
        },
        {
            "type": "Feature",
            "geometry": {
                "type": "Point",
                "coordinates": [
                    7.61330391,
                    49.19056913
                ]
            },
            "properties": {
                "RSU coordinates": [
                    7.6103519,
                    49.1928328
                ],
                "Distance": 331.11,
                "Frequency": 5.9,
                "RSSI": -85.85,
                "LOS": "False"
            }
        },
        {
            "type": "Feature",
            "geometry": {
                "type": "Point",
                "coordinates": [
                    7.6133039,
                    49.19035355
                ]
            },
            "properties": {
                "RSU coordinates": [
                    7.6103519,
                    49.1928328
                ],
                "Distance": 349.72,
                "Frequency": 5.9,
                "RSSI": -86.32,
                "LOS": "False"
            }
        },
        {
            "type": "Feature",
            "geometry": {
                "type": "Point",
                "coordinates": [
                    7.61339913,
                    49.19046134
                ]
            },
            "properties": {
                "RSU coordinates": [
                    7.6103519,
                    49.1928328
                ],
                "Distance": 344.74,
                "Frequency": 5.9,
                "RSSI": -86.2,
                "LOS": "False"
            }
        },
        {
            "type": "Feature",
            "geometry": {
                "type": "Point",
                "coordinates": [
                    7.61349435,
                    49.19035355
                ]
            },
            "properties": {
                "RSU coordinates": [
                    7.6103519,
                    49.1928328
                ],
                "Distance": 358.4,
                "Frequency": 5.9,
                "RSSI": -86.53,
                "LOS": "False"
            }
        },
        {
            "type": "Feature",
            "geometry": {
                "type": "Point",
                "coordinates": [
                    7.61397046,
                    49.19003017
                ]
            },
            "properties": {
                "RSU coordinates": [
                    7.6103519,
                    49.1928328
                ],
                "Distance": 408.24,
                "Frequency": 5.9,
                "RSSI": -87.65,
                "LOS": "False"
            }
        }
    ]
}