{
    "type": "FeatureCollection",
    "features": [
        {
            "type": "Feature",
            "geometry": {
                "type": "Point",
                "coordinates": [
                    7.60414903,
                    49.20523964
                ]
            },
            "properties": {
                "RSU coordinates": [
                    7.6056731,
                    49.2009279
                ],
                "Distance": 492.63,
                "Frequency": 5.9,
                "RSSI": -74.26,
                "LOS": "True"
            }
        },
        {
            "type": "Feature",
            "geometry": {
                "type": "Point",
                "coordinates": [
                    7.60414903,
                    49.20502406
                ]
            },
            "properties": {
                "RSU coordinates": [
                    7.6056731,
                    49.2009279
                ],
                "Distance": 469.28,
                "Frequency": 5.9,
                "RSSI": -73.84,
                "LOS": "True"
            }
        },
        {
            "type": "Feature",
            "geometry": {
                "type": "Point",
                "coordinates": [
                    7.60424429,
                    49.20513185
                ]
            },
            "properties": {
                "RSU coordinates": [
                    7.6056731,
                    49.2009279
                ],
                "Distance": 479.4,
                "Frequency": 5.9,
                "RSSI": -74.03,
                "LOS": "True"
            }
        },
        {
            "type": "Feature",
            "geometry": {
                "type": "Point",
                "coordinates": [
                    7.60424429,
                    49.20491626
                ]
            },
            "properties": {
                "RSU coordinates": [
                    7.6056731,
                    49.2009279
                ],
                "Distance": 456.0,
                "Frequency": 5.9,
                "RSSI": -73.6,
                "LOS": "True"
            }
        },
        {
            "type": "Feature",
            "geometry": {
                "type": "Point",
                "coordinates": [
                    7.60433954,
                    49.20502406
                ]
            },
            "properties": {
                "RSU coordinates": [
                    7.6056731,
                    49.2009279
                ],
                "Distance": 466.2,
                "Frequency": 5.9,
                "RSSI": -88.79,
                "LOS": "False"
            }
        },
        {
            "type": "Feature",
            "geometry": {
                "type": "Point",
                "coordinates": [
                    7.60433955,
                    49.20480847
                ]
            },
            "properties": {
                "RSU coordinates": [
                    7.6056731,
                    49.2009279
                ],
                "Distance": 442.76,
                "Frequency": 5.9,
                "RSSI": -73.34,
                "LOS": "True"
            }
        },
        {
            "type": "Feature",
            "geometry": {
                "type": "Point",
                "coordinates": [
                    7.60433955,
                    49.20459288
                ]
            },
            "properties": {
                "RSU coordinates": [
                    7.6056731,
                    49.2009279
                ],
                "Distance": 419.37,
                "Frequency": 5.9,
                "RSSI": -72.88,
                "LOS": "True"
            }
        },
        {
            "type": "Feature",
            "geometry": {
                "type": "Point",
                "coordinates": [
                    7.6044348,
                    49.20470068
                ]
            },
            "properties": {
                "RSU coordinates": [
                    7.6056731,
                    49.2009279
                ],
                "Distance": 429.55,
                "Frequency": 5.9,
                "RSSI": -73.08,
                "LOS": "True"
            }
        },
        {
            "type": "Feature",
            "geometry": {
                "type": "Point",
                "coordinates": [
                    7.60443481,
                    49.20448509
                ]
            },
            "properties": {
                "RSU coordinates": [
                    7.6056731,
                    49.2009279
                ],
                "Distance": 406.11,
                "Frequency": 5.9,
                "RSSI": -72.6,
                "LOS": "True"
            }
        },
        {
            "type": "Feature",
            "geometry": {
                "type": "Point",
                "coordinates": [
                    7.60443482,
                    49.2042695
                ]
            },
            "properties": {
                "RSU coordinates": [
                    7.6056731,
                    49.2009279
                ],
                "Distance": 382.75,
                "Frequency": 5.9,
                "RSSI": -72.09,
                "LOS": "True"
            }
        },
        {
            "type": "Feature",
            "geometry": {
                "type": "Point",
                "coordinates": [
                    7.60453007,
                    49.20437729
                ]
            },
            "properties": {
                "RSU coordinates": [
                    7.6056731,
                    49.2009279
                ],
                "Distance": 392.9,
                "Frequency": 5.9,
                "RSSI": -72.32,
                "LOS": "True"
            }
        },
        {
            "type": "Feature",
            "geometry": {
                "type": "Point",
                "coordinates": [
                    7.60453007,
                    49.20416171
                ]
            },
            "properties": {
                "RSU coordinates": [
                    7.6056731,
                    49.2009279
                ],
                "Distance": 369.48,
                "Frequency": 5.9,
                "RSSI": -71.79,
                "LOS": "True"
            }
        },
        {
            "type": "Feature",
            "geometry": {
                "type": "Point",
                "coordinates": [
                    7.60462532,
                    49.2042695
                ]
            },
            "properties": {
                "RSU coordinates": [
                    7.6056731,
                    49.2009279
                ],
                "Distance": 379.73,
                "Frequency": 5.9,
                "RSSI": -72.03,
                "LOS": "True"
            }
        },
        {
            "type": "Feature",
            "geometry": {
                "type": "Point",
                "coordinates": [
                    7.60462533,
                    49.20405391
                ]
            },
            "properties": {
                "RSU coordinates": [
                    7.6056731,
                    49.2009279
                ],
                "Distance": 356.25,
                "Frequency": 5.9,
                "RSSI": -71.48,
                "LOS": "True"
            }
        },
        {
            "type": "Feature",
            "geometry": {
                "type": "Point",
                "coordinates": [
                    7.60462533,
                    49.20383833
                ]
            },
            "properties": {
                "RSU coordinates": [
                    7.6056731,
                    49.2009279
                ],
                "Distance": 332.84,
                "Frequency": 5.9,
                "RSSI": -70.9,
                "LOS": "True"
            }
        },
        {
            "type": "Feature",
            "geometry": {
                "type": "Point",
                "coordinates": [
                    7.60472058,
                    49.20394612
                ]
            },
            "properties": {
                "RSU coordinates": [
                    7.6056731,
                    49.2009279
                ],
                "Distance": 343.07,
                "Frequency": 5.9,
                "RSSI": -71.16,
                "LOS": "True"
            }
        },
        {
            "type": "Feature",
            "geometry": {
                "type": "Point",
                "coordinates": [
                    7.60462533,
                    49.20362274
                ]
            },
            "properties": {
                "RSU coordinates": [
                    7.6056731,
                    49.2009279
                ],
                "Distance": 309.53,
                "Frequency": 5.9,
                "RSSI": -70.27,
                "LOS": "True"
            }
        },
        {
            "type": "Feature",
            "geometry": {
                "type": "Point",
                "coordinates": [
                    7.60472058,
                    49.20373053
                ]
            },
            "properties": {
                "RSU coordinates": [
                    7.6056731,
                    49.2009279
                ],
                "Distance": 319.6,
                "Frequency": 5.9,
                "RSSI": -70.55,
                "LOS": "True"
            }
        },
        {
            "type": "Feature",
            "geometry": {
                "type": "Point",
                "coordinates": [
                    7.60462534,
                    49.20340715
                ]
            },
            "properties": {
                "RSU coordinates": [
                    7.6056731,
                    49.2009279
                ],
                "Distance": 286.33,
                "Frequency": 5.9,
                "RSSI": -69.61,
                "LOS": "True"
            }
        },
        {
            "type": "Feature",
            "geometry": {
                "type": "Point",
                "coordinates": [
                    7.60472059,
                    49.20351495
                ]
            },
            "properties": {
                "RSU coordinates": [
                    7.6056731,
                    49.2009279
                ],
                "Distance": 296.22,
                "Frequency": 5.9,
                "RSSI": -69.9,
                "LOS": "True"
            }
        },
        {
            "type": "Feature",
            "geometry": {
                "type": "Point",
                "coordinates": [
                    7.60481584,
                    49.20362274
                ]
            },
            "properties": {
                "RSU coordinates": [
                    7.6056731,
                    49.2009279
                ],
                "Distance": 306.41,
                "Frequency": 5.9,
                "RSSI": -70.19,
                "LOS": "True"
            }
        },
        {
            "type": "Feature",
            "geometry": {
                "type": "Point",
                "coordinates": [
                    7.60472059,
                    49.20329936
                ]
            },
            "properties": {
                "RSU coordinates": [
                    7.6056731,
                    49.2009279
                ],
                "Distance": 272.94,
                "Frequency": 5.9,
                "RSSI": -69.2,
                "LOS": "True"
            }
        },
        {
            "type": "Feature",
            "geometry": {
                "type": "Point",
                "coordinates": [
                    7.60481584,
                    49.20340715
                ]
            },
            "properties": {
                "RSU coordinates": [
                    7.6056731,
                    49.2009279
                ],
                "Distance": 282.96,
                "Frequency": 5.9,
                "RSSI": -69.5,
                "LOS": "True"
            }
        },
        {
            "type": "Feature",
            "geometry": {
                "type": "Point",
                "coordinates": [
                    7.60491109,
                    49.20351495
                ]
            },
            "properties": {
                "RSU coordinates": [
                    7.6056731,
                    49.2009279
                ],
                "Distance": 293.28,
                "Frequency": 5.9,
                "RSSI": -69.81,
                "LOS": "True"
            }
        },
        {
            "type": "Feature",
            "geometry": {
                "type": "Point",
                "coordinates": [
                    7.6047206,
                    49.20308377
                ]
            },
            "properties": {
                "RSU coordinates": [
                    7.6056731,
                    49.2009279
                ],
                "Distance": 249.8,
                "Frequency": 5.9,
                "RSSI": -98.44,
                "LOS": "False"
            }
        },
        {
            "type": "Feature",
            "geometry": {
                "type": "Point",
                "coordinates": [
                    7.60481584,
                    49.20319157
                ]
            },
            "properties": {
                "RSU coordinates": [
                    7.6056731,
                    49.2009279
                ],
                "Distance": 259.6,
                "Frequency": 5.9,
                "RSSI": -68.77,
                "LOS": "True"
            }
        },
        {
            "type": "Feature",
            "geometry": {
                "type": "Point",
                "coordinates": [
                    7.60491109,
                    49.20329936
                ]
            },
            "properties": {
                "RSU coordinates": [
                    7.6056731,
                    49.2009279
                ],
                "Distance": 269.76,
                "Frequency": 5.9,
                "RSSI": -69.09,
                "LOS": "True"
            }
        },
        {
            "type": "Feature",
            "geometry": {
                "type": "Point",
                "coordinates": [
                    7.60481585,
                    49.20297598
                ]
            },
            "properties": {
                "RSU coordinates": [
                    7.6056731,
                    49.2009279
                ],
                "Distance": 236.37,
                "Frequency": 5.9,
                "RSSI": -67.96,
                "LOS": "True"
            }
        },
        {
            "type": "Feature",
            "geometry": {
                "type": "Point",
                "coordinates": [
                    7.6049111,
                    49.20308377
                ]
            },
            "properties": {
                "RSU coordinates": [
                    7.6056731,
                    49.2009279
                ],
                "Distance": 246.32,
                "Frequency": 5.9,
                "RSSI": -68.31,
                "LOS": "True"
            }
        },
        {
            "type": "Feature",
            "geometry": {
                "type": "Point",
                "coordinates": [
                    7.60500635,
                    49.20319157
                ]
            },
            "properties": {
                "RSU coordinates": [
                    7.6056731,
                    49.2009279
                ],
                "Distance": 256.62,
                "Frequency": 5.9,
                "RSSI": -68.67,
                "LOS": "True"
            }
        },
        {
            "type": "Feature",
            "geometry": {
                "type": "Point",
                "coordinates": [
                    7.6049111,
                    49.20286818
                ]
            },
            "properties": {
                "RSU coordinates": [
                    7.6056731,
                    49.2009279
                ],
                "Distance": 223.0,
                "Frequency": 5.9,
                "RSSI": -67.46,
                "LOS": "True"
            }
        },
        {
            "type": "Feature",
            "geometry": {
                "type": "Point",
                "coordinates": [
                    7.60500635,
                    49.20297598
                ]
            },
            "properties": {
                "RSU coordinates": [
                    7.6056731,
                    49.2009279
                ],
                "Distance": 233.1,
                "Frequency": 5.9,
                "RSSI": -67.84,
                "LOS": "True"
            }
        },
        {
            "type": "Feature",
            "geometry": {
                "type": "Point",
                "coordinates": [
                    7.6049111,
                    49.2026526
                ]
            },
            "properties": {
                "RSU coordinates": [
                    7.6056731,
                    49.2009279
                ],
                "Distance": 199.84,
                "Frequency": 5.9,
                "RSSI": -96.52,
                "LOS": "False"
            }
        },
        {
            "type": "Feature",
            "geometry": {
                "type": "Point",
                "coordinates": [
                    7.60500635,
                    49.20276039
                ]
            },
            "properties": {
                "RSU coordinates": [
                    7.6056731,
                    49.2009279
                ],
                "Distance": 209.69,
                "Frequency": 5.9,
                "RSSI": -66.93,
                "LOS": "True"
            }
        },
        {
            "type": "Feature",
            "geometry": {
                "type": "Point",
                "coordinates": [
                    7.6051016,
                    49.20286818
                ]
            },
            "properties": {
                "RSU coordinates": [
                    7.6056731,
                    49.2009279
                ],
                "Distance": 219.96,
                "Frequency": 5.9,
                "RSSI": -67.34,
                "LOS": "True"
            }
        },
        {
            "type": "Feature",
            "geometry": {
                "type": "Point",
                "coordinates": [
                    7.60500635,
                    49.2025448
                ]
            },
            "properties": {
                "RSU coordinates": [
                    7.6056731,
                    49.2009279
                ],
                "Distance": 186.42,
                "Frequency": 5.9,
                "RSSI": -65.93,
                "LOS": "True"
            }
        },
        {
            "type": "Feature",
            "geometry": {
                "type": "Point",
                "coordinates": [
                    7.6051016,
                    49.2026526
                ]
            },
            "properties": {
                "RSU coordinates": [
                    7.6056731,
                    49.2009279
                ],
                "Distance": 196.45,
                "Frequency": 5.9,
                "RSSI": -66.37,
                "LOS": "True"
            }
        },
        {
            "type": "Feature",
            "geometry": {
                "type": "Point",
                "coordinates": [
                    7.60519685,
                    49.20276039
                ]
            },
            "properties": {
                "RSU coordinates": [
                    7.6056731,
                    49.2009279
                ],
                "Distance": 206.92,
                "Frequency": 5.9,
                "RSSI": -66.82,
                "LOS": "True"
            }
        },
        {
            "type": "Feature",
            "geometry": {
                "type": "Point",
                "coordinates": [
                    7.60510161,
                    49.20243701
                ]
            },
            "properties": {
                "RSU coordinates": [
                    7.6056731,
                    49.2009279
                ],
                "Distance": 173.07,
                "Frequency": 5.9,
                "RSSI": -65.29,
                "LOS": "True"
            }
        },
        {
            "type": "Feature",
            "geometry": {
                "type": "Point",
                "coordinates": [
                    7.60519685,
                    49.2025448
                ]
            },
            "properties": {
                "RSU coordinates": [
                    7.6056731,
                    49.2009279
                ],
                "Distance": 183.3,
                "Frequency": 5.9,
                "RSSI": -65.78,
                "LOS": "True"
            }
        },
        {
            "type": "Feature",
            "geometry": {
                "type": "Point",
                "coordinates": [
                    7.60510161,
                    49.20222142
                ]
            },
            "properties": {
                "RSU coordinates": [
                    7.6056731,
                    49.2009279
                ],
                "Distance": 149.88,
                "Frequency": 5.9,
                "RSSI": -94.05,
                "LOS": "False"
            }
        },
        {
            "type": "Feature",
            "geometry": {
                "type": "Point",
                "coordinates": [
                    7.60519686,
                    49.20232922
                ]
            },
            "properties": {
                "RSU coordinates": [
                    7.6056731,
                    49.2009279
                ],
                "Distance": 159.8,
                "Frequency": 5.9,
                "RSSI": -64.6,
                "LOS": "True"
            }
        },
        {
            "type": "Feature",
            "geometry": {
                "type": "Point",
                "coordinates": [
                    7.6052921,
                    49.20243701
                ]
            },
            "properties": {
                "RSU coordinates": [
                    7.6056731,
                    49.2009279
                ],
                "Distance": 170.27,
                "Frequency": 5.9,
                "RSSI": -65.15,
                "LOS": "True"
            }
        },
        {
            "type": "Feature",
            "geometry": {
                "type": "Point",
                "coordinates": [
                    7.60519686,
                    49.20211363
                ]
            },
            "properties": {
                "RSU coordinates": [
                    7.6056731,
                    49.2009279
                ],
                "Distance": 136.47,
                "Frequency": 5.9,
                "RSSI": -63.25,
                "LOS": "True"
            }
        },
        {
            "type": "Feature",
            "geometry": {
                "type": "Point",
                "coordinates": [
                    7.60529211,
                    49.20222142
                ]
            },
            "properties": {
                "RSU coordinates": [
                    7.6056731,
                    49.2009279
                ],
                "Distance": 146.64,
                "Frequency": 5.9,
                "RSSI": -63.87,
                "LOS": "True"
            }
        },
        {
            "type": "Feature",
            "geometry": {
                "type": "Point",
                "coordinates": [
                    7.60529211,
                    49.20200584
                ]
            },
            "properties": {
                "RSU coordinates": [
                    7.6056731,
                    49.2009279
                ],
                "Distance": 123.16,
                "Frequency": 5.9,
                "RSSI": -62.37,
                "LOS": "True"
            }
        },
        {
            "type": "Feature",
            "geometry": {
                "type": "Point",
                "coordinates": [
                    7.60538735,
                    49.20211363
                ]
            },
            "properties": {
                "RSU coordinates": [
                    7.6056731,
                    49.2009279
                ],
                "Distance": 133.63,
                "Frequency": 5.9,
                "RSSI": -63.07,
                "LOS": "True"
            }
        },
        {
            "type": "Feature",
            "geometry": {
                "type": "Point",
                "coordinates": [
                    7.60529211,
                    49.20179025
                ]
            },
            "properties": {
                "RSU coordinates": [
                    7.6056731,
                    49.2009279
                ],
                "Distance": 99.92,
                "Frequency": 5.9,
                "RSSI": -90.58,
                "LOS": "False"
            }
        },
        {
            "type": "Feature",
            "geometry": {
                "type": "Point",
                "coordinates": [
                    7.60538736,
                    49.20189804
                ]
            },
            "properties": {
                "RSU coordinates": [
                    7.6056731,
                    49.2009279
                ],
                "Distance": 109.98,
                "Frequency": 5.9,
                "RSSI": -61.4,
                "LOS": "True"
            }
        },
        {
            "type": "Feature",
            "geometry": {
                "type": "Point",
                "coordinates": [
                    7.60462539,
                    49.20082011
                ]
            },
            "properties": {
                "RSU coordinates": [
                    7.6056731,
                    49.2009279
                ],
                "Distance": 77.15,
                "Frequency": 5.9,
                "RSSI": -88.36,
                "LOS": "False"
            }
        },
        {
            "type": "Feature",
            "geometry": {
                "type": "Point",
                "coordinates": [
                    7.60481588,
                    49.20103569
                ]
            },
            "properties": {
                "RSU coordinates": [
                    7.6056731,
                    49.2009279
                ],
                "Distance": 63.5,
                "Frequency": 5.9,
                "RSSI": -86.69,
                "LOS": "False"
            }
        },
        {
            "type": "Feature",
            "geometry": {
                "type": "Point",
                "coordinates": [
                    7.60538736,
                    49.20168246
                ]
            },
            "properties": {
                "RSU coordinates": [
                    7.6056731,
                    49.2009279
                ],
                "Distance": 86.53,
                "Frequency": 5.9,
                "RSSI": -59.34,
                "LOS": "True"
            }
        },
        {
            "type": "Feature",
            "geometry": {
                "type": "Point",
                "coordinates": [
                    7.6054826,
                    49.20179025
                ]
            },
            "properties": {
                "RSU coordinates": [
                    7.6056731,
                    49.2009279
                ],
                "Distance": 96.99,
                "Frequency": 5.9,
                "RSSI": -60.32,
                "LOS": "True"
            }
        },
        {
            "type": "Feature",
            "geometry": {
                "type": "Point",
                "coordinates": [
                    7.60453016,
                    49.20049673
                ]
            },
            "properties": {
                "RSU coordinates": [
                    7.6056731,
                    49.2009279
                ],
                "Distance": 96.0,
                "Frequency": 5.9,
                "RSSI": -90.22999999999999,
                "LOS": "False"
            }
        },
        {
            "type": "Feature",
            "geometry": {
                "type": "Point",
                "coordinates": [
                    7.6046254,
                    49.20060452
                ]
            },
            "properties": {
                "RSU coordinates": [
                    7.6056731,
                    49.2009279
                ],
                "Distance": 84.29,
                "Frequency": 5.9,
                "RSSI": -89.12,
                "LOS": "False"
            }
        },
        {
            "type": "Feature",
            "geometry": {
                "type": "Point",
                "coordinates": [
                    7.60472064,
                    49.20071231
                ]
            },
            "properties": {
                "RSU coordinates": [
                    7.6056731,
                    49.2009279
                ],
                "Distance": 73.32,
                "Frequency": 5.9,
                "RSSI": -87.92,
                "LOS": "False"
            }
        },
        {
            "type": "Feature",
            "geometry": {
                "type": "Point",
                "coordinates": [
                    7.60519687,
                    49.20125128
                ]
            },
            "properties": {
                "RSU coordinates": [
                    7.6056731,
                    49.2009279
                ],
                "Distance": 49.96,
                "Frequency": 5.9,
                "RSSI": -99.63,
                "LOS": "False"
            }
        },
        {
            "type": "Feature",
            "geometry": {
                "type": "Point",
                "coordinates": [
                    7.60548261,
                    49.20157466
                ]
            },
            "properties": {
                "RSU coordinates": [
                    7.6056731,
                    49.2009279
                ],
                "Distance": 73.32,
                "Frequency": 5.9,
                "RSSI": -57.92,
                "LOS": "True"
            }
        },
        {
            "type": "Feature",
            "geometry": {
                "type": "Point",
                "coordinates": [
                    7.60433968,
                    49.20006555
                ]
            },
            "properties": {
                "RSU coordinates": [
                    7.6056731,
                    49.2009279
                ],
                "Distance": 136.47,
                "Frequency": 5.9,
                "RSSI": -93.25,
                "LOS": "False"
            }
        },
        {
            "type": "Feature",
            "geometry": {
                "type": "Point",
                "coordinates": [
                    7.60443492,
                    49.20017334
                ]
            },
            "properties": {
                "RSU coordinates": [
                    7.6056731,
                    49.2009279
                ],
                "Distance": 123.16,
                "Frequency": 5.9,
                "RSSI": -92.37,
                "LOS": "False"
            }
        },
        {
            "type": "Feature",
            "geometry": {
                "type": "Point",
                "coordinates": [
                    7.60453016,
                    49.20028114
                ]
            },
            "properties": {
                "RSU coordinates": [
                    7.6056731,
                    49.2009279
                ],
                "Distance": 109.98,
                "Frequency": 5.9,
                "RSSI": -91.4,
                "LOS": "False"
            }
        },
        {
            "type": "Feature",
            "geometry": {
                "type": "Point",
                "coordinates": [
                    7.6046254,
                    49.20038893
                ]
            },
            "properties": {
                "RSU coordinates": [
                    7.6056731,
                    49.2009279
                ],
                "Distance": 96.99,
                "Frequency": 5.9,
                "RSSI": -90.32,
                "LOS": "False"
            }
        },
        {
            "type": "Feature",
            "geometry": {
                "type": "Point",
                "coordinates": [
                    7.60472065,
                    49.20049673
                ]
            },
            "properties": {
                "RSU coordinates": [
                    7.6056731,
                    49.2009279
                ],
                "Distance": 84.29,
                "Frequency": 5.9,
                "RSSI": -89.12,
                "LOS": "False"
            }
        },
        {
            "type": "Feature",
            "geometry": {
                "type": "Point",
                "coordinates": [
                    7.60510162,
                    49.2009279
                ]
            },
            "properties": {
                "RSU coordinates": [
                    7.6056731,
                    49.2009279
                ],
                "Distance": 41.57,
                "Frequency": 5.9,
                "RSSI": -68.06,
                "LOS": "False"
            }
        },
        {
            "type": "Feature",
            "geometry": {
                "type": "Point",
                "coordinates": [
                    7.60519687,
                    49.20103569
                ]
            },
            "properties": {
                "RSU coordinates": [
                    7.6056731,
                    49.2009279
                ],
                "Distance": 36.66,
                "Frequency": 5.9,
                "RSSI": -81.97999999999999,
                "LOS": "False"
            }
        },
        {
            "type": "Feature",
            "geometry": {
                "type": "Point",
                "coordinates": [
                    7.60529211,
                    49.20114349
                ]
            },
            "properties": {
                "RSU coordinates": [
                    7.6056731,
                    49.2009279
                ],
                "Distance": 36.66,
                "Frequency": 5.9,
                "RSSI": -81.97999999999999,
                "LOS": "False"
            }
        },
        {
            "type": "Feature",
            "geometry": {
                "type": "Point",
                "coordinates": [
                    7.60548261,
                    49.20135907
                ]
            },
            "properties": {
                "RSU coordinates": [
                    7.6056731,
                    49.2009279
                ],
                "Distance": 49.96,
                "Frequency": 5.9,
                "RSSI": -54.63,
                "LOS": "True"
            }
        },
        {
            "type": "Feature",
            "geometry": {
                "type": "Point",
                "coordinates": [
                    7.60557785,
                    49.20146687
                ]
            },
            "properties": {
                "RSU coordinates": [
                    7.6056731,
                    49.2009279
                ],
                "Distance": 60.4,
                "Frequency": 5.9,
                "RSSI": -56.26,
                "LOS": "True"
            }
        },
        {
            "type": "Feature",
            "geometry": {
                "type": "Point",
                "coordinates": [
                    7.6058636,
                    49.20179025
                ]
            },
            "properties": {
                "RSU coordinates": [
                    7.6056731,
                    49.2009279
                ],
                "Distance": 96.99,
                "Frequency": 5.9,
                "RSSI": -90.32,
                "LOS": "False"
            }
        },
        {
            "type": "Feature",
            "geometry": {
                "type": "Point",
                "coordinates": [
                    7.60462541,
                    49.20017334
                ]
            },
            "properties": {
                "RSU coordinates": [
                    7.6056731,
                    49.2009279
                ],
                "Distance": 113.42,
                "Frequency": 5.9,
                "RSSI": -91.66,
                "LOS": "False"
            }
        },
        {
            "type": "Feature",
            "geometry": {
                "type": "Point",
                "coordinates": [
                    7.60472065,
                    49.20028114
                ]
            },
            "properties": {
                "RSU coordinates": [
                    7.6056731,
                    49.2009279
                ],
                "Distance": 99.92,
                "Frequency": 5.9,
                "RSSI": -90.58,
                "LOS": "False"
            }
        },
        {
            "type": "Feature",
            "geometry": {
                "type": "Point",
                "coordinates": [
                    7.60481589,
                    49.20038893
                ]
            },
            "properties": {
                "RSU coordinates": [
                    7.6056731,
                    49.2009279
                ],
                "Distance": 86.53,
                "Frequency": 5.9,
                "RSSI": -89.34,
                "LOS": "False"
            }
        },
        {
            "type": "Feature",
            "geometry": {
                "type": "Point",
                "coordinates": [
                    7.60491114,
                    49.20049673
                ]
            },
            "properties": {
                "RSU coordinates": [
                    7.6056731,
                    49.2009279
                ],
                "Distance": 73.32,
                "Frequency": 5.9,
                "RSSI": -87.92,
                "LOS": "False"
            }
        },
        {
            "type": "Feature",
            "geometry": {
                "type": "Point",
                "coordinates": [
                    7.60529212,
                    49.2009279
                ]
            },
            "properties": {
                "RSU coordinates": [
                    7.6056731,
                    49.2009279
                ],
                "Distance": 27.71,
                "Frequency": 5.9,
                "RSSI": -64.58,
                "LOS": "False"
            }
        },
        {
            "type": "Feature",
            "geometry": {
                "type": "Point",
                "coordinates": [
                    7.60557785,
                    49.20125128
                ]
            },
            "properties": {
                "RSU coordinates": [
                    7.6056731,
                    49.2009279
                ],
                "Distance": 36.66,
                "Frequency": 5.9,
                "RSSI": -51.98,
                "LOS": "True"
            }
        },
        {
            "type": "Feature",
            "geometry": {
                "type": "Point",
                "coordinates": [
                    7.60576835,
                    49.20146687
                ]
            },
            "properties": {
                "RSU coordinates": [
                    7.6056731,
                    49.2009279
                ],
                "Distance": 60.4,
                "Frequency": 5.9,
                "RSSI": -86.25999999999999,
                "LOS": "False"
            }
        },
        {
            "type": "Feature",
            "geometry": {
                "type": "Point",
                "coordinates": [
                    7.60586359,
                    49.20157466
                ]
            },
            "properties": {
                "RSU coordinates": [
                    7.6056731,
                    49.2009279
                ],
                "Distance": 73.32,
                "Frequency": 5.9,
                "RSSI": -87.92,
                "LOS": "False"
            }
        },
        {
            "type": "Feature",
            "geometry": {
                "type": "Point",
                "coordinates": [
                    7.6048159,
                    49.20017334
                ]
            },
            "properties": {
                "RSU coordinates": [
                    7.6056731,
                    49.2009279
                ],
                "Distance": 104.61,
                "Frequency": 5.9,
                "RSSI": -90.97,
                "LOS": "False"
            }
        },
        {
            "type": "Feature",
            "geometry": {
                "type": "Point",
                "coordinates": [
                    7.60491114,
                    49.20028114
                ]
            },
            "properties": {
                "RSU coordinates": [
                    7.6056731,
                    49.2009279
                ],
                "Distance": 90.86,
                "Frequency": 5.9,
                "RSSI": -89.75999999999999,
                "LOS": "False"
            }
        },
        {
            "type": "Feature",
            "geometry": {
                "type": "Point",
                "coordinates": [
                    7.60500638,
                    49.20038893
                ]
            },
            "properties": {
                "RSU coordinates": [
                    7.6056731,
                    49.2009279
                ],
                "Distance": 77.15,
                "Frequency": 5.9,
                "RSSI": -88.36,
                "LOS": "False"
            }
        },
        {
            "type": "Feature",
            "geometry": {
                "type": "Point",
                "coordinates": [
                    7.60519687,
                    49.20060452
                ]
            },
            "properties": {
                "RSU coordinates": [
                    7.6056731,
                    49.2009279
                ],
                "Distance": 49.96,
                "Frequency": 5.9,
                "RSSI": -69.63,
                "LOS": "False"
            }
        },
        {
            "type": "Feature",
            "geometry": {
                "type": "Point",
                "coordinates": [
                    7.60529212,
                    49.20071231
                ]
            },
            "properties": {
                "RSU coordinates": [
                    7.6056731,
                    49.2009279
                ],
                "Distance": 36.66,
                "Frequency": 5.9,
                "RSSI": -66.97999999999999,
                "LOS": "False"
            }
        },
        {
            "type": "Feature",
            "geometry": {
                "type": "Point",
                "coordinates": [
                    7.60557785,
                    49.20103569
                ]
            },
            "properties": {
                "RSU coordinates": [
                    7.6056731,
                    49.2009279
                ],
                "Distance": 13.86,
                "Frequency": 5.9,
                "RSSI": -43.63,
                "LOS": "True"
            }
        },
        {
            "type": "Feature",
            "geometry": {
                "type": "Point",
                "coordinates": [
                    7.6056731,
                    49.20114349
                ]
            },
            "properties": {
                "RSU coordinates": [
                    7.6056731,
                    49.2009279
                ],
                "Distance": 24.0,
                "Frequency": 5.9,
                "RSSI": -48.34,
                "LOS": "True"
            }
        },
        {
            "type": "Feature",
            "geometry": {
                "type": "Point",
                "coordinates": [
                    7.60586359,
                    49.20135907
                ]
            },
            "properties": {
                "RSU coordinates": [
                    7.6056731,
                    49.2009279
                ],
                "Distance": 49.96,
                "Frequency": 5.9,
                "RSSI": -84.63,
                "LOS": "False"
            }
        },
        {
            "type": "Feature",
            "geometry": {
                "type": "Point",
                "coordinates": [
                    7.60500639,
                    49.20017334
                ]
            },
            "properties": {
                "RSU coordinates": [
                    7.6056731,
                    49.2009279
                ],
                "Distance": 96.99,
                "Frequency": 5.9,
                "RSSI": -90.32,
                "LOS": "False"
            }
        },
        {
            "type": "Feature",
            "geometry": {
                "type": "Point",
                "coordinates": [
                    7.60510163,
                    49.20028114
                ]
            },
            "properties": {
                "RSU coordinates": [
                    7.6056731,
                    49.2009279
                ],
                "Distance": 83.14,
                "Frequency": 5.9,
                "RSSI": -89.0,
                "LOS": "False"
            }
        },
        {
            "type": "Feature",
            "geometry": {
                "type": "Point",
                "coordinates": [
                    7.60519687,
                    49.20038893
                ]
            },
            "properties": {
                "RSU coordinates": [
                    7.6056731,
                    49.2009279
                ],
                "Distance": 69.28,
                "Frequency": 5.9,
                "RSSI": -87.44,
                "LOS": "False"
            }
        },
        {
            "type": "Feature",
            "geometry": {
                "type": "Point",
                "coordinates": [
                    7.60538736,
                    49.20060452
                ]
            },
            "properties": {
                "RSU coordinates": [
                    7.6056731,
                    49.2009279
                ],
                "Distance": 41.57,
                "Frequency": 5.9,
                "RSSI": -68.06,
                "LOS": "False"
            }
        },
        {
            "type": "Feature",
            "geometry": {
                "type": "Point",
                "coordinates": [
                    7.60586359,
                    49.20114349
                ]
            },
            "properties": {
                "RSU coordinates": [
                    7.6056731,
                    49.2009279
                ],
                "Distance": 27.71,
                "Frequency": 5.9,
                "RSSI": -64.58,
                "LOS": "False"
            }
        },
        {
            "type": "Feature",
            "geometry": {
                "type": "Point",
                "coordinates": [
                    7.60605409,
                    49.20135907
                ]
            },
            "properties": {
                "RSU coordinates": [
                    7.6056731,
                    49.2009279
                ],
                "Distance": 55.43,
                "Frequency": 5.9,
                "RSSI": -85.52000000000001,
                "LOS": "False"
            }
        },
        {
            "type": "Feature",
            "geometry": {
                "type": "Point",
                "coordinates": [
                    7.60519688,
                    49.20017334
                ]
            },
            "properties": {
                "RSU coordinates": [
                    7.6056731,
                    49.2009279
                ],
                "Distance": 90.86,
                "Frequency": 5.9,
                "RSSI": -89.75999999999999,
                "LOS": "False"
            }
        },
        {
            "type": "Feature",
            "geometry": {
                "type": "Point",
                "coordinates": [
                    7.60529212,
                    49.20028114
                ]
            },
            "properties": {
                "RSU coordinates": [
                    7.6056731,
                    49.2009279
                ],
                "Distance": 77.15,
                "Frequency": 5.9,
                "RSSI": -88.36,
                "LOS": "False"
            }
        },
        {
            "type": "Feature",
            "geometry": {
                "type": "Point",
                "coordinates": [
                    7.60557785,
                    49.20060452
                ]
            },
            "properties": {
                "RSU coordinates": [
                    7.6056731,
                    49.2009279
                ],
                "Distance": 36.66,
                "Frequency": 5.9,
                "RSSI": -66.97999999999999,
                "LOS": "False"
            }
        },
        {
            "type": "Feature",
            "geometry": {
                "type": "Point",
                "coordinates": [
                    7.6056731,
                    49.20071231
                ]
            },
            "properties": {
                "RSU coordinates": [
                    7.6056731,
                    49.2009279
                ],
                "Distance": 24.0,
                "Frequency": 5.9,
                "RSSI": -48.34,
                "LOS": "True"
            }
        },
        {
            "type": "Feature",
            "geometry": {
                "type": "Point",
                "coordinates": [
                    7.60576835,
                    49.20082011
                ]
            },
            "properties": {
                "RSU coordinates": [
                    7.6056731,
                    49.2009279
                ],
                "Distance": 13.86,
                "Frequency": 5.9,
                "RSSI": -43.63,
                "LOS": "True"
            }
        },
        {
            "type": "Feature",
            "geometry": {
                "type": "Point",
                "coordinates": [
                    7.60595884,
                    49.20103569
                ]
            },
            "properties": {
                "RSU coordinates": [
                    7.6056731,
                    49.2009279
                ],
                "Distance": 24.0,
                "Frequency": 5.9,
                "RSSI": -63.34,
                "LOS": "False"
            }
        },
        {
            "type": "Feature",
            "geometry": {
                "type": "Point",
                "coordinates": [
                    7.60605409,
                    49.20114349
                ]
            },
            "properties": {
                "RSU coordinates": [
                    7.6056731,
                    49.2009279
                ],
                "Distance": 36.66,
                "Frequency": 5.9,
                "RSSI": -66.97999999999999,
                "LOS": "False"
            }
        },
        {
            "type": "Feature",
            "geometry": {
                "type": "Point",
                "coordinates": [
                    7.60538737,
                    49.20017334
                ]
            },
            "properties": {
                "RSU coordinates": [
                    7.6056731,
                    49.2009279
                ],
                "Distance": 86.53,
                "Frequency": 5.9,
                "RSSI": -89.34,
                "LOS": "False"
            }
        },
        {
            "type": "Feature",
            "geometry": {
                "type": "Point",
                "coordinates": [
                    7.60548261,
                    49.20028114
                ]
            },
            "properties": {
                "RSU coordinates": [
                    7.6056731,
                    49.2009279
                ],
                "Distance": 73.32,
                "Frequency": 5.9,
                "RSSI": -87.92,
                "LOS": "False"
            }
        },
        {
            "type": "Feature",
            "geometry": {
                "type": "Point",
                "coordinates": [
                    7.60557785,
                    49.20038893
                ]
            },
            "properties": {
                "RSU coordinates": [
                    7.6056731,
                    49.2009279
                ],
                "Distance": 60.4,
                "Frequency": 5.9,
                "RSSI": -71.25999999999999,
                "LOS": "False"
            }
        },
        {
            "type": "Feature",
            "geometry": {
                "type": "Point",
                "coordinates": [
                    7.6056731,
                    49.20049673
                ]
            },
            "properties": {
                "RSU coordinates": [
                    7.6056731,
                    49.2009279
                ],
                "Distance": 48.0,
                "Frequency": 5.9,
                "RSSI": -54.29,
                "LOS": "True"
            }
        },
        {
            "type": "Feature",
            "geometry": {
                "type": "Point",
                "coordinates": [
                    7.60576835,
                    49.20060452
                ]
            },
            "properties": {
                "RSU coordinates": [
                    7.6056731,
                    49.2009279
                ],
                "Distance": 36.66,
                "Frequency": 5.9,
                "RSSI": -51.98,
                "LOS": "True"
            }
        },
        {
            "type": "Feature",
            "geometry": {
                "type": "Point",
                "coordinates": [
                    7.60624458,
                    49.20114349
                ]
            },
            "properties": {
                "RSU coordinates": [
                    7.6056731,
                    49.2009279
                ],
                "Distance": 48.0,
                "Frequency": 5.9,
                "RSSI": -69.28999999999999,
                "LOS": "False"
            }
        },
        {
            "type": "Feature",
            "geometry": {
                "type": "Point",
                "coordinates": [
                    7.60643508,
                    49.20135907
                ]
            },
            "properties": {
                "RSU coordinates": [
                    7.6056731,
                    49.2009279
                ],
                "Distance": 73.32,
                "Frequency": 5.9,
                "RSSI": -87.92,
                "LOS": "False"
            }
        },
        {
            "type": "Feature",
            "geometry": {
                "type": "Point",
                "coordinates": [
                    7.60557786,
                    49.20017334
                ]
            },
            "properties": {
                "RSU coordinates": [
                    7.6056731,
                    49.2009279
                ],
                "Distance": 84.29,
                "Frequency": 5.9,
                "RSSI": -74.12,
                "LOS": "False"
            }
        },
        {
            "type": "Feature",
            "geometry": {
                "type": "Point",
                "coordinates": [
                    7.6056731,
                    49.20028114
                ]
            },
            "properties": {
                "RSU coordinates": [
                    7.6056731,
                    49.2009279
                ],
                "Distance": 72.0,
                "Frequency": 5.9,
                "RSSI": -57.77,
                "LOS": "True"
            }
        },
        {
            "type": "Feature",
            "geometry": {
                "type": "Point",
                "coordinates": [
                    7.60576835,
                    49.20038893
                ]
            },
            "properties": {
                "RSU coordinates": [
                    7.6056731,
                    49.2009279
                ],
                "Distance": 60.4,
                "Frequency": 5.9,
                "RSSI": -56.26,
                "LOS": "True"
            }
        },
        {
            "type": "Feature",
            "geometry": {
                "type": "Point",
                "coordinates": [
                    7.60586359,
                    49.20049673
                ]
            },
            "properties": {
                "RSU coordinates": [
                    7.6056731,
                    49.2009279
                ],
                "Distance": 49.96,
                "Frequency": 5.9,
                "RSSI": -54.63,
                "LOS": "True"
            }
        },
        {
            "type": "Feature",
            "geometry": {
                "type": "Point",
                "coordinates": [
                    7.60605408,
                    49.20071231
                ]
            },
            "properties": {
                "RSU coordinates": [
                    7.6056731,
                    49.2009279
                ],
                "Distance": 36.66,
                "Frequency": 5.9,
                "RSSI": -96.97999999999999,
                "LOS": "False"
            }
        },
        {
            "type": "Feature",
            "geometry": {
                "type": "Point",
                "coordinates": [
                    7.60643507,
                    49.20114349
                ]
            },
            "properties": {
                "RSU coordinates": [
                    7.6056731,
                    49.2009279
                ],
                "Distance": 60.4,
                "Frequency": 5.9,
                "RSSI": -71.25999999999999,
                "LOS": "False"
            }
        },
        {
            "type": "Feature",
            "geometry": {
                "type": "Point",
                "coordinates": [
                    7.60653032,
                    49.20125128
                ]
            },
            "properties": {
                "RSU coordinates": [
                    7.6056731,
                    49.2009279
                ],
                "Distance": 72.0,
                "Frequency": 5.9,
                "RSSI": -87.77000000000001,
                "LOS": "False"
            }
        },
        {
            "type": "Feature",
            "geometry": {
                "type": "Point",
                "coordinates": [
                    7.60662557,
                    49.20135907
                ]
            },
            "properties": {
                "RSU coordinates": [
                    7.6056731,
                    49.2009279
                ],
                "Distance": 84.29,
                "Frequency": 5.9,
                "RSSI": -89.12,
                "LOS": "False"
            }
        },
        {
            "type": "Feature",
            "geometry": {
                "type": "Point",
                "coordinates": [
                    7.60548261,
                    49.19984996
                ]
            },
            "properties": {
                "RSU coordinates": [
                    7.6056731,
                    49.2009279
                ],
                "Distance": 120.8,
                "Frequency": 5.9,
                "RSSI": -92.2,
                "LOS": "False"
            }
        },
        {
            "type": "Feature",
            "geometry": {
                "type": "Point",
                "coordinates": [
                    7.6056731,
                    49.20006555
                ]
            },
            "properties": {
                "RSU coordinates": [
                    7.6056731,
                    49.2009279
                ],
                "Distance": 96.0,
                "Frequency": 5.9,
                "RSSI": -60.23,
                "LOS": "True"
            }
        },
        {
            "type": "Feature",
            "geometry": {
                "type": "Point",
                "coordinates": [
                    7.60576834,
                    49.20017334
                ]
            },
            "properties": {
                "RSU coordinates": [
                    7.6056731,
                    49.2009279
                ],
                "Distance": 84.29,
                "Frequency": 5.9,
                "RSSI": -59.12,
                "LOS": "True"
            }
        },
        {
            "type": "Feature",
            "geometry": {
                "type": "Point",
                "coordinates": [
                    7.60586359,
                    49.20028114
                ]
            },
            "properties": {
                "RSU coordinates": [
                    7.6056731,
                    49.2009279
                ],
                "Distance": 73.32,
                "Frequency": 5.9,
                "RSSI": -57.92,
                "LOS": "True"
            }
        },
        {
            "type": "Feature",
            "geometry": {
                "type": "Point",
                "coordinates": [
                    7.60595884,
                    49.20038893
                ]
            },
            "properties": {
                "RSU coordinates": [
                    7.6056731,
                    49.2009279
                ],
                "Distance": 63.5,
                "Frequency": 5.9,
                "RSSI": -71.69,
                "LOS": "False"
            }
        },
        {
            "type": "Feature",
            "geometry": {
                "type": "Point",
                "coordinates": [
                    7.60614933,
                    49.20060452
                ]
            },
            "properties": {
                "RSU coordinates": [
                    7.6056731,
                    49.2009279
                ],
                "Distance": 49.96,
                "Frequency": 5.9,
                "RSSI": -84.63,
                "LOS": "False"
            }
        },
        {
            "type": "Feature",
            "geometry": {
                "type": "Point",
                "coordinates": [
                    7.60643507,
                    49.2009279
                ]
            },
            "properties": {
                "RSU coordinates": [
                    7.6056731,
                    49.2009279
                ],
                "Distance": 55.43,
                "Frequency": 5.9,
                "RSSI": -70.52000000000001,
                "LOS": "False"
            }
        },
        {
            "type": "Feature",
            "geometry": {
                "type": "Point",
                "coordinates": [
                    7.60653032,
                    49.20103569
                ]
            },
            "properties": {
                "RSU coordinates": [
                    7.6056731,
                    49.2009279
                ],
                "Distance": 63.5,
                "Frequency": 5.9,
                "RSSI": -71.69,
                "LOS": "False"
            }
        },
        {
            "type": "Feature",
            "geometry": {
                "type": "Point",
                "coordinates": [
                    7.60662557,
                    49.20114349
                ]
            },
            "properties": {
                "RSU coordinates": [
                    7.6056731,
                    49.2009279
                ],
                "Distance": 73.32,
                "Frequency": 5.9,
                "RSSI": -72.92,
                "LOS": "False"
            }
        },
        {
            "type": "Feature",
            "geometry": {
                "type": "Point",
                "coordinates": [
                    7.60672082,
                    49.20125128
                ]
            },
            "properties": {
                "RSU coordinates": [
                    7.6056731,
                    49.2009279
                ],
                "Distance": 84.29,
                "Frequency": 5.9,
                "RSSI": -74.12,
                "LOS": "False"
            }
        },
        {
            "type": "Feature",
            "geometry": {
                "type": "Point",
                "coordinates": [
                    7.6056731,
                    49.19984996
                ]
            },
            "properties": {
                "RSU coordinates": [
                    7.6056731,
                    49.2009279
                ],
                "Distance": 120.0,
                "Frequency": 5.9,
                "RSSI": -62.15,
                "LOS": "True"
            }
        },
        {
            "type": "Feature",
            "geometry": {
                "type": "Point",
                "coordinates": [
                    7.60576834,
                    49.19995776
                ]
            },
            "properties": {
                "RSU coordinates": [
                    7.6056731,
                    49.2009279
                ],
                "Distance": 108.22,
                "Frequency": 5.9,
                "RSSI": -61.26,
                "LOS": "True"
            }
        },
        {
            "type": "Feature",
            "geometry": {
                "type": "Point",
                "coordinates": [
                    7.60586359,
                    49.20006555
                ]
            },
            "properties": {
                "RSU coordinates": [
                    7.6056731,
                    49.2009279
                ],
                "Distance": 96.99,
                "Frequency": 5.9,
                "RSSI": -60.32,
                "LOS": "True"
            }
        },
        {
            "type": "Feature",
            "geometry": {
                "type": "Point",
                "coordinates": [
                    7.60595883,
                    49.20017334
                ]
            },
            "properties": {
                "RSU coordinates": [
                    7.6056731,
                    49.2009279
                ],
                "Distance": 86.53,
                "Frequency": 5.9,
                "RSSI": -59.34,
                "LOS": "True"
            }
        },
        {
            "type": "Feature",
            "geometry": {
                "type": "Point",
                "coordinates": [
                    7.60605408,
                    49.20028114
                ]
            },
            "properties": {
                "RSU coordinates": [
                    7.6056731,
                    49.2009279
                ],
                "Distance": 77.15,
                "Frequency": 5.9,
                "RSSI": -73.36,
                "LOS": "False"
            }
        },
        {
            "type": "Feature",
            "geometry": {
                "type": "Point",
                "coordinates": [
                    7.60614933,
                    49.20038893
                ]
            },
            "properties": {
                "RSU coordinates": [
                    7.6056731,
                    49.2009279
                ],
                "Distance": 69.28,
                "Frequency": 5.9,
                "RSSI": -87.44,
                "LOS": "False"
            }
        },
        {
            "type": "Feature",
            "geometry": {
                "type": "Point",
                "coordinates": [
                    7.60662556,
                    49.2009279
                ]
            },
            "properties": {
                "RSU coordinates": [
                    7.6056731,
                    49.2009279
                ],
                "Distance": 69.28,
                "Frequency": 5.9,
                "RSSI": -72.44,
                "LOS": "False"
            }
        },
        {
            "type": "Feature",
            "geometry": {
                "type": "Point",
                "coordinates": [
                    7.60672081,
                    49.20103569
                ]
            },
            "properties": {
                "RSU coordinates": [
                    7.6056731,
                    49.2009279
                ],
                "Distance": 77.15,
                "Frequency": 5.9,
                "RSSI": -73.36,
                "LOS": "False"
            }
        },
        {
            "type": "Feature",
            "geometry": {
                "type": "Point",
                "coordinates": [
                    7.60681606,
                    49.20114349
                ]
            },
            "properties": {
                "RSU coordinates": [
                    7.6056731,
                    49.2009279
                ],
                "Distance": 86.53,
                "Frequency": 5.9,
                "RSSI": -74.34,
                "LOS": "False"
            }
        },
        {
            "type": "Feature",
            "geometry": {
                "type": "Point",
                "coordinates": [
                    7.60691131,
                    49.20125128
                ]
            },
            "properties": {
                "RSU coordinates": [
                    7.6056731,
                    49.2009279
                ],
                "Distance": 96.99,
                "Frequency": 5.9,
                "RSSI": -75.32,
                "LOS": "False"
            }
        },
        {
            "type": "Feature",
            "geometry": {
                "type": "Point",
                "coordinates": [
                    7.60700656,
                    49.20135907
                ]
            },
            "properties": {
                "RSU coordinates": [
                    7.6056731,
                    49.2009279
                ],
                "Distance": 108.22,
                "Frequency": 5.9,
                "RSSI": -76.25999999999999,
                "LOS": "False"
            }
        },
        {
            "type": "Feature",
            "geometry": {
                "type": "Point",
                "coordinates": [
                    7.60576834,
                    49.19974217
                ]
            },
            "properties": {
                "RSU coordinates": [
                    7.6056731,
                    49.2009279
                ],
                "Distance": 132.18,
                "Frequency": 5.9,
                "RSSI": -62.98,
                "LOS": "True"
            }
        },
        {
            "type": "Feature",
            "geometry": {
                "type": "Point",
                "coordinates": [
                    7.60586359,
                    49.19984996
                ]
            },
            "properties": {
                "RSU coordinates": [
                    7.6056731,
                    49.2009279
                ],
                "Distance": 120.8,
                "Frequency": 5.9,
                "RSSI": -62.2,
                "LOS": "True"
            }
        },
        {
            "type": "Feature",
            "geometry": {
                "type": "Point",
                "coordinates": [
                    7.60595883,
                    49.19995776
                ]
            },
            "properties": {
                "RSU coordinates": [
                    7.6056731,
                    49.2009279
                ],
                "Distance": 109.98,
                "Frequency": 5.9,
                "RSSI": -61.4,
                "LOS": "True"
            }
        },
        {
            "type": "Feature",
            "geometry": {
                "type": "Point",
                "coordinates": [
                    7.60605408,
                    49.20006555
                ]
            },
            "properties": {
                "RSU coordinates": [
                    7.6056731,
                    49.2009279
                ],
                "Distance": 99.92,
                "Frequency": 5.9,
                "RSSI": -60.58,
                "LOS": "True"
            }
        },
        {
            "type": "Feature",
            "geometry": {
                "type": "Point",
                "coordinates": [
                    7.60614932,
                    49.20017334
                ]
            },
            "properties": {
                "RSU coordinates": [
                    7.6056731,
                    49.2009279
                ],
                "Distance": 90.86,
                "Frequency": 5.9,
                "RSSI": -74.75999999999999,
                "LOS": "False"
            }
        },
        {
            "type": "Feature",
            "geometry": {
                "type": "Point",
                "coordinates": [
                    7.60624457,
                    49.20028114
                ]
            },
            "properties": {
                "RSU coordinates": [
                    7.6056731,
                    49.2009279
                ],
                "Distance": 83.14,
                "Frequency": 5.9,
                "RSSI": -89.0,
                "LOS": "False"
            }
        },
        {
            "type": "Feature",
            "geometry": {
                "type": "Point",
                "coordinates": [
                    7.60653031,
                    49.20060452
                ]
            },
            "properties": {
                "RSU coordinates": [
                    7.6056731,
                    49.2009279
                ],
                "Distance": 72.0,
                "Frequency": 5.9,
                "RSSI": -87.77000000000001,
                "LOS": "False"
            }
        },
        {
            "type": "Feature",
            "geometry": {
                "type": "Point",
                "coordinates": [
                    7.60662556,
                    49.20071231
                ]
            },
            "properties": {
                "RSU coordinates": [
                    7.6056731,
                    49.2009279
                ],
                "Distance": 73.32,
                "Frequency": 5.9,
                "RSSI": -87.92,
                "LOS": "False"
            }
        },
        {
            "type": "Feature",
            "geometry": {
                "type": "Point",
                "coordinates": [
                    7.60681605,
                    49.2009279
                ]
            },
            "properties": {
                "RSU coordinates": [
                    7.6056731,
                    49.2009279
                ],
                "Distance": 83.14,
                "Frequency": 5.9,
                "RSSI": -74.0,
                "LOS": "False"
            }
        },
        {
            "type": "Feature",
            "geometry": {
                "type": "Point",
                "coordinates": [
                    7.60700655,
                    49.20114349
                ]
            },
            "properties": {
                "RSU coordinates": [
                    7.6056731,
                    49.2009279
                ],
                "Distance": 99.92,
                "Frequency": 5.9,
                "RSSI": -75.58,
                "LOS": "False"
            }
        },
        {
            "type": "Feature",
            "geometry": {
                "type": "Point",
                "coordinates": [
                    7.60719705,
                    49.20135907
                ]
            },
            "properties": {
                "RSU coordinates": [
                    7.6056731,
                    49.2009279
                ],
                "Distance": 120.8,
                "Frequency": 5.9,
                "RSSI": -77.2,
                "LOS": "False"
            }
        },
        {
            "type": "Feature",
            "geometry": {
                "type": "Point",
                "coordinates": [
                    7.6072923,
                    49.20146687
                ]
            },
            "properties": {
                "RSU coordinates": [
                    7.6056731,
                    49.2009279
                ],
                "Distance": 132.18,
                "Frequency": 5.9,
                "RSSI": -77.97999999999999,
                "LOS": "False"
            }
        },
        {
            "type": "Feature",
            "geometry": {
                "type": "Point",
                "coordinates": [
                    7.60595883,
                    49.19974217
                ]
            },
            "properties": {
                "RSU coordinates": [
                    7.6056731,
                    49.2009279
                ],
                "Distance": 133.63,
                "Frequency": 5.9,
                "RSSI": -63.07,
                "LOS": "True"
            }
        },
        {
            "type": "Feature",
            "geometry": {
                "type": "Point",
                "coordinates": [
                    7.60605408,
                    49.19984996
                ]
            },
            "properties": {
                "RSU coordinates": [
                    7.6056731,
                    49.2009279
                ],
                "Distance": 123.16,
                "Frequency": 5.9,
                "RSSI": -62.37,
                "LOS": "True"
            }
        },
        {
            "type": "Feature",
            "geometry": {
                "type": "Point",
                "coordinates": [
                    7.60614932,
                    49.19995776
                ]
            },
            "properties": {
                "RSU coordinates": [
                    7.6056731,
                    49.2009279
                ],
                "Distance": 113.42,
                "Frequency": 5.9,
                "RSSI": -76.66,
                "LOS": "False"
            }
        },
        {
            "type": "Feature",
            "geometry": {
                "type": "Point",
                "coordinates": [
                    7.60624457,
                    49.20006555
                ]
            },
            "properties": {
                "RSU coordinates": [
                    7.6056731,
                    49.2009279
                ],
                "Distance": 104.61,
                "Frequency": 5.9,
                "RSSI": -75.97,
                "LOS": "False"
            }
        },
        {
            "type": "Feature",
            "geometry": {
                "type": "Point",
                "coordinates": [
                    7.60633981,
                    49.20017334
                ]
            },
            "properties": {
                "RSU coordinates": [
                    7.6056731,
                    49.2009279
                ],
                "Distance": 96.99,
                "Frequency": 5.9,
                "RSSI": -90.32,
                "LOS": "False"
            }
        },
        {
            "type": "Feature",
            "geometry": {
                "type": "Point",
                "coordinates": [
                    7.60681605,
                    49.20071231
                ]
            },
            "properties": {
                "RSU coordinates": [
                    7.6056731,
                    49.2009279
                ],
                "Distance": 86.53,
                "Frequency": 5.9,
                "RSSI": -89.34,
                "LOS": "False"
            }
        },
        {
            "type": "Feature",
            "geometry": {
                "type": "Point",
                "coordinates": [
                    7.60700655,
                    49.2009279
                ]
            },
            "properties": {
                "RSU coordinates": [
                    7.6056731,
                    49.2009279
                ],
                "Distance": 96.99,
                "Frequency": 5.9,
                "RSSI": -75.32,
                "LOS": "False"
            }
        },
        {
            "type": "Feature",
            "geometry": {
                "type": "Point",
                "coordinates": [
                    7.6072923,
                    49.20125128
                ]
            },
            "properties": {
                "RSU coordinates": [
                    7.6056731,
                    49.2009279
                ],
                "Distance": 123.16,
                "Frequency": 5.9,
                "RSSI": -92.37,
                "LOS": "False"
            }
        },
        {
            "type": "Feature",
            "geometry": {
                "type": "Point",
                "coordinates": [
                    7.60757805,
                    49.20157466
                ]
            },
            "properties": {
                "RSU coordinates": [
                    7.6056731,
                    49.2009279
                ],
                "Distance": 156.15,
                "Frequency": 5.9,
                "RSSI": -94.41,
                "LOS": "False"
            }
        },
        {
            "type": "Feature",
            "geometry": {
                "type": "Point",
                "coordinates": [
                    7.60605407,
                    49.19963438
                ]
            },
            "properties": {
                "RSU coordinates": [
                    7.6056731,
                    49.2009279
                ],
                "Distance": 146.64,
                "Frequency": 5.9,
                "RSSI": -63.87,
                "LOS": "True"
            }
        },
        {
            "type": "Feature",
            "geometry": {
                "type": "Point",
                "coordinates": [
                    7.60614932,
                    49.19974217
                ]
            },
            "properties": {
                "RSU coordinates": [
                    7.6056731,
                    49.2009279
                ],
                "Distance": 136.47,
                "Frequency": 5.9,
                "RSSI": -63.25,
                "LOS": "True"
            }
        },
        {
            "type": "Feature",
            "geometry": {
                "type": "Point",
                "coordinates": [
                    7.60624456,
                    49.19984996
                ]
            },
            "properties": {
                "RSU coordinates": [
                    7.6056731,
                    49.2009279
                ],
                "Distance": 127.0,
                "Frequency": 5.9,
                "RSSI": -77.63,
                "LOS": "False"
            }
        },
        {
            "type": "Feature",
            "geometry": {
                "type": "Point",
                "coordinates": [
                    7.60633981,
                    49.19995776
                ]
            },
            "properties": {
                "RSU coordinates": [
                    7.6056731,
                    49.2009279
                ],
                "Distance": 118.39,
                "Frequency": 5.9,
                "RSSI": -77.03,
                "LOS": "False"
            }
        },
        {
            "type": "Feature",
            "geometry": {
                "type": "Point",
                "coordinates": [
                    7.60719704,
                    49.2009279
                ]
            },
            "properties": {
                "RSU coordinates": [
                    7.6056731,
                    49.2009279
                ],
                "Distance": 110.85,
                "Frequency": 5.9,
                "RSSI": -91.47,
                "LOS": "False"
            }
        },
        {
            "type": "Feature",
            "geometry": {
                "type": "Point",
                "coordinates": [
                    7.60748279,
                    49.20125128
                ]
            },
            "properties": {
                "RSU coordinates": [
                    7.6056731,
                    49.2009279
                ],
                "Distance": 136.47,
                "Frequency": 5.9,
                "RSSI": -93.25,
                "LOS": "False"
            }
        },
        {
            "type": "Feature",
            "geometry": {
                "type": "Point",
                "coordinates": [
                    7.60595883,
                    49.199311
                ]
            },
            "properties": {
                "RSU coordinates": [
                    7.6056731,
                    49.2009279
                ],
                "Distance": 181.2,
                "Frequency": 5.9,
                "RSSI": -95.68,
                "LOS": "False"
            }
        },
        {
            "type": "Feature",
            "geometry": {
                "type": "Point",
                "coordinates": [
                    7.60614932,
                    49.19952658
                ]
            },
            "properties": {
                "RSU coordinates": [
                    7.6056731,
                    49.2009279
                ],
                "Distance": 159.8,
                "Frequency": 5.9,
                "RSSI": -79.6,
                "LOS": "False"
            }
        },
        {
            "type": "Feature",
            "geometry": {
                "type": "Point",
                "coordinates": [
                    7.60643505,
                    49.19984996
                ]
            },
            "properties": {
                "RSU coordinates": [
                    7.6056731,
                    49.2009279
                ],
                "Distance": 132.18,
                "Frequency": 5.9,
                "RSSI": -77.97999999999999,
                "LOS": "False"
            }
        },
        {
            "type": "Feature",
            "geometry": {
                "type": "Point",
                "coordinates": [
                    7.60738753,
                    49.2009279
                ]
            },
            "properties": {
                "RSU coordinates": [
                    7.6056731,
                    49.2009279
                ],
                "Distance": 124.71,
                "Frequency": 5.9,
                "RSSI": -92.47999999999999,
                "LOS": "False"
            }
        },
        {
            "type": "Feature",
            "geometry": {
                "type": "Point",
                "coordinates": [
                    7.60748278,
                    49.20103569
                ]
            },
            "properties": {
                "RSU coordinates": [
                    7.6056731,
                    49.2009279
                ],
                "Distance": 132.18,
                "Frequency": 5.9,
                "RSSI": -92.97999999999999,
                "LOS": "False"
            }
        },
        {
            "type": "Feature",
            "geometry": {
                "type": "Point",
                "coordinates": [
                    7.60624456,
                    49.19941879
                ]
            },
            "properties": {
                "RSU coordinates": [
                    7.6056731,
                    49.2009279
                ],
                "Distance": 173.07,
                "Frequency": 5.9,
                "RSSI": -80.29,
                "LOS": "False"
            }
        },
        {
            "type": "Feature",
            "geometry": {
                "type": "Point",
                "coordinates": [
                    7.6065303,
                    49.19974217
                ]
            },
            "properties": {
                "RSU coordinates": [
                    7.6056731,
                    49.2009279
                ],
                "Distance": 145.99,
                "Frequency": 5.9,
                "RSSI": -78.83,
                "LOS": "False"
            }
        },
        {
            "type": "Feature",
            "geometry": {
                "type": "Point",
                "coordinates": [
                    7.60729227,
                    49.20060452
                ]
            },
            "properties": {
                "RSU coordinates": [
                    7.6056731,
                    49.2009279
                ],
                "Distance": 123.16,
                "Frequency": 5.9,
                "RSSI": -92.37,
                "LOS": "False"
            }
        },
        {
            "type": "Feature",
            "geometry": {
                "type": "Point",
                "coordinates": [
                    7.60757802,
                    49.2009279
                ]
            },
            "properties": {
                "RSU coordinates": [
                    7.6056731,
                    49.2009279
                ],
                "Distance": 138.56,
                "Frequency": 5.9,
                "RSSI": -93.38,
                "LOS": "False"
            }
        },
        {
            "type": "Feature",
            "geometry": {
                "type": "Point",
                "coordinates": [
                    7.6063398,
                    49.199311
                ]
            },
            "properties": {
                "RSU coordinates": [
                    7.6056731,
                    49.2009279
                ],
                "Distance": 186.42,
                "Frequency": 5.9,
                "RSSI": -95.93,
                "LOS": "False"
            }
        },
        {
            "type": "Feature",
            "geometry": {
                "type": "Point",
                "coordinates": [
                    7.60653029,
                    49.19952658
                ]
            },
            "properties": {
                "RSU coordinates": [
                    7.6056731,
                    49.2009279
                ],
                "Distance": 168.0,
                "Frequency": 5.9,
                "RSSI": -95.03,
                "LOS": "False"
            }
        },
        {
            "type": "Feature",
            "geometry": {
                "type": "Point",
                "coordinates": [
                    7.60624455,
                    49.19898762
                ]
            },
            "properties": {
                "RSU coordinates": [
                    7.6056731,
                    49.2009279
                ],
                "Distance": 219.96,
                "Frequency": 5.9,
                "RSSI": -97.34,
                "LOS": "False"
            }
        }
    ]
}