{
    "type": "FeatureCollection",
    "features": [
        {
            "type": "Feature",
            "geometry": {
                "type": "Point",
                "coordinates": [
                    7.77806841,
                    49.44832656
                ]
            },
            "properties": {
                "RSU coordinates": [
                    7.7798872,
                    49.447572
                ],
                "Distance": 156.15,
                "Frequency": 5.9,
                "RSSI": -94.41,
                "LOS": "False"
            }
        },
        {
            "type": "Feature",
            "geometry": {
                "type": "Point",
                "coordinates": [
                    7.77835559,
                    49.44821876
                ]
            },
            "properties": {
                "RSU coordinates": [
                    7.7798872,
                    49.447572
                ],
                "Distance": 132.18,
                "Frequency": 5.9,
                "RSSI": -92.97999999999999,
                "LOS": "False"
            }
        },
        {
            "type": "Feature",
            "geometry": {
                "type": "Point",
                "coordinates": [
                    7.77864277,
                    49.44811097
                ]
            },
            "properties": {
                "RSU coordinates": [
                    7.7798872,
                    49.447572
                ],
                "Distance": 108.22,
                "Frequency": 5.9,
                "RSSI": -91.25999999999999,
                "LOS": "False"
            }
        },
        {
            "type": "Feature",
            "geometry": {
                "type": "Point",
                "coordinates": [
                    7.77892995,
                    49.44800317
                ]
            },
            "properties": {
                "RSU coordinates": [
                    7.7798872,
                    49.447572
                ],
                "Distance": 84.29,
                "Frequency": 5.9,
                "RSSI": -89.12,
                "LOS": "False"
            }
        },
        {
            "type": "Feature",
            "geometry": {
                "type": "Point",
                "coordinates": [
                    7.77960002,
                    49.44789538
                ]
            },
            "properties": {
                "RSU coordinates": [
                    7.7798872,
                    49.447572
                ],
                "Distance": 41.57,
                "Frequency": 5.9,
                "RSSI": -83.06,
                "LOS": "False"
            }
        },
        {
            "type": "Feature",
            "geometry": {
                "type": "Point",
                "coordinates": [
                    7.77979147,
                    49.44811097
                ]
            },
            "properties": {
                "RSU coordinates": [
                    7.7798872,
                    49.447572
                ],
                "Distance": 60.4,
                "Frequency": 5.9,
                "RSSI": -86.25999999999999,
                "LOS": "False"
            }
        },
        {
            "type": "Feature",
            "geometry": {
                "type": "Point",
                "coordinates": [
                    7.77825993,
                    49.44617068
                ]
            },
            "properties": {
                "RSU coordinates": [
                    7.7798872,
                    49.447572
                ],
                "Distance": 195.47,
                "Frequency": 5.9,
                "RSSI": -96.33,
                "LOS": "False"
            }
        },
        {
            "type": "Feature",
            "geometry": {
                "type": "Point",
                "coordinates": [
                    7.77835565,
                    49.44627848
                ]
            },
            "properties": {
                "RSU coordinates": [
                    7.7798872,
                    49.447572
                ],
                "Distance": 181.73,
                "Frequency": 5.9,
                "RSSI": -80.71,
                "LOS": "False"
            }
        },
        {
            "type": "Feature",
            "geometry": {
                "type": "Point",
                "coordinates": [
                    7.77845137,
                    49.44638627
                ]
            },
            "properties": {
                "RSU coordinates": [
                    7.7798872,
                    49.447572
                ],
                "Distance": 168.0,
                "Frequency": 5.9,
                "RSSI": -80.03,
                "LOS": "False"
            }
        },
        {
            "type": "Feature",
            "geometry": {
                "type": "Point",
                "coordinates": [
                    7.77854709,
                    49.44649406
                ]
            },
            "properties": {
                "RSU coordinates": [
                    7.7798872,
                    49.447572
                ],
                "Distance": 154.3,
                "Frequency": 5.9,
                "RSSI": -64.3,
                "LOS": "True"
            }
        },
        {
            "type": "Feature",
            "geometry": {
                "type": "Point",
                "coordinates": [
                    7.77864281,
                    49.44660186
                ]
            },
            "properties": {
                "RSU coordinates": [
                    7.7798872,
                    49.447572
                ],
                "Distance": 140.63,
                "Frequency": 5.9,
                "RSSI": -63.51,
                "LOS": "True"
            }
        },
        {
            "type": "Feature",
            "geometry": {
                "type": "Point",
                "coordinates": [
                    7.77873853,
                    49.44670965
                ]
            },
            "properties": {
                "RSU coordinates": [
                    7.7798872,
                    49.447572
                ],
                "Distance": 127.0,
                "Frequency": 5.9,
                "RSSI": -62.63,
                "LOS": "True"
            }
        },
        {
            "type": "Feature",
            "geometry": {
                "type": "Point",
                "coordinates": [
                    7.77883425,
                    49.44681744
                ]
            },
            "properties": {
                "RSU coordinates": [
                    7.7798872,
                    49.447572
                ],
                "Distance": 113.42,
                "Frequency": 5.9,
                "RSSI": -61.66,
                "LOS": "True"
            }
        },
        {
            "type": "Feature",
            "geometry": {
                "type": "Point",
                "coordinates": [
                    7.77892997,
                    49.44692524
                ]
            },
            "properties": {
                "RSU coordinates": [
                    7.7798872,
                    49.447572
                ],
                "Distance": 99.92,
                "Frequency": 5.9,
                "RSSI": -60.58,
                "LOS": "True"
            }
        },
        {
            "type": "Feature",
            "geometry": {
                "type": "Point",
                "coordinates": [
                    7.77940858,
                    49.44746421
                ]
            },
            "properties": {
                "RSU coordinates": [
                    7.7798872,
                    49.447572
                ],
                "Distance": 36.66,
                "Frequency": 5.9,
                "RSSI": -81.97999999999999,
                "LOS": "False"
            }
        },
        {
            "type": "Feature",
            "geometry": {
                "type": "Point",
                "coordinates": [
                    7.77960003,
                    49.44767979
                ]
            },
            "properties": {
                "RSU coordinates": [
                    7.7798872,
                    49.447572
                ],
                "Distance": 24.0,
                "Frequency": 5.9,
                "RSSI": -63.34,
                "LOS": "False"
            }
        },
        {
            "type": "Feature",
            "geometry": {
                "type": "Point",
                "coordinates": [
                    7.77969575,
                    49.44778759
                ]
            },
            "properties": {
                "RSU coordinates": [
                    7.7798872,
                    49.447572
                ],
                "Distance": 27.71,
                "Frequency": 5.9,
                "RSSI": -79.58,
                "LOS": "False"
            }
        },
        {
            "type": "Feature",
            "geometry": {
                "type": "Point",
                "coordinates": [
                    7.7798872,
                    49.44800317
                ]
            },
            "properties": {
                "RSU coordinates": [
                    7.7798872,
                    49.447572
                ],
                "Distance": 48.0,
                "Frequency": 5.9,
                "RSSI": -99.28999999999999,
                "LOS": "False"
            }
        },
        {
            "type": "Feature",
            "geometry": {
                "type": "Point",
                "coordinates": [
                    7.77998293,
                    49.44811097
                ]
            },
            "properties": {
                "RSU coordinates": [
                    7.7798872,
                    49.447572
                ],
                "Distance": 60.4,
                "Frequency": 5.9,
                "RSSI": -86.25999999999999,
                "LOS": "False"
            }
        },
        {
            "type": "Feature",
            "geometry": {
                "type": "Point",
                "coordinates": [
                    7.78007865,
                    49.44821876
                ]
            },
            "properties": {
                "RSU coordinates": [
                    7.7798872,
                    49.447572
                ],
                "Distance": 73.32,
                "Frequency": 5.9,
                "RSSI": -87.92,
                "LOS": "False"
            }
        },
        {
            "type": "Feature",
            "geometry": {
                "type": "Point",
                "coordinates": [
                    7.78017438,
                    49.44832656
                ]
            },
            "properties": {
                "RSU coordinates": [
                    7.7798872,
                    49.447572
                ],
                "Distance": 86.53,
                "Frequency": 5.9,
                "RSSI": -74.34,
                "LOS": "False"
            }
        },
        {
            "type": "Feature",
            "geometry": {
                "type": "Point",
                "coordinates": [
                    7.77902569,
                    49.44681744
                ]
            },
            "properties": {
                "RSU coordinates": [
                    7.7798872,
                    49.447572
                ],
                "Distance": 104.61,
                "Frequency": 5.9,
                "RSSI": -90.97,
                "LOS": "False"
            }
        },
        {
            "type": "Feature",
            "geometry": {
                "type": "Point",
                "coordinates": [
                    7.77921714,
                    49.44703303
                ]
            },
            "properties": {
                "RSU coordinates": [
                    7.7798872,
                    49.447572
                ],
                "Distance": 77.15,
                "Frequency": 5.9,
                "RSSI": -58.36,
                "LOS": "True"
            }
        },
        {
            "type": "Feature",
            "geometry": {
                "type": "Point",
                "coordinates": [
                    7.77931286,
                    49.44714083
                ]
            },
            "properties": {
                "RSU coordinates": [
                    7.7798872,
                    49.447572
                ],
                "Distance": 63.5,
                "Frequency": 5.9,
                "RSSI": -56.69,
                "LOS": "True"
            }
        },
        {
            "type": "Feature",
            "geometry": {
                "type": "Point",
                "coordinates": [
                    7.77940858,
                    49.44724862
                ]
            },
            "properties": {
                "RSU coordinates": [
                    7.7798872,
                    49.447572
                ],
                "Distance": 49.96,
                "Frequency": 5.9,
                "RSSI": -54.63,
                "LOS": "True"
            }
        },
        {
            "type": "Feature",
            "geometry": {
                "type": "Point",
                "coordinates": [
                    7.7798872,
                    49.44778759
                ]
            },
            "properties": {
                "RSU coordinates": [
                    7.7798872,
                    49.447572
                ],
                "Distance": 24.0,
                "Frequency": 5.9,
                "RSSI": -78.34,
                "LOS": "False"
            }
        },
        {
            "type": "Feature",
            "geometry": {
                "type": "Point",
                "coordinates": [
                    7.77998293,
                    49.44789538
                ]
            },
            "properties": {
                "RSU coordinates": [
                    7.7798872,
                    49.447572
                ],
                "Distance": 36.66,
                "Frequency": 5.9,
                "RSSI": -81.97999999999999,
                "LOS": "False"
            }
        },
        {
            "type": "Feature",
            "geometry": {
                "type": "Point",
                "coordinates": [
                    7.78007865,
                    49.44800317
                ]
            },
            "properties": {
                "RSU coordinates": [
                    7.7798872,
                    49.447572
                ],
                "Distance": 49.96,
                "Frequency": 5.9,
                "RSSI": -84.63,
                "LOS": "False"
            }
        },
        {
            "type": "Feature",
            "geometry": {
                "type": "Point",
                "coordinates": [
                    7.77969575,
                    49.44735641
                ]
            },
            "properties": {
                "RSU coordinates": [
                    7.7798872,
                    49.447572
                ],
                "Distance": 27.71,
                "Frequency": 5.9,
                "RSSI": -49.58,
                "LOS": "True"
            }
        },
        {
            "type": "Feature",
            "geometry": {
                "type": "Point",
                "coordinates": [
                    7.77979148,
                    49.44746421
                ]
            },
            "properties": {
                "RSU coordinates": [
                    7.7798872,
                    49.447572
                ],
                "Distance": 13.86,
                "Frequency": 5.9,
                "RSSI": -43.63,
                "LOS": "True"
            }
        },
        {
            "type": "Feature",
            "geometry": {
                "type": "Point",
                "coordinates": [
                    7.77998292,
                    49.44767979
                ]
            },
            "properties": {
                "RSU coordinates": [
                    7.7798872,
                    49.447572
                ],
                "Distance": 13.86,
                "Frequency": 5.9,
                "RSSI": -43.63,
                "LOS": "True"
            }
        },
        {
            "type": "Feature",
            "geometry": {
                "type": "Point",
                "coordinates": [
                    7.77969575,
                    49.44714083
                ]
            },
            "properties": {
                "RSU coordinates": [
                    7.7798872,
                    49.447572
                ],
                "Distance": 49.96,
                "Frequency": 5.9,
                "RSSI": -99.63,
                "LOS": "False"
            }
        },
        {
            "type": "Feature",
            "geometry": {
                "type": "Point",
                "coordinates": [
                    7.77979148,
                    49.44724862
                ]
            },
            "properties": {
                "RSU coordinates": [
                    7.7798872,
                    49.447572
                ],
                "Distance": 36.66,
                "Frequency": 5.9,
                "RSSI": -96.97999999999999,
                "LOS": "False"
            }
        },
        {
            "type": "Feature",
            "geometry": {
                "type": "Point",
                "coordinates": [
                    7.78007865,
                    49.447572
                ]
            },
            "properties": {
                "RSU coordinates": [
                    7.7798872,
                    49.447572
                ],
                "Distance": 13.86,
                "Frequency": 5.9,
                "RSSI": -43.63,
                "LOS": "True"
            }
        },
        {
            "type": "Feature",
            "geometry": {
                "type": "Point",
                "coordinates": [
                    7.78017437,
                    49.44767979
                ]
            },
            "properties": {
                "RSU coordinates": [
                    7.7798872,
                    49.447572
                ],
                "Distance": 24.0,
                "Frequency": 5.9,
                "RSSI": -48.34,
                "LOS": "True"
            }
        },
        {
            "type": "Feature",
            "geometry": {
                "type": "Point",
                "coordinates": [
                    7.7802701,
                    49.44778759
                ]
            },
            "properties": {
                "RSU coordinates": [
                    7.7798872,
                    49.447572
                ],
                "Distance": 36.66,
                "Frequency": 5.9,
                "RSSI": -51.98,
                "LOS": "True"
            }
        },
        {
            "type": "Feature",
            "geometry": {
                "type": "Point",
                "coordinates": [
                    7.78036583,
                    49.44789538
                ]
            },
            "properties": {
                "RSU coordinates": [
                    7.7798872,
                    49.447572
                ],
                "Distance": 49.96,
                "Frequency": 5.9,
                "RSSI": -54.63,
                "LOS": "True"
            }
        },
        {
            "type": "Feature",
            "geometry": {
                "type": "Point",
                "coordinates": [
                    7.78046155,
                    49.44800317
                ]
            },
            "properties": {
                "RSU coordinates": [
                    7.7798872,
                    49.447572
                ],
                "Distance": 63.5,
                "Frequency": 5.9,
                "RSSI": -56.69,
                "LOS": "True"
            }
        },
        {
            "type": "Feature",
            "geometry": {
                "type": "Point",
                "coordinates": [
                    7.7798872,
                    49.44714083
                ]
            },
            "properties": {
                "RSU coordinates": [
                    7.7798872,
                    49.447572
                ],
                "Distance": 48.0,
                "Frequency": 5.9,
                "RSSI": -99.28999999999999,
                "LOS": "False"
            }
        },
        {
            "type": "Feature",
            "geometry": {
                "type": "Point",
                "coordinates": [
                    7.77998292,
                    49.44724862
                ]
            },
            "properties": {
                "RSU coordinates": [
                    7.7798872,
                    49.447572
                ],
                "Distance": 36.66,
                "Frequency": 5.9,
                "RSSI": -81.97999999999999,
                "LOS": "False"
            }
        },
        {
            "type": "Feature",
            "geometry": {
                "type": "Point",
                "coordinates": [
                    7.780653,
                    49.44800317
                ]
            },
            "properties": {
                "RSU coordinates": [
                    7.7798872,
                    49.447572
                ],
                "Distance": 73.32,
                "Frequency": 5.9,
                "RSSI": -57.92,
                "LOS": "True"
            }
        },
        {
            "type": "Feature",
            "geometry": {
                "type": "Point",
                "coordinates": [
                    7.78074873,
                    49.44811097
                ]
            },
            "properties": {
                "RSU coordinates": [
                    7.7798872,
                    49.447572
                ],
                "Distance": 86.53,
                "Frequency": 5.9,
                "RSSI": -59.34,
                "LOS": "True"
            }
        },
        {
            "type": "Feature",
            "geometry": {
                "type": "Point",
                "coordinates": [
                    7.78084446,
                    49.44821876
                ]
            },
            "properties": {
                "RSU coordinates": [
                    7.7798872,
                    49.447572
                ],
                "Distance": 99.92,
                "Frequency": 5.9,
                "RSSI": -60.58,
                "LOS": "True"
            }
        },
        {
            "type": "Feature",
            "geometry": {
                "type": "Point",
                "coordinates": [
                    7.78094019,
                    49.44832656
                ]
            },
            "properties": {
                "RSU coordinates": [
                    7.7798872,
                    49.447572
                ],
                "Distance": 113.42,
                "Frequency": 5.9,
                "RSSI": -61.66,
                "LOS": "True"
            }
        },
        {
            "type": "Feature",
            "geometry": {
                "type": "Point",
                "coordinates": [
                    7.78007865,
                    49.44714083
                ]
            },
            "properties": {
                "RSU coordinates": [
                    7.7798872,
                    49.447572
                ],
                "Distance": 49.96,
                "Frequency": 5.9,
                "RSSI": -69.63,
                "LOS": "False"
            }
        },
        {
            "type": "Feature",
            "geometry": {
                "type": "Point",
                "coordinates": [
                    7.78036582,
                    49.44746421
                ]
            },
            "properties": {
                "RSU coordinates": [
                    7.7798872,
                    49.447572
                ],
                "Distance": 36.66,
                "Frequency": 5.9,
                "RSSI": -51.98,
                "LOS": "True"
            }
        },
        {
            "type": "Feature",
            "geometry": {
                "type": "Point",
                "coordinates": [
                    7.78046155,
                    49.447572
                ]
            },
            "properties": {
                "RSU coordinates": [
                    7.7798872,
                    49.447572
                ],
                "Distance": 41.57,
                "Frequency": 5.9,
                "RSSI": -83.06,
                "LOS": "False"
            }
        },
        {
            "type": "Feature",
            "geometry": {
                "type": "Point",
                "coordinates": [
                    7.78055727,
                    49.44767979
                ]
            },
            "properties": {
                "RSU coordinates": [
                    7.7798872,
                    49.447572
                ],
                "Distance": 49.96,
                "Frequency": 5.9,
                "RSSI": -69.63,
                "LOS": "False"
            }
        },
        {
            "type": "Feature",
            "geometry": {
                "type": "Point",
                "coordinates": [
                    7.78122737,
                    49.44843435
                ]
            },
            "properties": {
                "RSU coordinates": [
                    7.7798872,
                    49.447572
                ],
                "Distance": 136.47,
                "Frequency": 5.9,
                "RSSI": -63.25,
                "LOS": "True"
            }
        },
        {
            "type": "Feature",
            "geometry": {
                "type": "Point",
                "coordinates": [
                    7.7813231,
                    49.44854214
                ]
            },
            "properties": {
                "RSU coordinates": [
                    7.7798872,
                    49.447572
                ],
                "Distance": 149.88,
                "Frequency": 5.9,
                "RSSI": -64.05,
                "LOS": "True"
            }
        },
        {
            "type": "Feature",
            "geometry": {
                "type": "Point",
                "coordinates": [
                    7.78141883,
                    49.44864994
                ]
            },
            "properties": {
                "RSU coordinates": [
                    7.7798872,
                    49.447572
                ],
                "Distance": 163.36,
                "Frequency": 5.9,
                "RSSI": -64.79,
                "LOS": "True"
            }
        },
        {
            "type": "Feature",
            "geometry": {
                "type": "Point",
                "coordinates": [
                    7.78017437,
                    49.44703303
                ]
            },
            "properties": {
                "RSU coordinates": [
                    7.7798872,
                    49.447572
                ],
                "Distance": 63.5,
                "Frequency": 5.9,
                "RSSI": -86.69,
                "LOS": "False"
            }
        },
        {
            "type": "Feature",
            "geometry": {
                "type": "Point",
                "coordinates": [
                    7.78046154,
                    49.44735641
                ]
            },
            "properties": {
                "RSU coordinates": [
                    7.7798872,
                    49.447572
                ],
                "Distance": 48.0,
                "Frequency": 5.9,
                "RSSI": -84.28999999999999,
                "LOS": "False"
            }
        },
        {
            "type": "Feature",
            "geometry": {
                "type": "Point",
                "coordinates": [
                    7.78170601,
                    49.44875773
                ]
            },
            "properties": {
                "RSU coordinates": [
                    7.7798872,
                    49.447572
                ],
                "Distance": 186.42,
                "Frequency": 5.9,
                "RSSI": -65.93,
                "LOS": "True"
            }
        },
        {
            "type": "Feature",
            "geometry": {
                "type": "Point",
                "coordinates": [
                    7.78180174,
                    49.44886552
                ]
            },
            "properties": {
                "RSU coordinates": [
                    7.7798872,
                    49.447572
                ],
                "Distance": 199.84,
                "Frequency": 5.9,
                "RSSI": -66.52,
                "LOS": "True"
            }
        },
        {
            "type": "Feature",
            "geometry": {
                "type": "Point",
                "coordinates": [
                    7.78189747,
                    49.44897332
                ]
            },
            "properties": {
                "RSU coordinates": [
                    7.7798872,
                    49.447572
                ],
                "Distance": 213.32,
                "Frequency": 5.9,
                "RSSI": -67.08,
                "LOS": "True"
            }
        },
        {
            "type": "Feature",
            "geometry": {
                "type": "Point",
                "coordinates": [
                    7.7819932,
                    49.44908111
                ]
            },
            "properties": {
                "RSU coordinates": [
                    7.7798872,
                    49.447572
                ],
                "Distance": 226.84,
                "Frequency": 5.9,
                "RSSI": -82.61,
                "LOS": "False"
            }
        },
        {
            "type": "Feature",
            "geometry": {
                "type": "Point",
                "coordinates": [
                    7.78218466,
                    49.44908111
                ]
            },
            "properties": {
                "RSU coordinates": [
                    7.7798872,
                    49.447572
                ],
                "Distance": 236.37,
                "Frequency": 5.9,
                "RSSI": -82.96,
                "LOS": "False"
            }
        },
        {
            "type": "Feature",
            "geometry": {
                "type": "Point",
                "coordinates": [
                    7.78228039,
                    49.4491889
                ]
            },
            "properties": {
                "RSU coordinates": [
                    7.7798872,
                    49.447572
                ],
                "Distance": 249.8,
                "Frequency": 5.9,
                "RSSI": -83.44,
                "LOS": "False"
            }
        },
        {
            "type": "Feature",
            "geometry": {
                "type": "Point",
                "coordinates": [
                    7.78237612,
                    49.4492967
                ]
            },
            "properties": {
                "RSU coordinates": [
                    7.7798872,
                    49.447572
                ],
                "Distance": 263.27,
                "Frequency": 5.9,
                "RSSI": -83.89,
                "LOS": "False"
            }
        },
        {
            "type": "Feature",
            "geometry": {
                "type": "Point",
                "coordinates": [
                    7.78247186,
                    49.44940449
                ]
            },
            "properties": {
                "RSU coordinates": [
                    7.7798872,
                    49.447572
                ],
                "Distance": 276.78,
                "Frequency": 5.9,
                "RSSI": -84.31,
                "LOS": "False"
            }
        },
        {
            "type": "Feature",
            "geometry": {
                "type": "Point",
                "coordinates": [
                    7.78074871,
                    49.44724862
                ]
            },
            "properties": {
                "RSU coordinates": [
                    7.7798872,
                    49.447572
                ],
                "Distance": 72.0,
                "Frequency": 5.9,
                "RSSI": -87.77000000000001,
                "LOS": "False"
            }
        }
    ]
}