{
    "type": "FeatureCollection",
    "features": [
        {
            "type": "Feature",
            "geometry": {
                "type": "Point",
                "coordinates": [
                    8.59063911,
                    49.12392927
                ]
            },
            "properties": {
                "RSU coordinates": [
                    8.596345,
                    49.1217734
                ],
                "Distance": 480.0,
                "Frequency": 5.9,
                "RSSI": -89.04,
                "LOS": "False"
            }
        },
        {
            "type": "Feature",
            "geometry": {
                "type": "Point",
                "coordinates": [
                    8.59092441,
                    49.12382148
                ]
            },
            "properties": {
                "RSU coordinates": [
                    8.596345,
                    49.1217734
                ],
                "Distance": 456.0,
                "Frequency": 5.9,
                "RSSI": -88.6,
                "LOS": "False"
            }
        },
        {
            "type": "Feature",
            "geometry": {
                "type": "Point",
                "coordinates": [
                    8.59120972,
                    49.12371368
                ]
            },
            "properties": {
                "RSU coordinates": [
                    8.596345,
                    49.1217734
                ],
                "Distance": 432.0,
                "Frequency": 5.9,
                "RSSI": -88.13,
                "LOS": "False"
            }
        },
        {
            "type": "Feature",
            "geometry": {
                "type": "Point",
                "coordinates": [
                    8.59149502,
                    49.12360589
                ]
            },
            "properties": {
                "RSU coordinates": [
                    8.596345,
                    49.1217734
                ],
                "Distance": 408.0,
                "Frequency": 5.9,
                "RSSI": -87.64,
                "LOS": "False"
            }
        },
        {
            "type": "Feature",
            "geometry": {
                "type": "Point",
                "coordinates": [
                    8.59178033,
                    49.1234981
                ]
            },
            "properties": {
                "RSU coordinates": [
                    8.596345,
                    49.1217734
                ],
                "Distance": 384.0,
                "Frequency": 5.9,
                "RSSI": -87.12,
                "LOS": "False"
            }
        },
        {
            "type": "Feature",
            "geometry": {
                "type": "Point",
                "coordinates": [
                    8.59206563,
                    49.1233903
                ]
            },
            "properties": {
                "RSU coordinates": [
                    8.596345,
                    49.1217734
                ],
                "Distance": 360.0,
                "Frequency": 5.9,
                "RSSI": -86.57,
                "LOS": "False"
            }
        },
        {
            "type": "Feature",
            "geometry": {
                "type": "Point",
                "coordinates": [
                    8.59235093,
                    49.12328251
                ]
            },
            "properties": {
                "RSU coordinates": [
                    8.596345,
                    49.1217734
                ],
                "Distance": 336.0,
                "Frequency": 5.9,
                "RSSI": -85.98,
                "LOS": "False"
            }
        },
        {
            "type": "Feature",
            "geometry": {
                "type": "Point",
                "coordinates": [
                    8.59263623,
                    49.12317472
                ]
            },
            "properties": {
                "RSU coordinates": [
                    8.596345,
                    49.1217734
                ],
                "Distance": 312.0,
                "Frequency": 5.9,
                "RSSI": -85.34,
                "LOS": "False"
            }
        },
        {
            "type": "Feature",
            "geometry": {
                "type": "Point",
                "coordinates": [
                    8.59292152,
                    49.12306692
                ]
            },
            "properties": {
                "RSU coordinates": [
                    8.596345,
                    49.1217734
                ],
                "Distance": 288.0,
                "Frequency": 5.9,
                "RSSI": -84.66,
                "LOS": "False"
            }
        },
        {
            "type": "Feature",
            "geometry": {
                "type": "Point",
                "coordinates": [
                    8.59320681,
                    49.12317472
                ]
            },
            "properties": {
                "RSU coordinates": [
                    8.596345,
                    49.1217734
                ],
                "Distance": 276.78,
                "Frequency": 5.9,
                "RSSI": -99.31,
                "LOS": "False"
            }
        },
        {
            "type": "Feature",
            "geometry": {
                "type": "Point",
                "coordinates": [
                    8.59311173,
                    49.12285134
                ]
            },
            "properties": {
                "RSU coordinates": [
                    8.596345,
                    49.1217734
                ],
                "Distance": 264.36,
                "Frequency": 5.9,
                "RSSI": -98.92,
                "LOS": "False"
            }
        },
        {
            "type": "Feature",
            "geometry": {
                "type": "Point",
                "coordinates": [
                    8.59320682,
                    49.12295913
                ]
            },
            "properties": {
                "RSU coordinates": [
                    8.596345,
                    49.1217734
                ],
                "Distance": 264.0,
                "Frequency": 5.9,
                "RSSI": -83.91,
                "LOS": "False"
            }
        },
        {
            "type": "Feature",
            "geometry": {
                "type": "Point",
                "coordinates": [
                    8.59330192,
                    49.12285134
                ]
            },
            "properties": {
                "RSU coordinates": [
                    8.596345,
                    49.1217734
                ],
                "Distance": 252.1,
                "Frequency": 5.9,
                "RSSI": -83.51,
                "LOS": "False"
            }
        },
        {
            "type": "Feature",
            "geometry": {
                "type": "Point",
                "coordinates": [
                    8.5934921,
                    49.12306692
                ]
            },
            "properties": {
                "RSU coordinates": [
                    8.596345,
                    49.1217734
                ],
                "Distance": 252.86,
                "Frequency": 5.9,
                "RSSI": -98.54,
                "LOS": "False"
            }
        },
        {
            "type": "Feature",
            "geometry": {
                "type": "Point",
                "coordinates": [
                    8.59339703,
                    49.12274354
                ]
            },
            "properties": {
                "RSU coordinates": [
                    8.596345,
                    49.1217734
                ],
                "Distance": 240.4,
                "Frequency": 5.9,
                "RSSI": -98.11,
                "LOS": "False"
            }
        },
        {
            "type": "Feature",
            "geometry": {
                "type": "Point",
                "coordinates": [
                    8.59349212,
                    49.12285134
                ]
            },
            "properties": {
                "RSU coordinates": [
                    8.596345,
                    49.1217734
                ],
                "Distance": 240.0,
                "Frequency": 5.9,
                "RSSI": -83.09,
                "LOS": "False"
            }
        },
        {
            "type": "Feature",
            "geometry": {
                "type": "Point",
                "coordinates": [
                    8.59358722,
                    49.12274354
                ]
            },
            "properties": {
                "RSU coordinates": [
                    8.596345,
                    49.1217734
                ],
                "Distance": 228.11,
                "Frequency": 5.9,
                "RSSI": -97.66,
                "LOS": "False"
            }
        },
        {
            "type": "Feature",
            "geometry": {
                "type": "Point",
                "coordinates": [
                    8.59368232,
                    49.12263575
                ]
            },
            "properties": {
                "RSU coordinates": [
                    8.596345,
                    49.1217734
                ],
                "Distance": 216.44,
                "Frequency": 5.9,
                "RSSI": -97.21,
                "LOS": "False"
            }
        },
        {
            "type": "Feature",
            "geometry": {
                "type": "Point",
                "coordinates": [
                    8.59377741,
                    49.12274354
                ]
            },
            "properties": {
                "RSU coordinates": [
                    8.596345,
                    49.1217734
                ],
                "Distance": 216.0,
                "Frequency": 5.9,
                "RSSI": -82.19,
                "LOS": "False"
            }
        },
        {
            "type": "Feature",
            "geometry": {
                "type": "Point",
                "coordinates": [
                    8.5938725,
                    49.12285134
                ]
            },
            "properties": {
                "RSU coordinates": [
                    8.596345,
                    49.1217734
                ],
                "Distance": 216.44,
                "Frequency": 5.9,
                "RSSI": -97.21,
                "LOS": "False"
            }
        },
        {
            "type": "Feature",
            "geometry": {
                "type": "Point",
                "coordinates": [
                    8.59387251,
                    49.12263575
                ]
            },
            "properties": {
                "RSU coordinates": [
                    8.596345,
                    49.1217734
                ],
                "Distance": 204.12,
                "Frequency": 5.9,
                "RSSI": -96.7,
                "LOS": "False"
            }
        },
        {
            "type": "Feature",
            "geometry": {
                "type": "Point",
                "coordinates": [
                    8.59396761,
                    49.12252796
                ]
            },
            "properties": {
                "RSU coordinates": [
                    8.596345,
                    49.1217734
                ],
                "Distance": 192.5,
                "Frequency": 5.9,
                "RSSI": -96.2,
                "LOS": "False"
            }
        },
        {
            "type": "Feature",
            "geometry": {
                "type": "Point",
                "coordinates": [
                    8.5940627,
                    49.12263575
                ]
            },
            "properties": {
                "RSU coordinates": [
                    8.596345,
                    49.1217734
                ],
                "Distance": 192.0,
                "Frequency": 5.9,
                "RSSI": -81.18,
                "LOS": "False"
            }
        },
        {
            "type": "Feature",
            "geometry": {
                "type": "Point",
                "coordinates": [
                    8.59415779,
                    49.12274354
                ]
            },
            "properties": {
                "RSU coordinates": [
                    8.596345,
                    49.1217734
                ],
                "Distance": 192.5,
                "Frequency": 5.9,
                "RSSI": -96.2,
                "LOS": "False"
            }
        },
        {
            "type": "Feature",
            "geometry": {
                "type": "Point",
                "coordinates": [
                    8.5941578,
                    49.12252796
                ]
            },
            "properties": {
                "RSU coordinates": [
                    8.596345,
                    49.1217734
                ],
                "Distance": 180.13,
                "Frequency": 5.9,
                "RSSI": -95.63,
                "LOS": "False"
            }
        },
        {
            "type": "Feature",
            "geometry": {
                "type": "Point",
                "coordinates": [
                    8.59425289,
                    49.12263575
                ]
            },
            "properties": {
                "RSU coordinates": [
                    8.596345,
                    49.1217734
                ],
                "Distance": 180.13,
                "Frequency": 5.9,
                "RSSI": -95.63,
                "LOS": "False"
            }
        },
        {
            "type": "Feature",
            "geometry": {
                "type": "Point",
                "coordinates": [
                    8.59434799,
                    49.12252796
                ]
            },
            "properties": {
                "RSU coordinates": [
                    8.596345,
                    49.1217734
                ],
                "Distance": 168.0,
                "Frequency": 5.9,
                "RSSI": -80.03,
                "LOS": "False"
            }
        },
        {
            "type": "Feature",
            "geometry": {
                "type": "Point",
                "coordinates": [
                    8.59444309,
                    49.12263575
                ]
            },
            "properties": {
                "RSU coordinates": [
                    8.596345,
                    49.1217734
                ],
                "Distance": 168.57,
                "Frequency": 5.9,
                "RSSI": -95.06,
                "LOS": "False"
            }
        },
        {
            "type": "Feature",
            "geometry": {
                "type": "Point",
                "coordinates": [
                    8.59444309,
                    49.12242016
                ]
            },
            "properties": {
                "RSU coordinates": [
                    8.596345,
                    49.1217734
                ],
                "Distance": 156.15,
                "Frequency": 5.9,
                "RSSI": -94.41,
                "LOS": "False"
            }
        },
        {
            "type": "Feature",
            "geometry": {
                "type": "Point",
                "coordinates": [
                    8.59453818,
                    49.12252796
                ]
            },
            "properties": {
                "RSU coordinates": [
                    8.596345,
                    49.1217734
                ],
                "Distance": 156.15,
                "Frequency": 5.9,
                "RSSI": -94.41,
                "LOS": "False"
            }
        },
        {
            "type": "Feature",
            "geometry": {
                "type": "Point",
                "coordinates": [
                    8.59339713,
                    49.12101884
                ]
            },
            "properties": {
                "RSU coordinates": [
                    8.596345,
                    49.1217734
                ],
                "Distance": 230.62,
                "Frequency": 5.9,
                "RSSI": -97.75,
                "LOS": "False"
            }
        },
        {
            "type": "Feature",
            "geometry": {
                "type": "Point",
                "coordinates": [
                    8.59463328,
                    49.12242016
                ]
            },
            "properties": {
                "RSU coordinates": [
                    8.596345,
                    49.1217734
                ],
                "Distance": 144.0,
                "Frequency": 5.9,
                "RSSI": -78.71000000000001,
                "LOS": "False"
            }
        },
        {
            "type": "Feature",
            "geometry": {
                "type": "Point",
                "coordinates": [
                    8.59472838,
                    49.12252796
                ]
            },
            "properties": {
                "RSU coordinates": [
                    8.596345,
                    49.1217734
                ],
                "Distance": 144.67,
                "Frequency": 5.9,
                "RSSI": -93.75,
                "LOS": "False"
            }
        },
        {
            "type": "Feature",
            "geometry": {
                "type": "Point",
                "coordinates": [
                    8.59510875,
                    49.12295913
                ]
            },
            "properties": {
                "RSU coordinates": [
                    8.596345,
                    49.1217734
                ],
                "Distance": 159.8,
                "Frequency": 5.9,
                "RSSI": -94.6,
                "LOS": "False"
            }
        },
        {
            "type": "Feature",
            "geometry": {
                "type": "Point",
                "coordinates": [
                    8.5936824,
                    49.12112664
                ]
            },
            "properties": {
                "RSU coordinates": [
                    8.596345,
                    49.1217734
                ],
                "Distance": 206.92,
                "Frequency": 5.9,
                "RSSI": -96.82,
                "LOS": "False"
            }
        },
        {
            "type": "Feature",
            "geometry": {
                "type": "Point",
                "coordinates": [
                    8.59387258,
                    49.12134223
                ]
            },
            "properties": {
                "RSU coordinates": [
                    8.596345,
                    49.1217734
                ],
                "Distance": 186.42,
                "Frequency": 5.9,
                "RSSI": -95.93,
                "LOS": "False"
            }
        },
        {
            "type": "Feature",
            "geometry": {
                "type": "Point",
                "coordinates": [
                    8.59472838,
                    49.12231237
                ]
            },
            "properties": {
                "RSU coordinates": [
                    8.596345,
                    49.1217734
                ],
                "Distance": 132.18,
                "Frequency": 5.9,
                "RSSI": -92.97999999999999,
                "LOS": "False"
            }
        },
        {
            "type": "Feature",
            "geometry": {
                "type": "Point",
                "coordinates": [
                    8.59482347,
                    49.12242016
                ]
            },
            "properties": {
                "RSU coordinates": [
                    8.596345,
                    49.1217734
                ],
                "Distance": 132.18,
                "Frequency": 5.9,
                "RSSI": -92.97999999999999,
                "LOS": "False"
            }
        },
        {
            "type": "Feature",
            "geometry": {
                "type": "Point",
                "coordinates": [
                    8.59520385,
                    49.12285134
                ]
            },
            "properties": {
                "RSU coordinates": [
                    8.596345,
                    49.1217734
                ],
                "Distance": 145.99,
                "Frequency": 5.9,
                "RSSI": -93.83,
                "LOS": "False"
            }
        },
        {
            "type": "Feature",
            "geometry": {
                "type": "Point",
                "coordinates": [
                    8.5937775,
                    49.12101884
                ]
            },
            "properties": {
                "RSU coordinates": [
                    8.596345,
                    49.1217734
                ],
                "Distance": 205.06,
                "Frequency": 5.9,
                "RSSI": -96.74,
                "LOS": "False"
            }
        },
        {
            "type": "Feature",
            "geometry": {
                "type": "Point",
                "coordinates": [
                    8.59387259,
                    49.12112664
                ]
            },
            "properties": {
                "RSU coordinates": [
                    8.596345,
                    49.1217734
                ],
                "Distance": 193.99,
                "Frequency": 5.9,
                "RSSI": -96.27,
                "LOS": "False"
            }
        },
        {
            "type": "Feature",
            "geometry": {
                "type": "Point",
                "coordinates": [
                    8.59491857,
                    49.12231237
                ]
            },
            "properties": {
                "RSU coordinates": [
                    8.596345,
                    49.1217734
                ],
                "Distance": 120.0,
                "Frequency": 5.9,
                "RSSI": -77.15,
                "LOS": "False"
            }
        },
        {
            "type": "Feature",
            "geometry": {
                "type": "Point",
                "coordinates": [
                    8.59529894,
                    49.12274354
                ]
            },
            "properties": {
                "RSU coordinates": [
                    8.596345,
                    49.1217734
                ],
                "Distance": 132.18,
                "Frequency": 5.9,
                "RSSI": -92.97999999999999,
                "LOS": "False"
            }
        },
        {
            "type": "Feature",
            "geometry": {
                "type": "Point",
                "coordinates": [
                    8.59406277,
                    49.12112664
                ]
            },
            "properties": {
                "RSU coordinates": [
                    8.596345,
                    49.1217734
                ],
                "Distance": 181.2,
                "Frequency": 5.9,
                "RSSI": -95.68,
                "LOS": "False"
            }
        },
        {
            "type": "Feature",
            "geometry": {
                "type": "Point",
                "coordinates": [
                    8.59415786,
                    49.12123443
                ]
            },
            "properties": {
                "RSU coordinates": [
                    8.596345,
                    49.1217734
                ],
                "Distance": 170.27,
                "Frequency": 5.9,
                "RSSI": -80.15,
                "LOS": "False"
            }
        },
        {
            "type": "Feature",
            "geometry": {
                "type": "Point",
                "coordinates": [
                    8.59425295,
                    49.12134223
                ]
            },
            "properties": {
                "RSU coordinates": [
                    8.596345,
                    49.1217734
                ],
                "Distance": 159.8,
                "Frequency": 5.9,
                "RSSI": -94.6,
                "LOS": "False"
            }
        },
        {
            "type": "Feature",
            "geometry": {
                "type": "Point",
                "coordinates": [
                    8.59501367,
                    49.12220457
                ]
            },
            "properties": {
                "RSU coordinates": [
                    8.596345,
                    49.1217734
                ],
                "Distance": 108.22,
                "Frequency": 5.9,
                "RSSI": -91.25999999999999,
                "LOS": "False"
            }
        },
        {
            "type": "Feature",
            "geometry": {
                "type": "Point",
                "coordinates": [
                    8.59510876,
                    49.12231237
                ]
            },
            "properties": {
                "RSU coordinates": [
                    8.596345,
                    49.1217734
                ],
                "Distance": 108.22,
                "Frequency": 5.9,
                "RSSI": -76.25999999999999,
                "LOS": "False"
            }
        },
        {
            "type": "Feature",
            "geometry": {
                "type": "Point",
                "coordinates": [
                    8.59520386,
                    49.12242016
                ]
            },
            "properties": {
                "RSU coordinates": [
                    8.596345,
                    49.1217734
                ],
                "Distance": 109.98,
                "Frequency": 5.9,
                "RSSI": -91.4,
                "LOS": "False"
            }
        },
        {
            "type": "Feature",
            "geometry": {
                "type": "Point",
                "coordinates": [
                    8.59434805,
                    49.12123443
                ]
            },
            "properties": {
                "RSU coordinates": [
                    8.596345,
                    49.1217734
                ],
                "Distance": 157.38,
                "Frequency": 5.9,
                "RSSI": -79.47,
                "LOS": "False"
            }
        },
        {
            "type": "Feature",
            "geometry": {
                "type": "Point",
                "coordinates": [
                    8.59444313,
                    49.12134223
                ]
            },
            "properties": {
                "RSU coordinates": [
                    8.596345,
                    49.1217734
                ],
                "Distance": 146.64,
                "Frequency": 5.9,
                "RSSI": -93.87,
                "LOS": "False"
            }
        },
        {
            "type": "Feature",
            "geometry": {
                "type": "Point",
                "coordinates": [
                    8.59453822,
                    49.12145002
                ]
            },
            "properties": {
                "RSU coordinates": [
                    8.596345,
                    49.1217734
                ],
                "Distance": 136.47,
                "Frequency": 5.9,
                "RSSI": -93.25,
                "LOS": "False"
            }
        },
        {
            "type": "Feature",
            "geometry": {
                "type": "Point",
                "coordinates": [
                    8.59520386,
                    49.12220457
                ]
            },
            "properties": {
                "RSU coordinates": [
                    8.596345,
                    49.1217734
                ],
                "Distance": 96.0,
                "Frequency": 5.9,
                "RSSI": -75.22999999999999,
                "LOS": "False"
            }
        },
        {
            "type": "Feature",
            "geometry": {
                "type": "Point",
                "coordinates": [
                    8.59529895,
                    49.12231237
                ]
            },
            "properties": {
                "RSU coordinates": [
                    8.596345,
                    49.1217734
                ],
                "Distance": 96.99,
                "Frequency": 5.9,
                "RSSI": -90.32,
                "LOS": "False"
            }
        },
        {
            "type": "Feature",
            "geometry": {
                "type": "Point",
                "coordinates": [
                    8.59539405,
                    49.12242016
                ]
            },
            "properties": {
                "RSU coordinates": [
                    8.596345,
                    49.1217734
                ],
                "Distance": 99.92,
                "Frequency": 5.9,
                "RSSI": -90.58,
                "LOS": "False"
            }
        },
        {
            "type": "Feature",
            "geometry": {
                "type": "Point",
                "coordinates": [
                    8.59577442,
                    49.12285134
                ]
            },
            "properties": {
                "RSU coordinates": [
                    8.596345,
                    49.1217734
                ],
                "Distance": 127.0,
                "Frequency": 5.9,
                "RSSI": -92.63,
                "LOS": "False"
            }
        },
        {
            "type": "Feature",
            "geometry": {
                "type": "Point",
                "coordinates": [
                    8.59586952,
                    49.12295913
                ]
            },
            "properties": {
                "RSU coordinates": [
                    8.596345,
                    49.1217734
                ],
                "Distance": 136.47,
                "Frequency": 5.9,
                "RSSI": -93.25,
                "LOS": "False"
            }
        },
        {
            "type": "Feature",
            "geometry": {
                "type": "Point",
                "coordinates": [
                    8.59453823,
                    49.12123443
                ]
            },
            "properties": {
                "RSU coordinates": [
                    8.596345,
                    49.1217734
                ],
                "Distance": 144.67,
                "Frequency": 5.9,
                "RSSI": -78.75,
                "LOS": "False"
            }
        },
        {
            "type": "Feature",
            "geometry": {
                "type": "Point",
                "coordinates": [
                    8.59463332,
                    49.12134223
                ]
            },
            "properties": {
                "RSU coordinates": [
                    8.596345,
                    49.1217734
                ],
                "Distance": 133.63,
                "Frequency": 5.9,
                "RSSI": -78.07,
                "LOS": "False"
            }
        },
        {
            "type": "Feature",
            "geometry": {
                "type": "Point",
                "coordinates": [
                    8.59472841,
                    49.12145002
                ]
            },
            "properties": {
                "RSU coordinates": [
                    8.596345,
                    49.1217734
                ],
                "Distance": 123.16,
                "Frequency": 5.9,
                "RSSI": -92.37,
                "LOS": "False"
            }
        },
        {
            "type": "Feature",
            "geometry": {
                "type": "Point",
                "coordinates": [
                    8.59529896,
                    49.12209678
                ]
            },
            "properties": {
                "RSU coordinates": [
                    8.596345,
                    49.1217734
                ],
                "Distance": 84.29,
                "Frequency": 5.9,
                "RSSI": -89.12,
                "LOS": "False"
            }
        },
        {
            "type": "Feature",
            "geometry": {
                "type": "Point",
                "coordinates": [
                    8.59539405,
                    49.12220457
                ]
            },
            "properties": {
                "RSU coordinates": [
                    8.596345,
                    49.1217734
                ],
                "Distance": 84.29,
                "Frequency": 5.9,
                "RSSI": -74.12,
                "LOS": "False"
            }
        },
        {
            "type": "Feature",
            "geometry": {
                "type": "Point",
                "coordinates": [
                    8.59548914,
                    49.12231237
                ]
            },
            "properties": {
                "RSU coordinates": [
                    8.596345,
                    49.1217734
                ],
                "Distance": 86.53,
                "Frequency": 5.9,
                "RSSI": -89.34,
                "LOS": "False"
            }
        },
        {
            "type": "Feature",
            "geometry": {
                "type": "Point",
                "coordinates": [
                    8.59558424,
                    49.12242016
                ]
            },
            "properties": {
                "RSU coordinates": [
                    8.596345,
                    49.1217734
                ],
                "Distance": 90.86,
                "Frequency": 5.9,
                "RSSI": -89.75999999999999,
                "LOS": "False"
            }
        },
        {
            "type": "Feature",
            "geometry": {
                "type": "Point",
                "coordinates": [
                    8.59596462,
                    49.12285134
                ]
            },
            "properties": {
                "RSU coordinates": [
                    8.596345,
                    49.1217734
                ],
                "Distance": 123.16,
                "Frequency": 5.9,
                "RSSI": -92.37,
                "LOS": "False"
            }
        },
        {
            "type": "Feature",
            "geometry": {
                "type": "Point",
                "coordinates": [
                    8.59482351,
                    49.12134223
                ]
            },
            "properties": {
                "RSU coordinates": [
                    8.596345,
                    49.1217734
                ],
                "Distance": 120.8,
                "Frequency": 5.9,
                "RSSI": -77.2,
                "LOS": "False"
            }
        },
        {
            "type": "Feature",
            "geometry": {
                "type": "Point",
                "coordinates": [
                    8.5949186,
                    49.12145002
                ]
            },
            "properties": {
                "RSU coordinates": [
                    8.596345,
                    49.1217734
                ],
                "Distance": 109.98,
                "Frequency": 5.9,
                "RSSI": -76.4,
                "LOS": "False"
            }
        },
        {
            "type": "Feature",
            "geometry": {
                "type": "Point",
                "coordinates": [
                    8.59548915,
                    49.12209678
                ]
            },
            "properties": {
                "RSU coordinates": [
                    8.596345,
                    49.1217734
                ],
                "Distance": 72.0,
                "Frequency": 5.9,
                "RSSI": -72.77000000000001,
                "LOS": "False"
            }
        },
        {
            "type": "Feature",
            "geometry": {
                "type": "Point",
                "coordinates": [
                    8.59558424,
                    49.12220457
                ]
            },
            "properties": {
                "RSU coordinates": [
                    8.596345,
                    49.1217734
                ],
                "Distance": 73.32,
                "Frequency": 5.9,
                "RSSI": -87.92,
                "LOS": "False"
            }
        },
        {
            "type": "Feature",
            "geometry": {
                "type": "Point",
                "coordinates": [
                    8.59567933,
                    49.12231237
                ]
            },
            "properties": {
                "RSU coordinates": [
                    8.596345,
                    49.1217734
                ],
                "Distance": 77.15,
                "Frequency": 5.9,
                "RSSI": -88.36,
                "LOS": "False"
            }
        },
        {
            "type": "Feature",
            "geometry": {
                "type": "Point",
                "coordinates": [
                    8.59605971,
                    49.12274354
                ]
            },
            "properties": {
                "RSU coordinates": [
                    8.596345,
                    49.1217734
                ],
                "Distance": 109.98,
                "Frequency": 5.9,
                "RSSI": -91.4,
                "LOS": "False"
            }
        },
        {
            "type": "Feature",
            "geometry": {
                "type": "Point",
                "coordinates": [
                    8.59510878,
                    49.12145002
                ]
            },
            "properties": {
                "RSU coordinates": [
                    8.596345,
                    49.1217734
                ],
                "Distance": 96.99,
                "Frequency": 5.9,
                "RSSI": -60.32,
                "LOS": "True"
            }
        },
        {
            "type": "Feature",
            "geometry": {
                "type": "Point",
                "coordinates": [
                    8.59520388,
                    49.12155781
                ]
            },
            "properties": {
                "RSU coordinates": [
                    8.596345,
                    49.1217734
                ],
                "Distance": 86.53,
                "Frequency": 5.9,
                "RSSI": -89.34,
                "LOS": "False"
            }
        },
        {
            "type": "Feature",
            "geometry": {
                "type": "Point",
                "coordinates": [
                    8.59567934,
                    49.12209678
                ]
            },
            "properties": {
                "RSU coordinates": [
                    8.596345,
                    49.1217734
                ],
                "Distance": 60.4,
                "Frequency": 5.9,
                "RSSI": -71.25999999999999,
                "LOS": "False"
            }
        },
        {
            "type": "Feature",
            "geometry": {
                "type": "Point",
                "coordinates": [
                    8.59577443,
                    49.12220457
                ]
            },
            "properties": {
                "RSU coordinates": [
                    8.596345,
                    49.1217734
                ],
                "Distance": 63.5,
                "Frequency": 5.9,
                "RSSI": -86.69,
                "LOS": "False"
            }
        },
        {
            "type": "Feature",
            "geometry": {
                "type": "Point",
                "coordinates": [
                    8.59605971,
                    49.12252796
                ]
            },
            "properties": {
                "RSU coordinates": [
                    8.596345,
                    49.1217734
                ],
                "Distance": 86.53,
                "Frequency": 5.9,
                "RSSI": -59.34,
                "LOS": "True"
            }
        },
        {
            "type": "Feature",
            "geometry": {
                "type": "Point",
                "coordinates": [
                    8.59529897,
                    49.12145002
                ]
            },
            "properties": {
                "RSU coordinates": [
                    8.596345,
                    49.1217734
                ],
                "Distance": 84.29,
                "Frequency": 5.9,
                "RSSI": -89.12,
                "LOS": "False"
            }
        },
        {
            "type": "Feature",
            "geometry": {
                "type": "Point",
                "coordinates": [
                    8.59539406,
                    49.12155781
                ]
            },
            "properties": {
                "RSU coordinates": [
                    8.596345,
                    49.1217734
                ],
                "Distance": 73.32,
                "Frequency": 5.9,
                "RSSI": -57.92,
                "LOS": "True"
            }
        },
        {
            "type": "Feature",
            "geometry": {
                "type": "Point",
                "coordinates": [
                    8.59567934,
                    49.12188119
                ]
            },
            "properties": {
                "RSU coordinates": [
                    8.596345,
                    49.1217734
                ],
                "Distance": 49.96,
                "Frequency": 5.9,
                "RSSI": -99.63,
                "LOS": "False"
            }
        },
        {
            "type": "Feature",
            "geometry": {
                "type": "Point",
                "coordinates": [
                    8.59577443,
                    49.12198899
                ]
            },
            "properties": {
                "RSU coordinates": [
                    8.596345,
                    49.1217734
                ],
                "Distance": 48.0,
                "Frequency": 5.9,
                "RSSI": -69.28999999999999,
                "LOS": "False"
            }
        },
        {
            "type": "Feature",
            "geometry": {
                "type": "Point",
                "coordinates": [
                    8.59586953,
                    49.12209678
                ]
            },
            "properties": {
                "RSU coordinates": [
                    8.596345,
                    49.1217734
                ],
                "Distance": 49.96,
                "Frequency": 5.9,
                "RSSI": -84.63,
                "LOS": "False"
            }
        },
        {
            "type": "Feature",
            "geometry": {
                "type": "Point",
                "coordinates": [
                    8.59605971,
                    49.12231237
                ]
            },
            "properties": {
                "RSU coordinates": [
                    8.596345,
                    49.1217734
                ],
                "Distance": 63.5,
                "Frequency": 5.9,
                "RSSI": -56.69,
                "LOS": "True"
            }
        },
        {
            "type": "Feature",
            "geometry": {
                "type": "Point",
                "coordinates": [
                    8.59615481,
                    49.12242016
                ]
            },
            "properties": {
                "RSU coordinates": [
                    8.596345,
                    49.1217734
                ],
                "Distance": 73.32,
                "Frequency": 5.9,
                "RSSI": -57.92,
                "LOS": "True"
            }
        },
        {
            "type": "Feature",
            "geometry": {
                "type": "Point",
                "coordinates": [
                    8.596345,
                    49.12263575
                ]
            },
            "properties": {
                "RSU coordinates": [
                    8.596345,
                    49.1217734
                ],
                "Distance": 96.0,
                "Frequency": 5.9,
                "RSSI": -90.22999999999999,
                "LOS": "False"
            }
        },
        {
            "type": "Feature",
            "geometry": {
                "type": "Point",
                "coordinates": [
                    8.59558425,
                    49.12155781
                ]
            },
            "properties": {
                "RSU coordinates": [
                    8.596345,
                    49.1217734
                ],
                "Distance": 60.4,
                "Frequency": 5.9,
                "RSSI": -56.26,
                "LOS": "True"
            }
        },
        {
            "type": "Feature",
            "geometry": {
                "type": "Point",
                "coordinates": [
                    8.59567934,
                    49.12166561
                ]
            },
            "properties": {
                "RSU coordinates": [
                    8.596345,
                    49.1217734
                ],
                "Distance": 49.96,
                "Frequency": 5.9,
                "RSSI": -54.63,
                "LOS": "True"
            }
        },
        {
            "type": "Feature",
            "geometry": {
                "type": "Point",
                "coordinates": [
                    8.59596462,
                    49.12198899
                ]
            },
            "properties": {
                "RSU coordinates": [
                    8.596345,
                    49.1217734
                ],
                "Distance": 36.66,
                "Frequency": 5.9,
                "RSSI": -81.97999999999999,
                "LOS": "False"
            }
        },
        {
            "type": "Feature",
            "geometry": {
                "type": "Point",
                "coordinates": [
                    8.59605972,
                    49.12209678
                ]
            },
            "properties": {
                "RSU coordinates": [
                    8.596345,
                    49.1217734
                ],
                "Distance": 41.57,
                "Frequency": 5.9,
                "RSSI": -68.06,
                "LOS": "False"
            }
        },
        {
            "type": "Feature",
            "geometry": {
                "type": "Point",
                "coordinates": [
                    8.59615481,
                    49.12220457
                ]
            },
            "properties": {
                "RSU coordinates": [
                    8.596345,
                    49.1217734
                ],
                "Distance": 49.96,
                "Frequency": 5.9,
                "RSSI": -54.63,
                "LOS": "True"
            }
        },
        {
            "type": "Feature",
            "geometry": {
                "type": "Point",
                "coordinates": [
                    8.5962499,
                    49.12231237
                ]
            },
            "properties": {
                "RSU coordinates": [
                    8.596345,
                    49.1217734
                ],
                "Distance": 60.4,
                "Frequency": 5.9,
                "RSSI": -71.25999999999999,
                "LOS": "False"
            }
        },
        {
            "type": "Feature",
            "geometry": {
                "type": "Point",
                "coordinates": [
                    8.596345,
                    49.12242016
                ]
            },
            "properties": {
                "RSU coordinates": [
                    8.596345,
                    49.1217734
                ],
                "Distance": 72.0,
                "Frequency": 5.9,
                "RSSI": -72.77000000000001,
                "LOS": "False"
            }
        },
        {
            "type": "Feature",
            "geometry": {
                "type": "Point",
                "coordinates": [
                    8.5964401,
                    49.12252796
                ]
            },
            "properties": {
                "RSU coordinates": [
                    8.596345,
                    49.1217734
                ],
                "Distance": 84.29,
                "Frequency": 5.9,
                "RSSI": -74.12,
                "LOS": "False"
            }
        },
        {
            "type": "Feature",
            "geometry": {
                "type": "Point",
                "coordinates": [
                    8.59672538,
                    49.12285134
                ]
            },
            "properties": {
                "RSU coordinates": [
                    8.596345,
                    49.1217734
                ],
                "Distance": 123.16,
                "Frequency": 5.9,
                "RSSI": -92.37,
                "LOS": "False"
            }
        },
        {
            "type": "Feature",
            "geometry": {
                "type": "Point",
                "coordinates": [
                    8.59682048,
                    49.12295913
                ]
            },
            "properties": {
                "RSU coordinates": [
                    8.596345,
                    49.1217734
                ],
                "Distance": 136.47,
                "Frequency": 5.9,
                "RSSI": -93.25,
                "LOS": "False"
            }
        },
        {
            "type": "Feature",
            "geometry": {
                "type": "Point",
                "coordinates": [
                    8.59691558,
                    49.12306692
                ]
            },
            "properties": {
                "RSU coordinates": [
                    8.596345,
                    49.1217734
                ],
                "Distance": 149.88,
                "Frequency": 5.9,
                "RSSI": -94.05,
                "LOS": "False"
            }
        },
        {
            "type": "Feature",
            "geometry": {
                "type": "Point",
                "coordinates": [
                    8.59701068,
                    49.12317472
                ]
            },
            "properties": {
                "RSU coordinates": [
                    8.596345,
                    49.1217734
                ],
                "Distance": 163.36,
                "Frequency": 5.9,
                "RSSI": -94.79,
                "LOS": "False"
            }
        },
        {
            "type": "Feature",
            "geometry": {
                "type": "Point",
                "coordinates": [
                    8.59586953,
                    49.12166561
                ]
            },
            "properties": {
                "RSU coordinates": [
                    8.596345,
                    49.1217734
                ],
                "Distance": 36.66,
                "Frequency": 5.9,
                "RSSI": -51.98,
                "LOS": "True"
            }
        },
        {
            "type": "Feature",
            "geometry": {
                "type": "Point",
                "coordinates": [
                    8.59605972,
                    49.12188119
                ]
            },
            "properties": {
                "RSU coordinates": [
                    8.596345,
                    49.1217734
                ],
                "Distance": 24.0,
                "Frequency": 5.9,
                "RSSI": -63.34,
                "LOS": "False"
            }
        },
        {
            "type": "Feature",
            "geometry": {
                "type": "Point",
                "coordinates": [
                    8.59624991,
                    49.12209678
                ]
            },
            "properties": {
                "RSU coordinates": [
                    8.596345,
                    49.1217734
                ],
                "Distance": 36.66,
                "Frequency": 5.9,
                "RSSI": -51.98,
                "LOS": "True"
            }
        },
        {
            "type": "Feature",
            "geometry": {
                "type": "Point",
                "coordinates": [
                    8.5964401,
                    49.12231237
                ]
            },
            "properties": {
                "RSU coordinates": [
                    8.596345,
                    49.1217734
                ],
                "Distance": 60.4,
                "Frequency": 5.9,
                "RSSI": -86.25999999999999,
                "LOS": "False"
            }
        },
        {
            "type": "Feature",
            "geometry": {
                "type": "Point",
                "coordinates": [
                    8.59663029,
                    49.12252796
                ]
            },
            "properties": {
                "RSU coordinates": [
                    8.596345,
                    49.1217734
                ],
                "Distance": 86.53,
                "Frequency": 5.9,
                "RSSI": -89.34,
                "LOS": "False"
            }
        },
        {
            "type": "Feature",
            "geometry": {
                "type": "Point",
                "coordinates": [
                    8.59672538,
                    49.12263575
                ]
            },
            "properties": {
                "RSU coordinates": [
                    8.596345,
                    49.1217734
                ],
                "Distance": 99.92,
                "Frequency": 5.9,
                "RSSI": -90.58,
                "LOS": "False"
            }
        },
        {
            "type": "Feature",
            "geometry": {
                "type": "Point",
                "coordinates": [
                    8.59682048,
                    49.12274354
                ]
            },
            "properties": {
                "RSU coordinates": [
                    8.596345,
                    49.1217734
                ],
                "Distance": 113.42,
                "Frequency": 5.9,
                "RSSI": -91.66,
                "LOS": "False"
            }
        },
        {
            "type": "Feature",
            "geometry": {
                "type": "Point",
                "coordinates": [
                    8.59577444,
                    49.12134223
                ]
            },
            "properties": {
                "RSU coordinates": [
                    8.596345,
                    49.1217734
                ],
                "Distance": 63.5,
                "Frequency": 5.9,
                "RSSI": -86.69,
                "LOS": "False"
            }
        },
        {
            "type": "Feature",
            "geometry": {
                "type": "Point",
                "coordinates": [
                    8.59586953,
                    49.12145002
                ]
            },
            "properties": {
                "RSU coordinates": [
                    8.596345,
                    49.1217734
                ],
                "Distance": 49.96,
                "Frequency": 5.9,
                "RSSI": -99.63,
                "LOS": "False"
            }
        },
        {
            "type": "Feature",
            "geometry": {
                "type": "Point",
                "coordinates": [
                    8.59605972,
                    49.12166561
                ]
            },
            "properties": {
                "RSU coordinates": [
                    8.596345,
                    49.1217734
                ],
                "Distance": 24.0,
                "Frequency": 5.9,
                "RSSI": -48.34,
                "LOS": "True"
            }
        },
        {
            "type": "Feature",
            "geometry": {
                "type": "Point",
                "coordinates": [
                    8.59615481,
                    49.1217734
                ]
            },
            "properties": {
                "RSU coordinates": [
                    8.596345,
                    49.1217734
                ],
                "Distance": 13.86,
                "Frequency": 5.9,
                "RSSI": -43.63,
                "LOS": "True"
            }
        },
        {
            "type": "Feature",
            "geometry": {
                "type": "Point",
                "coordinates": [
                    8.59624991,
                    49.12188119
                ]
            },
            "properties": {
                "RSU coordinates": [
                    8.596345,
                    49.1217734
                ],
                "Distance": 13.86,
                "Frequency": 5.9,
                "RSSI": -43.63,
                "LOS": "True"
            }
        },
        {
            "type": "Feature",
            "geometry": {
                "type": "Point",
                "coordinates": [
                    8.596345,
                    49.12198899
                ]
            },
            "properties": {
                "RSU coordinates": [
                    8.596345,
                    49.1217734
                ],
                "Distance": 24.0,
                "Frequency": 5.9,
                "RSSI": -48.34,
                "LOS": "True"
            }
        },
        {
            "type": "Feature",
            "geometry": {
                "type": "Point",
                "coordinates": [
                    8.59644009,
                    49.12209678
                ]
            },
            "properties": {
                "RSU coordinates": [
                    8.596345,
                    49.1217734
                ],
                "Distance": 36.66,
                "Frequency": 5.9,
                "RSSI": -81.97999999999999,
                "LOS": "False"
            }
        },
        {
            "type": "Feature",
            "geometry": {
                "type": "Point",
                "coordinates": [
                    8.59653519,
                    49.12220457
                ]
            },
            "properties": {
                "RSU coordinates": [
                    8.596345,
                    49.1217734
                ],
                "Distance": 49.96,
                "Frequency": 5.9,
                "RSSI": -69.63,
                "LOS": "False"
            }
        },
        {
            "type": "Feature",
            "geometry": {
                "type": "Point",
                "coordinates": [
                    8.59586953,
                    49.12123443
                ]
            },
            "properties": {
                "RSU coordinates": [
                    8.596345,
                    49.1217734
                ],
                "Distance": 69.28,
                "Frequency": 5.9,
                "RSSI": -87.44,
                "LOS": "False"
            }
        },
        {
            "type": "Feature",
            "geometry": {
                "type": "Point",
                "coordinates": [
                    8.59605972,
                    49.12145002
                ]
            },
            "properties": {
                "RSU coordinates": [
                    8.596345,
                    49.1217734
                ],
                "Distance": 41.57,
                "Frequency": 5.9,
                "RSSI": -68.06,
                "LOS": "False"
            }
        },
        {
            "type": "Feature",
            "geometry": {
                "type": "Point",
                "coordinates": [
                    8.59615481,
                    49.12155781
                ]
            },
            "properties": {
                "RSU coordinates": [
                    8.596345,
                    49.1217734
                ],
                "Distance": 27.71,
                "Frequency": 5.9,
                "RSSI": -64.58,
                "LOS": "False"
            }
        },
        {
            "type": "Feature",
            "geometry": {
                "type": "Point",
                "coordinates": [
                    8.59663028,
                    49.12209678
                ]
            },
            "properties": {
                "RSU coordinates": [
                    8.596345,
                    49.1217734
                ],
                "Distance": 41.57,
                "Frequency": 5.9,
                "RSSI": -83.06,
                "LOS": "False"
            }
        },
        {
            "type": "Feature",
            "geometry": {
                "type": "Point",
                "coordinates": [
                    8.59672538,
                    49.12220457
                ]
            },
            "properties": {
                "RSU coordinates": [
                    8.596345,
                    49.1217734
                ],
                "Distance": 55.43,
                "Frequency": 5.9,
                "RSSI": -85.52000000000001,
                "LOS": "False"
            }
        },
        {
            "type": "Feature",
            "geometry": {
                "type": "Point",
                "coordinates": [
                    8.59682048,
                    49.12231237
                ]
            },
            "properties": {
                "RSU coordinates": [
                    8.596345,
                    49.1217734
                ],
                "Distance": 69.28,
                "Frequency": 5.9,
                "RSSI": -87.44,
                "LOS": "False"
            }
        },
        {
            "type": "Feature",
            "geometry": {
                "type": "Point",
                "coordinates": [
                    8.59605972,
                    49.12123443
                ]
            },
            "properties": {
                "RSU coordinates": [
                    8.596345,
                    49.1217734
                ],
                "Distance": 63.5,
                "Frequency": 5.9,
                "RSSI": -86.69,
                "LOS": "False"
            }
        },
        {
            "type": "Feature",
            "geometry": {
                "type": "Point",
                "coordinates": [
                    8.59615481,
                    49.12134223
                ]
            },
            "properties": {
                "RSU coordinates": [
                    8.596345,
                    49.1217734
                ],
                "Distance": 49.96,
                "Frequency": 5.9,
                "RSSI": -84.63,
                "LOS": "False"
            }
        },
        {
            "type": "Feature",
            "geometry": {
                "type": "Point",
                "coordinates": [
                    8.596345,
                    49.12155781
                ]
            },
            "properties": {
                "RSU coordinates": [
                    8.596345,
                    49.1217734
                ],
                "Distance": 24.0,
                "Frequency": 5.9,
                "RSSI": -63.34,
                "LOS": "False"
            }
        },
        {
            "type": "Feature",
            "geometry": {
                "type": "Point",
                "coordinates": [
                    8.59644009,
                    49.12166561
                ]
            },
            "properties": {
                "RSU coordinates": [
                    8.596345,
                    49.1217734
                ],
                "Distance": 13.86,
                "Frequency": 5.9,
                "RSSI": -43.63,
                "LOS": "True"
            }
        },
        {
            "type": "Feature",
            "geometry": {
                "type": "Point",
                "coordinates": [
                    8.59653519,
                    49.1217734
                ]
            },
            "properties": {
                "RSU coordinates": [
                    8.596345,
                    49.1217734
                ],
                "Distance": 13.86,
                "Frequency": 5.9,
                "RSSI": -43.63,
                "LOS": "True"
            }
        },
        {
            "type": "Feature",
            "geometry": {
                "type": "Point",
                "coordinates": [
                    8.59663028,
                    49.12188119
                ]
            },
            "properties": {
                "RSU coordinates": [
                    8.596345,
                    49.1217734
                ],
                "Distance": 24.0,
                "Frequency": 5.9,
                "RSSI": -48.34,
                "LOS": "True"
            }
        },
        {
            "type": "Feature",
            "geometry": {
                "type": "Point",
                "coordinates": [
                    8.59682047,
                    49.12209678
                ]
            },
            "properties": {
                "RSU coordinates": [
                    8.596345,
                    49.1217734
                ],
                "Distance": 49.96,
                "Frequency": 5.9,
                "RSSI": -99.63,
                "LOS": "False"
            }
        },
        {
            "type": "Feature",
            "geometry": {
                "type": "Point",
                "coordinates": [
                    8.596345,
                    49.12134223
                ]
            },
            "properties": {
                "RSU coordinates": [
                    8.596345,
                    49.1217734
                ],
                "Distance": 48.0,
                "Frequency": 5.9,
                "RSSI": -84.28999999999999,
                "LOS": "False"
            }
        },
        {
            "type": "Feature",
            "geometry": {
                "type": "Point",
                "coordinates": [
                    8.59644009,
                    49.12145002
                ]
            },
            "properties": {
                "RSU coordinates": [
                    8.596345,
                    49.1217734
                ],
                "Distance": 36.66,
                "Frequency": 5.9,
                "RSSI": -51.98,
                "LOS": "True"
            }
        },
        {
            "type": "Feature",
            "geometry": {
                "type": "Point",
                "coordinates": [
                    8.59653519,
                    49.12155781
                ]
            },
            "properties": {
                "RSU coordinates": [
                    8.596345,
                    49.1217734
                ],
                "Distance": 27.71,
                "Frequency": 5.9,
                "RSSI": -49.58,
                "LOS": "True"
            }
        },
        {
            "type": "Feature",
            "geometry": {
                "type": "Point",
                "coordinates": [
                    8.59682047,
                    49.12188119
                ]
            },
            "properties": {
                "RSU coordinates": [
                    8.596345,
                    49.1217734
                ],
                "Distance": 36.66,
                "Frequency": 5.9,
                "RSSI": -51.98,
                "LOS": "True"
            }
        },
        {
            "type": "Feature",
            "geometry": {
                "type": "Point",
                "coordinates": [
                    8.59644009,
                    49.12123443
                ]
            },
            "properties": {
                "RSU coordinates": [
                    8.596345,
                    49.1217734
                ],
                "Distance": 60.4,
                "Frequency": 5.9,
                "RSSI": -56.26,
                "LOS": "True"
            }
        },
        {
            "type": "Feature",
            "geometry": {
                "type": "Point",
                "coordinates": [
                    8.59682047,
                    49.12166561
                ]
            },
            "properties": {
                "RSU coordinates": [
                    8.596345,
                    49.1217734
                ],
                "Distance": 36.66,
                "Frequency": 5.9,
                "RSSI": -81.97999999999999,
                "LOS": "False"
            }
        },
        {
            "type": "Feature",
            "geometry": {
                "type": "Point",
                "coordinates": [
                    8.59701066,
                    49.12188119
                ]
            },
            "properties": {
                "RSU coordinates": [
                    8.596345,
                    49.1217734
                ],
                "Distance": 49.96,
                "Frequency": 5.9,
                "RSSI": -54.63,
                "LOS": "True"
            }
        },
        {
            "type": "Feature",
            "geometry": {
                "type": "Point",
                "coordinates": [
                    8.59710576,
                    49.12198899
                ]
            },
            "properties": {
                "RSU coordinates": [
                    8.596345,
                    49.1217734
                ],
                "Distance": 60.4,
                "Frequency": 5.9,
                "RSSI": -56.26,
                "LOS": "True"
            }
        },
        {
            "type": "Feature",
            "geometry": {
                "type": "Point",
                "coordinates": [
                    8.59644009,
                    49.12101884
                ]
            },
            "properties": {
                "RSU coordinates": [
                    8.596345,
                    49.1217734
                ],
                "Distance": 84.29,
                "Frequency": 5.9,
                "RSSI": -74.12,
                "LOS": "False"
            }
        },
        {
            "type": "Feature",
            "geometry": {
                "type": "Point",
                "coordinates": [
                    8.59653519,
                    49.12112664
                ]
            },
            "properties": {
                "RSU coordinates": [
                    8.596345,
                    49.1217734
                ],
                "Distance": 73.32,
                "Frequency": 5.9,
                "RSSI": -57.92,
                "LOS": "True"
            }
        },
        {
            "type": "Feature",
            "geometry": {
                "type": "Point",
                "coordinates": [
                    8.59663028,
                    49.12123443
                ]
            },
            "properties": {
                "RSU coordinates": [
                    8.596345,
                    49.1217734
                ],
                "Distance": 63.5,
                "Frequency": 5.9,
                "RSSI": -71.69,
                "LOS": "False"
            }
        },
        {
            "type": "Feature",
            "geometry": {
                "type": "Point",
                "coordinates": [
                    8.59682047,
                    49.12145002
                ]
            },
            "properties": {
                "RSU coordinates": [
                    8.596345,
                    49.1217734
                ],
                "Distance": 49.96,
                "Frequency": 5.9,
                "RSSI": -84.63,
                "LOS": "False"
            }
        },
        {
            "type": "Feature",
            "geometry": {
                "type": "Point",
                "coordinates": [
                    8.59701066,
                    49.12166561
                ]
            },
            "properties": {
                "RSU coordinates": [
                    8.596345,
                    49.1217734
                ],
                "Distance": 49.96,
                "Frequency": 5.9,
                "RSSI": -84.63,
                "LOS": "False"
            }
        },
        {
            "type": "Feature",
            "geometry": {
                "type": "Point",
                "coordinates": [
                    8.59729594,
                    49.12198899
                ]
            },
            "properties": {
                "RSU coordinates": [
                    8.596345,
                    49.1217734
                ],
                "Distance": 73.32,
                "Frequency": 5.9,
                "RSSI": -57.92,
                "LOS": "True"
            }
        },
        {
            "type": "Feature",
            "geometry": {
                "type": "Point",
                "coordinates": [
                    8.59739104,
                    49.12209678
                ]
            },
            "properties": {
                "RSU coordinates": [
                    8.596345,
                    49.1217734
                ],
                "Distance": 84.29,
                "Frequency": 5.9,
                "RSSI": -59.12,
                "LOS": "True"
            }
        },
        {
            "type": "Feature",
            "geometry": {
                "type": "Point",
                "coordinates": [
                    8.59644009,
                    49.12080326
                ]
            },
            "properties": {
                "RSU coordinates": [
                    8.596345,
                    49.1217734
                ],
                "Distance": 108.22,
                "Frequency": 5.9,
                "RSSI": -76.25999999999999,
                "LOS": "False"
            }
        },
        {
            "type": "Feature",
            "geometry": {
                "type": "Point",
                "coordinates": [
                    8.59672537,
                    49.12112664
                ]
            },
            "properties": {
                "RSU coordinates": [
                    8.596345,
                    49.1217734
                ],
                "Distance": 77.15,
                "Frequency": 5.9,
                "RSSI": -88.36,
                "LOS": "False"
            }
        },
        {
            "type": "Feature",
            "geometry": {
                "type": "Point",
                "coordinates": [
                    8.59682047,
                    49.12123443
                ]
            },
            "properties": {
                "RSU coordinates": [
                    8.596345,
                    49.1217734
                ],
                "Distance": 69.28,
                "Frequency": 5.9,
                "RSSI": -87.44,
                "LOS": "False"
            }
        },
        {
            "type": "Feature",
            "geometry": {
                "type": "Point",
                "coordinates": [
                    8.59720084,
                    49.12166561
                ]
            },
            "properties": {
                "RSU coordinates": [
                    8.596345,
                    49.1217734
                ],
                "Distance": 63.5,
                "Frequency": 5.9,
                "RSSI": -86.69,
                "LOS": "False"
            }
        },
        {
            "type": "Feature",
            "geometry": {
                "type": "Point",
                "coordinates": [
                    8.59758123,
                    49.12209678
                ]
            },
            "properties": {
                "RSU coordinates": [
                    8.596345,
                    49.1217734
                ],
                "Distance": 96.99,
                "Frequency": 5.9,
                "RSSI": -60.32,
                "LOS": "True"
            }
        },
        {
            "type": "Feature",
            "geometry": {
                "type": "Point",
                "coordinates": [
                    8.59644009,
                    49.12058767
                ]
            },
            "properties": {
                "RSU coordinates": [
                    8.596345,
                    49.1217734
                ],
                "Distance": 132.18,
                "Frequency": 5.9,
                "RSSI": -92.97999999999999,
                "LOS": "False"
            }
        },
        {
            "type": "Feature",
            "geometry": {
                "type": "Point",
                "coordinates": [
                    8.59653518,
                    49.12069546
                ]
            },
            "properties": {
                "RSU coordinates": [
                    8.596345,
                    49.1217734
                ],
                "Distance": 120.8,
                "Frequency": 5.9,
                "RSSI": -62.2,
                "LOS": "True"
            }
        },
        {
            "type": "Feature",
            "geometry": {
                "type": "Point",
                "coordinates": [
                    8.59663028,
                    49.12080326
                ]
            },
            "properties": {
                "RSU coordinates": [
                    8.596345,
                    49.1217734
                ],
                "Distance": 109.98,
                "Frequency": 5.9,
                "RSSI": -91.4,
                "LOS": "False"
            }
        },
        {
            "type": "Feature",
            "geometry": {
                "type": "Point",
                "coordinates": [
                    8.59672537,
                    49.12091105
                ]
            },
            "properties": {
                "RSU coordinates": [
                    8.596345,
                    49.1217734
                ],
                "Distance": 99.92,
                "Frequency": 5.9,
                "RSSI": -90.58,
                "LOS": "False"
            }
        },
        {
            "type": "Feature",
            "geometry": {
                "type": "Point",
                "coordinates": [
                    8.59682046,
                    49.12101884
                ]
            },
            "properties": {
                "RSU coordinates": [
                    8.596345,
                    49.1217734
                ],
                "Distance": 90.86,
                "Frequency": 5.9,
                "RSSI": -89.75999999999999,
                "LOS": "False"
            }
        },
        {
            "type": "Feature",
            "geometry": {
                "type": "Point",
                "coordinates": [
                    8.59691556,
                    49.12112664
                ]
            },
            "properties": {
                "RSU coordinates": [
                    8.596345,
                    49.1217734
                ],
                "Distance": 83.14,
                "Frequency": 5.9,
                "RSSI": -89.0,
                "LOS": "False"
            }
        },
        {
            "type": "Feature",
            "geometry": {
                "type": "Point",
                "coordinates": [
                    8.59777142,
                    49.12209678
                ]
            },
            "properties": {
                "RSU coordinates": [
                    8.596345,
                    49.1217734
                ],
                "Distance": 109.98,
                "Frequency": 5.9,
                "RSSI": -61.4,
                "LOS": "True"
            }
        },
        {
            "type": "Feature",
            "geometry": {
                "type": "Point",
                "coordinates": [
                    8.59786652,
                    49.12220457
                ]
            },
            "properties": {
                "RSU coordinates": [
                    8.596345,
                    49.1217734
                ],
                "Distance": 120.8,
                "Frequency": 5.9,
                "RSSI": -62.2,
                "LOS": "True"
            }
        },
        {
            "type": "Feature",
            "geometry": {
                "type": "Point",
                "coordinates": [
                    8.59653518,
                    49.12047988
                ]
            },
            "properties": {
                "RSU coordinates": [
                    8.596345,
                    49.1217734
                ],
                "Distance": 144.67,
                "Frequency": 5.9,
                "RSSI": -78.75,
                "LOS": "False"
            }
        },
        {
            "type": "Feature",
            "geometry": {
                "type": "Point",
                "coordinates": [
                    8.59805671,
                    49.12220457
                ]
            },
            "properties": {
                "RSU coordinates": [
                    8.596345,
                    49.1217734
                ],
                "Distance": 133.63,
                "Frequency": 5.9,
                "RSSI": -63.07,
                "LOS": "True"
            }
        },
        {
            "type": "Feature",
            "geometry": {
                "type": "Point",
                "coordinates": [
                    8.59653518,
                    49.12026429
                ]
            },
            "properties": {
                "RSU coordinates": [
                    8.596345,
                    49.1217734
                ],
                "Distance": 168.57,
                "Frequency": 5.9,
                "RSSI": -80.06,
                "LOS": "False"
            }
        },
        {
            "type": "Feature",
            "geometry": {
                "type": "Point",
                "coordinates": [
                    8.5982469,
                    49.12220457
                ]
            },
            "properties": {
                "RSU coordinates": [
                    8.596345,
                    49.1217734
                ],
                "Distance": 146.64,
                "Frequency": 5.9,
                "RSSI": -63.87,
                "LOS": "True"
            }
        },
        {
            "type": "Feature",
            "geometry": {
                "type": "Point",
                "coordinates": [
                    8.598342,
                    49.12231237
                ]
            },
            "properties": {
                "RSU coordinates": [
                    8.596345,
                    49.1217734
                ],
                "Distance": 157.38,
                "Frequency": 5.9,
                "RSSI": -64.47,
                "LOS": "True"
            }
        },
        {
            "type": "Feature",
            "geometry": {
                "type": "Point",
                "coordinates": [
                    8.59653518,
                    49.1200487
                ]
            },
            "properties": {
                "RSU coordinates": [
                    8.596345,
                    49.1217734
                ],
                "Distance": 192.5,
                "Frequency": 5.9,
                "RSSI": -81.2,
                "LOS": "False"
            }
        },
        {
            "type": "Feature",
            "geometry": {
                "type": "Point",
                "coordinates": [
                    8.59663027,
                    49.1201565
                ]
            },
            "properties": {
                "RSU coordinates": [
                    8.596345,
                    49.1217734
                ],
                "Distance": 181.2,
                "Frequency": 5.9,
                "RSSI": -65.68,
                "LOS": "True"
            }
        },
        {
            "type": "Feature",
            "geometry": {
                "type": "Point",
                "coordinates": [
                    8.59853219,
                    49.12231237
                ]
            },
            "properties": {
                "RSU coordinates": [
                    8.596345,
                    49.1217734
                ],
                "Distance": 170.27,
                "Frequency": 5.9,
                "RSSI": -65.15,
                "LOS": "True"
            }
        },
        {
            "type": "Feature",
            "geometry": {
                "type": "Point",
                "coordinates": [
                    8.59653518,
                    49.11983312
                ]
            },
            "properties": {
                "RSU coordinates": [
                    8.596345,
                    49.1217734
                ],
                "Distance": 216.44,
                "Frequency": 5.9,
                "RSSI": -97.21,
                "LOS": "False"
            }
        },
        {
            "type": "Feature",
            "geometry": {
                "type": "Point",
                "coordinates": [
                    8.59663027,
                    49.11994091
                ]
            },
            "properties": {
                "RSU coordinates": [
                    8.596345,
                    49.1217734
                ],
                "Distance": 205.06,
                "Frequency": 5.9,
                "RSSI": -96.74,
                "LOS": "False"
            }
        },
        {
            "type": "Feature",
            "geometry": {
                "type": "Point",
                "coordinates": [
                    8.59872238,
                    49.12231237
                ]
            },
            "properties": {
                "RSU coordinates": [
                    8.596345,
                    49.1217734
                ],
                "Distance": 183.3,
                "Frequency": 5.9,
                "RSSI": -65.78,
                "LOS": "True"
            }
        },
        {
            "type": "Feature",
            "geometry": {
                "type": "Point",
                "coordinates": [
                    8.59881748,
                    49.12242016
                ]
            },
            "properties": {
                "RSU coordinates": [
                    8.596345,
                    49.1217734
                ],
                "Distance": 193.99,
                "Frequency": 5.9,
                "RSSI": -81.27,
                "LOS": "False"
            }
        },
        {
            "type": "Feature",
            "geometry": {
                "type": "Point",
                "coordinates": [
                    8.59653518,
                    49.11961753
                ]
            },
            "properties": {
                "RSU coordinates": [
                    8.596345,
                    49.1217734
                ],
                "Distance": 240.4,
                "Frequency": 5.9,
                "RSSI": -98.11,
                "LOS": "False"
            }
        },
        {
            "type": "Feature",
            "geometry": {
                "type": "Point",
                "coordinates": [
                    8.59663027,
                    49.11972532
                ]
            },
            "properties": {
                "RSU coordinates": [
                    8.596345,
                    49.1217734
                ],
                "Distance": 228.95,
                "Frequency": 5.9,
                "RSSI": -97.69,
                "LOS": "False"
            }
        },
        {
            "type": "Feature",
            "geometry": {
                "type": "Point",
                "coordinates": [
                    8.59910277,
                    49.12252796
                ]
            },
            "properties": {
                "RSU coordinates": [
                    8.596345,
                    49.1217734
                ],
                "Distance": 217.77,
                "Frequency": 5.9,
                "RSSI": -82.26,
                "LOS": "False"
            }
        },
        {
            "type": "Feature",
            "geometry": {
                "type": "Point",
                "coordinates": [
                    8.59663027,
                    49.11950973
                ]
            },
            "properties": {
                "RSU coordinates": [
                    8.596345,
                    49.1217734
                ],
                "Distance": 252.86,
                "Frequency": 5.9,
                "RSSI": -98.54,
                "LOS": "False"
            }
        },
        {
            "type": "Feature",
            "geometry": {
                "type": "Point",
                "coordinates": [
                    8.59672536,
                    49.11961753
                ]
            },
            "properties": {
                "RSU coordinates": [
                    8.596345,
                    49.1217734
                ],
                "Distance": 241.59,
                "Frequency": 5.9,
                "RSSI": -68.15,
                "LOS": "True"
            }
        },
        {
            "type": "Feature",
            "geometry": {
                "type": "Point",
                "coordinates": [
                    8.59929296,
                    49.12252796
                ]
            },
            "properties": {
                "RSU coordinates": [
                    8.596345,
                    49.1217734
                ],
                "Distance": 230.62,
                "Frequency": 5.9,
                "RSSI": -97.75,
                "LOS": "False"
            }
        },
        {
            "type": "Feature",
            "geometry": {
                "type": "Point",
                "coordinates": [
                    8.59663027,
                    49.11929415
                ]
            },
            "properties": {
                "RSU coordinates": [
                    8.596345,
                    49.1217734
                ],
                "Distance": 276.78,
                "Frequency": 5.9,
                "RSSI": -99.31,
                "LOS": "False"
            }
        },
        {
            "type": "Feature",
            "geometry": {
                "type": "Point",
                "coordinates": [
                    8.59948315,
                    49.12252796
                ]
            },
            "properties": {
                "RSU coordinates": [
                    8.596345,
                    49.1217734
                ],
                "Distance": 243.57,
                "Frequency": 5.9,
                "RSSI": -98.22,
                "LOS": "False"
            }
        },
        {
            "type": "Feature",
            "geometry": {
                "type": "Point",
                "coordinates": [
                    8.59967334,
                    49.12252796
                ]
            },
            "properties": {
                "RSU coordinates": [
                    8.596345,
                    49.1217734
                ],
                "Distance": 256.62,
                "Frequency": 5.9,
                "RSSI": -98.67,
                "LOS": "False"
            }
        },
        {
            "type": "Feature",
            "geometry": {
                "type": "Point",
                "coordinates": [
                    8.59995864,
                    49.12263575
                ]
            },
            "properties": {
                "RSU coordinates": [
                    8.596345,
                    49.1217734
                ],
                "Distance": 280.23,
                "Frequency": 5.9,
                "RSSI": -99.42,
                "LOS": "False"
            }
        },
        {
            "type": "Feature",
            "geometry": {
                "type": "Point",
                "coordinates": [
                    8.60014883,
                    49.12263575
                ]
            },
            "properties": {
                "RSU coordinates": [
                    8.596345,
                    49.1217734
                ],
                "Distance": 293.28,
                "Frequency": 5.9,
                "RSSI": -99.81,
                "LOS": "False"
            }
        },
        {
            "type": "Feature",
            "geometry": {
                "type": "Point",
                "coordinates": [
                    8.60071942,
                    49.12285134
                ]
            },
            "properties": {
                "RSU coordinates": [
                    8.596345,
                    49.1217734
                ],
                "Distance": 340.54,
                "Frequency": 5.9,
                "RSSI": -86.09,
                "LOS": "False"
            }
        },
        {
            "type": "Feature",
            "geometry": {
                "type": "Point",
                "coordinates": [
                    8.60243121,
                    49.12328251
                ]
            },
            "properties": {
                "RSU coordinates": [
                    8.596345,
                    49.1217734
                ],
                "Distance": 474.16,
                "Frequency": 5.9,
                "RSSI": -88.93,
                "LOS": "False"
            }
        }
    ]
}