{
    "type": "FeatureCollection",
    "features": [
        {
            "type": "Feature",
            "geometry": {
                "type": "Point",
                "coordinates": [
                    8.52563784,
                    49.00392944
                ]
            },
            "properties": {
                "RSU coordinates": [
                    8.5281993,
                    49.0029593
                ],
                "Distance": 216.0,
                "Frequency": 5.9,
                "RSSI": -97.19,
                "LOS": "False"
            }
        },
        {
            "type": "Feature",
            "geometry": {
                "type": "Point",
                "coordinates": [
                    8.52582758,
                    49.00392944
                ]
            },
            "properties": {
                "RSU coordinates": [
                    8.5281993,
                    49.0029593
                ],
                "Distance": 204.12,
                "Frequency": 5.9,
                "RSSI": -66.7,
                "LOS": "True"
            }
        },
        {
            "type": "Feature",
            "geometry": {
                "type": "Point",
                "coordinates": [
                    8.52592245,
                    49.00382165
                ]
            },
            "properties": {
                "RSU coordinates": [
                    8.5281993,
                    49.0029593
                ],
                "Distance": 192.0,
                "Frequency": 5.9,
                "RSSI": -96.18,
                "LOS": "False"
            }
        },
        {
            "type": "Feature",
            "geometry": {
                "type": "Point",
                "coordinates": [
                    8.52620705,
                    49.00414503
                ]
            },
            "properties": {
                "RSU coordinates": [
                    8.5281993,
                    49.0029593
                ],
                "Distance": 196.45,
                "Frequency": 5.9,
                "RSSI": -96.37,
                "LOS": "False"
            }
        },
        {
            "type": "Feature",
            "geometry": {
                "type": "Point",
                "coordinates": [
                    8.52459442,
                    49.00209695
                ]
            },
            "properties": {
                "RSU coordinates": [
                    8.5281993,
                    49.0029593
                ],
                "Distance": 280.23,
                "Frequency": 5.9,
                "RSSI": -99.42,
                "LOS": "False"
            }
        },
        {
            "type": "Feature",
            "geometry": {
                "type": "Point",
                "coordinates": [
                    8.52468927,
                    49.00220474
                ]
            },
            "properties": {
                "RSU coordinates": [
                    8.5281993,
                    49.0029593
                ],
                "Distance": 269.76,
                "Frequency": 5.9,
                "RSSI": -99.09,
                "LOS": "False"
            }
        },
        {
            "type": "Feature",
            "geometry": {
                "type": "Point",
                "coordinates": [
                    8.52611219,
                    49.00382165
                ]
            },
            "properties": {
                "RSU coordinates": [
                    8.5281993,
                    49.0029593
                ],
                "Distance": 180.13,
                "Frequency": 5.9,
                "RSSI": -65.63,
                "LOS": "True"
            }
        },
        {
            "type": "Feature",
            "geometry": {
                "type": "Point",
                "coordinates": [
                    8.52487901,
                    49.00220474
                ]
            },
            "properties": {
                "RSU coordinates": [
                    8.5281993,
                    49.0029593
                ],
                "Distance": 256.62,
                "Frequency": 5.9,
                "RSSI": -98.67,
                "LOS": "False"
            }
        },
        {
            "type": "Feature",
            "geometry": {
                "type": "Point",
                "coordinates": [
                    8.52620706,
                    49.00371386
                ]
            },
            "properties": {
                "RSU coordinates": [
                    8.5281993,
                    49.0029593
                ],
                "Distance": 168.0,
                "Frequency": 5.9,
                "RSSI": -95.03,
                "LOS": "False"
            }
        },
        {
            "type": "Feature",
            "geometry": {
                "type": "Point",
                "coordinates": [
                    8.52630193,
                    49.00382165
                ]
            },
            "properties": {
                "RSU coordinates": [
                    8.5281993,
                    49.0029593
                ],
                "Distance": 168.57,
                "Frequency": 5.9,
                "RSSI": -65.06,
                "LOS": "True"
            }
        },
        {
            "type": "Feature",
            "geometry": {
                "type": "Point",
                "coordinates": [
                    8.52639679,
                    49.00392944
                ]
            },
            "properties": {
                "RSU coordinates": [
                    8.5281993,
                    49.0029593
                ],
                "Distance": 170.27,
                "Frequency": 5.9,
                "RSSI": -95.15,
                "LOS": "False"
            }
        },
        {
            "type": "Feature",
            "geometry": {
                "type": "Point",
                "coordinates": [
                    8.52649166,
                    49.00403724
                ]
            },
            "properties": {
                "RSU coordinates": [
                    8.5281993,
                    49.0029593
                ],
                "Distance": 173.07,
                "Frequency": 5.9,
                "RSSI": -95.29,
                "LOS": "False"
            }
        },
        {
            "type": "Feature",
            "geometry": {
                "type": "Point",
                "coordinates": [
                    8.52506874,
                    49.00220474
                ]
            },
            "properties": {
                "RSU coordinates": [
                    8.5281993,
                    49.0029593
                ],
                "Distance": 243.57,
                "Frequency": 5.9,
                "RSSI": -98.22,
                "LOS": "False"
            }
        },
        {
            "type": "Feature",
            "geometry": {
                "type": "Point",
                "coordinates": [
                    8.5251636,
                    49.00231254
                ]
            },
            "properties": {
                "RSU coordinates": [
                    8.5281993,
                    49.0029593
                ],
                "Distance": 233.1,
                "Frequency": 5.9,
                "RSSI": -97.84,
                "LOS": "False"
            }
        },
        {
            "type": "Feature",
            "geometry": {
                "type": "Point",
                "coordinates": [
                    8.5263968,
                    49.00371386
                ]
            },
            "properties": {
                "RSU coordinates": [
                    8.5281993,
                    49.0029593
                ],
                "Distance": 156.15,
                "Frequency": 5.9,
                "RSSI": -64.41,
                "LOS": "True"
            }
        },
        {
            "type": "Feature",
            "geometry": {
                "type": "Point",
                "coordinates": [
                    8.52649166,
                    49.00382165
                ]
            },
            "properties": {
                "RSU coordinates": [
                    8.5281993,
                    49.0029593
                ],
                "Distance": 157.38,
                "Frequency": 5.9,
                "RSSI": -64.47,
                "LOS": "True"
            }
        },
        {
            "type": "Feature",
            "geometry": {
                "type": "Point",
                "coordinates": [
                    8.52658653,
                    49.00392944
                ]
            },
            "properties": {
                "RSU coordinates": [
                    8.5281993,
                    49.0029593
                ],
                "Distance": 159.8,
                "Frequency": 5.9,
                "RSSI": -79.6,
                "LOS": "False"
            }
        },
        {
            "type": "Feature",
            "geometry": {
                "type": "Point",
                "coordinates": [
                    8.52535333,
                    49.00231254
                ]
            },
            "properties": {
                "RSU coordinates": [
                    8.5281993,
                    49.0029593
                ],
                "Distance": 219.96,
                "Frequency": 5.9,
                "RSSI": -97.34,
                "LOS": "False"
            }
        },
        {
            "type": "Feature",
            "geometry": {
                "type": "Point",
                "coordinates": [
                    8.52649167,
                    49.00360606
                ]
            },
            "properties": {
                "RSU coordinates": [
                    8.5281993,
                    49.0029593
                ],
                "Distance": 144.0,
                "Frequency": 5.9,
                "RSSI": -78.71000000000001,
                "LOS": "False"
            }
        },
        {
            "type": "Feature",
            "geometry": {
                "type": "Point",
                "coordinates": [
                    8.52658654,
                    49.00371386
                ]
            },
            "properties": {
                "RSU coordinates": [
                    8.5281993,
                    49.0029593
                ],
                "Distance": 144.67,
                "Frequency": 5.9,
                "RSSI": -63.75,
                "LOS": "True"
            }
        },
        {
            "type": "Feature",
            "geometry": {
                "type": "Point",
                "coordinates": [
                    8.52554306,
                    49.00231254
                ]
            },
            "properties": {
                "RSU coordinates": [
                    8.5281993,
                    49.0029593
                ],
                "Distance": 206.92,
                "Frequency": 5.9,
                "RSSI": -96.82,
                "LOS": "False"
            }
        },
        {
            "type": "Feature",
            "geometry": {
                "type": "Point",
                "coordinates": [
                    8.52563792,
                    49.00242033
                ]
            },
            "properties": {
                "RSU coordinates": [
                    8.5281993,
                    49.0029593
                ],
                "Distance": 196.45,
                "Frequency": 5.9,
                "RSSI": -96.37,
                "LOS": "False"
            }
        },
        {
            "type": "Feature",
            "geometry": {
                "type": "Point",
                "coordinates": [
                    8.52573278,
                    49.00252813
                ]
            },
            "properties": {
                "RSU coordinates": [
                    8.5281993,
                    49.0029593
                ],
                "Distance": 186.42,
                "Frequency": 5.9,
                "RSSI": -95.93,
                "LOS": "False"
            }
        },
        {
            "type": "Feature",
            "geometry": {
                "type": "Point",
                "coordinates": [
                    8.52668141,
                    49.00360606
                ]
            },
            "properties": {
                "RSU coordinates": [
                    8.5281993,
                    49.0029593
                ],
                "Distance": 132.18,
                "Frequency": 5.9,
                "RSSI": -62.98,
                "LOS": "True"
            }
        },
        {
            "type": "Feature",
            "geometry": {
                "type": "Point",
                "coordinates": [
                    8.52677627,
                    49.00371386
                ]
            },
            "properties": {
                "RSU coordinates": [
                    8.5281993,
                    49.0029593
                ],
                "Distance": 133.63,
                "Frequency": 5.9,
                "RSSI": -63.07,
                "LOS": "True"
            }
        },
        {
            "type": "Feature",
            "geometry": {
                "type": "Point",
                "coordinates": [
                    8.52582765,
                    49.00242033
                ]
            },
            "properties": {
                "RSU coordinates": [
                    8.5281993,
                    49.0029593
                ],
                "Distance": 183.3,
                "Frequency": 5.9,
                "RSSI": -95.78,
                "LOS": "False"
            }
        },
        {
            "type": "Feature",
            "geometry": {
                "type": "Point",
                "coordinates": [
                    8.52592251,
                    49.00252813
                ]
            },
            "properties": {
                "RSU coordinates": [
                    8.5281993,
                    49.0029593
                ],
                "Distance": 173.07,
                "Frequency": 5.9,
                "RSSI": -95.29,
                "LOS": "False"
            }
        },
        {
            "type": "Feature",
            "geometry": {
                "type": "Point",
                "coordinates": [
                    8.52677628,
                    49.00349827
                ]
            },
            "properties": {
                "RSU coordinates": [
                    8.5281993,
                    49.0029593
                ],
                "Distance": 120.0,
                "Frequency": 5.9,
                "RSSI": -77.15,
                "LOS": "False"
            }
        },
        {
            "type": "Feature",
            "geometry": {
                "type": "Point",
                "coordinates": [
                    8.52687114,
                    49.00360606
                ]
            },
            "properties": {
                "RSU coordinates": [
                    8.5281993,
                    49.0029593
                ],
                "Distance": 120.8,
                "Frequency": 5.9,
                "RSSI": -62.2,
                "LOS": "True"
            }
        },
        {
            "type": "Feature",
            "geometry": {
                "type": "Point",
                "coordinates": [
                    8.52696601,
                    49.00371386
                ]
            },
            "properties": {
                "RSU coordinates": [
                    8.5281993,
                    49.0029593
                ],
                "Distance": 123.16,
                "Frequency": 5.9,
                "RSSI": -62.37,
                "LOS": "True"
            }
        },
        {
            "type": "Feature",
            "geometry": {
                "type": "Point",
                "coordinates": [
                    8.52611224,
                    49.00252813
                ]
            },
            "properties": {
                "RSU coordinates": [
                    8.5281993,
                    49.0029593
                ],
                "Distance": 159.8,
                "Frequency": 5.9,
                "RSSI": -94.6,
                "LOS": "False"
            }
        },
        {
            "type": "Feature",
            "geometry": {
                "type": "Point",
                "coordinates": [
                    8.52696602,
                    49.00349827
                ]
            },
            "properties": {
                "RSU coordinates": [
                    8.5281993,
                    49.0029593
                ],
                "Distance": 108.22,
                "Frequency": 5.9,
                "RSSI": -61.26,
                "LOS": "True"
            }
        },
        {
            "type": "Feature",
            "geometry": {
                "type": "Point",
                "coordinates": [
                    8.52706088,
                    49.00360606
                ]
            },
            "properties": {
                "RSU coordinates": [
                    8.5281993,
                    49.0029593
                ],
                "Distance": 109.98,
                "Frequency": 5.9,
                "RSSI": -61.4,
                "LOS": "True"
            }
        },
        {
            "type": "Feature",
            "geometry": {
                "type": "Point",
                "coordinates": [
                    8.52630198,
                    49.00252813
                ]
            },
            "properties": {
                "RSU coordinates": [
                    8.5281993,
                    49.0029593
                ],
                "Distance": 146.64,
                "Frequency": 5.9,
                "RSSI": -93.87,
                "LOS": "False"
            }
        },
        {
            "type": "Feature",
            "geometry": {
                "type": "Point",
                "coordinates": [
                    8.52639684,
                    49.00263592
                ]
            },
            "properties": {
                "RSU coordinates": [
                    8.5281993,
                    49.0029593
                ],
                "Distance": 136.47,
                "Frequency": 5.9,
                "RSSI": -93.25,
                "LOS": "False"
            }
        },
        {
            "type": "Feature",
            "geometry": {
                "type": "Point",
                "coordinates": [
                    8.52706089,
                    49.00339047
                ]
            },
            "properties": {
                "RSU coordinates": [
                    8.5281993,
                    49.0029593
                ],
                "Distance": 96.0,
                "Frequency": 5.9,
                "RSSI": -75.22999999999999,
                "LOS": "False"
            }
        },
        {
            "type": "Feature",
            "geometry": {
                "type": "Point",
                "coordinates": [
                    8.52715575,
                    49.00349827
                ]
            },
            "properties": {
                "RSU coordinates": [
                    8.5281993,
                    49.0029593
                ],
                "Distance": 96.99,
                "Frequency": 5.9,
                "RSSI": -60.32,
                "LOS": "True"
            }
        },
        {
            "type": "Feature",
            "geometry": {
                "type": "Point",
                "coordinates": [
                    8.52658657,
                    49.00263592
                ]
            },
            "properties": {
                "RSU coordinates": [
                    8.5281993,
                    49.0029593
                ],
                "Distance": 123.16,
                "Frequency": 5.9,
                "RSSI": -92.37,
                "LOS": "False"
            }
        },
        {
            "type": "Feature",
            "geometry": {
                "type": "Point",
                "coordinates": [
                    8.52725062,
                    49.00339047
                ]
            },
            "properties": {
                "RSU coordinates": [
                    8.5281993,
                    49.0029593
                ],
                "Distance": 84.29,
                "Frequency": 5.9,
                "RSSI": -59.12,
                "LOS": "True"
            }
        },
        {
            "type": "Feature",
            "geometry": {
                "type": "Point",
                "coordinates": [
                    8.52734549,
                    49.00349827
                ]
            },
            "properties": {
                "RSU coordinates": [
                    8.5281993,
                    49.0029593
                ],
                "Distance": 86.53,
                "Frequency": 5.9,
                "RSSI": -74.34,
                "LOS": "False"
            }
        },
        {
            "type": "Feature",
            "geometry": {
                "type": "Point",
                "coordinates": [
                    8.52744035,
                    49.00360606
                ]
            },
            "properties": {
                "RSU coordinates": [
                    8.5281993,
                    49.0029593
                ],
                "Distance": 90.86,
                "Frequency": 5.9,
                "RSSI": -89.75999999999999,
                "LOS": "False"
            }
        },
        {
            "type": "Feature",
            "geometry": {
                "type": "Point",
                "coordinates": [
                    8.5267763,
                    49.00263592
                ]
            },
            "properties": {
                "RSU coordinates": [
                    8.5281993,
                    49.0029593
                ],
                "Distance": 109.98,
                "Frequency": 5.9,
                "RSSI": -91.4,
                "LOS": "False"
            }
        },
        {
            "type": "Feature",
            "geometry": {
                "type": "Point",
                "coordinates": [
                    8.52734549,
                    49.00328268
                ]
            },
            "properties": {
                "RSU coordinates": [
                    8.5281993,
                    49.0029593
                ],
                "Distance": 72.0,
                "Frequency": 5.9,
                "RSSI": -72.77000000000001,
                "LOS": "False"
            }
        },
        {
            "type": "Feature",
            "geometry": {
                "type": "Point",
                "coordinates": [
                    8.52744036,
                    49.00339047
                ]
            },
            "properties": {
                "RSU coordinates": [
                    8.5281993,
                    49.0029593
                ],
                "Distance": 73.32,
                "Frequency": 5.9,
                "RSSI": -57.92,
                "LOS": "True"
            }
        },
        {
            "type": "Feature",
            "geometry": {
                "type": "Point",
                "coordinates": [
                    8.52753522,
                    49.00349827
                ]
            },
            "properties": {
                "RSU coordinates": [
                    8.5281993,
                    49.0029593
                ],
                "Distance": 77.15,
                "Frequency": 5.9,
                "RSSI": -88.36,
                "LOS": "False"
            }
        },
        {
            "type": "Feature",
            "geometry": {
                "type": "Point",
                "coordinates": [
                    8.5270609,
                    49.00274371
                ]
            },
            "properties": {
                "RSU coordinates": [
                    8.5281993,
                    49.0029593
                ],
                "Distance": 86.53,
                "Frequency": 5.9,
                "RSSI": -89.34,
                "LOS": "False"
            }
        },
        {
            "type": "Feature",
            "geometry": {
                "type": "Point",
                "coordinates": [
                    8.52753523,
                    49.00328268
                ]
            },
            "properties": {
                "RSU coordinates": [
                    8.5281993,
                    49.0029593
                ],
                "Distance": 60.4,
                "Frequency": 5.9,
                "RSSI": -56.26,
                "LOS": "True"
            }
        },
        {
            "type": "Feature",
            "geometry": {
                "type": "Point",
                "coordinates": [
                    8.52763009,
                    49.00339047
                ]
            },
            "properties": {
                "RSU coordinates": [
                    8.5281993,
                    49.0029593
                ],
                "Distance": 63.5,
                "Frequency": 5.9,
                "RSSI": -86.69,
                "LOS": "False"
            }
        },
        {
            "type": "Feature",
            "geometry": {
                "type": "Point",
                "coordinates": [
                    8.52725063,
                    49.00274371
                ]
            },
            "properties": {
                "RSU coordinates": [
                    8.5281993,
                    49.0029593
                ],
                "Distance": 73.32,
                "Frequency": 5.9,
                "RSSI": -87.92,
                "LOS": "False"
            }
        },
        {
            "type": "Feature",
            "geometry": {
                "type": "Point",
                "coordinates": [
                    8.52753523,
                    49.00306709
                ]
            },
            "properties": {
                "RSU coordinates": [
                    8.5281993,
                    49.0029593
                ],
                "Distance": 49.96,
                "Frequency": 5.9,
                "RSSI": -99.63,
                "LOS": "False"
            }
        },
        {
            "type": "Feature",
            "geometry": {
                "type": "Point",
                "coordinates": [
                    8.5276301,
                    49.00317489
                ]
            },
            "properties": {
                "RSU coordinates": [
                    8.5281993,
                    49.0029593
                ],
                "Distance": 48.0,
                "Frequency": 5.9,
                "RSSI": -69.28999999999999,
                "LOS": "False"
            }
        },
        {
            "type": "Feature",
            "geometry": {
                "type": "Point",
                "coordinates": [
                    8.52772496,
                    49.00328268
                ]
            },
            "properties": {
                "RSU coordinates": [
                    8.5281993,
                    49.0029593
                ],
                "Distance": 49.96,
                "Frequency": 5.9,
                "RSSI": -54.63,
                "LOS": "True"
            }
        },
        {
            "type": "Feature",
            "geometry": {
                "type": "Point",
                "coordinates": [
                    8.52753523,
                    49.00285151
                ]
            },
            "properties": {
                "RSU coordinates": [
                    8.5281993,
                    49.0029593
                ],
                "Distance": 49.96,
                "Frequency": 5.9,
                "RSSI": -84.63,
                "LOS": "False"
            }
        },
        {
            "type": "Feature",
            "geometry": {
                "type": "Point",
                "coordinates": [
                    8.5276301,
                    49.0029593
                ]
            },
            "properties": {
                "RSU coordinates": [
                    8.5281993,
                    49.0029593
                ],
                "Distance": 41.57,
                "Frequency": 5.9,
                "RSSI": -98.06,
                "LOS": "False"
            }
        },
        {
            "type": "Feature",
            "geometry": {
                "type": "Point",
                "coordinates": [
                    8.52781983,
                    49.00317489
                ]
            },
            "properties": {
                "RSU coordinates": [
                    8.5281993,
                    49.0029593
                ],
                "Distance": 36.66,
                "Frequency": 5.9,
                "RSSI": -51.98,
                "LOS": "True"
            }
        },
        {
            "type": "Feature",
            "geometry": {
                "type": "Point",
                "coordinates": [
                    8.5279147,
                    49.00328268
                ]
            },
            "properties": {
                "RSU coordinates": [
                    8.5281993,
                    49.0029593
                ],
                "Distance": 41.57,
                "Frequency": 5.9,
                "RSSI": -83.06,
                "LOS": "False"
            }
        },
        {
            "type": "Feature",
            "geometry": {
                "type": "Point",
                "coordinates": [
                    8.5276301,
                    49.00274371
                ]
            },
            "properties": {
                "RSU coordinates": [
                    8.5281993,
                    49.0029593
                ],
                "Distance": 48.0,
                "Frequency": 5.9,
                "RSSI": -99.28999999999999,
                "LOS": "False"
            }
        },
        {
            "type": "Feature",
            "geometry": {
                "type": "Point",
                "coordinates": [
                    8.52772497,
                    49.00285151
                ]
            },
            "properties": {
                "RSU coordinates": [
                    8.5281993,
                    49.0029593
                ],
                "Distance": 36.66,
                "Frequency": 5.9,
                "RSSI": -66.97999999999999,
                "LOS": "False"
            }
        },
        {
            "type": "Feature",
            "geometry": {
                "type": "Point",
                "coordinates": [
                    8.52781983,
                    49.0029593
                ]
            },
            "properties": {
                "RSU coordinates": [
                    8.5281993,
                    49.0029593
                ],
                "Distance": 27.71,
                "Frequency": 5.9,
                "RSSI": -79.58,
                "LOS": "False"
            }
        },
        {
            "type": "Feature",
            "geometry": {
                "type": "Point",
                "coordinates": [
                    8.5279147,
                    49.00306709
                ]
            },
            "properties": {
                "RSU coordinates": [
                    8.5281993,
                    49.0029593
                ],
                "Distance": 24.0,
                "Frequency": 5.9,
                "RSSI": -48.34,
                "LOS": "True"
            }
        },
        {
            "type": "Feature",
            "geometry": {
                "type": "Point",
                "coordinates": [
                    8.52800957,
                    49.00317489
                ]
            },
            "properties": {
                "RSU coordinates": [
                    8.5281993,
                    49.0029593
                ],
                "Distance": 27.71,
                "Frequency": 5.9,
                "RSSI": -64.58,
                "LOS": "False"
            }
        },
        {
            "type": "Feature",
            "geometry": {
                "type": "Point",
                "coordinates": [
                    8.5281993,
                    49.00339047
                ]
            },
            "properties": {
                "RSU coordinates": [
                    8.5281993,
                    49.0029593
                ],
                "Distance": 48.0,
                "Frequency": 5.9,
                "RSSI": -84.28999999999999,
                "LOS": "False"
            }
        },
        {
            "type": "Feature",
            "geometry": {
                "type": "Point",
                "coordinates": [
                    8.52781983,
                    49.00274371
                ]
            },
            "properties": {
                "RSU coordinates": [
                    8.5281993,
                    49.0029593
                ],
                "Distance": 36.66,
                "Frequency": 5.9,
                "RSSI": -96.97999999999999,
                "LOS": "False"
            }
        },
        {
            "type": "Feature",
            "geometry": {
                "type": "Point",
                "coordinates": [
                    8.52810443,
                    49.00306709
                ]
            },
            "properties": {
                "RSU coordinates": [
                    8.5281993,
                    49.0029593
                ],
                "Distance": 13.86,
                "Frequency": 5.9,
                "RSSI": -43.63,
                "LOS": "True"
            }
        },
        {
            "type": "Feature",
            "geometry": {
                "type": "Point",
                "coordinates": [
                    8.5281993,
                    49.00317489
                ]
            },
            "properties": {
                "RSU coordinates": [
                    8.5281993,
                    49.0029593
                ],
                "Distance": 24.0,
                "Frequency": 5.9,
                "RSSI": -63.34,
                "LOS": "False"
            }
        },
        {
            "type": "Feature",
            "geometry": {
                "type": "Point",
                "coordinates": [
                    8.52829417,
                    49.00328268
                ]
            },
            "properties": {
                "RSU coordinates": [
                    8.5281993,
                    49.0029593
                ],
                "Distance": 36.66,
                "Frequency": 5.9,
                "RSSI": -81.97999999999999,
                "LOS": "False"
            }
        },
        {
            "type": "Feature",
            "geometry": {
                "type": "Point",
                "coordinates": [
                    8.52838904,
                    49.00339047
                ]
            },
            "properties": {
                "RSU coordinates": [
                    8.5281993,
                    49.0029593
                ],
                "Distance": 49.96,
                "Frequency": 5.9,
                "RSSI": -69.63,
                "LOS": "False"
            }
        },
        {
            "type": "Feature",
            "geometry": {
                "type": "Point",
                "coordinates": [
                    8.5284839,
                    49.00349827
                ]
            },
            "properties": {
                "RSU coordinates": [
                    8.5281993,
                    49.0029593
                ],
                "Distance": 63.5,
                "Frequency": 5.9,
                "RSSI": -71.69,
                "LOS": "False"
            }
        },
        {
            "type": "Feature",
            "geometry": {
                "type": "Point",
                "coordinates": [
                    8.52857877,
                    49.00360606
                ]
            },
            "properties": {
                "RSU coordinates": [
                    8.5281993,
                    49.0029593
                ],
                "Distance": 77.15,
                "Frequency": 5.9,
                "RSSI": -58.36,
                "LOS": "True"
            }
        },
        {
            "type": "Feature",
            "geometry": {
                "type": "Point",
                "coordinates": [
                    8.52867364,
                    49.00371386
                ]
            },
            "properties": {
                "RSU coordinates": [
                    8.5281993,
                    49.0029593
                ],
                "Distance": 90.86,
                "Frequency": 5.9,
                "RSSI": -89.75999999999999,
                "LOS": "False"
            }
        },
        {
            "type": "Feature",
            "geometry": {
                "type": "Point",
                "coordinates": [
                    8.52781984,
                    49.00252813
                ]
            },
            "properties": {
                "RSU coordinates": [
                    8.5281993,
                    49.0029593
                ],
                "Distance": 55.43,
                "Frequency": 5.9,
                "RSSI": -70.52000000000001,
                "LOS": "False"
            }
        },
        {
            "type": "Feature",
            "geometry": {
                "type": "Point",
                "coordinates": [
                    8.5279147,
                    49.00263592
                ]
            },
            "properties": {
                "RSU coordinates": [
                    8.5281993,
                    49.0029593
                ],
                "Distance": 41.57,
                "Frequency": 5.9,
                "RSSI": -68.06,
                "LOS": "False"
            }
        },
        {
            "type": "Feature",
            "geometry": {
                "type": "Point",
                "coordinates": [
                    8.52800957,
                    49.00274371
                ]
            },
            "properties": {
                "RSU coordinates": [
                    8.5281993,
                    49.0029593
                ],
                "Distance": 27.71,
                "Frequency": 5.9,
                "RSSI": -49.58,
                "LOS": "True"
            }
        },
        {
            "type": "Feature",
            "geometry": {
                "type": "Point",
                "coordinates": [
                    8.52810443,
                    49.00285151
                ]
            },
            "properties": {
                "RSU coordinates": [
                    8.5281993,
                    49.0029593
                ],
                "Distance": 13.86,
                "Frequency": 5.9,
                "RSSI": -43.63,
                "LOS": "True"
            }
        },
        {
            "type": "Feature",
            "geometry": {
                "type": "Point",
                "coordinates": [
                    8.52829417,
                    49.00306709
                ]
            },
            "properties": {
                "RSU coordinates": [
                    8.5281993,
                    49.0029593
                ],
                "Distance": 13.86,
                "Frequency": 5.9,
                "RSSI": -43.63,
                "LOS": "True"
            }
        },
        {
            "type": "Feature",
            "geometry": {
                "type": "Point",
                "coordinates": [
                    8.5284839,
                    49.00328268
                ]
            },
            "properties": {
                "RSU coordinates": [
                    8.5281993,
                    49.0029593
                ],
                "Distance": 41.57,
                "Frequency": 5.9,
                "RSSI": -68.06,
                "LOS": "False"
            }
        },
        {
            "type": "Feature",
            "geometry": {
                "type": "Point",
                "coordinates": [
                    8.52857877,
                    49.00339047
                ]
            },
            "properties": {
                "RSU coordinates": [
                    8.5281993,
                    49.0029593
                ],
                "Distance": 55.43,
                "Frequency": 5.9,
                "RSSI": -70.52000000000001,
                "LOS": "False"
            }
        },
        {
            "type": "Feature",
            "geometry": {
                "type": "Point",
                "coordinates": [
                    8.52867364,
                    49.00349827
                ]
            },
            "properties": {
                "RSU coordinates": [
                    8.5281993,
                    49.0029593
                ],
                "Distance": 69.28,
                "Frequency": 5.9,
                "RSSI": -72.44,
                "LOS": "False"
            }
        },
        {
            "type": "Feature",
            "geometry": {
                "type": "Point",
                "coordinates": [
                    8.52876851,
                    49.00360606
                ]
            },
            "properties": {
                "RSU coordinates": [
                    8.5281993,
                    49.0029593
                ],
                "Distance": 83.14,
                "Frequency": 5.9,
                "RSSI": -74.0,
                "LOS": "False"
            }
        },
        {
            "type": "Feature",
            "geometry": {
                "type": "Point",
                "coordinates": [
                    8.52886338,
                    49.00371386
                ]
            },
            "properties": {
                "RSU coordinates": [
                    8.5281993,
                    49.0029593
                ],
                "Distance": 96.99,
                "Frequency": 5.9,
                "RSSI": -90.32,
                "LOS": "False"
            }
        },
        {
            "type": "Feature",
            "geometry": {
                "type": "Point",
                "coordinates": [
                    8.5279147,
                    49.00242033
                ]
            },
            "properties": {
                "RSU coordinates": [
                    8.5281993,
                    49.0029593
                ],
                "Distance": 63.5,
                "Frequency": 5.9,
                "RSSI": -71.69,
                "LOS": "False"
            }
        },
        {
            "type": "Feature",
            "geometry": {
                "type": "Point",
                "coordinates": [
                    8.52800957,
                    49.00252813
                ]
            },
            "properties": {
                "RSU coordinates": [
                    8.5281993,
                    49.0029593
                ],
                "Distance": 49.96,
                "Frequency": 5.9,
                "RSSI": -69.63,
                "LOS": "False"
            }
        },
        {
            "type": "Feature",
            "geometry": {
                "type": "Point",
                "coordinates": [
                    8.52810443,
                    49.00263592
                ]
            },
            "properties": {
                "RSU coordinates": [
                    8.5281993,
                    49.0029593
                ],
                "Distance": 36.66,
                "Frequency": 5.9,
                "RSSI": -66.97999999999999,
                "LOS": "False"
            }
        },
        {
            "type": "Feature",
            "geometry": {
                "type": "Point",
                "coordinates": [
                    8.5281993,
                    49.00274371
                ]
            },
            "properties": {
                "RSU coordinates": [
                    8.5281993,
                    49.0029593
                ],
                "Distance": 24.0,
                "Frequency": 5.9,
                "RSSI": -78.34,
                "LOS": "False"
            }
        },
        {
            "type": "Feature",
            "geometry": {
                "type": "Point",
                "coordinates": [
                    8.5284839,
                    49.00306709
                ]
            },
            "properties": {
                "RSU coordinates": [
                    8.5281993,
                    49.0029593
                ],
                "Distance": 24.0,
                "Frequency": 5.9,
                "RSSI": -63.34,
                "LOS": "False"
            }
        },
        {
            "type": "Feature",
            "geometry": {
                "type": "Point",
                "coordinates": [
                    8.52857877,
                    49.00317489
                ]
            },
            "properties": {
                "RSU coordinates": [
                    8.5281993,
                    49.0029593
                ],
                "Distance": 36.66,
                "Frequency": 5.9,
                "RSSI": -81.97999999999999,
                "LOS": "False"
            }
        },
        {
            "type": "Feature",
            "geometry": {
                "type": "Point",
                "coordinates": [
                    8.52867364,
                    49.00328268
                ]
            },
            "properties": {
                "RSU coordinates": [
                    8.5281993,
                    49.0029593
                ],
                "Distance": 49.96,
                "Frequency": 5.9,
                "RSSI": -84.63,
                "LOS": "False"
            }
        },
        {
            "type": "Feature",
            "geometry": {
                "type": "Point",
                "coordinates": [
                    8.52876851,
                    49.00339047
                ]
            },
            "properties": {
                "RSU coordinates": [
                    8.5281993,
                    49.0029593
                ],
                "Distance": 63.5,
                "Frequency": 5.9,
                "RSSI": -86.69,
                "LOS": "False"
            }
        },
        {
            "type": "Feature",
            "geometry": {
                "type": "Point",
                "coordinates": [
                    8.52886338,
                    49.00349827
                ]
            },
            "properties": {
                "RSU coordinates": [
                    8.5281993,
                    49.0029593
                ],
                "Distance": 77.15,
                "Frequency": 5.9,
                "RSSI": -88.36,
                "LOS": "False"
            }
        },
        {
            "type": "Feature",
            "geometry": {
                "type": "Point",
                "coordinates": [
                    8.52905312,
                    49.00371386
                ]
            },
            "properties": {
                "RSU coordinates": [
                    8.5281993,
                    49.0029593
                ],
                "Distance": 104.61,
                "Frequency": 5.9,
                "RSSI": -90.97,
                "LOS": "False"
            }
        },
        {
            "type": "Feature",
            "geometry": {
                "type": "Point",
                "coordinates": [
                    8.52914799,
                    49.00382165
                ]
            },
            "properties": {
                "RSU coordinates": [
                    8.5281993,
                    49.0029593
                ],
                "Distance": 118.39,
                "Frequency": 5.9,
                "RSSI": -92.03,
                "LOS": "False"
            }
        },
        {
            "type": "Feature",
            "geometry": {
                "type": "Point",
                "coordinates": [
                    8.52772497,
                    49.00198916
                ]
            },
            "properties": {
                "RSU coordinates": [
                    8.5281993,
                    49.0029593
                ],
                "Distance": 113.42,
                "Frequency": 5.9,
                "RSSI": -91.66,
                "LOS": "False"
            }
        },
        {
            "type": "Feature",
            "geometry": {
                "type": "Point",
                "coordinates": [
                    8.52800957,
                    49.00231254
                ]
            },
            "properties": {
                "RSU coordinates": [
                    8.5281993,
                    49.0029593
                ],
                "Distance": 73.32,
                "Frequency": 5.9,
                "RSSI": -72.92,
                "LOS": "False"
            }
        },
        {
            "type": "Feature",
            "geometry": {
                "type": "Point",
                "coordinates": [
                    8.52810443,
                    49.00242033
                ]
            },
            "properties": {
                "RSU coordinates": [
                    8.5281993,
                    49.0029593
                ],
                "Distance": 60.4,
                "Frequency": 5.9,
                "RSSI": -71.25999999999999,
                "LOS": "False"
            }
        },
        {
            "type": "Feature",
            "geometry": {
                "type": "Point",
                "coordinates": [
                    8.5281993,
                    49.00252813
                ]
            },
            "properties": {
                "RSU coordinates": [
                    8.5281993,
                    49.0029593
                ],
                "Distance": 48.0,
                "Frequency": 5.9,
                "RSSI": -84.28999999999999,
                "LOS": "False"
            }
        },
        {
            "type": "Feature",
            "geometry": {
                "type": "Point",
                "coordinates": [
                    8.5284839,
                    49.00285151
                ]
            },
            "properties": {
                "RSU coordinates": [
                    8.5281993,
                    49.0029593
                ],
                "Distance": 24.0,
                "Frequency": 5.9,
                "RSSI": -48.34,
                "LOS": "True"
            }
        },
        {
            "type": "Feature",
            "geometry": {
                "type": "Point",
                "coordinates": [
                    8.52857877,
                    49.0029593
                ]
            },
            "properties": {
                "RSU coordinates": [
                    8.5281993,
                    49.0029593
                ],
                "Distance": 27.71,
                "Frequency": 5.9,
                "RSSI": -64.58,
                "LOS": "False"
            }
        },
        {
            "type": "Feature",
            "geometry": {
                "type": "Point",
                "coordinates": [
                    8.52867364,
                    49.00306709
                ]
            },
            "properties": {
                "RSU coordinates": [
                    8.5281993,
                    49.0029593
                ],
                "Distance": 36.66,
                "Frequency": 5.9,
                "RSSI": -81.97999999999999,
                "LOS": "False"
            }
        },
        {
            "type": "Feature",
            "geometry": {
                "type": "Point",
                "coordinates": [
                    8.5287685,
                    49.00317489
                ]
            },
            "properties": {
                "RSU coordinates": [
                    8.5281993,
                    49.0029593
                ],
                "Distance": 48.0,
                "Frequency": 5.9,
                "RSSI": -84.28999999999999,
                "LOS": "False"
            }
        },
        {
            "type": "Feature",
            "geometry": {
                "type": "Point",
                "coordinates": [
                    8.52895824,
                    49.00339047
                ]
            },
            "properties": {
                "RSU coordinates": [
                    8.5281993,
                    49.0029593
                ],
                "Distance": 73.32,
                "Frequency": 5.9,
                "RSSI": -87.92,
                "LOS": "False"
            }
        },
        {
            "type": "Feature",
            "geometry": {
                "type": "Point",
                "coordinates": [
                    8.52905311,
                    49.00349827
                ]
            },
            "properties": {
                "RSU coordinates": [
                    8.5281993,
                    49.0029593
                ],
                "Distance": 86.53,
                "Frequency": 5.9,
                "RSSI": -89.34,
                "LOS": "False"
            }
        },
        {
            "type": "Feature",
            "geometry": {
                "type": "Point",
                "coordinates": [
                    8.52914798,
                    49.00360606
                ]
            },
            "properties": {
                "RSU coordinates": [
                    8.5281993,
                    49.0029593
                ],
                "Distance": 99.92,
                "Frequency": 5.9,
                "RSSI": -90.58,
                "LOS": "False"
            }
        },
        {
            "type": "Feature",
            "geometry": {
                "type": "Point",
                "coordinates": [
                    8.52781984,
                    49.00188136
                ]
            },
            "properties": {
                "RSU coordinates": [
                    8.5281993,
                    49.0029593
                ],
                "Distance": 123.16,
                "Frequency": 5.9,
                "RSSI": -92.37,
                "LOS": "False"
            }
        },
        {
            "type": "Feature",
            "geometry": {
                "type": "Point",
                "coordinates": [
                    8.5279147,
                    49.00198916
                ]
            },
            "properties": {
                "RSU coordinates": [
                    8.5281993,
                    49.0029593
                ],
                "Distance": 109.98,
                "Frequency": 5.9,
                "RSSI": -91.4,
                "LOS": "False"
            }
        },
        {
            "type": "Feature",
            "geometry": {
                "type": "Point",
                "coordinates": [
                    8.52800957,
                    49.00209695
                ]
            },
            "properties": {
                "RSU coordinates": [
                    8.5281993,
                    49.0029593
                ],
                "Distance": 96.99,
                "Frequency": 5.9,
                "RSSI": -75.32,
                "LOS": "False"
            }
        },
        {
            "type": "Feature",
            "geometry": {
                "type": "Point",
                "coordinates": [
                    8.5281993,
                    49.00231254
                ]
            },
            "properties": {
                "RSU coordinates": [
                    8.5281993,
                    49.0029593
                ],
                "Distance": 72.0,
                "Frequency": 5.9,
                "RSSI": -87.77000000000001,
                "LOS": "False"
            }
        },
        {
            "type": "Feature",
            "geometry": {
                "type": "Point",
                "coordinates": [
                    8.52857877,
                    49.00274371
                ]
            },
            "properties": {
                "RSU coordinates": [
                    8.5281993,
                    49.0029593
                ],
                "Distance": 36.66,
                "Frequency": 5.9,
                "RSSI": -51.98,
                "LOS": "True"
            }
        },
        {
            "type": "Feature",
            "geometry": {
                "type": "Point",
                "coordinates": [
                    8.52905311,
                    49.00328268
                ]
            },
            "properties": {
                "RSU coordinates": [
                    8.5281993,
                    49.0029593
                ],
                "Distance": 72.0,
                "Frequency": 5.9,
                "RSSI": -87.77000000000001,
                "LOS": "False"
            }
        },
        {
            "type": "Feature",
            "geometry": {
                "type": "Point",
                "coordinates": [
                    8.52924285,
                    49.00349827
                ]
            },
            "properties": {
                "RSU coordinates": [
                    8.5281993,
                    49.0029593
                ],
                "Distance": 96.99,
                "Frequency": 5.9,
                "RSSI": -90.32,
                "LOS": "False"
            }
        },
        {
            "type": "Feature",
            "geometry": {
                "type": "Point",
                "coordinates": [
                    8.52800957,
                    49.00188136
                ]
            },
            "properties": {
                "RSU coordinates": [
                    8.5281993,
                    49.0029593
                ],
                "Distance": 120.8,
                "Frequency": 5.9,
                "RSSI": -77.2,
                "LOS": "False"
            }
        },
        {
            "type": "Feature",
            "geometry": {
                "type": "Point",
                "coordinates": [
                    8.52810443,
                    49.00198916
                ]
            },
            "properties": {
                "RSU coordinates": [
                    8.5281993,
                    49.0029593
                ],
                "Distance": 108.22,
                "Frequency": 5.9,
                "RSSI": -91.25999999999999,
                "LOS": "False"
            }
        },
        {
            "type": "Feature",
            "geometry": {
                "type": "Point",
                "coordinates": [
                    8.52867363,
                    49.00263592
                ]
            },
            "properties": {
                "RSU coordinates": [
                    8.5281993,
                    49.0029593
                ],
                "Distance": 49.96,
                "Frequency": 5.9,
                "RSSI": -54.63,
                "LOS": "True"
            }
        },
        {
            "type": "Feature",
            "geometry": {
                "type": "Point",
                "coordinates": [
                    8.52933771,
                    49.00339047
                ]
            },
            "properties": {
                "RSU coordinates": [
                    8.5281993,
                    49.0029593
                ],
                "Distance": 96.0,
                "Frequency": 5.9,
                "RSSI": -90.22999999999999,
                "LOS": "False"
            }
        },
        {
            "type": "Feature",
            "geometry": {
                "type": "Point",
                "coordinates": [
                    8.52791471,
                    49.00155798
                ]
            },
            "properties": {
                "RSU coordinates": [
                    8.5281993,
                    49.0029593
                ],
                "Distance": 157.38,
                "Frequency": 5.9,
                "RSSI": -94.47,
                "LOS": "False"
            }
        },
        {
            "type": "Feature",
            "geometry": {
                "type": "Point",
                "coordinates": [
                    8.5287685,
                    49.00252813
                ]
            },
            "properties": {
                "RSU coordinates": [
                    8.5281993,
                    49.0029593
                ],
                "Distance": 63.5,
                "Frequency": 5.9,
                "RSSI": -56.69,
                "LOS": "True"
            }
        },
        {
            "type": "Feature",
            "geometry": {
                "type": "Point",
                "coordinates": [
                    8.52886336,
                    49.00263592
                ]
            },
            "properties": {
                "RSU coordinates": [
                    8.5281993,
                    49.0029593
                ],
                "Distance": 60.4,
                "Frequency": 5.9,
                "RSSI": -71.25999999999999,
                "LOS": "False"
            }
        },
        {
            "type": "Feature",
            "geometry": {
                "type": "Point",
                "coordinates": [
                    8.52962232,
                    49.00349827
                ]
            },
            "properties": {
                "RSU coordinates": [
                    8.5281993,
                    49.0029593
                ],
                "Distance": 120.0,
                "Frequency": 5.9,
                "RSSI": -92.15,
                "LOS": "False"
            }
        },
        {
            "type": "Feature",
            "geometry": {
                "type": "Point",
                "coordinates": [
                    8.52971719,
                    49.00360606
                ]
            },
            "properties": {
                "RSU coordinates": [
                    8.5281993,
                    49.0029593
                ],
                "Distance": 132.18,
                "Frequency": 5.9,
                "RSSI": -92.97999999999999,
                "LOS": "False"
            }
        },
        {
            "type": "Feature",
            "geometry": {
                "type": "Point",
                "coordinates": [
                    8.52781985,
                    49.0012346
                ]
            },
            "properties": {
                "RSU coordinates": [
                    8.5281993,
                    49.0029593
                ],
                "Distance": 193.99,
                "Frequency": 5.9,
                "RSSI": -81.27,
                "LOS": "False"
            }
        },
        {
            "type": "Feature",
            "geometry": {
                "type": "Point",
                "coordinates": [
                    8.52886336,
                    49.00242033
                ]
            },
            "properties": {
                "RSU coordinates": [
                    8.5281993,
                    49.0029593
                ],
                "Distance": 77.15,
                "Frequency": 5.9,
                "RSSI": -88.36,
                "LOS": "False"
            }
        },
        {
            "type": "Feature",
            "geometry": {
                "type": "Point",
                "coordinates": [
                    8.52895823,
                    49.00252813
                ]
            },
            "properties": {
                "RSU coordinates": [
                    8.5281993,
                    49.0029593
                ],
                "Distance": 73.32,
                "Frequency": 5.9,
                "RSSI": -72.92,
                "LOS": "False"
            }
        },
        {
            "type": "Feature",
            "geometry": {
                "type": "Point",
                "coordinates": [
                    8.52990693,
                    49.00360606
                ]
            },
            "properties": {
                "RSU coordinates": [
                    8.5281993,
                    49.0029593
                ],
                "Distance": 144.0,
                "Frequency": 5.9,
                "RSSI": -93.71000000000001,
                "LOS": "False"
            }
        },
        {
            "type": "Feature",
            "geometry": {
                "type": "Point",
                "coordinates": [
                    8.52914796,
                    49.00252813
                ]
            },
            "properties": {
                "RSU coordinates": [
                    8.5281993,
                    49.0029593
                ],
                "Distance": 84.29,
                "Frequency": 5.9,
                "RSSI": -89.12,
                "LOS": "False"
            }
        },
        {
            "type": "Feature",
            "geometry": {
                "type": "Point",
                "coordinates": [
                    8.52763013,
                    49.00037225
                ]
            },
            "properties": {
                "RSU coordinates": [
                    8.5281993,
                    49.0029593
                ],
                "Distance": 290.98,
                "Frequency": 5.9,
                "RSSI": -99.74,
                "LOS": "False"
            }
        }
    ]
}