{
    "type": "FeatureCollection",
    "features": [
        {
            "type": "Feature",
            "geometry": {
                "type": "Point",
                "coordinates": [
                    6.63108977,
                    49.74418696
                ]
            },
            "properties": {
                "RSU coordinates": [
                    6.6348458,
                    49.7451571
                ],
                "Distance": 290.98,
                "Frequency": 5.9,
                "RSSI": -99.74,
                "LOS": "False"
            }
        },
        {
            "type": "Feature",
            "geometry": {
                "type": "Point",
                "coordinates": [
                    6.63157131,
                    49.74429475
                ]
            },
            "properties": {
                "RSU coordinates": [
                    6.6348458,
                    49.7451571
                ],
                "Distance": 254.37,
                "Frequency": 5.9,
                "RSSI": -98.59,
                "LOS": "False"
            }
        },
        {
            "type": "Feature",
            "geometry": {
                "type": "Point",
                "coordinates": [
                    6.63186022,
                    49.74440254
                ]
            },
            "properties": {
                "RSU coordinates": [
                    6.6348458,
                    49.7451571
                ],
                "Distance": 230.62,
                "Frequency": 5.9,
                "RSSI": -97.75,
                "LOS": "False"
            }
        },
        {
            "type": "Feature",
            "geometry": {
                "type": "Point",
                "coordinates": [
                    6.63234176,
                    49.74451034
                ]
            },
            "properties": {
                "RSU coordinates": [
                    6.6348458,
                    49.7451571
                ],
                "Distance": 193.99,
                "Frequency": 5.9,
                "RSSI": -96.27,
                "LOS": "False"
            }
        },
        {
            "type": "Feature",
            "geometry": {
                "type": "Point",
                "coordinates": [
                    6.63667585,
                    49.74914546
                ]
            },
            "properties": {
                "RSU coordinates": [
                    6.6348458,
                    49.7451571
                ],
                "Distance": 463.1,
                "Frequency": 5.9,
                "RSSI": -73.73,
                "LOS": "True"
            }
        },
        {
            "type": "Feature",
            "geometry": {
                "type": "Point",
                "coordinates": [
                    6.63677217,
                    49.74925326
                ]
            },
            "properties": {
                "RSU coordinates": [
                    6.6348458,
                    49.7451571
                ],
                "Distance": 476.59,
                "Frequency": 5.9,
                "RSSI": -73.98,
                "LOS": "True"
            }
        },
        {
            "type": "Feature",
            "geometry": {
                "type": "Point",
                "coordinates": [
                    6.63686849,
                    49.74936105
                ]
            },
            "properties": {
                "RSU coordinates": [
                    6.6348458,
                    49.7451571
                ],
                "Distance": 490.09,
                "Frequency": 5.9,
                "RSSI": -74.21,
                "LOS": "True"
            }
        },
        {
            "type": "Feature",
            "geometry": {
                "type": "Point",
                "coordinates": [
                    6.6328233,
                    49.74461813
                ]
            },
            "properties": {
                "RSU coordinates": [
                    6.6348458,
                    49.7451571
                ],
                "Distance": 157.38,
                "Frequency": 5.9,
                "RSSI": -94.47,
                "LOS": "False"
            }
        },
        {
            "type": "Feature",
            "geometry": {
                "type": "Point",
                "coordinates": [
                    6.6364832,
                    49.74871429
                ]
            },
            "properties": {
                "RSU coordinates": [
                    6.6348458,
                    49.7451571
                ],
                "Distance": 413.14,
                "Frequency": 5.9,
                "RSSI": -72.75,
                "LOS": "True"
            }
        },
        {
            "type": "Feature",
            "geometry": {
                "type": "Point",
                "coordinates": [
                    6.63657952,
                    49.74882208
                ]
            },
            "properties": {
                "RSU coordinates": [
                    6.6348458,
                    49.7451571
                ],
                "Distance": 426.63,
                "Frequency": 5.9,
                "RSSI": -73.03,
                "LOS": "True"
            }
        },
        {
            "type": "Feature",
            "geometry": {
                "type": "Point",
                "coordinates": [
                    6.63667584,
                    49.74892988
                ]
            },
            "properties": {
                "RSU coordinates": [
                    6.6348458,
                    49.7451571
                ],
                "Distance": 440.15,
                "Frequency": 5.9,
                "RSSI": -73.29,
                "LOS": "True"
            }
        },
        {
            "type": "Feature",
            "geometry": {
                "type": "Point",
                "coordinates": [
                    6.63677216,
                    49.74903767
                ]
            },
            "properties": {
                "RSU coordinates": [
                    6.6348458,
                    49.7451571
                ],
                "Distance": 453.68,
                "Frequency": 5.9,
                "RSSI": -73.55,
                "LOS": "True"
            }
        },
        {
            "type": "Feature",
            "geometry": {
                "type": "Point",
                "coordinates": [
                    6.63619423,
                    49.74817532
                ]
            },
            "properties": {
                "RSU coordinates": [
                    6.6348458,
                    49.7451571
                ],
                "Distance": 349.72,
                "Frequency": 5.9,
                "RSSI": -71.32,
                "LOS": "True"
            }
        },
        {
            "type": "Feature",
            "geometry": {
                "type": "Point",
                "coordinates": [
                    6.63629055,
                    49.74828311
                ]
            },
            "properties": {
                "RSU coordinates": [
                    6.6348458,
                    49.7451571
                ],
                "Distance": 363.19,
                "Frequency": 5.9,
                "RSSI": -71.64,
                "LOS": "True"
            }
        },
        {
            "type": "Feature",
            "geometry": {
                "type": "Point",
                "coordinates": [
                    6.63638687,
                    49.74839091
                ]
            },
            "properties": {
                "RSU coordinates": [
                    6.6348458,
                    49.7451571
                ],
                "Distance": 376.68,
                "Frequency": 5.9,
                "RSSI": -71.96,
                "LOS": "True"
            }
        },
        {
            "type": "Feature",
            "geometry": {
                "type": "Point",
                "coordinates": [
                    6.63648319,
                    49.7484987
                ]
            },
            "properties": {
                "RSU coordinates": [
                    6.6348458,
                    49.7451571
                ],
                "Distance": 390.2,
                "Frequency": 5.9,
                "RSSI": -72.26,
                "LOS": "True"
            }
        },
        {
            "type": "Feature",
            "geometry": {
                "type": "Point",
                "coordinates": [
                    6.63657951,
                    49.74860649
                ]
            },
            "properties": {
                "RSU coordinates": [
                    6.6348458,
                    49.7451571
                ],
                "Distance": 403.74,
                "Frequency": 5.9,
                "RSSI": -72.55,
                "LOS": "True"
            }
        },
        {
            "type": "Feature",
            "geometry": {
                "type": "Point",
                "coordinates": [
                    6.63600159,
                    49.74774415
                ]
            },
            "properties": {
                "RSU coordinates": [
                    6.6348458,
                    49.7451571
                ],
                "Distance": 299.76,
                "Frequency": 5.9,
                "RSSI": -70.0,
                "LOS": "True"
            }
        },
        {
            "type": "Feature",
            "geometry": {
                "type": "Point",
                "coordinates": [
                    6.6360979,
                    49.74785194
                ]
            },
            "properties": {
                "RSU coordinates": [
                    6.6348458,
                    49.7451571
                ],
                "Distance": 313.23,
                "Frequency": 5.9,
                "RSSI": -70.38,
                "LOS": "True"
            }
        },
        {
            "type": "Feature",
            "geometry": {
                "type": "Point",
                "coordinates": [
                    6.63619422,
                    49.74795973
                ]
            },
            "properties": {
                "RSU coordinates": [
                    6.6348458,
                    49.7451571
                ],
                "Distance": 326.73,
                "Frequency": 5.9,
                "RSSI": -70.74,
                "LOS": "True"
            }
        },
        {
            "type": "Feature",
            "geometry": {
                "type": "Point",
                "coordinates": [
                    6.63629054,
                    49.74806753
                ]
            },
            "properties": {
                "RSU coordinates": [
                    6.6348458,
                    49.7451571
                ],
                "Distance": 340.26,
                "Frequency": 5.9,
                "RSSI": -71.09,
                "LOS": "True"
            }
        },
        {
            "type": "Feature",
            "geometry": {
                "type": "Point",
                "coordinates": [
                    6.63638686,
                    49.74817532
                ]
            },
            "properties": {
                "RSU coordinates": [
                    6.6348458,
                    49.7451571
                ],
                "Distance": 353.81,
                "Frequency": 5.9,
                "RSSI": -71.42,
                "LOS": "True"
            }
        },
        {
            "type": "Feature",
            "geometry": {
                "type": "Point",
                "coordinates": [
                    6.63359377,
                    49.74483372
                ]
            },
            "properties": {
                "RSU coordinates": [
                    6.6348458,
                    49.7451571
                ],
                "Distance": 96.99,
                "Frequency": 5.9,
                "RSSI": -90.32,
                "LOS": "False"
            }
        },
        {
            "type": "Feature",
            "geometry": {
                "type": "Point",
                "coordinates": [
                    6.6338827,
                    49.7451571
                ]
            },
            "properties": {
                "RSU coordinates": [
                    6.6348458,
                    49.7451571
                ],
                "Distance": 69.28,
                "Frequency": 5.9,
                "RSSI": -87.44,
                "LOS": "False"
            }
        },
        {
            "type": "Feature",
            "geometry": {
                "type": "Point",
                "coordinates": [
                    6.63580895,
                    49.74731297
                ]
            },
            "properties": {
                "RSU coordinates": [
                    6.6348458,
                    49.7451571
                ],
                "Distance": 249.8,
                "Frequency": 5.9,
                "RSSI": -68.44,
                "LOS": "True"
            }
        },
        {
            "type": "Feature",
            "geometry": {
                "type": "Point",
                "coordinates": [
                    6.63590526,
                    49.74742077
                ]
            },
            "properties": {
                "RSU coordinates": [
                    6.6348458,
                    49.7451571
                ],
                "Distance": 263.27,
                "Frequency": 5.9,
                "RSSI": -68.89,
                "LOS": "True"
            }
        },
        {
            "type": "Feature",
            "geometry": {
                "type": "Point",
                "coordinates": [
                    6.63600158,
                    49.74752856
                ]
            },
            "properties": {
                "RSU coordinates": [
                    6.6348458,
                    49.7451571
                ],
                "Distance": 276.78,
                "Frequency": 5.9,
                "RSSI": -69.31,
                "LOS": "True"
            }
        },
        {
            "type": "Feature",
            "geometry": {
                "type": "Point",
                "coordinates": [
                    6.6360979,
                    49.74763635
                ]
            },
            "properties": {
                "RSU coordinates": [
                    6.6348458,
                    49.7451571
                ],
                "Distance": 290.32,
                "Frequency": 5.9,
                "RSSI": -69.72,
                "LOS": "True"
            }
        },
        {
            "type": "Feature",
            "geometry": {
                "type": "Point",
                "coordinates": [
                    6.63619422,
                    49.74774415
                ]
            },
            "properties": {
                "RSU coordinates": [
                    6.6348458,
                    49.7451571
                ],
                "Distance": 303.89,
                "Frequency": 5.9,
                "RSSI": -70.12,
                "LOS": "True"
            }
        },
        {
            "type": "Feature",
            "geometry": {
                "type": "Point",
                "coordinates": [
                    6.63407532,
                    49.7451571
                ]
            },
            "properties": {
                "RSU coordinates": [
                    6.6348458,
                    49.7451571
                ],
                "Distance": 55.43,
                "Frequency": 5.9,
                "RSSI": -85.52000000000001,
                "LOS": "False"
            }
        },
        {
            "type": "Feature",
            "geometry": {
                "type": "Point",
                "coordinates": [
                    6.63426794,
                    49.74537269
                ]
            },
            "properties": {
                "RSU coordinates": [
                    6.6348458,
                    49.7451571
                ],
                "Distance": 48.0,
                "Frequency": 5.9,
                "RSSI": -84.28999999999999,
                "LOS": "False"
            }
        },
        {
            "type": "Feature",
            "geometry": {
                "type": "Point",
                "coordinates": [
                    6.63446056,
                    49.74558827
                ]
            },
            "properties": {
                "RSU coordinates": [
                    6.6348458,
                    49.7451571
                ],
                "Distance": 55.43,
                "Frequency": 5.9,
                "RSSI": -85.52000000000001,
                "LOS": "False"
            }
        },
        {
            "type": "Feature",
            "geometry": {
                "type": "Point",
                "coordinates": [
                    6.63561631,
                    49.7468818
                ]
            },
            "properties": {
                "RSU coordinates": [
                    6.6348458,
                    49.7451571
                ],
                "Distance": 199.84,
                "Frequency": 5.9,
                "RSSI": -66.52,
                "LOS": "True"
            }
        },
        {
            "type": "Feature",
            "geometry": {
                "type": "Point",
                "coordinates": [
                    6.63571263,
                    49.74698959
                ]
            },
            "properties": {
                "RSU coordinates": [
                    6.6348458,
                    49.7451571
                ],
                "Distance": 213.32,
                "Frequency": 5.9,
                "RSSI": -67.08,
                "LOS": "True"
            }
        },
        {
            "type": "Feature",
            "geometry": {
                "type": "Point",
                "coordinates": [
                    6.63580894,
                    49.74709738
                ]
            },
            "properties": {
                "RSU coordinates": [
                    6.6348458,
                    49.7451571
                ],
                "Distance": 226.84,
                "Frequency": 5.9,
                "RSSI": -67.61,
                "LOS": "True"
            }
        },
        {
            "type": "Feature",
            "geometry": {
                "type": "Point",
                "coordinates": [
                    6.63590526,
                    49.74720518
                ]
            },
            "properties": {
                "RSU coordinates": [
                    6.6348458,
                    49.7451571
                ],
                "Distance": 240.4,
                "Frequency": 5.9,
                "RSSI": -68.11,
                "LOS": "True"
            }
        },
        {
            "type": "Feature",
            "geometry": {
                "type": "Point",
                "coordinates": [
                    6.63417163,
                    49.74504931
                ]
            },
            "properties": {
                "RSU coordinates": [
                    6.6348458,
                    49.7451571
                ],
                "Distance": 49.96,
                "Frequency": 5.9,
                "RSSI": -99.63,
                "LOS": "False"
            }
        },
        {
            "type": "Feature",
            "geometry": {
                "type": "Point",
                "coordinates": [
                    6.63426794,
                    49.7451571
                ]
            },
            "properties": {
                "RSU coordinates": [
                    6.6348458,
                    49.7451571
                ],
                "Distance": 41.57,
                "Frequency": 5.9,
                "RSSI": -83.06,
                "LOS": "False"
            }
        },
        {
            "type": "Feature",
            "geometry": {
                "type": "Point",
                "coordinates": [
                    6.63455687,
                    49.74548048
                ]
            },
            "properties": {
                "RSU coordinates": [
                    6.6348458,
                    49.7451571
                ],
                "Distance": 41.57,
                "Frequency": 5.9,
                "RSSI": -83.06,
                "LOS": "False"
            }
        },
        {
            "type": "Feature",
            "geometry": {
                "type": "Point",
                "coordinates": [
                    6.63532736,
                    49.74634283
                ]
            },
            "properties": {
                "RSU coordinates": [
                    6.6348458,
                    49.7451571
                ],
                "Distance": 136.47,
                "Frequency": 5.9,
                "RSSI": -63.25,
                "LOS": "True"
            }
        },
        {
            "type": "Feature",
            "geometry": {
                "type": "Point",
                "coordinates": [
                    6.63542368,
                    49.74645062
                ]
            },
            "properties": {
                "RSU coordinates": [
                    6.6348458,
                    49.7451571
                ],
                "Distance": 149.88,
                "Frequency": 5.9,
                "RSSI": -64.05,
                "LOS": "True"
            }
        },
        {
            "type": "Feature",
            "geometry": {
                "type": "Point",
                "coordinates": [
                    6.63551999,
                    49.74655842
                ]
            },
            "properties": {
                "RSU coordinates": [
                    6.6348458,
                    49.7451571
                ],
                "Distance": 163.36,
                "Frequency": 5.9,
                "RSSI": -64.79,
                "LOS": "True"
            }
        },
        {
            "type": "Feature",
            "geometry": {
                "type": "Point",
                "coordinates": [
                    6.63561631,
                    49.74666621
                ]
            },
            "properties": {
                "RSU coordinates": [
                    6.6348458,
                    49.7451571
                ],
                "Distance": 176.91,
                "Frequency": 5.9,
                "RSSI": -65.48,
                "LOS": "True"
            }
        },
        {
            "type": "Feature",
            "geometry": {
                "type": "Point",
                "coordinates": [
                    6.63571262,
                    49.746774
                ]
            },
            "properties": {
                "RSU coordinates": [
                    6.6348458,
                    49.7451571
                ],
                "Distance": 190.49,
                "Frequency": 5.9,
                "RSSI": -66.11,
                "LOS": "True"
            }
        },
        {
            "type": "Feature",
            "geometry": {
                "type": "Point",
                "coordinates": [
                    6.63426794,
                    49.74494151
                ]
            },
            "properties": {
                "RSU coordinates": [
                    6.6348458,
                    49.7451571
                ],
                "Distance": 48.0,
                "Frequency": 5.9,
                "RSSI": -99.28999999999999,
                "LOS": "False"
            }
        },
        {
            "type": "Feature",
            "geometry": {
                "type": "Point",
                "coordinates": [
                    6.63446056,
                    49.7451571
                ]
            },
            "properties": {
                "RSU coordinates": [
                    6.6348458,
                    49.7451571
                ],
                "Distance": 27.71,
                "Frequency": 5.9,
                "RSSI": -79.58,
                "LOS": "False"
            }
        },
        {
            "type": "Feature",
            "geometry": {
                "type": "Point",
                "coordinates": [
                    6.63455687,
                    49.74526489
                ]
            },
            "properties": {
                "RSU coordinates": [
                    6.6348458,
                    49.7451571
                ],
                "Distance": 24.0,
                "Frequency": 5.9,
                "RSSI": -78.34,
                "LOS": "False"
            }
        },
        {
            "type": "Feature",
            "geometry": {
                "type": "Point",
                "coordinates": [
                    6.63474949,
                    49.74548048
                ]
            },
            "properties": {
                "RSU coordinates": [
                    6.6348458,
                    49.7451571
                ],
                "Distance": 36.66,
                "Frequency": 5.9,
                "RSSI": -96.97999999999999,
                "LOS": "False"
            }
        },
        {
            "type": "Feature",
            "geometry": {
                "type": "Point",
                "coordinates": [
                    6.63513474,
                    49.74591166
                ]
            },
            "properties": {
                "RSU coordinates": [
                    6.6348458,
                    49.7451571
                ],
                "Distance": 86.53,
                "Frequency": 5.9,
                "RSSI": -59.34,
                "LOS": "True"
            }
        },
        {
            "type": "Feature",
            "geometry": {
                "type": "Point",
                "coordinates": [
                    6.63523105,
                    49.74601945
                ]
            },
            "properties": {
                "RSU coordinates": [
                    6.6348458,
                    49.7451571
                ],
                "Distance": 99.92,
                "Frequency": 5.9,
                "RSSI": -60.58,
                "LOS": "True"
            }
        },
        {
            "type": "Feature",
            "geometry": {
                "type": "Point",
                "coordinates": [
                    6.63532736,
                    49.74612724
                ]
            },
            "properties": {
                "RSU coordinates": [
                    6.6348458,
                    49.7451571
                ],
                "Distance": 113.42,
                "Frequency": 5.9,
                "RSSI": -61.66,
                "LOS": "True"
            }
        },
        {
            "type": "Feature",
            "geometry": {
                "type": "Point",
                "coordinates": [
                    6.63542368,
                    49.74623504
                ]
            },
            "properties": {
                "RSU coordinates": [
                    6.6348458,
                    49.7451571
                ],
                "Distance": 127.0,
                "Frequency": 5.9,
                "RSSI": -62.63,
                "LOS": "True"
            }
        },
        {
            "type": "Feature",
            "geometry": {
                "type": "Point",
                "coordinates": [
                    6.63551999,
                    49.74634283
                ]
            },
            "properties": {
                "RSU coordinates": [
                    6.6348458,
                    49.7451571
                ],
                "Distance": 140.63,
                "Frequency": 5.9,
                "RSSI": -63.51,
                "LOS": "True"
            }
        },
        {
            "type": "Feature",
            "geometry": {
                "type": "Point",
                "coordinates": [
                    6.63436425,
                    49.74483372
                ]
            },
            "properties": {
                "RSU coordinates": [
                    6.6348458,
                    49.7451571
                ],
                "Distance": 49.96,
                "Frequency": 5.9,
                "RSSI": -84.63,
                "LOS": "False"
            }
        },
        {
            "type": "Feature",
            "geometry": {
                "type": "Point",
                "coordinates": [
                    6.63446056,
                    49.74494151
                ]
            },
            "properties": {
                "RSU coordinates": [
                    6.6348458,
                    49.7451571
                ],
                "Distance": 36.66,
                "Frequency": 5.9,
                "RSSI": -81.97999999999999,
                "LOS": "False"
            }
        },
        {
            "type": "Feature",
            "geometry": {
                "type": "Point",
                "coordinates": [
                    6.63474949,
                    49.74526489
                ]
            },
            "properties": {
                "RSU coordinates": [
                    6.6348458,
                    49.7451571
                ],
                "Distance": 13.86,
                "Frequency": 5.9,
                "RSSI": -43.63,
                "LOS": "True"
            }
        },
        {
            "type": "Feature",
            "geometry": {
                "type": "Point",
                "coordinates": [
                    6.63494211,
                    49.74548048
                ]
            },
            "properties": {
                "RSU coordinates": [
                    6.6348458,
                    49.7451571
                ],
                "Distance": 36.66,
                "Frequency": 5.9,
                "RSSI": -51.98,
                "LOS": "True"
            }
        },
        {
            "type": "Feature",
            "geometry": {
                "type": "Point",
                "coordinates": [
                    6.63503842,
                    49.74558827
                ]
            },
            "properties": {
                "RSU coordinates": [
                    6.6348458,
                    49.7451571
                ],
                "Distance": 49.96,
                "Frequency": 5.9,
                "RSSI": -54.63,
                "LOS": "True"
            }
        },
        {
            "type": "Feature",
            "geometry": {
                "type": "Point",
                "coordinates": [
                    6.63513473,
                    49.74569607
                ]
            },
            "properties": {
                "RSU coordinates": [
                    6.6348458,
                    49.7451571
                ],
                "Distance": 63.5,
                "Frequency": 5.9,
                "RSSI": -56.69,
                "LOS": "True"
            }
        },
        {
            "type": "Feature",
            "geometry": {
                "type": "Point",
                "coordinates": [
                    6.63523105,
                    49.74580386
                ]
            },
            "properties": {
                "RSU coordinates": [
                    6.6348458,
                    49.7451571
                ],
                "Distance": 77.15,
                "Frequency": 5.9,
                "RSSI": -58.36,
                "LOS": "True"
            }
        },
        {
            "type": "Feature",
            "geometry": {
                "type": "Point",
                "coordinates": [
                    6.63455687,
                    49.74483372
                ]
            },
            "properties": {
                "RSU coordinates": [
                    6.6348458,
                    49.7451571
                ],
                "Distance": 41.57,
                "Frequency": 5.9,
                "RSSI": -53.06,
                "LOS": "True"
            }
        },
        {
            "type": "Feature",
            "geometry": {
                "type": "Point",
                "coordinates": [
                    6.63465318,
                    49.74494151
                ]
            },
            "properties": {
                "RSU coordinates": [
                    6.6348458,
                    49.7451571
                ],
                "Distance": 27.71,
                "Frequency": 5.9,
                "RSSI": -49.58,
                "LOS": "True"
            }
        },
        {
            "type": "Feature",
            "geometry": {
                "type": "Point",
                "coordinates": [
                    6.63474949,
                    49.74504931
                ]
            },
            "properties": {
                "RSU coordinates": [
                    6.6348458,
                    49.7451571
                ],
                "Distance": 13.86,
                "Frequency": 5.9,
                "RSSI": -43.63,
                "LOS": "True"
            }
        },
        {
            "type": "Feature",
            "geometry": {
                "type": "Point",
                "coordinates": [
                    6.63494211,
                    49.74526489
                ]
            },
            "properties": {
                "RSU coordinates": [
                    6.6348458,
                    49.7451571
                ],
                "Distance": 13.86,
                "Frequency": 5.9,
                "RSSI": -43.63,
                "LOS": "True"
            }
        },
        {
            "type": "Feature",
            "geometry": {
                "type": "Point",
                "coordinates": [
                    6.63503842,
                    49.74537269
                ]
            },
            "properties": {
                "RSU coordinates": [
                    6.6348458,
                    49.7451571
                ],
                "Distance": 27.71,
                "Frequency": 5.9,
                "RSSI": -49.58,
                "LOS": "True"
            }
        },
        {
            "type": "Feature",
            "geometry": {
                "type": "Point",
                "coordinates": [
                    6.63446056,
                    49.74451034
                ]
            },
            "properties": {
                "RSU coordinates": [
                    6.6348458,
                    49.7451571
                ],
                "Distance": 77.15,
                "Frequency": 5.9,
                "RSSI": -58.36,
                "LOS": "True"
            }
        },
        {
            "type": "Feature",
            "geometry": {
                "type": "Point",
                "coordinates": [
                    6.63455687,
                    49.74461813
                ]
            },
            "properties": {
                "RSU coordinates": [
                    6.6348458,
                    49.7451571
                ],
                "Distance": 63.5,
                "Frequency": 5.9,
                "RSSI": -56.69,
                "LOS": "True"
            }
        },
        {
            "type": "Feature",
            "geometry": {
                "type": "Point",
                "coordinates": [
                    6.63465318,
                    49.74472593
                ]
            },
            "properties": {
                "RSU coordinates": [
                    6.6348458,
                    49.7451571
                ],
                "Distance": 49.96,
                "Frequency": 5.9,
                "RSSI": -54.63,
                "LOS": "True"
            }
        },
        {
            "type": "Feature",
            "geometry": {
                "type": "Point",
                "coordinates": [
                    6.63474949,
                    49.74483372
                ]
            },
            "properties": {
                "RSU coordinates": [
                    6.6348458,
                    49.7451571
                ],
                "Distance": 36.66,
                "Frequency": 5.9,
                "RSSI": -51.98,
                "LOS": "True"
            }
        },
        {
            "type": "Feature",
            "geometry": {
                "type": "Point",
                "coordinates": [
                    6.6348458,
                    49.74494151
                ]
            },
            "properties": {
                "RSU coordinates": [
                    6.6348458,
                    49.7451571
                ],
                "Distance": 24.0,
                "Frequency": 5.9,
                "RSSI": -48.34,
                "LOS": "True"
            }
        },
        {
            "type": "Feature",
            "geometry": {
                "type": "Point",
                "coordinates": [
                    6.63513473,
                    49.74526489
                ]
            },
            "properties": {
                "RSU coordinates": [
                    6.6348458,
                    49.7451571
                ],
                "Distance": 24.0,
                "Frequency": 5.9,
                "RSSI": -78.34,
                "LOS": "False"
            }
        },
        {
            "type": "Feature",
            "geometry": {
                "type": "Point",
                "coordinates": [
                    6.63523104,
                    49.74537269
                ]
            },
            "properties": {
                "RSU coordinates": [
                    6.6348458,
                    49.7451571
                ],
                "Distance": 36.66,
                "Frequency": 5.9,
                "RSSI": -96.97999999999999,
                "LOS": "False"
            }
        },
        {
            "type": "Feature",
            "geometry": {
                "type": "Point",
                "coordinates": [
                    6.63532736,
                    49.74548048
                ]
            },
            "properties": {
                "RSU coordinates": [
                    6.6348458,
                    49.7451571
                ],
                "Distance": 49.96,
                "Frequency": 5.9,
                "RSSI": -99.63,
                "LOS": "False"
            }
        },
        {
            "type": "Feature",
            "geometry": {
                "type": "Point",
                "coordinates": [
                    6.63426795,
                    49.74407916
                ]
            },
            "properties": {
                "RSU coordinates": [
                    6.6348458,
                    49.7451571
                ],
                "Distance": 127.0,
                "Frequency": 5.9,
                "RSSI": -62.63,
                "LOS": "True"
            }
        },
        {
            "type": "Feature",
            "geometry": {
                "type": "Point",
                "coordinates": [
                    6.63436426,
                    49.74418696
                ]
            },
            "properties": {
                "RSU coordinates": [
                    6.6348458,
                    49.7451571
                ],
                "Distance": 113.42,
                "Frequency": 5.9,
                "RSSI": -61.66,
                "LOS": "True"
            }
        },
        {
            "type": "Feature",
            "geometry": {
                "type": "Point",
                "coordinates": [
                    6.63446057,
                    49.74429475
                ]
            },
            "properties": {
                "RSU coordinates": [
                    6.6348458,
                    49.7451571
                ],
                "Distance": 99.92,
                "Frequency": 5.9,
                "RSSI": -60.58,
                "LOS": "True"
            }
        },
        {
            "type": "Feature",
            "geometry": {
                "type": "Point",
                "coordinates": [
                    6.63455687,
                    49.74440254
                ]
            },
            "properties": {
                "RSU coordinates": [
                    6.6348458,
                    49.7451571
                ],
                "Distance": 86.53,
                "Frequency": 5.9,
                "RSSI": -59.34,
                "LOS": "True"
            }
        },
        {
            "type": "Feature",
            "geometry": {
                "type": "Point",
                "coordinates": [
                    6.63494211,
                    49.74483372
                ]
            },
            "properties": {
                "RSU coordinates": [
                    6.6348458,
                    49.7451571
                ],
                "Distance": 36.66,
                "Frequency": 5.9,
                "RSSI": -51.98,
                "LOS": "True"
            }
        },
        {
            "type": "Feature",
            "geometry": {
                "type": "Point",
                "coordinates": [
                    6.63503842,
                    49.74494151
                ]
            },
            "properties": {
                "RSU coordinates": [
                    6.6348458,
                    49.7451571
                ],
                "Distance": 27.71,
                "Frequency": 5.9,
                "RSSI": -64.58,
                "LOS": "False"
            }
        },
        {
            "type": "Feature",
            "geometry": {
                "type": "Point",
                "coordinates": [
                    6.63532735,
                    49.74526489
                ]
            },
            "properties": {
                "RSU coordinates": [
                    6.6348458,
                    49.7451571
                ],
                "Distance": 36.66,
                "Frequency": 5.9,
                "RSSI": -66.97999999999999,
                "LOS": "False"
            }
        },
        {
            "type": "Feature",
            "geometry": {
                "type": "Point",
                "coordinates": [
                    6.63407534,
                    49.74364799
                ]
            },
            "properties": {
                "RSU coordinates": [
                    6.6348458,
                    49.7451571
                ],
                "Distance": 176.91,
                "Frequency": 5.9,
                "RSSI": -65.48,
                "LOS": "True"
            }
        },
        {
            "type": "Feature",
            "geometry": {
                "type": "Point",
                "coordinates": [
                    6.63417165,
                    49.74375578
                ]
            },
            "properties": {
                "RSU coordinates": [
                    6.6348458,
                    49.7451571
                ],
                "Distance": 163.36,
                "Frequency": 5.9,
                "RSSI": -64.79,
                "LOS": "True"
            }
        },
        {
            "type": "Feature",
            "geometry": {
                "type": "Point",
                "coordinates": [
                    6.63426795,
                    49.74386358
                ]
            },
            "properties": {
                "RSU coordinates": [
                    6.6348458,
                    49.7451571
                ],
                "Distance": 149.88,
                "Frequency": 5.9,
                "RSSI": -64.05,
                "LOS": "True"
            }
        },
        {
            "type": "Feature",
            "geometry": {
                "type": "Point",
                "coordinates": [
                    6.63436426,
                    49.74397137
                ]
            },
            "properties": {
                "RSU coordinates": [
                    6.6348458,
                    49.7451571
                ],
                "Distance": 136.47,
                "Frequency": 5.9,
                "RSSI": -63.25,
                "LOS": "True"
            }
        },
        {
            "type": "Feature",
            "geometry": {
                "type": "Point",
                "coordinates": [
                    6.63494211,
                    49.74461813
                ]
            },
            "properties": {
                "RSU coordinates": [
                    6.6348458,
                    49.7451571
                ],
                "Distance": 60.4,
                "Frequency": 5.9,
                "RSSI": -86.25999999999999,
                "LOS": "False"
            }
        },
        {
            "type": "Feature",
            "geometry": {
                "type": "Point",
                "coordinates": [
                    6.63513473,
                    49.74483372
                ]
            },
            "properties": {
                "RSU coordinates": [
                    6.6348458,
                    49.7451571
                ],
                "Distance": 41.57,
                "Frequency": 5.9,
                "RSSI": -68.06,
                "LOS": "False"
            }
        },
        {
            "type": "Feature",
            "geometry": {
                "type": "Point",
                "coordinates": [
                    6.63523104,
                    49.74494151
                ]
            },
            "properties": {
                "RSU coordinates": [
                    6.6348458,
                    49.7451571
                ],
                "Distance": 36.66,
                "Frequency": 5.9,
                "RSSI": -81.97999999999999,
                "LOS": "False"
            }
        },
        {
            "type": "Feature",
            "geometry": {
                "type": "Point",
                "coordinates": [
                    6.63532735,
                    49.74504931
                ]
            },
            "properties": {
                "RSU coordinates": [
                    6.6348458,
                    49.7451571
                ],
                "Distance": 36.66,
                "Frequency": 5.9,
                "RSSI": -81.97999999999999,
                "LOS": "False"
            }
        },
        {
            "type": "Feature",
            "geometry": {
                "type": "Point",
                "coordinates": [
                    6.63542366,
                    49.7451571
                ]
            },
            "properties": {
                "RSU coordinates": [
                    6.6348458,
                    49.7451571
                ],
                "Distance": 41.57,
                "Frequency": 5.9,
                "RSSI": -83.06,
                "LOS": "False"
            }
        },
        {
            "type": "Feature",
            "geometry": {
                "type": "Point",
                "coordinates": [
                    6.63551997,
                    49.74526489
                ]
            },
            "properties": {
                "RSU coordinates": [
                    6.6348458,
                    49.7451571
                ],
                "Distance": 49.96,
                "Frequency": 5.9,
                "RSSI": -99.63,
                "LOS": "False"
            }
        },
        {
            "type": "Feature",
            "geometry": {
                "type": "Point",
                "coordinates": [
                    6.63561629,
                    49.74537269
                ]
            },
            "properties": {
                "RSU coordinates": [
                    6.6348458,
                    49.7451571
                ],
                "Distance": 60.4,
                "Frequency": 5.9,
                "RSSI": -71.25999999999999,
                "LOS": "False"
            }
        },
        {
            "type": "Feature",
            "geometry": {
                "type": "Point",
                "coordinates": [
                    6.63378643,
                    49.74310902
                ]
            },
            "properties": {
                "RSU coordinates": [
                    6.6348458,
                    49.7451571
                ],
                "Distance": 240.4,
                "Frequency": 5.9,
                "RSSI": -68.11,
                "LOS": "True"
            }
        },
        {
            "type": "Feature",
            "geometry": {
                "type": "Point",
                "coordinates": [
                    6.63388273,
                    49.74321682
                ]
            },
            "properties": {
                "RSU coordinates": [
                    6.6348458,
                    49.7451571
                ],
                "Distance": 226.84,
                "Frequency": 5.9,
                "RSSI": -67.61,
                "LOS": "True"
            }
        },
        {
            "type": "Feature",
            "geometry": {
                "type": "Point",
                "coordinates": [
                    6.63397904,
                    49.74332461
                ]
            },
            "properties": {
                "RSU coordinates": [
                    6.6348458,
                    49.7451571
                ],
                "Distance": 213.32,
                "Frequency": 5.9,
                "RSSI": -67.08,
                "LOS": "True"
            }
        },
        {
            "type": "Feature",
            "geometry": {
                "type": "Point",
                "coordinates": [
                    6.63407534,
                    49.7434324
                ]
            },
            "properties": {
                "RSU coordinates": [
                    6.6348458,
                    49.7451571
                ],
                "Distance": 199.84,
                "Frequency": 5.9,
                "RSSI": -66.52,
                "LOS": "True"
            }
        },
        {
            "type": "Feature",
            "geometry": {
                "type": "Point",
                "coordinates": [
                    6.63417165,
                    49.7435402
                ]
            },
            "properties": {
                "RSU coordinates": [
                    6.6348458,
                    49.7451571
                ],
                "Distance": 186.42,
                "Frequency": 5.9,
                "RSSI": -65.93,
                "LOS": "True"
            }
        },
        {
            "type": "Feature",
            "geometry": {
                "type": "Point",
                "coordinates": [
                    6.63426796,
                    49.74364799
                ]
            },
            "properties": {
                "RSU coordinates": [
                    6.6348458,
                    49.7451571
                ],
                "Distance": 173.07,
                "Frequency": 5.9,
                "RSSI": -95.29,
                "LOS": "False"
            }
        },
        {
            "type": "Feature",
            "geometry": {
                "type": "Point",
                "coordinates": [
                    6.63494211,
                    49.74440254
                ]
            },
            "properties": {
                "RSU coordinates": [
                    6.6348458,
                    49.7451571
                ],
                "Distance": 84.29,
                "Frequency": 5.9,
                "RSSI": -89.12,
                "LOS": "False"
            }
        },
        {
            "type": "Feature",
            "geometry": {
                "type": "Point",
                "coordinates": [
                    6.63503842,
                    49.74451034
                ]
            },
            "properties": {
                "RSU coordinates": [
                    6.6348458,
                    49.7451571
                ],
                "Distance": 73.32,
                "Frequency": 5.9,
                "RSSI": -87.92,
                "LOS": "False"
            }
        },
        {
            "type": "Feature",
            "geometry": {
                "type": "Point",
                "coordinates": [
                    6.63532735,
                    49.74483372
                ]
            },
            "properties": {
                "RSU coordinates": [
                    6.6348458,
                    49.7451571
                ],
                "Distance": 49.96,
                "Frequency": 5.9,
                "RSSI": -84.63,
                "LOS": "False"
            }
        },
        {
            "type": "Feature",
            "geometry": {
                "type": "Point",
                "coordinates": [
                    6.63542366,
                    49.74494151
                ]
            },
            "properties": {
                "RSU coordinates": [
                    6.6348458,
                    49.7451571
                ],
                "Distance": 48.0,
                "Frequency": 5.9,
                "RSSI": -84.28999999999999,
                "LOS": "False"
            }
        },
        {
            "type": "Feature",
            "geometry": {
                "type": "Point",
                "coordinates": [
                    6.63561628,
                    49.7451571
                ]
            },
            "properties": {
                "RSU coordinates": [
                    6.6348458,
                    49.7451571
                ],
                "Distance": 55.43,
                "Frequency": 5.9,
                "RSSI": -85.52000000000001,
                "LOS": "False"
            }
        },
        {
            "type": "Feature",
            "geometry": {
                "type": "Point",
                "coordinates": [
                    6.63580891,
                    49.74537269
                ]
            },
            "properties": {
                "RSU coordinates": [
                    6.6348458,
                    49.7451571
                ],
                "Distance": 73.32,
                "Frequency": 5.9,
                "RSSI": -72.92,
                "LOS": "False"
            }
        },
        {
            "type": "Feature",
            "geometry": {
                "type": "Point",
                "coordinates": [
                    6.63590522,
                    49.74548048
                ]
            },
            "properties": {
                "RSU coordinates": [
                    6.6348458,
                    49.7451571
                ],
                "Distance": 84.29,
                "Frequency": 5.9,
                "RSSI": -89.12,
                "LOS": "False"
            }
        },
        {
            "type": "Feature",
            "geometry": {
                "type": "Point",
                "coordinates": [
                    6.63359383,
                    49.74267785
                ]
            },
            "properties": {
                "RSU coordinates": [
                    6.6348458,
                    49.7451571
                ],
                "Distance": 290.32,
                "Frequency": 5.9,
                "RSSI": -69.72,
                "LOS": "True"
            }
        },
        {
            "type": "Feature",
            "geometry": {
                "type": "Point",
                "coordinates": [
                    6.63369013,
                    49.74278564
                ]
            },
            "properties": {
                "RSU coordinates": [
                    6.6348458,
                    49.7451571
                ],
                "Distance": 276.78,
                "Frequency": 5.9,
                "RSSI": -69.31,
                "LOS": "True"
            }
        },
        {
            "type": "Feature",
            "geometry": {
                "type": "Point",
                "coordinates": [
                    6.63378644,
                    49.74289343
                ]
            },
            "properties": {
                "RSU coordinates": [
                    6.6348458,
                    49.7451571
                ],
                "Distance": 263.27,
                "Frequency": 5.9,
                "RSSI": -68.89,
                "LOS": "True"
            }
        },
        {
            "type": "Feature",
            "geometry": {
                "type": "Point",
                "coordinates": [
                    6.63388274,
                    49.74300123
                ]
            },
            "properties": {
                "RSU coordinates": [
                    6.6348458,
                    49.7451571
                ],
                "Distance": 249.8,
                "Frequency": 5.9,
                "RSSI": -68.44,
                "LOS": "True"
            }
        },
        {
            "type": "Feature",
            "geometry": {
                "type": "Point",
                "coordinates": [
                    6.63397904,
                    49.74310902
                ]
            },
            "properties": {
                "RSU coordinates": [
                    6.6348458,
                    49.7451571
                ],
                "Distance": 236.37,
                "Frequency": 5.9,
                "RSSI": -67.96,
                "LOS": "True"
            }
        },
        {
            "type": "Feature",
            "geometry": {
                "type": "Point",
                "coordinates": [
                    6.63494211,
                    49.74418696
                ]
            },
            "properties": {
                "RSU coordinates": [
                    6.6348458,
                    49.7451571
                ],
                "Distance": 108.22,
                "Frequency": 5.9,
                "RSSI": -91.25999999999999,
                "LOS": "False"
            }
        },
        {
            "type": "Feature",
            "geometry": {
                "type": "Point",
                "coordinates": [
                    6.63503842,
                    49.74429475
                ]
            },
            "properties": {
                "RSU coordinates": [
                    6.6348458,
                    49.7451571
                ],
                "Distance": 96.99,
                "Frequency": 5.9,
                "RSSI": -75.32,
                "LOS": "False"
            }
        },
        {
            "type": "Feature",
            "geometry": {
                "type": "Point",
                "coordinates": [
                    6.63513473,
                    49.74440254
                ]
            },
            "properties": {
                "RSU coordinates": [
                    6.6348458,
                    49.7451571
                ],
                "Distance": 86.53,
                "Frequency": 5.9,
                "RSSI": -89.34,
                "LOS": "False"
            }
        },
        {
            "type": "Feature",
            "geometry": {
                "type": "Point",
                "coordinates": [
                    6.63542366,
                    49.74472593
                ]
            },
            "properties": {
                "RSU coordinates": [
                    6.6348458,
                    49.7451571
                ],
                "Distance": 63.5,
                "Frequency": 5.9,
                "RSSI": -86.69,
                "LOS": "False"
            }
        },
        {
            "type": "Feature",
            "geometry": {
                "type": "Point",
                "coordinates": [
                    6.63551997,
                    49.74483372
                ]
            },
            "properties": {
                "RSU coordinates": [
                    6.6348458,
                    49.7451571
                ],
                "Distance": 60.4,
                "Frequency": 5.9,
                "RSSI": -86.25999999999999,
                "LOS": "False"
            }
        },
        {
            "type": "Feature",
            "geometry": {
                "type": "Point",
                "coordinates": [
                    6.63561628,
                    49.74494151
                ]
            },
            "properties": {
                "RSU coordinates": [
                    6.6348458,
                    49.7451571
                ],
                "Distance": 60.4,
                "Frequency": 5.9,
                "RSSI": -86.25999999999999,
                "LOS": "False"
            }
        },
        {
            "type": "Feature",
            "geometry": {
                "type": "Point",
                "coordinates": [
                    6.63609784,
                    49.74548048
                ]
            },
            "properties": {
                "RSU coordinates": [
                    6.6348458,
                    49.7451571
                ],
                "Distance": 96.99,
                "Frequency": 5.9,
                "RSSI": -75.32,
                "LOS": "False"
            }
        },
        {
            "type": "Feature",
            "geometry": {
                "type": "Point",
                "coordinates": [
                    6.63340123,
                    49.74224667
                ]
            },
            "properties": {
                "RSU coordinates": [
                    6.6348458,
                    49.7451571
                ],
                "Distance": 340.26,
                "Frequency": 5.9,
                "RSSI": -71.09,
                "LOS": "True"
            }
        },
        {
            "type": "Feature",
            "geometry": {
                "type": "Point",
                "coordinates": [
                    6.63349753,
                    49.74235447
                ]
            },
            "properties": {
                "RSU coordinates": [
                    6.6348458,
                    49.7451571
                ],
                "Distance": 326.73,
                "Frequency": 5.9,
                "RSSI": -70.74,
                "LOS": "True"
            }
        },
        {
            "type": "Feature",
            "geometry": {
                "type": "Point",
                "coordinates": [
                    6.63359383,
                    49.74246226
                ]
            },
            "properties": {
                "RSU coordinates": [
                    6.6348458,
                    49.7451571
                ],
                "Distance": 313.23,
                "Frequency": 5.9,
                "RSSI": -70.38,
                "LOS": "True"
            }
        },
        {
            "type": "Feature",
            "geometry": {
                "type": "Point",
                "coordinates": [
                    6.63369014,
                    49.74257005
                ]
            },
            "properties": {
                "RSU coordinates": [
                    6.6348458,
                    49.7451571
                ],
                "Distance": 299.76,
                "Frequency": 5.9,
                "RSSI": -70.0,
                "LOS": "True"
            }
        },
        {
            "type": "Feature",
            "geometry": {
                "type": "Point",
                "coordinates": [
                    6.63388274,
                    49.74278564
                ]
            },
            "properties": {
                "RSU coordinates": [
                    6.6348458,
                    49.7451571
                ],
                "Distance": 272.94,
                "Frequency": 5.9,
                "RSSI": -99.2,
                "LOS": "False"
            }
        },
        {
            "type": "Feature",
            "geometry": {
                "type": "Point",
                "coordinates": [
                    6.63513473,
                    49.74418696
                ]
            },
            "properties": {
                "RSU coordinates": [
                    6.6348458,
                    49.7451571
                ],
                "Distance": 109.98,
                "Frequency": 5.9,
                "RSSI": -91.4,
                "LOS": "False"
            }
        },
        {
            "type": "Feature",
            "geometry": {
                "type": "Point",
                "coordinates": [
                    6.63542365,
                    49.74451034
                ]
            },
            "properties": {
                "RSU coordinates": [
                    6.6348458,
                    49.7451571
                ],
                "Distance": 83.14,
                "Frequency": 5.9,
                "RSSI": -89.0,
                "LOS": "False"
            }
        },
        {
            "type": "Feature",
            "geometry": {
                "type": "Point",
                "coordinates": [
                    6.63561628,
                    49.74472593
                ]
            },
            "properties": {
                "RSU coordinates": [
                    6.6348458,
                    49.7451571
                ],
                "Distance": 73.32,
                "Frequency": 5.9,
                "RSSI": -87.92,
                "LOS": "False"
            }
        },
        {
            "type": "Feature",
            "geometry": {
                "type": "Point",
                "coordinates": [
                    6.63571259,
                    49.74483372
                ]
            },
            "properties": {
                "RSU coordinates": [
                    6.6348458,
                    49.7451571
                ],
                "Distance": 72.0,
                "Frequency": 5.9,
                "RSSI": -87.77000000000001,
                "LOS": "False"
            }
        },
        {
            "type": "Feature",
            "geometry": {
                "type": "Point",
                "coordinates": [
                    6.63629047,
                    49.74548048
                ]
            },
            "properties": {
                "RSU coordinates": [
                    6.6348458,
                    49.7451571
                ],
                "Distance": 109.98,
                "Frequency": 5.9,
                "RSSI": -91.4,
                "LOS": "False"
            }
        },
        {
            "type": "Feature",
            "geometry": {
                "type": "Point",
                "coordinates": [
                    6.63638678,
                    49.74558827
                ]
            },
            "properties": {
                "RSU coordinates": [
                    6.6348458,
                    49.7451571
                ],
                "Distance": 120.8,
                "Frequency": 5.9,
                "RSSI": -77.2,
                "LOS": "False"
            }
        },
        {
            "type": "Feature",
            "geometry": {
                "type": "Point",
                "coordinates": [
                    6.63320864,
                    49.7418155
                ]
            },
            "properties": {
                "RSU coordinates": [
                    6.6348458,
                    49.7451571
                ],
                "Distance": 390.2,
                "Frequency": 5.9,
                "RSSI": -72.26,
                "LOS": "True"
            }
        },
        {
            "type": "Feature",
            "geometry": {
                "type": "Point",
                "coordinates": [
                    6.63330494,
                    49.74192329
                ]
            },
            "properties": {
                "RSU coordinates": [
                    6.6348458,
                    49.7451571
                ],
                "Distance": 376.68,
                "Frequency": 5.9,
                "RSSI": -71.96,
                "LOS": "True"
            }
        },
        {
            "type": "Feature",
            "geometry": {
                "type": "Point",
                "coordinates": [
                    6.63340124,
                    49.74203109
                ]
            },
            "properties": {
                "RSU coordinates": [
                    6.6348458,
                    49.7451571
                ],
                "Distance": 363.19,
                "Frequency": 5.9,
                "RSSI": -71.64,
                "LOS": "True"
            }
        },
        {
            "type": "Feature",
            "geometry": {
                "type": "Point",
                "coordinates": [
                    6.63349754,
                    49.74213888
                ]
            },
            "properties": {
                "RSU coordinates": [
                    6.6348458,
                    49.7451571
                ],
                "Distance": 349.72,
                "Frequency": 5.9,
                "RSSI": -71.32,
                "LOS": "True"
            }
        },
        {
            "type": "Feature",
            "geometry": {
                "type": "Point",
                "coordinates": [
                    6.63551996,
                    49.74440254
                ]
            },
            "properties": {
                "RSU coordinates": [
                    6.6348458,
                    49.7451571
                ],
                "Distance": 96.99,
                "Frequency": 5.9,
                "RSSI": -90.32,
                "LOS": "False"
            }
        },
        {
            "type": "Feature",
            "geometry": {
                "type": "Point",
                "coordinates": [
                    6.6358089,
                    49.74472593
                ]
            },
            "properties": {
                "RSU coordinates": [
                    6.6348458,
                    49.7451571
                ],
                "Distance": 84.29,
                "Frequency": 5.9,
                "RSSI": -89.12,
                "LOS": "False"
            }
        },
        {
            "type": "Feature",
            "geometry": {
                "type": "Point",
                "coordinates": [
                    6.63590521,
                    49.74483372
                ]
            },
            "properties": {
                "RSU coordinates": [
                    6.6348458,
                    49.7451571
                ],
                "Distance": 84.29,
                "Frequency": 5.9,
                "RSSI": -89.12,
                "LOS": "False"
            }
        },
        {
            "type": "Feature",
            "geometry": {
                "type": "Point",
                "coordinates": [
                    6.6365794,
                    49.74558827
                ]
            },
            "properties": {
                "RSU coordinates": [
                    6.6348458,
                    49.7451571
                ],
                "Distance": 133.63,
                "Frequency": 5.9,
                "RSSI": -78.07,
                "LOS": "False"
            }
        },
        {
            "type": "Feature",
            "geometry": {
                "type": "Point",
                "coordinates": [
                    6.63667572,
                    49.74569607
                ]
            },
            "properties": {
                "RSU coordinates": [
                    6.6348458,
                    49.7451571
                ],
                "Distance": 144.67,
                "Frequency": 5.9,
                "RSSI": -78.75,
                "LOS": "False"
            }
        },
        {
            "type": "Feature",
            "geometry": {
                "type": "Point",
                "coordinates": [
                    6.63291975,
                    49.74127653
                ]
            },
            "properties": {
                "RSU coordinates": [
                    6.6348458,
                    49.7451571
                ],
                "Distance": 453.68,
                "Frequency": 5.9,
                "RSSI": -73.55,
                "LOS": "True"
            }
        },
        {
            "type": "Feature",
            "geometry": {
                "type": "Point",
                "coordinates": [
                    6.63301605,
                    49.74138432
                ]
            },
            "properties": {
                "RSU coordinates": [
                    6.6348458,
                    49.7451571
                ],
                "Distance": 440.15,
                "Frequency": 5.9,
                "RSSI": -73.29,
                "LOS": "True"
            }
        },
        {
            "type": "Feature",
            "geometry": {
                "type": "Point",
                "coordinates": [
                    6.63311234,
                    49.74149212
                ]
            },
            "properties": {
                "RSU coordinates": [
                    6.6348458,
                    49.7451571
                ],
                "Distance": 426.63,
                "Frequency": 5.9,
                "RSSI": -73.03,
                "LOS": "True"
            }
        },
        {
            "type": "Feature",
            "geometry": {
                "type": "Point",
                "coordinates": [
                    6.63320864,
                    49.74159991
                ]
            },
            "properties": {
                "RSU coordinates": [
                    6.6348458,
                    49.7451571
                ],
                "Distance": 413.14,
                "Frequency": 5.9,
                "RSSI": -72.75,
                "LOS": "True"
            }
        },
        {
            "type": "Feature",
            "geometry": {
                "type": "Point",
                "coordinates": [
                    6.63330494,
                    49.74170771
                ]
            },
            "properties": {
                "RSU coordinates": [
                    6.6348458,
                    49.7451571
                ],
                "Distance": 399.68,
                "Frequency": 5.9,
                "RSSI": -72.47,
                "LOS": "True"
            }
        },
        {
            "type": "Feature",
            "geometry": {
                "type": "Point",
                "coordinates": [
                    6.63561627,
                    49.74429475
                ]
            },
            "properties": {
                "RSU coordinates": [
                    6.6348458,
                    49.7451571
                ],
                "Distance": 110.85,
                "Frequency": 5.9,
                "RSSI": -91.47,
                "LOS": "False"
            }
        },
        {
            "type": "Feature",
            "geometry": {
                "type": "Point",
                "coordinates": [
                    6.63600151,
                    49.74472593
                ]
            },
            "properties": {
                "RSU coordinates": [
                    6.6348458,
                    49.7451571
                ],
                "Distance": 96.0,
                "Frequency": 5.9,
                "RSSI": -90.22999999999999,
                "LOS": "False"
            }
        },
        {
            "type": "Feature",
            "geometry": {
                "type": "Point",
                "coordinates": [
                    6.63696466,
                    49.74580386
                ]
            },
            "properties": {
                "RSU coordinates": [
                    6.6348458,
                    49.7451571
                ],
                "Distance": 168.57,
                "Frequency": 5.9,
                "RSSI": -95.06,
                "LOS": "False"
            }
        },
        {
            "type": "Feature",
            "geometry": {
                "type": "Point",
                "coordinates": [
                    6.63282346,
                    49.74095315
                ]
            },
            "properties": {
                "RSU coordinates": [
                    6.6348458,
                    49.7451571
                ],
                "Distance": 490.09,
                "Frequency": 5.9,
                "RSSI": -74.21,
                "LOS": "True"
            }
        },
        {
            "type": "Feature",
            "geometry": {
                "type": "Point",
                "coordinates": [
                    6.63291976,
                    49.74106094
                ]
            },
            "properties": {
                "RSU coordinates": [
                    6.6348458,
                    49.7451571
                ],
                "Distance": 476.59,
                "Frequency": 5.9,
                "RSSI": -73.98,
                "LOS": "True"
            }
        },
        {
            "type": "Feature",
            "geometry": {
                "type": "Point",
                "coordinates": [
                    6.63571258,
                    49.74418696
                ]
            },
            "properties": {
                "RSU coordinates": [
                    6.6348458,
                    49.7451571
                ],
                "Distance": 124.71,
                "Frequency": 5.9,
                "RSSI": -92.47999999999999,
                "LOS": "False"
            }
        },
        {
            "type": "Feature",
            "geometry": {
                "type": "Point",
                "coordinates": [
                    6.63609782,
                    49.74461813
                ]
            },
            "properties": {
                "RSU coordinates": [
                    6.6348458,
                    49.7451571
                ],
                "Distance": 108.22,
                "Frequency": 5.9,
                "RSSI": -91.25999999999999,
                "LOS": "False"
            }
        },
        {
            "type": "Feature",
            "geometry": {
                "type": "Point",
                "coordinates": [
                    6.63619413,
                    49.74472593
                ]
            },
            "properties": {
                "RSU coordinates": [
                    6.6348458,
                    49.7451571
                ],
                "Distance": 108.22,
                "Frequency": 5.9,
                "RSSI": -91.25999999999999,
                "LOS": "False"
            }
        },
        {
            "type": "Feature",
            "geometry": {
                "type": "Point",
                "coordinates": [
                    6.63715728,
                    49.74580386
                ]
            },
            "properties": {
                "RSU coordinates": [
                    6.6348458,
                    49.7451571
                ],
                "Distance": 181.2,
                "Frequency": 5.9,
                "RSSI": -80.68,
                "LOS": "False"
            }
        },
        {
            "type": "Feature",
            "geometry": {
                "type": "Point",
                "coordinates": [
                    6.63629044,
                    49.74461813
                ]
            },
            "properties": {
                "RSU coordinates": [
                    6.6348458,
                    49.7451571
                ],
                "Distance": 120.0,
                "Frequency": 5.9,
                "RSSI": -92.15,
                "LOS": "False"
            }
        },
        {
            "type": "Feature",
            "geometry": {
                "type": "Point",
                "coordinates": [
                    6.63638675,
                    49.74472593
                ]
            },
            "properties": {
                "RSU coordinates": [
                    6.6348458,
                    49.7451571
                ],
                "Distance": 120.8,
                "Frequency": 5.9,
                "RSSI": -92.2,
                "LOS": "False"
            }
        },
        {
            "type": "Feature",
            "geometry": {
                "type": "Point",
                "coordinates": [
                    6.63744622,
                    49.74591166
                ]
            },
            "properties": {
                "RSU coordinates": [
                    6.6348458,
                    49.7451571
                ],
                "Distance": 205.06,
                "Frequency": 5.9,
                "RSSI": -81.74,
                "LOS": "False"
            }
        },
        {
            "type": "Feature",
            "geometry": {
                "type": "Point",
                "coordinates": [
                    6.63638675,
                    49.74451034
                ]
            },
            "properties": {
                "RSU coordinates": [
                    6.6348458,
                    49.7451571
                ],
                "Distance": 132.18,
                "Frequency": 5.9,
                "RSSI": -92.97999999999999,
                "LOS": "False"
            }
        },
        {
            "type": "Feature",
            "geometry": {
                "type": "Point",
                "coordinates": [
                    6.63648306,
                    49.74461813
                ]
            },
            "properties": {
                "RSU coordinates": [
                    6.6348458,
                    49.7451571
                ],
                "Distance": 132.18,
                "Frequency": 5.9,
                "RSSI": -92.97999999999999,
                "LOS": "False"
            }
        },
        {
            "type": "Feature",
            "geometry": {
                "type": "Point",
                "coordinates": [
                    6.63657936,
                    49.74451034
                ]
            },
            "properties": {
                "RSU coordinates": [
                    6.6348458,
                    49.7451571
                ],
                "Distance": 144.0,
                "Frequency": 5.9,
                "RSSI": -93.71000000000001,
                "LOS": "False"
            }
        },
        {
            "type": "Feature",
            "geometry": {
                "type": "Point",
                "coordinates": [
                    6.63667568,
                    49.74461813
                ]
            },
            "properties": {
                "RSU coordinates": [
                    6.6348458,
                    49.7451571
                ],
                "Distance": 144.67,
                "Frequency": 5.9,
                "RSSI": -93.75,
                "LOS": "False"
            }
        },
        {
            "type": "Feature",
            "geometry": {
                "type": "Point",
                "coordinates": [
                    6.63667567,
                    49.74440254
                ]
            },
            "properties": {
                "RSU coordinates": [
                    6.6348458,
                    49.7451571
                ],
                "Distance": 156.15,
                "Frequency": 5.9,
                "RSSI": -94.41,
                "LOS": "False"
            }
        },
        {
            "type": "Feature",
            "geometry": {
                "type": "Point",
                "coordinates": [
                    6.63677198,
                    49.74451034
                ]
            },
            "properties": {
                "RSU coordinates": [
                    6.6348458,
                    49.7451571
                ],
                "Distance": 156.15,
                "Frequency": 5.9,
                "RSSI": -94.41,
                "LOS": "False"
            }
        },
        {
            "type": "Feature",
            "geometry": {
                "type": "Point",
                "coordinates": [
                    6.6368683,
                    49.74461813
                ]
            },
            "properties": {
                "RSU coordinates": [
                    6.6348458,
                    49.7451571
                ],
                "Distance": 157.38,
                "Frequency": 5.9,
                "RSSI": -94.47,
                "LOS": "False"
            }
        },
        {
            "type": "Feature",
            "geometry": {
                "type": "Point",
                "coordinates": [
                    6.63686829,
                    49.74440254
                ]
            },
            "properties": {
                "RSU coordinates": [
                    6.6348458,
                    49.7451571
                ],
                "Distance": 168.0,
                "Frequency": 5.9,
                "RSSI": -95.03,
                "LOS": "False"
            }
        },
        {
            "type": "Feature",
            "geometry": {
                "type": "Point",
                "coordinates": [
                    6.6369646,
                    49.74451034
                ]
            },
            "properties": {
                "RSU coordinates": [
                    6.6348458,
                    49.7451571
                ],
                "Distance": 168.57,
                "Frequency": 5.9,
                "RSSI": -95.06,
                "LOS": "False"
            }
        },
        {
            "type": "Feature",
            "geometry": {
                "type": "Point",
                "coordinates": [
                    6.63850568,
                    49.74623504
                ]
            },
            "properties": {
                "RSU coordinates": [
                    6.6348458,
                    49.7451571
                ],
                "Distance": 289.33,
                "Frequency": 5.9,
                "RSSI": -99.7,
                "LOS": "False"
            }
        },
        {
            "type": "Feature",
            "geometry": {
                "type": "Point",
                "coordinates": [
                    6.63696459,
                    49.74429475
                ]
            },
            "properties": {
                "RSU coordinates": [
                    6.6348458,
                    49.7451571
                ],
                "Distance": 180.13,
                "Frequency": 5.9,
                "RSSI": -95.63,
                "LOS": "False"
            }
        },
        {
            "type": "Feature",
            "geometry": {
                "type": "Point",
                "coordinates": [
                    6.6370609,
                    49.74440254
                ]
            },
            "properties": {
                "RSU coordinates": [
                    6.6348458,
                    49.7451571
                ],
                "Distance": 180.13,
                "Frequency": 5.9,
                "RSSI": -95.63,
                "LOS": "False"
            }
        },
        {
            "type": "Feature",
            "geometry": {
                "type": "Point",
                "coordinates": [
                    6.63715722,
                    49.74451034
                ]
            },
            "properties": {
                "RSU coordinates": [
                    6.6348458,
                    49.7451571
                ],
                "Distance": 181.2,
                "Frequency": 5.9,
                "RSSI": -95.68,
                "LOS": "False"
            }
        },
        {
            "type": "Feature",
            "geometry": {
                "type": "Point",
                "coordinates": [
                    6.63725352,
                    49.74440254
                ]
            },
            "properties": {
                "RSU coordinates": [
                    6.6348458,
                    49.7451571
                ],
                "Distance": 192.5,
                "Frequency": 5.9,
                "RSSI": -96.2,
                "LOS": "False"
            }
        },
        {
            "type": "Feature",
            "geometry": {
                "type": "Point",
                "coordinates": [
                    6.63744614,
                    49.74440254
                ]
            },
            "properties": {
                "RSU coordinates": [
                    6.6348458,
                    49.7451571
                ],
                "Distance": 205.06,
                "Frequency": 5.9,
                "RSSI": -96.74,
                "LOS": "False"
            }
        },
        {
            "type": "Feature",
            "geometry": {
                "type": "Point",
                "coordinates": [
                    6.63754244,
                    49.74429475
                ]
            },
            "properties": {
                "RSU coordinates": [
                    6.6348458,
                    49.7451571
                ],
                "Distance": 216.44,
                "Frequency": 5.9,
                "RSSI": -97.21,
                "LOS": "False"
            }
        },
        {
            "type": "Feature",
            "geometry": {
                "type": "Point",
                "coordinates": [
                    6.63763876,
                    49.74440254
                ]
            },
            "properties": {
                "RSU coordinates": [
                    6.6348458,
                    49.7451571
                ],
                "Distance": 217.77,
                "Frequency": 5.9,
                "RSSI": -97.26,
                "LOS": "False"
            }
        },
        {
            "type": "Feature",
            "geometry": {
                "type": "Point",
                "coordinates": [
                    6.63773506,
                    49.74429475
                ]
            },
            "properties": {
                "RSU coordinates": [
                    6.6348458,
                    49.7451571
                ],
                "Distance": 228.95,
                "Frequency": 5.9,
                "RSSI": -97.69,
                "LOS": "False"
            }
        },
        {
            "type": "Feature",
            "geometry": {
                "type": "Point",
                "coordinates": [
                    6.63783136,
                    49.74418696
                ]
            },
            "properties": {
                "RSU coordinates": [
                    6.6348458,
                    49.7451571
                ],
                "Distance": 240.4,
                "Frequency": 5.9,
                "RSSI": -98.11,
                "LOS": "False"
            }
        },
        {
            "type": "Feature",
            "geometry": {
                "type": "Point",
                "coordinates": [
                    6.63792768,
                    49.74429475
                ]
            },
            "properties": {
                "RSU coordinates": [
                    6.6348458,
                    49.7451571
                ],
                "Distance": 241.59,
                "Frequency": 5.9,
                "RSSI": -98.15,
                "LOS": "False"
            }
        },
        {
            "type": "Feature",
            "geometry": {
                "type": "Point",
                "coordinates": [
                    6.63802398,
                    49.74418696
                ]
            },
            "properties": {
                "RSU coordinates": [
                    6.6348458,
                    49.7451571
                ],
                "Distance": 252.86,
                "Frequency": 5.9,
                "RSSI": -98.54,
                "LOS": "False"
            }
        },
        {
            "type": "Feature",
            "geometry": {
                "type": "Point",
                "coordinates": [
                    6.63812029,
                    49.74429475
                ]
            },
            "properties": {
                "RSU coordinates": [
                    6.6348458,
                    49.7451571
                ],
                "Distance": 254.37,
                "Frequency": 5.9,
                "RSSI": -98.59,
                "LOS": "False"
            }
        },
        {
            "type": "Feature",
            "geometry": {
                "type": "Point",
                "coordinates": [
                    6.63812028,
                    49.74407916
                ]
            },
            "properties": {
                "RSU coordinates": [
                    6.6348458,
                    49.7451571
                ],
                "Distance": 264.36,
                "Frequency": 5.9,
                "RSSI": -98.92,
                "LOS": "False"
            }
        },
        {
            "type": "Feature",
            "geometry": {
                "type": "Point",
                "coordinates": [
                    6.6382166,
                    49.74418696
                ]
            },
            "properties": {
                "RSU coordinates": [
                    6.6348458,
                    49.7451571
                ],
                "Distance": 265.45,
                "Frequency": 5.9,
                "RSSI": -98.96,
                "LOS": "False"
            }
        },
        {
            "type": "Feature",
            "geometry": {
                "type": "Point",
                "coordinates": [
                    6.6383129,
                    49.74407916
                ]
            },
            "properties": {
                "RSU coordinates": [
                    6.6348458,
                    49.7451571
                ],
                "Distance": 276.78,
                "Frequency": 5.9,
                "RSSI": -99.31,
                "LOS": "False"
            }
        },
        {
            "type": "Feature",
            "geometry": {
                "type": "Point",
                "coordinates": [
                    6.6384092,
                    49.74397137
                ]
            },
            "properties": {
                "RSU coordinates": [
                    6.6348458,
                    49.7451571
                ],
                "Distance": 288.33,
                "Frequency": 5.9,
                "RSSI": -99.67,
                "LOS": "False"
            }
        },
        {
            "type": "Feature",
            "geometry": {
                "type": "Point",
                "coordinates": [
                    6.63850551,
                    49.74407916
                ]
            },
            "properties": {
                "RSU coordinates": [
                    6.6348458,
                    49.7451571
                ],
                "Distance": 289.33,
                "Frequency": 5.9,
                "RSSI": -99.7,
                "LOS": "False"
            }
        }
    ]
}