{
    "type": "FeatureCollection",
    "features": [
        {
            "type": "Feature",
            "geometry": {
                "type": "Point",
                "coordinates": [
                    9.93701749,
                    51.53277934
                ]
            },
            "properties": {
                "RSU coordinates": [
                    9.9377178,
                    51.5318092
                ],
                "Distance": 118.39,
                "Frequency": 5.9,
                "RSSI": -62.03,
                "LOS": "True"
            }
        },
        {
            "type": "Feature",
            "geometry": {
                "type": "Point",
                "coordinates": [
                    9.93621716,
                    51.53170141
                ]
            },
            "properties": {
                "RSU coordinates": [
                    9.9377178,
                    51.5318092
                ],
                "Distance": 104.61,
                "Frequency": 5.9,
                "RSSI": -90.97,
                "LOS": "False"
            }
        },
        {
            "type": "Feature",
            "geometry": {
                "type": "Point",
                "coordinates": [
                    9.93711753,
                    51.53267155
                ]
            },
            "properties": {
                "RSU coordinates": [
                    9.9377178,
                    51.5318092
                ],
                "Distance": 104.61,
                "Frequency": 5.9,
                "RSSI": -60.97,
                "LOS": "True"
            }
        },
        {
            "type": "Feature",
            "geometry": {
                "type": "Point",
                "coordinates": [
                    9.93641725,
                    51.53170141
                ]
            },
            "properties": {
                "RSU coordinates": [
                    9.9377178,
                    51.5318092
                ],
                "Distance": 90.86,
                "Frequency": 5.9,
                "RSSI": -74.75999999999999,
                "LOS": "False"
            }
        },
        {
            "type": "Feature",
            "geometry": {
                "type": "Point",
                "coordinates": [
                    9.93731762,
                    51.53267155
                ]
            },
            "properties": {
                "RSU coordinates": [
                    9.9377178,
                    51.5318092
                ],
                "Distance": 99.92,
                "Frequency": 5.9,
                "RSSI": -90.58,
                "LOS": "False"
            }
        },
        {
            "type": "Feature",
            "geometry": {
                "type": "Point",
                "coordinates": [
                    9.93661733,
                    51.53170141
                ]
            },
            "properties": {
                "RSU coordinates": [
                    9.9377178,
                    51.5318092
                ],
                "Distance": 77.15,
                "Frequency": 5.9,
                "RSSI": -58.36,
                "LOS": "True"
            }
        },
        {
            "type": "Feature",
            "geometry": {
                "type": "Point",
                "coordinates": [
                    9.93741767,
                    51.53256376
                ]
            },
            "properties": {
                "RSU coordinates": [
                    9.9377178,
                    51.5318092
                ],
                "Distance": 86.53,
                "Frequency": 5.9,
                "RSSI": -89.34,
                "LOS": "False"
            }
        },
        {
            "type": "Feature",
            "geometry": {
                "type": "Point",
                "coordinates": [
                    9.93681742,
                    51.53170141
                ]
            },
            "properties": {
                "RSU coordinates": [
                    9.9377178,
                    51.5318092
                ],
                "Distance": 63.5,
                "Frequency": 5.9,
                "RSSI": -56.69,
                "LOS": "True"
            }
        },
        {
            "type": "Feature",
            "geometry": {
                "type": "Point",
                "coordinates": [
                    9.93731762,
                    51.53224037
                ]
            },
            "properties": {
                "RSU coordinates": [
                    9.9377178,
                    51.5318092
                ],
                "Distance": 55.43,
                "Frequency": 5.9,
                "RSSI": -55.52,
                "LOS": "True"
            }
        },
        {
            "type": "Feature",
            "geometry": {
                "type": "Point",
                "coordinates": [
                    9.93741767,
                    51.53234817
                ]
            },
            "properties": {
                "RSU coordinates": [
                    9.9377178,
                    51.5318092
                ],
                "Distance": 63.5,
                "Frequency": 5.9,
                "RSSI": -56.69,
                "LOS": "True"
            }
        },
        {
            "type": "Feature",
            "geometry": {
                "type": "Point",
                "coordinates": [
                    9.9370175,
                    51.53170141
                ]
            },
            "properties": {
                "RSU coordinates": [
                    9.9377178,
                    51.5318092
                ],
                "Distance": 49.96,
                "Frequency": 5.9,
                "RSSI": -54.63,
                "LOS": "True"
            }
        },
        {
            "type": "Feature",
            "geometry": {
                "type": "Point",
                "coordinates": [
                    9.93741767,
                    51.53213258
                ]
            },
            "properties": {
                "RSU coordinates": [
                    9.9377178,
                    51.5318092
                ],
                "Distance": 41.57,
                "Frequency": 5.9,
                "RSSI": -53.06,
                "LOS": "True"
            }
        },
        {
            "type": "Feature",
            "geometry": {
                "type": "Point",
                "coordinates": [
                    9.93751771,
                    51.53224037
                ]
            },
            "properties": {
                "RSU coordinates": [
                    9.9377178,
                    51.5318092
                ],
                "Distance": 49.96,
                "Frequency": 5.9,
                "RSSI": -54.63,
                "LOS": "True"
            }
        },
        {
            "type": "Feature",
            "geometry": {
                "type": "Point",
                "coordinates": [
                    9.93751771,
                    51.53202479
                ]
            },
            "properties": {
                "RSU coordinates": [
                    9.9377178,
                    51.5318092
                ],
                "Distance": 27.71,
                "Frequency": 5.9,
                "RSSI": -49.58,
                "LOS": "True"
            }
        },
        {
            "type": "Feature",
            "geometry": {
                "type": "Point",
                "coordinates": [
                    9.93751771,
                    51.5318092
                ]
            },
            "properties": {
                "RSU coordinates": [
                    9.9377178,
                    51.5318092
                ],
                "Distance": 13.86,
                "Frequency": 5.9,
                "RSSI": -43.63,
                "LOS": "True"
            }
        },
        {
            "type": "Feature",
            "geometry": {
                "type": "Point",
                "coordinates": [
                    9.93761776,
                    51.53191699
                ]
            },
            "properties": {
                "RSU coordinates": [
                    9.9377178,
                    51.5318092
                ],
                "Distance": 13.86,
                "Frequency": 5.9,
                "RSSI": -43.63,
                "LOS": "True"
            }
        },
        {
            "type": "Feature",
            "geometry": {
                "type": "Point",
                "coordinates": [
                    9.93781784,
                    51.53213258
                ]
            },
            "properties": {
                "RSU coordinates": [
                    9.9377178,
                    51.5318092
                ],
                "Distance": 36.66,
                "Frequency": 5.9,
                "RSSI": -96.97999999999999,
                "LOS": "False"
            }
        },
        {
            "type": "Feature",
            "geometry": {
                "type": "Point",
                "coordinates": [
                    9.93791789,
                    51.53224037
                ]
            },
            "properties": {
                "RSU coordinates": [
                    9.9377178,
                    51.5318092
                ],
                "Distance": 49.96,
                "Frequency": 5.9,
                "RSSI": -84.63,
                "LOS": "False"
            }
        },
        {
            "type": "Feature",
            "geometry": {
                "type": "Point",
                "coordinates": [
                    9.93701751,
                    51.53083906
                ]
            },
            "properties": {
                "RSU coordinates": [
                    9.9377178,
                    51.5318092
                ],
                "Distance": 118.39,
                "Frequency": 5.9,
                "RSSI": -92.03,
                "LOS": "False"
            }
        },
        {
            "type": "Feature",
            "geometry": {
                "type": "Point",
                "coordinates": [
                    9.93711755,
                    51.53094685
                ]
            },
            "properties": {
                "RSU coordinates": [
                    9.9377178,
                    51.5318092
                ],
                "Distance": 104.61,
                "Frequency": 5.9,
                "RSSI": -90.97,
                "LOS": "False"
            }
        },
        {
            "type": "Feature",
            "geometry": {
                "type": "Point",
                "coordinates": [
                    9.93721759,
                    51.53105464
                ]
            },
            "properties": {
                "RSU coordinates": [
                    9.9377178,
                    51.5318092
                ],
                "Distance": 90.86,
                "Frequency": 5.9,
                "RSSI": -89.75999999999999,
                "LOS": "False"
            }
        },
        {
            "type": "Feature",
            "geometry": {
                "type": "Point",
                "coordinates": [
                    9.93791789,
                    51.5318092
                ]
            },
            "properties": {
                "RSU coordinates": [
                    9.9377178,
                    51.5318092
                ],
                "Distance": 13.86,
                "Frequency": 5.9,
                "RSSI": -43.63,
                "LOS": "True"
            }
        },
        {
            "type": "Feature",
            "geometry": {
                "type": "Point",
                "coordinates": [
                    9.93781784,
                    51.53148582
                ]
            },
            "properties": {
                "RSU coordinates": [
                    9.9377178,
                    51.5318092
                ],
                "Distance": 36.66,
                "Frequency": 5.9,
                "RSSI": -51.98,
                "LOS": "True"
            }
        },
        {
            "type": "Feature",
            "geometry": {
                "type": "Point",
                "coordinates": [
                    9.93821802,
                    51.53191699
                ]
            },
            "properties": {
                "RSU coordinates": [
                    9.9377178,
                    51.5318092
                ],
                "Distance": 36.66,
                "Frequency": 5.9,
                "RSSI": -51.98,
                "LOS": "True"
            }
        },
        {
            "type": "Feature",
            "geometry": {
                "type": "Point",
                "coordinates": [
                    9.93791788,
                    51.53137803
                ]
            },
            "properties": {
                "RSU coordinates": [
                    9.9377178,
                    51.5318092
                ],
                "Distance": 49.96,
                "Frequency": 5.9,
                "RSSI": -54.63,
                "LOS": "True"
            }
        },
        {
            "type": "Feature",
            "geometry": {
                "type": "Point",
                "coordinates": [
                    9.9384181,
                    51.53191699
                ]
            },
            "properties": {
                "RSU coordinates": [
                    9.9377178,
                    51.5318092
                ],
                "Distance": 49.96,
                "Frequency": 5.9,
                "RSSI": -54.63,
                "LOS": "True"
            }
        },
        {
            "type": "Feature",
            "geometry": {
                "type": "Point",
                "coordinates": [
                    9.93801792,
                    51.53127023
                ]
            },
            "properties": {
                "RSU coordinates": [
                    9.9377178,
                    51.5318092
                ],
                "Distance": 63.5,
                "Frequency": 5.9,
                "RSSI": -56.69,
                "LOS": "True"
            }
        },
        {
            "type": "Feature",
            "geometry": {
                "type": "Point",
                "coordinates": [
                    9.93871823,
                    51.53202479
                ]
            },
            "properties": {
                "RSU coordinates": [
                    9.9377178,
                    51.5318092
                ],
                "Distance": 73.32,
                "Frequency": 5.9,
                "RSSI": -57.92,
                "LOS": "True"
            }
        },
        {
            "type": "Feature",
            "geometry": {
                "type": "Point",
                "coordinates": [
                    9.93811797,
                    51.53116244
                ]
            },
            "properties": {
                "RSU coordinates": [
                    9.9377178,
                    51.5318092
                ],
                "Distance": 77.15,
                "Frequency": 5.9,
                "RSSI": -58.36,
                "LOS": "True"
            }
        },
        {
            "type": "Feature",
            "geometry": {
                "type": "Point",
                "coordinates": [
                    9.93901837,
                    51.53213258
                ]
            },
            "properties": {
                "RSU coordinates": [
                    9.9377178,
                    51.5318092
                ],
                "Distance": 96.99,
                "Frequency": 5.9,
                "RSSI": -90.32,
                "LOS": "False"
            }
        },
        {
            "type": "Feature",
            "geometry": {
                "type": "Point",
                "coordinates": [
                    9.93821801,
                    51.53105464
                ]
            },
            "properties": {
                "RSU coordinates": [
                    9.9377178,
                    51.5318092
                ],
                "Distance": 90.86,
                "Frequency": 5.9,
                "RSSI": -59.76,
                "LOS": "True"
            }
        },
        {
            "type": "Feature",
            "geometry": {
                "type": "Point",
                "coordinates": [
                    9.938218,
                    51.53083906
                ]
            },
            "properties": {
                "RSU coordinates": [
                    9.9377178,
                    51.5318092
                ],
                "Distance": 113.42,
                "Frequency": 5.9,
                "RSSI": -61.66,
                "LOS": "True"
            }
        },
        {
            "type": "Feature",
            "geometry": {
                "type": "Point",
                "coordinates": [
                    9.93951859,
                    51.53224037
                ]
            },
            "properties": {
                "RSU coordinates": [
                    9.9377178,
                    51.5318092
                ],
                "Distance": 133.63,
                "Frequency": 5.9,
                "RSSI": -63.07,
                "LOS": "True"
            }
        },
        {
            "type": "Feature",
            "geometry": {
                "type": "Point",
                "coordinates": [
                    9.93831804,
                    51.53073126
                ]
            },
            "properties": {
                "RSU coordinates": [
                    9.9377178,
                    51.5318092
                ],
                "Distance": 127.0,
                "Frequency": 5.9,
                "RSSI": -62.63,
                "LOS": "True"
            }
        },
        {
            "type": "Feature",
            "geometry": {
                "type": "Point",
                "coordinates": [
                    9.93971868,
                    51.53224037
                ]
            },
            "properties": {
                "RSU coordinates": [
                    9.9377178,
                    51.5318092
                ],
                "Distance": 146.64,
                "Frequency": 5.9,
                "RSSI": -93.87,
                "LOS": "False"
            }
        },
        {
            "type": "Feature",
            "geometry": {
                "type": "Point",
                "coordinates": [
                    9.93841808,
                    51.53062347
                ]
            },
            "properties": {
                "RSU coordinates": [
                    9.9377178,
                    51.5318092
                ],
                "Distance": 140.63,
                "Frequency": 5.9,
                "RSSI": -63.51,
                "LOS": "True"
            }
        },
        {
            "type": "Feature",
            "geometry": {
                "type": "Point",
                "coordinates": [
                    9.94001881,
                    51.53234817
                ]
            },
            "properties": {
                "RSU coordinates": [
                    9.9377178,
                    51.5318092
                ],
                "Distance": 170.27,
                "Frequency": 5.9,
                "RSSI": -95.15,
                "LOS": "False"
            }
        },
        {
            "type": "Feature",
            "geometry": {
                "type": "Point",
                "coordinates": [
                    9.93841808,
                    51.53040788
                ]
            },
            "properties": {
                "RSU coordinates": [
                    9.9377178,
                    51.5318092
                ],
                "Distance": 163.36,
                "Frequency": 5.9,
                "RSSI": -64.79,
                "LOS": "True"
            }
        },
        {
            "type": "Feature",
            "geometry": {
                "type": "Point",
                "coordinates": [
                    9.93851812,
                    51.53051568
                ]
            },
            "properties": {
                "RSU coordinates": [
                    9.9377178,
                    51.5318092
                ],
                "Distance": 154.3,
                "Frequency": 5.9,
                "RSSI": -64.3,
                "LOS": "True"
            }
        },
        {
            "type": "Feature",
            "geometry": {
                "type": "Point",
                "coordinates": [
                    9.93851812,
                    51.53030009
                ]
            },
            "properties": {
                "RSU coordinates": [
                    9.9377178,
                    51.5318092
                ],
                "Distance": 176.91,
                "Frequency": 5.9,
                "RSSI": -65.48,
                "LOS": "True"
            }
        },
        {
            "type": "Feature",
            "geometry": {
                "type": "Point",
                "coordinates": [
                    9.93861815,
                    51.5301923
                ]
            },
            "properties": {
                "RSU coordinates": [
                    9.9377178,
                    51.5318092
                ],
                "Distance": 190.49,
                "Frequency": 5.9,
                "RSSI": -66.11,
                "LOS": "True"
            }
        },
        {
            "type": "Feature",
            "geometry": {
                "type": "Point",
                "coordinates": [
                    9.94081918,
                    51.53256376
                ]
            },
            "properties": {
                "RSU coordinates": [
                    9.9377178,
                    51.5318092
                ],
                "Distance": 230.62,
                "Frequency": 5.9,
                "RSSI": -97.75,
                "LOS": "False"
            }
        },
        {
            "type": "Feature",
            "geometry": {
                "type": "Point",
                "coordinates": [
                    9.93861815,
                    51.52997671
                ]
            },
            "properties": {
                "RSU coordinates": [
                    9.9377178,
                    51.5318092
                ],
                "Distance": 213.32,
                "Frequency": 5.9,
                "RSSI": -67.08,
                "LOS": "True"
            }
        },
        {
            "type": "Feature",
            "geometry": {
                "type": "Point",
                "coordinates": [
                    9.93871819,
                    51.52986892
                ]
            },
            "properties": {
                "RSU coordinates": [
                    9.9377178,
                    51.5318092
                ],
                "Distance": 226.84,
                "Frequency": 5.9,
                "RSSI": -67.61,
                "LOS": "True"
            }
        },
        {
            "type": "Feature",
            "geometry": {
                "type": "Point",
                "coordinates": [
                    9.93881822,
                    51.52976112
                ]
            },
            "properties": {
                "RSU coordinates": [
                    9.9377178,
                    51.5318092
                ],
                "Distance": 240.4,
                "Frequency": 5.9,
                "RSSI": -83.11,
                "LOS": "False"
            }
        },
        {
            "type": "Feature",
            "geometry": {
                "type": "Point",
                "coordinates": [
                    9.93881822,
                    51.52954553
                ]
            },
            "properties": {
                "RSU coordinates": [
                    9.9377178,
                    51.5318092
                ],
                "Distance": 263.27,
                "Frequency": 5.9,
                "RSSI": -68.89,
                "LOS": "True"
            }
        },
        {
            "type": "Feature",
            "geometry": {
                "type": "Point",
                "coordinates": [
                    9.93891826,
                    51.52965333
                ]
            },
            "properties": {
                "RSU coordinates": [
                    9.9377178,
                    51.5318092
                ],
                "Distance": 253.99,
                "Frequency": 5.9,
                "RSSI": -83.58,
                "LOS": "False"
            }
        },
        {
            "type": "Feature",
            "geometry": {
                "type": "Point",
                "coordinates": [
                    9.93891825,
                    51.52943774
                ]
            },
            "properties": {
                "RSU coordinates": [
                    9.9377178,
                    51.5318092
                ],
                "Distance": 276.78,
                "Frequency": 5.9,
                "RSSI": -69.31,
                "LOS": "True"
            }
        },
        {
            "type": "Feature",
            "geometry": {
                "type": "Point",
                "coordinates": [
                    9.93901829,
                    51.52954553
                ]
            },
            "properties": {
                "RSU coordinates": [
                    9.9377178,
                    51.5318092
                ],
                "Distance": 267.61,
                "Frequency": 5.9,
                "RSSI": -84.03,
                "LOS": "False"
            }
        },
        {
            "type": "Feature",
            "geometry": {
                "type": "Point",
                "coordinates": [
                    9.93901829,
                    51.52932995
                ]
            },
            "properties": {
                "RSU coordinates": [
                    9.9377178,
                    51.5318092
                ],
                "Distance": 290.32,
                "Frequency": 5.9,
                "RSSI": -84.72,
                "LOS": "False"
            }
        },
        {
            "type": "Feature",
            "geometry": {
                "type": "Point",
                "coordinates": [
                    9.93901828,
                    51.52911436
                ]
            },
            "properties": {
                "RSU coordinates": [
                    9.9377178,
                    51.5318092
                ],
                "Distance": 313.23,
                "Frequency": 5.9,
                "RSSI": -70.38,
                "LOS": "True"
            }
        },
        {
            "type": "Feature",
            "geometry": {
                "type": "Point",
                "coordinates": [
                    9.93911832,
                    51.52922215
                ]
            },
            "properties": {
                "RSU coordinates": [
                    9.9377178,
                    51.5318092
                ],
                "Distance": 303.89,
                "Frequency": 5.9,
                "RSSI": -85.12,
                "LOS": "False"
            }
        },
        {
            "type": "Feature",
            "geometry": {
                "type": "Point",
                "coordinates": [
                    9.93911831,
                    51.52900657
                ]
            },
            "properties": {
                "RSU coordinates": [
                    9.9377178,
                    51.5318092
                ],
                "Distance": 326.73,
                "Frequency": 5.9,
                "RSSI": -70.74,
                "LOS": "True"
            }
        },
        {
            "type": "Feature",
            "geometry": {
                "type": "Point",
                "coordinates": [
                    9.93921835,
                    51.52911436
                ]
            },
            "properties": {
                "RSU coordinates": [
                    9.9377178,
                    51.5318092
                ],
                "Distance": 317.49,
                "Frequency": 5.9,
                "RSSI": -85.49,
                "LOS": "False"
            }
        },
        {
            "type": "Feature",
            "geometry": {
                "type": "Point",
                "coordinates": [
                    9.93921835,
                    51.52889877
                ]
            },
            "properties": {
                "RSU coordinates": [
                    9.9377178,
                    51.5318092
                ],
                "Distance": 340.26,
                "Frequency": 5.9,
                "RSSI": -71.09,
                "LOS": "True"
            }
        },
        {
            "type": "Feature",
            "geometry": {
                "type": "Point",
                "coordinates": [
                    9.93931839,
                    51.52900657
                ]
            },
            "properties": {
                "RSU coordinates": [
                    9.9377178,
                    51.5318092
                ],
                "Distance": 331.11,
                "Frequency": 5.9,
                "RSSI": -85.85,
                "LOS": "False"
            }
        },
        {
            "type": "Feature",
            "geometry": {
                "type": "Point",
                "coordinates": [
                    9.93931838,
                    51.52879098
                ]
            },
            "properties": {
                "RSU coordinates": [
                    9.9377178,
                    51.5318092
                ],
                "Distance": 353.81,
                "Frequency": 5.9,
                "RSSI": -86.42,
                "LOS": "False"
            }
        },
        {
            "type": "Feature",
            "geometry": {
                "type": "Point",
                "coordinates": [
                    9.93931837,
                    51.52857539
                ]
            },
            "properties": {
                "RSU coordinates": [
                    9.9377178,
                    51.5318092
                ],
                "Distance": 376.68,
                "Frequency": 5.9,
                "RSSI": -86.96,
                "LOS": "False"
            }
        }
    ]
}