{
    "type": "FeatureCollection",
    "features": [
        {
            "type": "Feature",
            "geometry": {
                "type": "Point",
                "coordinates": [
                    9.93077843,
                    51.53215299
                ]
            },
            "properties": {
                "RSU coordinates": [
                    9.93438,
                    51.5319374
                ],
                "Distance": 250.57,
                "Frequency": 5.9,
                "RSSI": -98.46,
                "LOS": "False"
            }
        },
        {
            "type": "Feature",
            "geometry": {
                "type": "Point",
                "coordinates": [
                    9.9311786,
                    51.53215299
                ]
            },
            "properties": {
                "RSU coordinates": [
                    9.93438,
                    51.5319374
                ],
                "Distance": 223.0,
                "Frequency": 5.9,
                "RSSI": -67.46,
                "LOS": "True"
            }
        },
        {
            "type": "Feature",
            "geometry": {
                "type": "Point",
                "coordinates": [
                    9.93137869,
                    51.53215299
                ]
            },
            "properties": {
                "RSU coordinates": [
                    9.93438,
                    51.5319374
                ],
                "Distance": 209.23,
                "Frequency": 5.9,
                "RSSI": -66.92,
                "LOS": "True"
            }
        },
        {
            "type": "Feature",
            "geometry": {
                "type": "Point",
                "coordinates": [
                    9.93147874,
                    51.53204519
                ]
            },
            "properties": {
                "RSU coordinates": [
                    9.93438,
                    51.5319374
                ],
                "Distance": 201.28,
                "Frequency": 5.9,
                "RSSI": -66.58,
                "LOS": "True"
            }
        },
        {
            "type": "Feature",
            "geometry": {
                "type": "Point",
                "coordinates": [
                    9.93157878,
                    51.53215299
                ]
            },
            "properties": {
                "RSU coordinates": [
                    9.93438,
                    51.5319374
                ],
                "Distance": 195.47,
                "Frequency": 5.9,
                "RSSI": -66.33,
                "LOS": "True"
            }
        },
        {
            "type": "Feature",
            "geometry": {
                "type": "Point",
                "coordinates": [
                    9.93167883,
                    51.53204519
                ]
            },
            "properties": {
                "RSU coordinates": [
                    9.93438,
                    51.5319374
                ],
                "Distance": 187.45,
                "Frequency": 5.9,
                "RSSI": -65.97,
                "LOS": "True"
            }
        },
        {
            "type": "Feature",
            "geometry": {
                "type": "Point",
                "coordinates": [
                    9.93177887,
                    51.53215299
                ]
            },
            "properties": {
                "RSU coordinates": [
                    9.93438,
                    51.5319374
                ],
                "Distance": 181.73,
                "Frequency": 5.9,
                "RSSI": -65.71,
                "LOS": "True"
            }
        },
        {
            "type": "Feature",
            "geometry": {
                "type": "Point",
                "coordinates": [
                    9.93187892,
                    51.53204519
                ]
            },
            "properties": {
                "RSU coordinates": [
                    9.93438,
                    51.5319374
                ],
                "Distance": 173.62,
                "Frequency": 5.9,
                "RSSI": -65.32,
                "LOS": "True"
            }
        },
        {
            "type": "Feature",
            "geometry": {
                "type": "Point",
                "coordinates": [
                    9.93197895,
                    51.53215299
                ]
            },
            "properties": {
                "RSU coordinates": [
                    9.93438,
                    51.5319374
                ],
                "Distance": 168.0,
                "Frequency": 5.9,
                "RSSI": -65.03,
                "LOS": "True"
            }
        },
        {
            "type": "Feature",
            "geometry": {
                "type": "Point",
                "coordinates": [
                    9.932079,
                    51.53204519
                ]
            },
            "properties": {
                "RSU coordinates": [
                    9.93438,
                    51.5319374
                ],
                "Distance": 159.8,
                "Frequency": 5.9,
                "RSSI": -64.6,
                "LOS": "True"
            }
        },
        {
            "type": "Feature",
            "geometry": {
                "type": "Point",
                "coordinates": [
                    9.93217904,
                    51.53215299
                ]
            },
            "properties": {
                "RSU coordinates": [
                    9.93438,
                    51.5319374
                ],
                "Distance": 154.3,
                "Frequency": 5.9,
                "RSSI": -64.3,
                "LOS": "True"
            }
        },
        {
            "type": "Feature",
            "geometry": {
                "type": "Point",
                "coordinates": [
                    9.93227909,
                    51.53204519
                ]
            },
            "properties": {
                "RSU coordinates": [
                    9.93438,
                    51.5319374
                ],
                "Distance": 145.99,
                "Frequency": 5.9,
                "RSSI": -63.83,
                "LOS": "True"
            }
        },
        {
            "type": "Feature",
            "geometry": {
                "type": "Point",
                "coordinates": [
                    9.93237913,
                    51.53215299
                ]
            },
            "properties": {
                "RSU coordinates": [
                    9.93438,
                    51.5319374
                ],
                "Distance": 140.63,
                "Frequency": 5.9,
                "RSSI": -63.51,
                "LOS": "True"
            }
        },
        {
            "type": "Feature",
            "geometry": {
                "type": "Point",
                "coordinates": [
                    9.93247918,
                    51.53204519
                ]
            },
            "properties": {
                "RSU coordinates": [
                    9.93438,
                    51.5319374
                ],
                "Distance": 132.18,
                "Frequency": 5.9,
                "RSSI": -62.98,
                "LOS": "True"
            }
        },
        {
            "type": "Feature",
            "geometry": {
                "type": "Point",
                "coordinates": [
                    9.93267926,
                    51.53204519
                ]
            },
            "properties": {
                "RSU coordinates": [
                    9.93438,
                    51.5319374
                ],
                "Distance": 118.39,
                "Frequency": 5.9,
                "RSSI": -62.03,
                "LOS": "True"
            }
        },
        {
            "type": "Feature",
            "geometry": {
                "type": "Point",
                "coordinates": [
                    9.93287935,
                    51.53204519
                ]
            },
            "properties": {
                "RSU coordinates": [
                    9.93438,
                    51.5319374
                ],
                "Distance": 104.61,
                "Frequency": 5.9,
                "RSSI": -60.97,
                "LOS": "True"
            }
        },
        {
            "type": "Feature",
            "geometry": {
                "type": "Point",
                "coordinates": [
                    9.93307944,
                    51.53204519
                ]
            },
            "properties": {
                "RSU coordinates": [
                    9.93438,
                    51.5319374
                ],
                "Distance": 90.86,
                "Frequency": 5.9,
                "RSSI": -59.76,
                "LOS": "True"
            }
        },
        {
            "type": "Feature",
            "geometry": {
                "type": "Point",
                "coordinates": [
                    9.93448005,
                    51.5335543
                ]
            },
            "properties": {
                "RSU coordinates": [
                    9.93438,
                    51.5319374
                ],
                "Distance": 180.13,
                "Frequency": 5.9,
                "RSSI": -95.63,
                "LOS": "False"
            }
        },
        {
            "type": "Feature",
            "geometry": {
                "type": "Point",
                "coordinates": [
                    9.93327952,
                    51.53204519
                ]
            },
            "properties": {
                "RSU coordinates": [
                    9.93438,
                    51.5319374
                ],
                "Distance": 77.15,
                "Frequency": 5.9,
                "RSSI": -58.36,
                "LOS": "True"
            }
        },
        {
            "type": "Feature",
            "geometry": {
                "type": "Point",
                "coordinates": [
                    9.93427995,
                    51.53312313
                ]
            },
            "properties": {
                "RSU coordinates": [
                    9.93438,
                    51.5319374
                ],
                "Distance": 132.18,
                "Frequency": 5.9,
                "RSSI": -77.97999999999999,
                "LOS": "False"
            }
        },
        {
            "type": "Feature",
            "geometry": {
                "type": "Point",
                "coordinates": [
                    9.93347961,
                    51.53204519
                ]
            },
            "properties": {
                "RSU coordinates": [
                    9.93438,
                    51.5319374
                ],
                "Distance": 63.5,
                "Frequency": 5.9,
                "RSSI": -56.69,
                "LOS": "True"
            }
        },
        {
            "type": "Feature",
            "geometry": {
                "type": "Point",
                "coordinates": [
                    9.93427995,
                    51.53290754
                ]
            },
            "properties": {
                "RSU coordinates": [
                    9.93438,
                    51.5319374
                ],
                "Distance": 108.22,
                "Frequency": 5.9,
                "RSSI": -91.25999999999999,
                "LOS": "False"
            }
        },
        {
            "type": "Feature",
            "geometry": {
                "type": "Point",
                "coordinates": [
                    9.93438,
                    51.53301534
                ]
            },
            "properties": {
                "RSU coordinates": [
                    9.93438,
                    51.5319374
                ],
                "Distance": 120.0,
                "Frequency": 5.9,
                "RSSI": -77.15,
                "LOS": "False"
            }
        },
        {
            "type": "Feature",
            "geometry": {
                "type": "Point",
                "coordinates": [
                    9.93448005,
                    51.53312313
                ]
            },
            "properties": {
                "RSU coordinates": [
                    9.93438,
                    51.5319374
                ],
                "Distance": 132.18,
                "Frequency": 5.9,
                "RSSI": -62.98,
                "LOS": "True"
            }
        },
        {
            "type": "Feature",
            "geometry": {
                "type": "Point",
                "coordinates": [
                    9.93357965,
                    51.5319374
                ]
            },
            "properties": {
                "RSU coordinates": [
                    9.93438,
                    51.5319374
                ],
                "Distance": 55.43,
                "Frequency": 5.9,
                "RSSI": -55.52,
                "LOS": "True"
            }
        },
        {
            "type": "Feature",
            "geometry": {
                "type": "Point",
                "coordinates": [
                    9.9336797,
                    51.53204519
                ]
            },
            "properties": {
                "RSU coordinates": [
                    9.93438,
                    51.5319374
                ],
                "Distance": 49.96,
                "Frequency": 5.9,
                "RSSI": -54.63,
                "LOS": "True"
            }
        },
        {
            "type": "Feature",
            "geometry": {
                "type": "Point",
                "coordinates": [
                    9.93427996,
                    51.53269196
                ]
            },
            "properties": {
                "RSU coordinates": [
                    9.93438,
                    51.5319374
                ],
                "Distance": 84.29,
                "Frequency": 5.9,
                "RSSI": -89.12,
                "LOS": "False"
            }
        },
        {
            "type": "Feature",
            "geometry": {
                "type": "Point",
                "coordinates": [
                    9.93438,
                    51.53279975
                ]
            },
            "properties": {
                "RSU coordinates": [
                    9.93438,
                    51.5319374
                ],
                "Distance": 96.0,
                "Frequency": 5.9,
                "RSSI": -75.22999999999999,
                "LOS": "False"
            }
        },
        {
            "type": "Feature",
            "geometry": {
                "type": "Point",
                "coordinates": [
                    9.93448005,
                    51.53290754
                ]
            },
            "properties": {
                "RSU coordinates": [
                    9.93438,
                    51.5319374
                ],
                "Distance": 108.22,
                "Frequency": 5.9,
                "RSSI": -61.26,
                "LOS": "True"
            }
        },
        {
            "type": "Feature",
            "geometry": {
                "type": "Point",
                "coordinates": [
                    9.93458009,
                    51.53301534
                ]
            },
            "properties": {
                "RSU coordinates": [
                    9.93438,
                    51.5319374
                ],
                "Distance": 120.8,
                "Frequency": 5.9,
                "RSSI": -77.2,
                "LOS": "False"
            }
        },
        {
            "type": "Feature",
            "geometry": {
                "type": "Point",
                "coordinates": [
                    9.93377974,
                    51.5319374
                ]
            },
            "properties": {
                "RSU coordinates": [
                    9.93438,
                    51.5319374
                ],
                "Distance": 41.57,
                "Frequency": 5.9,
                "RSSI": -53.06,
                "LOS": "True"
            }
        },
        {
            "type": "Feature",
            "geometry": {
                "type": "Point",
                "coordinates": [
                    9.93387978,
                    51.53204519
                ]
            },
            "properties": {
                "RSU coordinates": [
                    9.93438,
                    51.5319374
                ],
                "Distance": 36.66,
                "Frequency": 5.9,
                "RSSI": -51.98,
                "LOS": "True"
            }
        },
        {
            "type": "Feature",
            "geometry": {
                "type": "Point",
                "coordinates": [
                    9.93438,
                    51.53258416
                ]
            },
            "properties": {
                "RSU coordinates": [
                    9.93438,
                    51.5319374
                ],
                "Distance": 72.0,
                "Frequency": 5.9,
                "RSSI": -57.77,
                "LOS": "True"
            }
        },
        {
            "type": "Feature",
            "geometry": {
                "type": "Point",
                "coordinates": [
                    9.93448004,
                    51.53269196
                ]
            },
            "properties": {
                "RSU coordinates": [
                    9.93438,
                    51.5319374
                ],
                "Distance": 84.29,
                "Frequency": 5.9,
                "RSSI": -59.12,
                "LOS": "True"
            }
        },
        {
            "type": "Feature",
            "geometry": {
                "type": "Point",
                "coordinates": [
                    9.93397983,
                    51.5319374
                ]
            },
            "properties": {
                "RSU coordinates": [
                    9.93438,
                    51.5319374
                ],
                "Distance": 27.71,
                "Frequency": 5.9,
                "RSSI": -49.58,
                "LOS": "True"
            }
        },
        {
            "type": "Feature",
            "geometry": {
                "type": "Point",
                "coordinates": [
                    9.93407987,
                    51.53204519
                ]
            },
            "properties": {
                "RSU coordinates": [
                    9.93438,
                    51.5319374
                ],
                "Distance": 24.0,
                "Frequency": 5.9,
                "RSSI": -48.34,
                "LOS": "True"
            }
        },
        {
            "type": "Feature",
            "geometry": {
                "type": "Point",
                "coordinates": [
                    9.93438,
                    51.53236857
                ]
            },
            "properties": {
                "RSU coordinates": [
                    9.93438,
                    51.5319374
                ],
                "Distance": 48.0,
                "Frequency": 5.9,
                "RSSI": -54.29,
                "LOS": "True"
            }
        },
        {
            "type": "Feature",
            "geometry": {
                "type": "Point",
                "coordinates": [
                    9.93417991,
                    51.5319374
                ]
            },
            "properties": {
                "RSU coordinates": [
                    9.93438,
                    51.5319374
                ],
                "Distance": 13.86,
                "Frequency": 5.9,
                "RSSI": -43.63,
                "LOS": "True"
            }
        },
        {
            "type": "Feature",
            "geometry": {
                "type": "Point",
                "coordinates": [
                    9.93438,
                    51.53215299
                ]
            },
            "properties": {
                "RSU coordinates": [
                    9.93438,
                    51.5319374
                ],
                "Distance": 24.0,
                "Frequency": 5.9,
                "RSSI": -48.34,
                "LOS": "True"
            }
        },
        {
            "type": "Feature",
            "geometry": {
                "type": "Point",
                "coordinates": [
                    9.93407987,
                    51.53161402
                ]
            },
            "properties": {
                "RSU coordinates": [
                    9.93438,
                    51.5319374
                ],
                "Distance": 41.57,
                "Frequency": 5.9,
                "RSSI": -68.06,
                "LOS": "False"
            }
        },
        {
            "type": "Feature",
            "geometry": {
                "type": "Point",
                "coordinates": [
                    9.93417991,
                    51.53172181
                ]
            },
            "properties": {
                "RSU coordinates": [
                    9.93438,
                    51.5319374
                ],
                "Distance": 27.71,
                "Frequency": 5.9,
                "RSSI": -64.58,
                "LOS": "False"
            }
        },
        {
            "type": "Feature",
            "geometry": {
                "type": "Point",
                "coordinates": [
                    9.93438,
                    51.53172181
                ]
            },
            "properties": {
                "RSU coordinates": [
                    9.93438,
                    51.5319374
                ],
                "Distance": 24.0,
                "Frequency": 5.9,
                "RSSI": -48.34,
                "LOS": "True"
            }
        },
        {
            "type": "Feature",
            "geometry": {
                "type": "Point",
                "coordinates": [
                    9.93448004,
                    51.53182961
                ]
            },
            "properties": {
                "RSU coordinates": [
                    9.93438,
                    51.5319374
                ],
                "Distance": 13.86,
                "Frequency": 5.9,
                "RSSI": -43.63,
                "LOS": "True"
            }
        },
        {
            "type": "Feature",
            "geometry": {
                "type": "Point",
                "coordinates": [
                    9.93458009,
                    51.5319374
                ]
            },
            "properties": {
                "RSU coordinates": [
                    9.93438,
                    51.5319374
                ],
                "Distance": 13.86,
                "Frequency": 5.9,
                "RSSI": -43.63,
                "LOS": "True"
            }
        },
        {
            "type": "Feature",
            "geometry": {
                "type": "Point",
                "coordinates": [
                    9.93478017,
                    51.53215299
                ]
            },
            "properties": {
                "RSU coordinates": [
                    9.93438,
                    51.5319374
                ],
                "Distance": 36.66,
                "Frequency": 5.9,
                "RSSI": -96.97999999999999,
                "LOS": "False"
            }
        },
        {
            "type": "Feature",
            "geometry": {
                "type": "Point",
                "coordinates": [
                    9.93438,
                    51.53150623
                ]
            },
            "properties": {
                "RSU coordinates": [
                    9.93438,
                    51.5319374
                ],
                "Distance": 48.0,
                "Frequency": 5.9,
                "RSSI": -54.29,
                "LOS": "True"
            }
        },
        {
            "type": "Feature",
            "geometry": {
                "type": "Point",
                "coordinates": [
                    9.93478017,
                    51.5319374
                ]
            },
            "properties": {
                "RSU coordinates": [
                    9.93438,
                    51.5319374
                ],
                "Distance": 27.71,
                "Frequency": 5.9,
                "RSSI": -49.58,
                "LOS": "True"
            }
        },
        {
            "type": "Feature",
            "geometry": {
                "type": "Point",
                "coordinates": [
                    9.93438,
                    51.53129064
                ]
            },
            "properties": {
                "RSU coordinates": [
                    9.93438,
                    51.5319374
                ],
                "Distance": 72.0,
                "Frequency": 5.9,
                "RSSI": -57.77,
                "LOS": "True"
            }
        },
        {
            "type": "Feature",
            "geometry": {
                "type": "Point",
                "coordinates": [
                    9.93448004,
                    51.53139843
                ]
            },
            "properties": {
                "RSU coordinates": [
                    9.93438,
                    51.5319374
                ],
                "Distance": 60.4,
                "Frequency": 5.9,
                "RSSI": -56.26,
                "LOS": "True"
            }
        },
        {
            "type": "Feature",
            "geometry": {
                "type": "Point",
                "coordinates": [
                    9.93468013,
                    51.53161402
                ]
            },
            "properties": {
                "RSU coordinates": [
                    9.93438,
                    51.5319374
                ],
                "Distance": 41.57,
                "Frequency": 5.9,
                "RSSI": -68.06,
                "LOS": "False"
            }
        },
        {
            "type": "Feature",
            "geometry": {
                "type": "Point",
                "coordinates": [
                    9.93498026,
                    51.5319374
                ]
            },
            "properties": {
                "RSU coordinates": [
                    9.93438,
                    51.5319374
                ],
                "Distance": 41.57,
                "Frequency": 5.9,
                "RSSI": -53.06,
                "LOS": "True"
            }
        },
        {
            "type": "Feature",
            "geometry": {
                "type": "Point",
                "coordinates": [
                    9.93448004,
                    51.53118284
                ]
            },
            "properties": {
                "RSU coordinates": [
                    9.93438,
                    51.5319374
                ],
                "Distance": 84.29,
                "Frequency": 5.9,
                "RSSI": -59.12,
                "LOS": "True"
            }
        },
        {
            "type": "Feature",
            "geometry": {
                "type": "Point",
                "coordinates": [
                    9.9350803,
                    51.53182961
                ]
            },
            "properties": {
                "RSU coordinates": [
                    9.93438,
                    51.5319374
                ],
                "Distance": 49.96,
                "Frequency": 5.9,
                "RSSI": -54.63,
                "LOS": "True"
            }
        },
        {
            "type": "Feature",
            "geometry": {
                "type": "Point",
                "coordinates": [
                    9.93518035,
                    51.5319374
                ]
            },
            "properties": {
                "RSU coordinates": [
                    9.93438,
                    51.5319374
                ],
                "Distance": 55.43,
                "Frequency": 5.9,
                "RSSI": -55.52,
                "LOS": "True"
            }
        },
        {
            "type": "Feature",
            "geometry": {
                "type": "Point",
                "coordinates": [
                    9.93528039,
                    51.53204519
                ]
            },
            "properties": {
                "RSU coordinates": [
                    9.93438,
                    51.5319374
                ],
                "Distance": 63.5,
                "Frequency": 5.9,
                "RSSI": -86.69,
                "LOS": "False"
            }
        },
        {
            "type": "Feature",
            "geometry": {
                "type": "Point",
                "coordinates": [
                    9.93448004,
                    51.53096726
                ]
            },
            "properties": {
                "RSU coordinates": [
                    9.93438,
                    51.5319374
                ],
                "Distance": 108.22,
                "Frequency": 5.9,
                "RSSI": -61.26,
                "LOS": "True"
            }
        },
        {
            "type": "Feature",
            "geometry": {
                "type": "Point",
                "coordinates": [
                    9.93528039,
                    51.53182961
                ]
            },
            "properties": {
                "RSU coordinates": [
                    9.93438,
                    51.5319374
                ],
                "Distance": 63.5,
                "Frequency": 5.9,
                "RSSI": -56.69,
                "LOS": "True"
            }
        },
        {
            "type": "Feature",
            "geometry": {
                "type": "Point",
                "coordinates": [
                    9.93538043,
                    51.5319374
                ]
            },
            "properties": {
                "RSU coordinates": [
                    9.93438,
                    51.5319374
                ],
                "Distance": 69.28,
                "Frequency": 5.9,
                "RSSI": -57.44,
                "LOS": "True"
            }
        },
        {
            "type": "Feature",
            "geometry": {
                "type": "Point",
                "coordinates": [
                    9.93448004,
                    51.53075167
                ]
            },
            "properties": {
                "RSU coordinates": [
                    9.93438,
                    51.5319374
                ],
                "Distance": 132.18,
                "Frequency": 5.9,
                "RSSI": -62.98,
                "LOS": "True"
            }
        },
        {
            "type": "Feature",
            "geometry": {
                "type": "Point",
                "coordinates": [
                    9.93548047,
                    51.53182961
                ]
            },
            "properties": {
                "RSU coordinates": [
                    9.93438,
                    51.5319374
                ],
                "Distance": 77.15,
                "Frequency": 5.9,
                "RSSI": -58.36,
                "LOS": "True"
            }
        },
        {
            "type": "Feature",
            "geometry": {
                "type": "Point",
                "coordinates": [
                    9.93458008,
                    51.53064388
                ]
            },
            "properties": {
                "RSU coordinates": [
                    9.93438,
                    51.5319374
                ],
                "Distance": 144.67,
                "Frequency": 5.9,
                "RSSI": -63.75,
                "LOS": "True"
            }
        },
        {
            "type": "Feature",
            "geometry": {
                "type": "Point",
                "coordinates": [
                    9.93458008,
                    51.53042829
                ]
            },
            "properties": {
                "RSU coordinates": [
                    9.93438,
                    51.5319374
                ],
                "Distance": 168.57,
                "Frequency": 5.9,
                "RSSI": -65.06,
                "LOS": "True"
            }
        },
        {
            "type": "Feature",
            "geometry": {
                "type": "Point",
                "coordinates": [
                    9.9357806,
                    51.53172181
                ]
            },
            "properties": {
                "RSU coordinates": [
                    9.93438,
                    51.5319374
                ],
                "Distance": 99.92,
                "Frequency": 5.9,
                "RSSI": -75.58,
                "LOS": "False"
            }
        },
        {
            "type": "Feature",
            "geometry": {
                "type": "Point",
                "coordinates": [
                    9.93458008,
                    51.5302127
                ]
            },
            "properties": {
                "RSU coordinates": [
                    9.93438,
                    51.5319374
                ],
                "Distance": 192.5,
                "Frequency": 5.9,
                "RSSI": -66.2,
                "LOS": "True"
            }
        },
        {
            "type": "Feature",
            "geometry": {
                "type": "Point",
                "coordinates": [
                    9.93598068,
                    51.53172181
                ]
            },
            "properties": {
                "RSU coordinates": [
                    9.93438,
                    51.5319374
                ],
                "Distance": 113.42,
                "Frequency": 5.9,
                "RSSI": -61.66,
                "LOS": "True"
            }
        },
        {
            "type": "Feature",
            "geometry": {
                "type": "Point",
                "coordinates": [
                    9.93458008,
                    51.52999712
                ]
            },
            "properties": {
                "RSU coordinates": [
                    9.93438,
                    51.5319374
                ],
                "Distance": 216.44,
                "Frequency": 5.9,
                "RSSI": -67.21,
                "LOS": "True"
            }
        },
        {
            "type": "Feature",
            "geometry": {
                "type": "Point",
                "coordinates": [
                    9.93618077,
                    51.53172181
                ]
            },
            "properties": {
                "RSU coordinates": [
                    9.93438,
                    51.5319374
                ],
                "Distance": 127.0,
                "Frequency": 5.9,
                "RSSI": -62.63,
                "LOS": "True"
            }
        },
        {
            "type": "Feature",
            "geometry": {
                "type": "Point",
                "coordinates": [
                    9.93458008,
                    51.52978153
                ]
            },
            "properties": {
                "RSU coordinates": [
                    9.93438,
                    51.5319374
                ],
                "Distance": 240.4,
                "Frequency": 5.9,
                "RSSI": -68.11,
                "LOS": "True"
            }
        },
        {
            "type": "Feature",
            "geometry": {
                "type": "Point",
                "coordinates": [
                    9.93468012,
                    51.52988932
                ]
            },
            "properties": {
                "RSU coordinates": [
                    9.93438,
                    51.5319374
                ],
                "Distance": 228.95,
                "Frequency": 5.9,
                "RSSI": -67.69,
                "LOS": "True"
            }
        },
        {
            "type": "Feature",
            "geometry": {
                "type": "Point",
                "coordinates": [
                    9.93468011,
                    51.52967373
                ]
            },
            "properties": {
                "RSU coordinates": [
                    9.93438,
                    51.5319374
                ],
                "Distance": 252.86,
                "Frequency": 5.9,
                "RSSI": -68.54,
                "LOS": "True"
            }
        },
        {
            "type": "Feature",
            "geometry": {
                "type": "Point",
                "coordinates": [
                    9.93468011,
                    51.52945815
                ]
            },
            "properties": {
                "RSU coordinates": [
                    9.93438,
                    51.5319374
                ],
                "Distance": 276.78,
                "Frequency": 5.9,
                "RSSI": -69.31,
                "LOS": "True"
            }
        },
        {
            "type": "Feature",
            "geometry": {
                "type": "Point",
                "coordinates": [
                    9.93468011,
                    51.52924256
                ]
            },
            "properties": {
                "RSU coordinates": [
                    9.93438,
                    51.5319374
                ],
                "Distance": 300.72,
                "Frequency": 5.9,
                "RSSI": -70.03,
                "LOS": "True"
            }
        },
        {
            "type": "Feature",
            "geometry": {
                "type": "Point",
                "coordinates": [
                    9.93478015,
                    51.52935035
                ]
            },
            "properties": {
                "RSU coordinates": [
                    9.93438,
                    51.5319374
                ],
                "Distance": 289.33,
                "Frequency": 5.9,
                "RSSI": -69.7,
                "LOS": "True"
            }
        },
        {
            "type": "Feature",
            "geometry": {
                "type": "Point",
                "coordinates": [
                    9.93468011,
                    51.52902697
                ]
            },
            "properties": {
                "RSU coordinates": [
                    9.93438,
                    51.5319374
                ],
                "Distance": 324.67,
                "Frequency": 5.9,
                "RSSI": -70.68,
                "LOS": "True"
            }
        },
        {
            "type": "Feature",
            "geometry": {
                "type": "Point",
                "coordinates": [
                    9.93478015,
                    51.52913477
                ]
            },
            "properties": {
                "RSU coordinates": [
                    9.93438,
                    51.5319374
                ],
                "Distance": 313.23,
                "Frequency": 5.9,
                "RSSI": -70.38,
                "LOS": "True"
            }
        },
        {
            "type": "Feature",
            "geometry": {
                "type": "Point",
                "coordinates": [
                    9.93468011,
                    51.52881139
                ]
            },
            "properties": {
                "RSU coordinates": [
                    9.93438,
                    51.5319374
                ],
                "Distance": 348.62,
                "Frequency": 5.9,
                "RSSI": -71.29,
                "LOS": "True"
            }
        },
        {
            "type": "Feature",
            "geometry": {
                "type": "Point",
                "coordinates": [
                    9.93478015,
                    51.52891918
                ]
            },
            "properties": {
                "RSU coordinates": [
                    9.93438,
                    51.5319374
                ],
                "Distance": 337.14,
                "Frequency": 5.9,
                "RSSI": -71.01,
                "LOS": "True"
            }
        },
        {
            "type": "Feature",
            "geometry": {
                "type": "Point",
                "coordinates": [
                    9.93468011,
                    51.5285958
                ]
            },
            "properties": {
                "RSU coordinates": [
                    9.93438,
                    51.5319374
                ],
                "Distance": 372.58,
                "Frequency": 5.9,
                "RSSI": -71.86,
                "LOS": "True"
            }
        },
        {
            "type": "Feature",
            "geometry": {
                "type": "Point",
                "coordinates": [
                    9.93478014,
                    51.52870359
                ]
            },
            "properties": {
                "RSU coordinates": [
                    9.93438,
                    51.5319374
                ],
                "Distance": 361.07,
                "Frequency": 5.9,
                "RSSI": -71.59,
                "LOS": "True"
            }
        },
        {
            "type": "Feature",
            "geometry": {
                "type": "Point",
                "coordinates": [
                    9.93488018,
                    51.52881139
                ]
            },
            "properties": {
                "RSU coordinates": [
                    9.93438,
                    51.5319374
                ],
                "Distance": 349.72,
                "Frequency": 5.9,
                "RSSI": -71.32,
                "LOS": "True"
            }
        },
        {
            "type": "Feature",
            "geometry": {
                "type": "Point",
                "coordinates": [
                    9.93478014,
                    51.52848801
                ]
            },
            "properties": {
                "RSU coordinates": [
                    9.93438,
                    51.5319374
                ],
                "Distance": 385.0,
                "Frequency": 5.9,
                "RSSI": -72.15,
                "LOS": "True"
            }
        },
        {
            "type": "Feature",
            "geometry": {
                "type": "Point",
                "coordinates": [
                    9.93478014,
                    51.52827242
                ]
            },
            "properties": {
                "RSU coordinates": [
                    9.93438,
                    51.5319374
                ],
                "Distance": 408.94,
                "Frequency": 5.9,
                "RSSI": -72.66,
                "LOS": "True"
            }
        },
        {
            "type": "Feature",
            "geometry": {
                "type": "Point",
                "coordinates": [
                    9.93488018,
                    51.52838021
                ]
            },
            "properties": {
                "RSU coordinates": [
                    9.93438,
                    51.5319374
                ],
                "Distance": 397.51,
                "Frequency": 5.9,
                "RSSI": -87.42,
                "LOS": "False"
            }
        },
        {
            "type": "Feature",
            "geometry": {
                "type": "Point",
                "coordinates": [
                    9.93478014,
                    51.52805683
                ]
            },
            "properties": {
                "RSU coordinates": [
                    9.93438,
                    51.5319374
                ],
                "Distance": 432.89,
                "Frequency": 5.9,
                "RSSI": -73.15,
                "LOS": "True"
            }
        },
        {
            "type": "Feature",
            "geometry": {
                "type": "Point",
                "coordinates": [
                    9.93488017,
                    51.52816462
                ]
            },
            "properties": {
                "RSU coordinates": [
                    9.93438,
                    51.5319374
                ],
                "Distance": 421.43,
                "Frequency": 5.9,
                "RSSI": -72.92,
                "LOS": "True"
            }
        },
        {
            "type": "Feature",
            "geometry": {
                "type": "Point",
                "coordinates": [
                    9.93478014,
                    51.52784124
                ]
            },
            "properties": {
                "RSU coordinates": [
                    9.93438,
                    51.5319374
                ],
                "Distance": 456.84,
                "Frequency": 5.9,
                "RSSI": -88.61,
                "LOS": "False"
            }
        },
        {
            "type": "Feature",
            "geometry": {
                "type": "Point",
                "coordinates": [
                    9.93488017,
                    51.52794904
                ]
            },
            "properties": {
                "RSU coordinates": [
                    9.93438,
                    51.5319374
                ],
                "Distance": 445.35,
                "Frequency": 5.9,
                "RSSI": -88.39,
                "LOS": "False"
            }
        },
        {
            "type": "Feature",
            "geometry": {
                "type": "Point",
                "coordinates": [
                    9.93478013,
                    51.52762566
                ]
            },
            "properties": {
                "RSU coordinates": [
                    9.93438,
                    51.5319374
                ],
                "Distance": 480.8,
                "Frequency": 5.9,
                "RSSI": -89.05,
                "LOS": "False"
            }
        }
    ]
}