{
    "type": "FeatureCollection",
    "features": [
        {
            "type": "Feature",
            "geometry": {
                "type": "Point",
                "coordinates": [
                    8.37358814,
                    49.38887886
                ]
            },
            "properties": {
                "RSU coordinates": [
                    8.3741618,
                    49.3865074
                ],
                "Distance": 267.25,
                "Frequency": 5.9,
                "RSSI": -99.01,
                "LOS": "False"
            }
        },
        {
            "type": "Feature",
            "geometry": {
                "type": "Point",
                "coordinates": [
                    8.37282329,
                    49.38780092
                ]
            },
            "properties": {
                "RSU coordinates": [
                    8.3741618,
                    49.3865074
                ],
                "Distance": 173.62,
                "Frequency": 5.9,
                "RSSI": -95.32,
                "LOS": "False"
            }
        },
        {
            "type": "Feature",
            "geometry": {
                "type": "Point",
                "coordinates": [
                    8.3729189,
                    49.38769313
                ]
            },
            "properties": {
                "RSU coordinates": [
                    8.3741618,
                    49.3865074
                ],
                "Distance": 159.8,
                "Frequency": 5.9,
                "RSSI": -94.6,
                "LOS": "False"
            }
        },
        {
            "type": "Feature",
            "geometry": {
                "type": "Point",
                "coordinates": [
                    8.37368375,
                    49.38855548
                ]
            },
            "properties": {
                "RSU coordinates": [
                    8.3741618,
                    49.3865074
                ],
                "Distance": 230.62,
                "Frequency": 5.9,
                "RSSI": -97.75,
                "LOS": "False"
            }
        },
        {
            "type": "Feature",
            "geometry": {
                "type": "Point",
                "coordinates": [
                    8.37100692,
                    49.3848905
                ]
            },
            "properties": {
                "RSU coordinates": [
                    8.3741618,
                    49.3865074
                ],
                "Distance": 290.98,
                "Frequency": 5.9,
                "RSSI": -99.74,
                "LOS": "False"
            }
        },
        {
            "type": "Feature",
            "geometry": {
                "type": "Point",
                "coordinates": [
                    8.3724409,
                    49.3865074
                ]
            },
            "properties": {
                "RSU coordinates": [
                    8.3741618,
                    49.3865074
                ],
                "Distance": 124.71,
                "Frequency": 5.9,
                "RSSI": -92.47999999999999,
                "LOS": "False"
            }
        },
        {
            "type": "Feature",
            "geometry": {
                "type": "Point",
                "coordinates": [
                    8.37272771,
                    49.38683078
                ]
            },
            "properties": {
                "RSU coordinates": [
                    8.3741618,
                    49.3865074
                ],
                "Distance": 109.98,
                "Frequency": 5.9,
                "RSSI": -76.4,
                "LOS": "False"
            }
        },
        {
            "type": "Feature",
            "geometry": {
                "type": "Point",
                "coordinates": [
                    8.37320573,
                    49.38736975
                ]
            },
            "properties": {
                "RSU coordinates": [
                    8.3741618,
                    49.3865074
                ],
                "Distance": 118.39,
                "Frequency": 5.9,
                "RSSI": -92.03,
                "LOS": "False"
            }
        },
        {
            "type": "Feature",
            "geometry": {
                "type": "Point",
                "coordinates": [
                    8.37129372,
                    49.38499829
                ]
            },
            "properties": {
                "RSU coordinates": [
                    8.3741618,
                    49.3865074
                ],
                "Distance": 267.25,
                "Frequency": 5.9,
                "RSSI": -84.01,
                "LOS": "False"
            }
        },
        {
            "type": "Feature",
            "geometry": {
                "type": "Point",
                "coordinates": [
                    8.37138932,
                    49.38510608
                ]
            },
            "properties": {
                "RSU coordinates": [
                    8.3741618,
                    49.3865074
                ],
                "Distance": 254.37,
                "Frequency": 5.9,
                "RSSI": -98.59,
                "LOS": "False"
            }
        },
        {
            "type": "Feature",
            "geometry": {
                "type": "Point",
                "coordinates": [
                    8.37263211,
                    49.3865074
                ]
            },
            "properties": {
                "RSU coordinates": [
                    8.3741618,
                    49.3865074
                ],
                "Distance": 110.85,
                "Frequency": 5.9,
                "RSSI": -91.47,
                "LOS": "False"
            }
        },
        {
            "type": "Feature",
            "geometry": {
                "type": "Point",
                "coordinates": [
                    8.37272771,
                    49.38661519
                ]
            },
            "properties": {
                "RSU coordinates": [
                    8.3741618,
                    49.3865074
                ],
                "Distance": 104.61,
                "Frequency": 5.9,
                "RSSI": -90.97,
                "LOS": "False"
            }
        },
        {
            "type": "Feature",
            "geometry": {
                "type": "Point",
                "coordinates": [
                    8.37291892,
                    49.38683078
                ]
            },
            "properties": {
                "RSU coordinates": [
                    8.3741618,
                    49.3865074
                ],
                "Distance": 96.99,
                "Frequency": 5.9,
                "RSSI": -90.32,
                "LOS": "False"
            }
        },
        {
            "type": "Feature",
            "geometry": {
                "type": "Point",
                "coordinates": [
                    8.37167612,
                    49.38521388
                ]
            },
            "properties": {
                "RSU coordinates": [
                    8.3741618,
                    49.3865074
                ],
                "Distance": 230.62,
                "Frequency": 5.9,
                "RSSI": -82.75,
                "LOS": "False"
            }
        },
        {
            "type": "Feature",
            "geometry": {
                "type": "Point",
                "coordinates": [
                    8.37272772,
                    49.38639961
                ]
            },
            "properties": {
                "RSU coordinates": [
                    8.3741618,
                    49.3865074
                ],
                "Distance": 104.61,
                "Frequency": 5.9,
                "RSSI": -90.97,
                "LOS": "False"
            }
        },
        {
            "type": "Feature",
            "geometry": {
                "type": "Point",
                "coordinates": [
                    8.37282332,
                    49.3865074
                ]
            },
            "properties": {
                "RSU coordinates": [
                    8.3741618,
                    49.3865074
                ],
                "Distance": 96.99,
                "Frequency": 5.9,
                "RSSI": -90.32,
                "LOS": "False"
            }
        },
        {
            "type": "Feature",
            "geometry": {
                "type": "Point",
                "coordinates": [
                    8.37330134,
                    49.38704637
                ]
            },
            "properties": {
                "RSU coordinates": [
                    8.3741618,
                    49.3865074
                ],
                "Distance": 86.53,
                "Frequency": 5.9,
                "RSSI": -89.34,
                "LOS": "False"
            }
        },
        {
            "type": "Feature",
            "geometry": {
                "type": "Point",
                "coordinates": [
                    8.37339695,
                    49.38715416
                ]
            },
            "properties": {
                "RSU coordinates": [
                    8.3741618,
                    49.3865074
                ],
                "Distance": 90.86,
                "Frequency": 5.9,
                "RSSI": -74.75999999999999,
                "LOS": "False"
            }
        },
        {
            "type": "Feature",
            "geometry": {
                "type": "Point",
                "coordinates": [
                    8.37368376,
                    49.38747754
                ]
            },
            "properties": {
                "RSU coordinates": [
                    8.3741618,
                    49.3865074
                ],
                "Distance": 113.42,
                "Frequency": 5.9,
                "RSSI": -91.66,
                "LOS": "False"
            }
        },
        {
            "type": "Feature",
            "geometry": {
                "type": "Point",
                "coordinates": [
                    8.37387498,
                    49.38769313
                ]
            },
            "properties": {
                "RSU coordinates": [
                    8.3741618,
                    49.3865074
                ],
                "Distance": 133.63,
                "Frequency": 5.9,
                "RSSI": -93.07,
                "LOS": "False"
            }
        },
        {
            "type": "Feature",
            "geometry": {
                "type": "Point",
                "coordinates": [
                    8.37406619,
                    49.38790872
                ]
            },
            "properties": {
                "RSU coordinates": [
                    8.3741618,
                    49.3865074
                ],
                "Distance": 156.15,
                "Frequency": 5.9,
                "RSSI": -94.41,
                "LOS": "False"
            }
        },
        {
            "type": "Feature",
            "geometry": {
                "type": "Point",
                "coordinates": [
                    8.37205853,
                    49.38542946
                ]
            },
            "properties": {
                "RSU coordinates": [
                    8.3741618,
                    49.3865074
                ],
                "Distance": 193.99,
                "Frequency": 5.9,
                "RSSI": -96.27,
                "LOS": "False"
            }
        },
        {
            "type": "Feature",
            "geometry": {
                "type": "Point",
                "coordinates": [
                    8.37311014,
                    49.38661519
                ]
            },
            "properties": {
                "RSU coordinates": [
                    8.3741618,
                    49.3865074
                ],
                "Distance": 77.15,
                "Frequency": 5.9,
                "RSSI": -73.36,
                "LOS": "False"
            }
        },
        {
            "type": "Feature",
            "geometry": {
                "type": "Point",
                "coordinates": [
                    8.37330135,
                    49.38683078
                ]
            },
            "properties": {
                "RSU coordinates": [
                    8.3741618,
                    49.3865074
                ],
                "Distance": 72.0,
                "Frequency": 5.9,
                "RSSI": -87.77000000000001,
                "LOS": "False"
            }
        },
        {
            "type": "Feature",
            "geometry": {
                "type": "Point",
                "coordinates": [
                    8.37349255,
                    49.38704637
                ]
            },
            "properties": {
                "RSU coordinates": [
                    8.3741618,
                    49.3865074
                ],
                "Distance": 77.15,
                "Frequency": 5.9,
                "RSSI": -73.36,
                "LOS": "False"
            }
        },
        {
            "type": "Feature",
            "geometry": {
                "type": "Point",
                "coordinates": [
                    8.37368377,
                    49.38726196
                ]
            },
            "properties": {
                "RSU coordinates": [
                    8.3741618,
                    49.3865074
                ],
                "Distance": 90.86,
                "Frequency": 5.9,
                "RSSI": -74.75999999999999,
                "LOS": "False"
            }
        },
        {
            "type": "Feature",
            "geometry": {
                "type": "Point",
                "coordinates": [
                    8.37377937,
                    49.38736975
                ]
            },
            "properties": {
                "RSU coordinates": [
                    8.3741618,
                    49.3865074
                ],
                "Distance": 99.92,
                "Frequency": 5.9,
                "RSSI": -90.58,
                "LOS": "False"
            }
        },
        {
            "type": "Feature",
            "geometry": {
                "type": "Point",
                "coordinates": [
                    8.37387498,
                    49.38747754
                ]
            },
            "properties": {
                "RSU coordinates": [
                    8.3741618,
                    49.3865074
                ],
                "Distance": 109.98,
                "Frequency": 5.9,
                "RSSI": -91.4,
                "LOS": "False"
            }
        },
        {
            "type": "Feature",
            "geometry": {
                "type": "Point",
                "coordinates": [
                    8.37397058,
                    49.38758534
                ]
            },
            "properties": {
                "RSU coordinates": [
                    8.3741618,
                    49.3865074
                ],
                "Distance": 120.8,
                "Frequency": 5.9,
                "RSSI": -92.2,
                "LOS": "False"
            }
        },
        {
            "type": "Feature",
            "geometry": {
                "type": "Point",
                "coordinates": [
                    8.37406619,
                    49.38769313
                ]
            },
            "properties": {
                "RSU coordinates": [
                    8.3741618,
                    49.3865074
                ],
                "Distance": 132.18,
                "Frequency": 5.9,
                "RSSI": -77.97999999999999,
                "LOS": "False"
            }
        },
        {
            "type": "Feature",
            "geometry": {
                "type": "Point",
                "coordinates": [
                    8.37301454,
                    49.38629181
                ]
            },
            "properties": {
                "RSU coordinates": [
                    8.3741618,
                    49.3865074
                ],
                "Distance": 86.53,
                "Frequency": 5.9,
                "RSSI": -89.34,
                "LOS": "False"
            }
        },
        {
            "type": "Feature",
            "geometry": {
                "type": "Point",
                "coordinates": [
                    8.37311014,
                    49.38639961
                ]
            },
            "properties": {
                "RSU coordinates": [
                    8.3741618,
                    49.3865074
                ],
                "Distance": 77.15,
                "Frequency": 5.9,
                "RSSI": -73.36,
                "LOS": "False"
            }
        },
        {
            "type": "Feature",
            "geometry": {
                "type": "Point",
                "coordinates": [
                    8.37320575,
                    49.3865074
                ]
            },
            "properties": {
                "RSU coordinates": [
                    8.3741618,
                    49.3865074
                ],
                "Distance": 69.28,
                "Frequency": 5.9,
                "RSSI": -72.44,
                "LOS": "False"
            }
        },
        {
            "type": "Feature",
            "geometry": {
                "type": "Point",
                "coordinates": [
                    8.37330135,
                    49.38661519
                ]
            },
            "properties": {
                "RSU coordinates": [
                    8.3741618,
                    49.3865074
                ],
                "Distance": 63.5,
                "Frequency": 5.9,
                "RSSI": -71.69,
                "LOS": "False"
            }
        },
        {
            "type": "Feature",
            "geometry": {
                "type": "Point",
                "coordinates": [
                    8.37358816,
                    49.38693857
                ]
            },
            "properties": {
                "RSU coordinates": [
                    8.3741618,
                    49.3865074
                ],
                "Distance": 63.5,
                "Frequency": 5.9,
                "RSSI": -71.69,
                "LOS": "False"
            }
        },
        {
            "type": "Feature",
            "geometry": {
                "type": "Point",
                "coordinates": [
                    8.37377937,
                    49.38715416
                ]
            },
            "properties": {
                "RSU coordinates": [
                    8.3741618,
                    49.3865074
                ],
                "Distance": 77.15,
                "Frequency": 5.9,
                "RSSI": -73.36,
                "LOS": "False"
            }
        },
        {
            "type": "Feature",
            "geometry": {
                "type": "Point",
                "coordinates": [
                    8.37387498,
                    49.38726196
                ]
            },
            "properties": {
                "RSU coordinates": [
                    8.3741618,
                    49.3865074
                ],
                "Distance": 86.53,
                "Frequency": 5.9,
                "RSSI": -89.34,
                "LOS": "False"
            }
        },
        {
            "type": "Feature",
            "geometry": {
                "type": "Point",
                "coordinates": [
                    8.37397059,
                    49.38736975
                ]
            },
            "properties": {
                "RSU coordinates": [
                    8.3741618,
                    49.3865074
                ],
                "Distance": 96.99,
                "Frequency": 5.9,
                "RSSI": -90.32,
                "LOS": "False"
            }
        },
        {
            "type": "Feature",
            "geometry": {
                "type": "Point",
                "coordinates": [
                    8.37406619,
                    49.38747754
                ]
            },
            "properties": {
                "RSU coordinates": [
                    8.3741618,
                    49.3865074
                ],
                "Distance": 108.22,
                "Frequency": 5.9,
                "RSSI": -91.25999999999999,
                "LOS": "False"
            }
        },
        {
            "type": "Feature",
            "geometry": {
                "type": "Point",
                "coordinates": [
                    8.3741618,
                    49.38758534
                ]
            },
            "properties": {
                "RSU coordinates": [
                    8.3741618,
                    49.3865074
                ],
                "Distance": 120.0,
                "Frequency": 5.9,
                "RSSI": -92.15,
                "LOS": "False"
            }
        },
        {
            "type": "Feature",
            "geometry": {
                "type": "Point",
                "coordinates": [
                    8.37272774,
                    49.38575284
                ]
            },
            "properties": {
                "RSU coordinates": [
                    8.3741618,
                    49.3865074
                ],
                "Distance": 133.63,
                "Frequency": 5.9,
                "RSSI": -78.07,
                "LOS": "False"
            }
        },
        {
            "type": "Feature",
            "geometry": {
                "type": "Point",
                "coordinates": [
                    8.37330135,
                    49.38639961
                ]
            },
            "properties": {
                "RSU coordinates": [
                    8.3741618,
                    49.3865074
                ],
                "Distance": 63.5,
                "Frequency": 5.9,
                "RSSI": -86.69,
                "LOS": "False"
            }
        },
        {
            "type": "Feature",
            "geometry": {
                "type": "Point",
                "coordinates": [
                    8.37339696,
                    49.3865074
                ]
            },
            "properties": {
                "RSU coordinates": [
                    8.3741618,
                    49.3865074
                ],
                "Distance": 55.43,
                "Frequency": 5.9,
                "RSSI": -70.52000000000001,
                "LOS": "False"
            }
        },
        {
            "type": "Feature",
            "geometry": {
                "type": "Point",
                "coordinates": [
                    8.37349256,
                    49.38661519
                ]
            },
            "properties": {
                "RSU coordinates": [
                    8.3741618,
                    49.3865074
                ],
                "Distance": 49.96,
                "Frequency": 5.9,
                "RSSI": -69.63,
                "LOS": "False"
            }
        },
        {
            "type": "Feature",
            "geometry": {
                "type": "Point",
                "coordinates": [
                    8.37368377,
                    49.38683078
                ]
            },
            "properties": {
                "RSU coordinates": [
                    8.3741618,
                    49.3865074
                ],
                "Distance": 49.96,
                "Frequency": 5.9,
                "RSSI": -69.63,
                "LOS": "False"
            }
        },
        {
            "type": "Feature",
            "geometry": {
                "type": "Point",
                "coordinates": [
                    8.37387498,
                    49.38704637
                ]
            },
            "properties": {
                "RSU coordinates": [
                    8.3741618,
                    49.3865074
                ],
                "Distance": 63.5,
                "Frequency": 5.9,
                "RSSI": -71.69,
                "LOS": "False"
            }
        },
        {
            "type": "Feature",
            "geometry": {
                "type": "Point",
                "coordinates": [
                    8.37397059,
                    49.38715416
                ]
            },
            "properties": {
                "RSU coordinates": [
                    8.3741618,
                    49.3865074
                ],
                "Distance": 73.32,
                "Frequency": 5.9,
                "RSSI": -72.92,
                "LOS": "False"
            }
        },
        {
            "type": "Feature",
            "geometry": {
                "type": "Point",
                "coordinates": [
                    8.37406619,
                    49.38726196
                ]
            },
            "properties": {
                "RSU coordinates": [
                    8.3741618,
                    49.3865074
                ],
                "Distance": 84.29,
                "Frequency": 5.9,
                "RSSI": -89.12,
                "LOS": "False"
            }
        },
        {
            "type": "Feature",
            "geometry": {
                "type": "Point",
                "coordinates": [
                    8.3741618,
                    49.38736975
                ]
            },
            "properties": {
                "RSU coordinates": [
                    8.3741618,
                    49.3865074
                ],
                "Distance": 96.0,
                "Frequency": 5.9,
                "RSSI": -90.22999999999999,
                "LOS": "False"
            }
        },
        {
            "type": "Feature",
            "geometry": {
                "type": "Point",
                "coordinates": [
                    8.37311015,
                    49.38596843
                ]
            },
            "properties": {
                "RSU coordinates": [
                    8.3741618,
                    49.3865074
                ],
                "Distance": 96.99,
                "Frequency": 5.9,
                "RSSI": -90.32,
                "LOS": "False"
            }
        },
        {
            "type": "Feature",
            "geometry": {
                "type": "Point",
                "coordinates": [
                    8.37320575,
                    49.38607623
                ]
            },
            "properties": {
                "RSU coordinates": [
                    8.3741618,
                    49.3865074
                ],
                "Distance": 84.29,
                "Frequency": 5.9,
                "RSSI": -89.12,
                "LOS": "False"
            }
        },
        {
            "type": "Feature",
            "geometry": {
                "type": "Point",
                "coordinates": [
                    8.37349256,
                    49.38639961
                ]
            },
            "properties": {
                "RSU coordinates": [
                    8.3741618,
                    49.3865074
                ],
                "Distance": 49.96,
                "Frequency": 5.9,
                "RSSI": -69.63,
                "LOS": "False"
            }
        },
        {
            "type": "Feature",
            "geometry": {
                "type": "Point",
                "coordinates": [
                    8.37368377,
                    49.38661519
                ]
            },
            "properties": {
                "RSU coordinates": [
                    8.3741618,
                    49.3865074
                ],
                "Distance": 36.66,
                "Frequency": 5.9,
                "RSSI": -51.98,
                "LOS": "True"
            }
        },
        {
            "type": "Feature",
            "geometry": {
                "type": "Point",
                "coordinates": [
                    8.37397059,
                    49.38693857
                ]
            },
            "properties": {
                "RSU coordinates": [
                    8.3741618,
                    49.3865074
                ],
                "Distance": 49.96,
                "Frequency": 5.9,
                "RSSI": -69.63,
                "LOS": "False"
            }
        },
        {
            "type": "Feature",
            "geometry": {
                "type": "Point",
                "coordinates": [
                    8.37406619,
                    49.38704637
                ]
            },
            "properties": {
                "RSU coordinates": [
                    8.3741618,
                    49.3865074
                ],
                "Distance": 60.4,
                "Frequency": 5.9,
                "RSSI": -71.25999999999999,
                "LOS": "False"
            }
        },
        {
            "type": "Feature",
            "geometry": {
                "type": "Point",
                "coordinates": [
                    8.3741618,
                    49.38715416
                ]
            },
            "properties": {
                "RSU coordinates": [
                    8.3741618,
                    49.3865074
                ],
                "Distance": 72.0,
                "Frequency": 5.9,
                "RSSI": -72.77000000000001,
                "LOS": "False"
            }
        },
        {
            "type": "Feature",
            "geometry": {
                "type": "Point",
                "coordinates": [
                    8.37425741,
                    49.38726196
                ]
            },
            "properties": {
                "RSU coordinates": [
                    8.3741618,
                    49.3865074
                ],
                "Distance": 84.29,
                "Frequency": 5.9,
                "RSSI": -74.12,
                "LOS": "False"
            }
        },
        {
            "type": "Feature",
            "geometry": {
                "type": "Point",
                "coordinates": [
                    8.37377938,
                    49.3865074
                ]
            },
            "properties": {
                "RSU coordinates": [
                    8.3741618,
                    49.3865074
                ],
                "Distance": 27.71,
                "Frequency": 5.9,
                "RSSI": -49.58,
                "LOS": "True"
            }
        },
        {
            "type": "Feature",
            "geometry": {
                "type": "Point",
                "coordinates": [
                    8.37387498,
                    49.38661519
                ]
            },
            "properties": {
                "RSU coordinates": [
                    8.3741618,
                    49.3865074
                ],
                "Distance": 24.0,
                "Frequency": 5.9,
                "RSSI": -48.34,
                "LOS": "True"
            }
        },
        {
            "type": "Feature",
            "geometry": {
                "type": "Point",
                "coordinates": [
                    8.3741618,
                    49.38693857
                ]
            },
            "properties": {
                "RSU coordinates": [
                    8.3741618,
                    49.3865074
                ],
                "Distance": 48.0,
                "Frequency": 5.9,
                "RSSI": -69.28999999999999,
                "LOS": "False"
            }
        },
        {
            "type": "Feature",
            "geometry": {
                "type": "Point",
                "coordinates": [
                    8.37425741,
                    49.38704637
                ]
            },
            "properties": {
                "RSU coordinates": [
                    8.3741618,
                    49.3865074
                ],
                "Distance": 60.4,
                "Frequency": 5.9,
                "RSSI": -71.25999999999999,
                "LOS": "False"
            }
        },
        {
            "type": "Feature",
            "geometry": {
                "type": "Point",
                "coordinates": [
                    8.37483105,
                    49.38769313
                ]
            },
            "properties": {
                "RSU coordinates": [
                    8.3741618,
                    49.3865074
                ],
                "Distance": 140.63,
                "Frequency": 5.9,
                "RSSI": -93.50999999999999,
                "LOS": "False"
            }
        },
        {
            "type": "Feature",
            "geometry": {
                "type": "Point",
                "coordinates": [
                    8.37492666,
                    49.38780092
                ]
            },
            "properties": {
                "RSU coordinates": [
                    8.3741618,
                    49.3865074
                ],
                "Distance": 154.3,
                "Frequency": 5.9,
                "RSSI": -94.3,
                "LOS": "False"
            }
        },
        {
            "type": "Feature",
            "geometry": {
                "type": "Point",
                "coordinates": [
                    8.37387498,
                    49.38639961
                ]
            },
            "properties": {
                "RSU coordinates": [
                    8.3741618,
                    49.3865074
                ],
                "Distance": 24.0,
                "Frequency": 5.9,
                "RSSI": -48.34,
                "LOS": "True"
            }
        },
        {
            "type": "Feature",
            "geometry": {
                "type": "Point",
                "coordinates": [
                    8.37397059,
                    49.3865074
                ]
            },
            "properties": {
                "RSU coordinates": [
                    8.3741618,
                    49.3865074
                ],
                "Distance": 13.86,
                "Frequency": 5.9,
                "RSSI": -43.63,
                "LOS": "True"
            }
        },
        {
            "type": "Feature",
            "geometry": {
                "type": "Point",
                "coordinates": [
                    8.37406619,
                    49.38661519
                ]
            },
            "properties": {
                "RSU coordinates": [
                    8.3741618,
                    49.3865074
                ],
                "Distance": 13.86,
                "Frequency": 5.9,
                "RSSI": -43.63,
                "LOS": "True"
            }
        },
        {
            "type": "Feature",
            "geometry": {
                "type": "Point",
                "coordinates": [
                    8.3741618,
                    49.38672299
                ]
            },
            "properties": {
                "RSU coordinates": [
                    8.3741618,
                    49.3865074
                ],
                "Distance": 24.0,
                "Frequency": 5.9,
                "RSSI": -48.34,
                "LOS": "True"
            }
        },
        {
            "type": "Feature",
            "geometry": {
                "type": "Point",
                "coordinates": [
                    8.37454423,
                    49.38715416
                ]
            },
            "properties": {
                "RSU coordinates": [
                    8.3741618,
                    49.3865074
                ],
                "Distance": 77.15,
                "Frequency": 5.9,
                "RSSI": -88.36,
                "LOS": "False"
            }
        },
        {
            "type": "Feature",
            "geometry": {
                "type": "Point",
                "coordinates": [
                    8.37463983,
                    49.38726196
                ]
            },
            "properties": {
                "RSU coordinates": [
                    8.3741618,
                    49.3865074
                ],
                "Distance": 90.86,
                "Frequency": 5.9,
                "RSSI": -89.75999999999999,
                "LOS": "False"
            }
        },
        {
            "type": "Feature",
            "geometry": {
                "type": "Point",
                "coordinates": [
                    8.37473544,
                    49.38736975
                ]
            },
            "properties": {
                "RSU coordinates": [
                    8.3741618,
                    49.3865074
                ],
                "Distance": 104.61,
                "Frequency": 5.9,
                "RSSI": -90.97,
                "LOS": "False"
            }
        },
        {
            "type": "Feature",
            "geometry": {
                "type": "Point",
                "coordinates": [
                    8.37483105,
                    49.38747754
                ]
            },
            "properties": {
                "RSU coordinates": [
                    8.3741618,
                    49.3865074
                ],
                "Distance": 118.39,
                "Frequency": 5.9,
                "RSSI": -92.03,
                "LOS": "False"
            }
        },
        {
            "type": "Feature",
            "geometry": {
                "type": "Point",
                "coordinates": [
                    8.37492666,
                    49.38758534
                ]
            },
            "properties": {
                "RSU coordinates": [
                    8.3741618,
                    49.3865074
                ],
                "Distance": 132.18,
                "Frequency": 5.9,
                "RSSI": -92.97999999999999,
                "LOS": "False"
            }
        },
        {
            "type": "Feature",
            "geometry": {
                "type": "Point",
                "coordinates": [
                    8.37368378,
                    49.38596843
                ]
            },
            "properties": {
                "RSU coordinates": [
                    8.3741618,
                    49.3865074
                ],
                "Distance": 69.28,
                "Frequency": 5.9,
                "RSSI": -87.44,
                "LOS": "False"
            }
        },
        {
            "type": "Feature",
            "geometry": {
                "type": "Point",
                "coordinates": [
                    8.37397059,
                    49.38629181
                ]
            },
            "properties": {
                "RSU coordinates": [
                    8.3741618,
                    49.3865074
                ],
                "Distance": 27.71,
                "Frequency": 5.9,
                "RSSI": -49.58,
                "LOS": "True"
            }
        },
        {
            "type": "Feature",
            "geometry": {
                "type": "Point",
                "coordinates": [
                    8.37406619,
                    49.38639961
                ]
            },
            "properties": {
                "RSU coordinates": [
                    8.3741618,
                    49.3865074
                ],
                "Distance": 13.86,
                "Frequency": 5.9,
                "RSSI": -43.63,
                "LOS": "True"
            }
        },
        {
            "type": "Feature",
            "geometry": {
                "type": "Point",
                "coordinates": [
                    8.37425741,
                    49.38661519
                ]
            },
            "properties": {
                "RSU coordinates": [
                    8.3741618,
                    49.3865074
                ],
                "Distance": 13.86,
                "Frequency": 5.9,
                "RSSI": -43.63,
                "LOS": "True"
            }
        },
        {
            "type": "Feature",
            "geometry": {
                "type": "Point",
                "coordinates": [
                    8.37435301,
                    49.38672299
                ]
            },
            "properties": {
                "RSU coordinates": [
                    8.3741618,
                    49.3865074
                ],
                "Distance": 27.71,
                "Frequency": 5.9,
                "RSSI": -64.58,
                "LOS": "False"
            }
        },
        {
            "type": "Feature",
            "geometry": {
                "type": "Point",
                "coordinates": [
                    8.37444862,
                    49.38683078
                ]
            },
            "properties": {
                "RSU coordinates": [
                    8.3741618,
                    49.3865074
                ],
                "Distance": 41.57,
                "Frequency": 5.9,
                "RSSI": -68.06,
                "LOS": "False"
            }
        },
        {
            "type": "Feature",
            "geometry": {
                "type": "Point",
                "coordinates": [
                    8.37454423,
                    49.38693857
                ]
            },
            "properties": {
                "RSU coordinates": [
                    8.3741618,
                    49.3865074
                ],
                "Distance": 55.43,
                "Frequency": 5.9,
                "RSSI": -85.52000000000001,
                "LOS": "False"
            }
        },
        {
            "type": "Feature",
            "geometry": {
                "type": "Point",
                "coordinates": [
                    8.37387499,
                    49.38596843
                ]
            },
            "properties": {
                "RSU coordinates": [
                    8.3741618,
                    49.3865074
                ],
                "Distance": 63.5,
                "Frequency": 5.9,
                "RSSI": -86.69,
                "LOS": "False"
            }
        },
        {
            "type": "Feature",
            "geometry": {
                "type": "Point",
                "coordinates": [
                    8.3740662,
                    49.38618402
                ]
            },
            "properties": {
                "RSU coordinates": [
                    8.3741618,
                    49.3865074
                ],
                "Distance": 36.66,
                "Frequency": 5.9,
                "RSSI": -51.98,
                "LOS": "True"
            }
        },
        {
            "type": "Feature",
            "geometry": {
                "type": "Point",
                "coordinates": [
                    8.3741618,
                    49.38629181
                ]
            },
            "properties": {
                "RSU coordinates": [
                    8.3741618,
                    49.3865074
                ],
                "Distance": 24.0,
                "Frequency": 5.9,
                "RSSI": -48.34,
                "LOS": "True"
            }
        },
        {
            "type": "Feature",
            "geometry": {
                "type": "Point",
                "coordinates": [
                    8.37435301,
                    49.3865074
                ]
            },
            "properties": {
                "RSU coordinates": [
                    8.3741618,
                    49.3865074
                ],
                "Distance": 13.86,
                "Frequency": 5.9,
                "RSSI": -43.63,
                "LOS": "True"
            }
        },
        {
            "type": "Feature",
            "geometry": {
                "type": "Point",
                "coordinates": [
                    8.37454422,
                    49.38672299
                ]
            },
            "properties": {
                "RSU coordinates": [
                    8.3741618,
                    49.3865074
                ],
                "Distance": 36.66,
                "Frequency": 5.9,
                "RSSI": -81.97999999999999,
                "LOS": "False"
            }
        },
        {
            "type": "Feature",
            "geometry": {
                "type": "Point",
                "coordinates": [
                    8.37387499,
                    49.38575284
                ]
            },
            "properties": {
                "RSU coordinates": [
                    8.3741618,
                    49.3865074
                ],
                "Distance": 86.53,
                "Frequency": 5.9,
                "RSSI": -89.34,
                "LOS": "False"
            }
        },
        {
            "type": "Feature",
            "geometry": {
                "type": "Point",
                "coordinates": [
                    8.3741618,
                    49.38607623
                ]
            },
            "properties": {
                "RSU coordinates": [
                    8.3741618,
                    49.3865074
                ],
                "Distance": 48.0,
                "Frequency": 5.9,
                "RSSI": -54.29,
                "LOS": "True"
            }
        },
        {
            "type": "Feature",
            "geometry": {
                "type": "Point",
                "coordinates": [
                    8.37454422,
                    49.3865074
                ]
            },
            "properties": {
                "RSU coordinates": [
                    8.3741618,
                    49.3865074
                ],
                "Distance": 27.71,
                "Frequency": 5.9,
                "RSSI": -49.58,
                "LOS": "True"
            }
        },
        {
            "type": "Feature",
            "geometry": {
                "type": "Point",
                "coordinates": [
                    8.37463983,
                    49.38661519
                ]
            },
            "properties": {
                "RSU coordinates": [
                    8.3741618,
                    49.3865074
                ],
                "Distance": 36.66,
                "Frequency": 5.9,
                "RSSI": -66.97999999999999,
                "LOS": "False"
            }
        },
        {
            "type": "Feature",
            "geometry": {
                "type": "Point",
                "coordinates": [
                    8.37473544,
                    49.38672299
                ]
            },
            "properties": {
                "RSU coordinates": [
                    8.3741618,
                    49.3865074
                ],
                "Distance": 48.0,
                "Frequency": 5.9,
                "RSSI": -99.28999999999999,
                "LOS": "False"
            }
        },
        {
            "type": "Feature",
            "geometry": {
                "type": "Point",
                "coordinates": [
                    8.3741618,
                    49.38586064
                ]
            },
            "properties": {
                "RSU coordinates": [
                    8.3741618,
                    49.3865074
                ],
                "Distance": 72.0,
                "Frequency": 5.9,
                "RSSI": -57.77,
                "LOS": "True"
            }
        },
        {
            "type": "Feature",
            "geometry": {
                "type": "Point",
                "coordinates": [
                    8.3742574,
                    49.38596843
                ]
            },
            "properties": {
                "RSU coordinates": [
                    8.3741618,
                    49.3865074
                ],
                "Distance": 60.4,
                "Frequency": 5.9,
                "RSSI": -56.26,
                "LOS": "True"
            }
        },
        {
            "type": "Feature",
            "geometry": {
                "type": "Point",
                "coordinates": [
                    8.37454422,
                    49.38629181
                ]
            },
            "properties": {
                "RSU coordinates": [
                    8.3741618,
                    49.3865074
                ],
                "Distance": 36.66,
                "Frequency": 5.9,
                "RSSI": -66.97999999999999,
                "LOS": "False"
            }
        },
        {
            "type": "Feature",
            "geometry": {
                "type": "Point",
                "coordinates": [
                    8.37463983,
                    49.38639961
                ]
            },
            "properties": {
                "RSU coordinates": [
                    8.3741618,
                    49.3865074
                ],
                "Distance": 36.66,
                "Frequency": 5.9,
                "RSSI": -81.97999999999999,
                "LOS": "False"
            }
        },
        {
            "type": "Feature",
            "geometry": {
                "type": "Point",
                "coordinates": [
                    8.37435301,
                    49.38586064
                ]
            },
            "properties": {
                "RSU coordinates": [
                    8.3741618,
                    49.3865074
                ],
                "Distance": 73.32,
                "Frequency": 5.9,
                "RSSI": -87.92,
                "LOS": "False"
            }
        },
        {
            "type": "Feature",
            "geometry": {
                "type": "Point",
                "coordinates": [
                    8.37454422,
                    49.38607623
                ]
            },
            "properties": {
                "RSU coordinates": [
                    8.3741618,
                    49.3865074
                ],
                "Distance": 55.43,
                "Frequency": 5.9,
                "RSSI": -70.52000000000001,
                "LOS": "False"
            }
        },
        {
            "type": "Feature",
            "geometry": {
                "type": "Point",
                "coordinates": [
                    8.37463982,
                    49.38618402
                ]
            },
            "properties": {
                "RSU coordinates": [
                    8.3741618,
                    49.3865074
                ],
                "Distance": 49.96,
                "Frequency": 5.9,
                "RSSI": -69.63,
                "LOS": "False"
            }
        },
        {
            "type": "Feature",
            "geometry": {
                "type": "Point",
                "coordinates": [
                    8.37473543,
                    49.38629181
                ]
            },
            "properties": {
                "RSU coordinates": [
                    8.3741618,
                    49.3865074
                ],
                "Distance": 48.0,
                "Frequency": 5.9,
                "RSSI": -84.28999999999999,
                "LOS": "False"
            }
        },
        {
            "type": "Feature",
            "geometry": {
                "type": "Point",
                "coordinates": [
                    8.37492664,
                    49.3865074
                ]
            },
            "properties": {
                "RSU coordinates": [
                    8.3741618,
                    49.3865074
                ],
                "Distance": 55.43,
                "Frequency": 5.9,
                "RSSI": -70.52000000000001,
                "LOS": "False"
            }
        },
        {
            "type": "Feature",
            "geometry": {
                "type": "Point",
                "coordinates": [
                    8.37511786,
                    49.38672299
                ]
            },
            "properties": {
                "RSU coordinates": [
                    8.3741618,
                    49.3865074
                ],
                "Distance": 73.32,
                "Frequency": 5.9,
                "RSSI": -87.92,
                "LOS": "False"
            }
        },
        {
            "type": "Feature",
            "geometry": {
                "type": "Point",
                "coordinates": [
                    8.3740662,
                    49.38532167
                ]
            },
            "properties": {
                "RSU coordinates": [
                    8.3741618,
                    49.3865074
                ],
                "Distance": 132.18,
                "Frequency": 5.9,
                "RSSI": -62.98,
                "LOS": "True"
            }
        },
        {
            "type": "Feature",
            "geometry": {
                "type": "Point",
                "coordinates": [
                    8.3742574,
                    49.38553726
                ]
            },
            "properties": {
                "RSU coordinates": [
                    8.3741618,
                    49.3865074
                ],
                "Distance": 108.22,
                "Frequency": 5.9,
                "RSSI": -91.25999999999999,
                "LOS": "False"
            }
        },
        {
            "type": "Feature",
            "geometry": {
                "type": "Point",
                "coordinates": [
                    8.37435301,
                    49.38564505
                ]
            },
            "properties": {
                "RSU coordinates": [
                    8.3741618,
                    49.3865074
                ],
                "Distance": 96.99,
                "Frequency": 5.9,
                "RSSI": -90.32,
                "LOS": "False"
            }
        },
        {
            "type": "Feature",
            "geometry": {
                "type": "Point",
                "coordinates": [
                    8.37463982,
                    49.38596843
                ]
            },
            "properties": {
                "RSU coordinates": [
                    8.3741618,
                    49.3865074
                ],
                "Distance": 69.28,
                "Frequency": 5.9,
                "RSSI": -87.44,
                "LOS": "False"
            }
        },
        {
            "type": "Feature",
            "geometry": {
                "type": "Point",
                "coordinates": [
                    8.37483103,
                    49.38618402
                ]
            },
            "properties": {
                "RSU coordinates": [
                    8.3741618,
                    49.3865074
                ],
                "Distance": 60.4,
                "Frequency": 5.9,
                "RSSI": -71.25999999999999,
                "LOS": "False"
            }
        },
        {
            "type": "Feature",
            "geometry": {
                "type": "Point",
                "coordinates": [
                    8.37492664,
                    49.38629181
                ]
            },
            "properties": {
                "RSU coordinates": [
                    8.3741618,
                    49.3865074
                ],
                "Distance": 60.4,
                "Frequency": 5.9,
                "RSSI": -86.25999999999999,
                "LOS": "False"
            }
        },
        {
            "type": "Feature",
            "geometry": {
                "type": "Point",
                "coordinates": [
                    8.3740662,
                    49.38510608
                ]
            },
            "properties": {
                "RSU coordinates": [
                    8.3741618,
                    49.3865074
                ],
                "Distance": 156.15,
                "Frequency": 5.9,
                "RSSI": -64.41,
                "LOS": "True"
            }
        },
        {
            "type": "Feature",
            "geometry": {
                "type": "Point",
                "coordinates": [
                    8.37483103,
                    49.38596843
                ]
            },
            "properties": {
                "RSU coordinates": [
                    8.3741618,
                    49.3865074
                ],
                "Distance": 77.15,
                "Frequency": 5.9,
                "RSSI": -88.36,
                "LOS": "False"
            }
        },
        {
            "type": "Feature",
            "geometry": {
                "type": "Point",
                "coordinates": [
                    8.37502224,
                    49.38618402
                ]
            },
            "properties": {
                "RSU coordinates": [
                    8.3741618,
                    49.3865074
                ],
                "Distance": 72.0,
                "Frequency": 5.9,
                "RSSI": -87.77000000000001,
                "LOS": "False"
            }
        },
        {
            "type": "Feature",
            "geometry": {
                "type": "Point",
                "coordinates": [
                    8.37511785,
                    49.38629181
                ]
            },
            "properties": {
                "RSU coordinates": [
                    8.3741618,
                    49.3865074
                ],
                "Distance": 73.32,
                "Frequency": 5.9,
                "RSSI": -87.92,
                "LOS": "False"
            }
        },
        {
            "type": "Feature",
            "geometry": {
                "type": "Point",
                "coordinates": [
                    8.37540467,
                    49.38661519
                ]
            },
            "properties": {
                "RSU coordinates": [
                    8.3741618,
                    49.3865074
                ],
                "Distance": 90.86,
                "Frequency": 5.9,
                "RSSI": -89.75999999999999,
                "LOS": "False"
            }
        },
        {
            "type": "Feature",
            "geometry": {
                "type": "Point",
                "coordinates": [
                    8.3740662,
                    49.3848905
                ]
            },
            "properties": {
                "RSU coordinates": [
                    8.3741618,
                    49.3865074
                ],
                "Distance": 180.13,
                "Frequency": 5.9,
                "RSSI": -65.63,
                "LOS": "True"
            }
        },
        {
            "type": "Feature",
            "geometry": {
                "type": "Point",
                "coordinates": [
                    8.37511785,
                    49.38607623
                ]
            },
            "properties": {
                "RSU coordinates": [
                    8.3741618,
                    49.3865074
                ],
                "Distance": 84.29,
                "Frequency": 5.9,
                "RSSI": -74.12,
                "LOS": "False"
            }
        },
        {
            "type": "Feature",
            "geometry": {
                "type": "Point",
                "coordinates": [
                    8.37521345,
                    49.38596843
                ]
            },
            "properties": {
                "RSU coordinates": [
                    8.3741618,
                    49.3865074
                ],
                "Distance": 96.99,
                "Frequency": 5.9,
                "RSSI": -90.32,
                "LOS": "False"
            }
        },
        {
            "type": "Feature",
            "geometry": {
                "type": "Point",
                "coordinates": [
                    8.37540466,
                    49.38618402
                ]
            },
            "properties": {
                "RSU coordinates": [
                    8.3741618,
                    49.3865074
                ],
                "Distance": 96.99,
                "Frequency": 5.9,
                "RSSI": -90.32,
                "LOS": "False"
            }
        },
        {
            "type": "Feature",
            "geometry": {
                "type": "Point",
                "coordinates": [
                    8.37588271,
                    49.38672299
                ]
            },
            "properties": {
                "RSU coordinates": [
                    8.3741618,
                    49.3865074
                ],
                "Distance": 127.0,
                "Frequency": 5.9,
                "RSSI": -77.63,
                "LOS": "False"
            }
        },
        {
            "type": "Feature",
            "geometry": {
                "type": "Point",
                "coordinates": [
                    8.3739706,
                    49.38435153
                ]
            },
            "properties": {
                "RSU coordinates": [
                    8.3741618,
                    49.3865074
                ],
                "Distance": 240.4,
                "Frequency": 5.9,
                "RSSI": -68.11,
                "LOS": "True"
            }
        },
        {
            "type": "Feature",
            "geometry": {
                "type": "Point",
                "coordinates": [
                    8.37540466,
                    49.38596843
                ]
            },
            "properties": {
                "RSU coordinates": [
                    8.3741618,
                    49.3865074
                ],
                "Distance": 108.22,
                "Frequency": 5.9,
                "RSSI": -76.25999999999999,
                "LOS": "False"
            }
        },
        {
            "type": "Feature",
            "geometry": {
                "type": "Point",
                "coordinates": [
                    8.3739706,
                    49.38413594
                ]
            },
            "properties": {
                "RSU coordinates": [
                    8.3741618,
                    49.3865074
                ],
                "Distance": 264.36,
                "Frequency": 5.9,
                "RSSI": -98.92,
                "LOS": "False"
            }
        },
        {
            "type": "Feature",
            "geometry": {
                "type": "Point",
                "coordinates": [
                    8.37550026,
                    49.38586064
                ]
            },
            "properties": {
                "RSU coordinates": [
                    8.3741618,
                    49.3865074
                ],
                "Distance": 120.8,
                "Frequency": 5.9,
                "RSSI": -77.2,
                "LOS": "False"
            }
        },
        {
            "type": "Feature",
            "geometry": {
                "type": "Point",
                "coordinates": [
                    8.3739706,
                    49.38392035
                ]
            },
            "properties": {
                "RSU coordinates": [
                    8.3741618,
                    49.3865074
                ],
                "Distance": 288.33,
                "Frequency": 5.9,
                "RSSI": -99.67,
                "LOS": "False"
            }
        },
        {
            "type": "Feature",
            "geometry": {
                "type": "Point",
                "coordinates": [
                    8.37559586,
                    49.38575284
                ]
            },
            "properties": {
                "RSU coordinates": [
                    8.3741618,
                    49.3865074
                ],
                "Distance": 133.63,
                "Frequency": 5.9,
                "RSSI": -93.07,
                "LOS": "False"
            }
        },
        {
            "type": "Feature",
            "geometry": {
                "type": "Point",
                "coordinates": [
                    8.37569147,
                    49.38586064
                ]
            },
            "properties": {
                "RSU coordinates": [
                    8.3741618,
                    49.3865074
                ],
                "Distance": 132.18,
                "Frequency": 5.9,
                "RSSI": -77.97999999999999,
                "LOS": "False"
            }
        },
        {
            "type": "Feature",
            "geometry": {
                "type": "Point",
                "coordinates": [
                    8.37578707,
                    49.38575284
                ]
            },
            "properties": {
                "RSU coordinates": [
                    8.3741618,
                    49.3865074
                ],
                "Distance": 144.67,
                "Frequency": 5.9,
                "RSSI": -78.75,
                "LOS": "False"
            }
        },
        {
            "type": "Feature",
            "geometry": {
                "type": "Point",
                "coordinates": [
                    8.373875,
                    49.38338139
                ]
            },
            "properties": {
                "RSU coordinates": [
                    8.3741618,
                    49.3865074
                ],
                "Distance": 348.62,
                "Frequency": 5.9,
                "RSSI": -86.29,
                "LOS": "False"
            }
        },
        {
            "type": "Feature",
            "geometry": {
                "type": "Point",
                "coordinates": [
                    8.37588267,
                    49.38564505
                ]
            },
            "properties": {
                "RSU coordinates": [
                    8.3741618,
                    49.3865074
                ],
                "Distance": 157.38,
                "Frequency": 5.9,
                "RSSI": -94.47,
                "LOS": "False"
            }
        },
        {
            "type": "Feature",
            "geometry": {
                "type": "Point",
                "coordinates": [
                    8.37655193,
                    49.38639961
                ]
            },
            "properties": {
                "RSU coordinates": [
                    8.3741618,
                    49.3865074
                ],
                "Distance": 173.62,
                "Frequency": 5.9,
                "RSSI": -95.32,
                "LOS": "False"
            }
        },
        {
            "type": "Feature",
            "geometry": {
                "type": "Point",
                "coordinates": [
                    8.373875,
                    49.3831658
                ]
            },
            "properties": {
                "RSU coordinates": [
                    8.3741618,
                    49.3865074
                ],
                "Distance": 372.58,
                "Frequency": 5.9,
                "RSSI": -86.86,
                "LOS": "False"
            }
        },
        {
            "type": "Feature",
            "geometry": {
                "type": "Point",
                "coordinates": [
                    8.37674314,
                    49.38639961
                ]
            },
            "properties": {
                "RSU coordinates": [
                    8.3741618,
                    49.3865074
                ],
                "Distance": 187.45,
                "Frequency": 5.9,
                "RSSI": -95.97,
                "LOS": "False"
            }
        }
    ]
}