{
    "type": "FeatureCollection",
    "features": [
        {
            "type": "Feature",
            "geometry": {
                "type": "Point",
                "coordinates": [
                    8.8836485,
                    50.02501757
                ]
            },
            "properties": {
                "RSU coordinates": [
                    8.8852953,
                    50.0244786
                ],
                "Distance": 132.18,
                "Frequency": 5.9,
                "RSSI": -92.97999999999999,
                "LOS": "False"
            }
        },
        {
            "type": "Feature",
            "geometry": {
                "type": "Point",
                "coordinates": [
                    8.88413286,
                    50.02490977
                ]
            },
            "properties": {
                "RSU coordinates": [
                    8.8852953,
                    50.0244786
                ],
                "Distance": 96.0,
                "Frequency": 5.9,
                "RSSI": -90.22999999999999,
                "LOS": "False"
            }
        },
        {
            "type": "Feature",
            "geometry": {
                "type": "Point",
                "coordinates": [
                    8.88422973,
                    50.02480198
                ]
            },
            "properties": {
                "RSU coordinates": [
                    8.8852953,
                    50.0244786
                ],
                "Distance": 84.29,
                "Frequency": 5.9,
                "RSSI": -74.12,
                "LOS": "False"
            }
        },
        {
            "type": "Feature",
            "geometry": {
                "type": "Point",
                "coordinates": [
                    8.8843266,
                    50.02490977
                ]
            },
            "properties": {
                "RSU coordinates": [
                    8.8852953,
                    50.0244786
                ],
                "Distance": 84.29,
                "Frequency": 5.9,
                "RSSI": -89.12,
                "LOS": "False"
            }
        },
        {
            "type": "Feature",
            "geometry": {
                "type": "Point",
                "coordinates": [
                    8.8846172,
                    50.02523316
                ]
            },
            "properties": {
                "RSU coordinates": [
                    8.8852953,
                    50.0244786
                ],
                "Distance": 96.99,
                "Frequency": 5.9,
                "RSSI": -90.32,
                "LOS": "False"
            }
        },
        {
            "type": "Feature",
            "geometry": {
                "type": "Point",
                "coordinates": [
                    8.88422974,
                    50.02458639
                ]
            },
            "properties": {
                "RSU coordinates": [
                    8.8852953,
                    50.0244786
                ],
                "Distance": 77.15,
                "Frequency": 5.9,
                "RSSI": -88.36,
                "LOS": "False"
            }
        },
        {
            "type": "Feature",
            "geometry": {
                "type": "Point",
                "coordinates": [
                    8.88442347,
                    50.02480198
                ]
            },
            "properties": {
                "RSU coordinates": [
                    8.8852953,
                    50.0244786
                ],
                "Distance": 72.0,
                "Frequency": 5.9,
                "RSSI": -72.77000000000001,
                "LOS": "False"
            }
        },
        {
            "type": "Feature",
            "geometry": {
                "type": "Point",
                "coordinates": [
                    8.88471408,
                    50.02512536
                ]
            },
            "properties": {
                "RSU coordinates": [
                    8.8852953,
                    50.0244786
                ],
                "Distance": 83.14,
                "Frequency": 5.9,
                "RSSI": -89.0,
                "LOS": "False"
            }
        },
        {
            "type": "Feature",
            "geometry": {
                "type": "Point",
                "coordinates": [
                    8.88539217,
                    50.02587992
                ]
            },
            "properties": {
                "RSU coordinates": [
                    8.8852953,
                    50.0244786
                ],
                "Distance": 156.15,
                "Frequency": 5.9,
                "RSSI": -94.41,
                "LOS": "False"
            }
        },
        {
            "type": "Feature",
            "geometry": {
                "type": "Point",
                "coordinates": [
                    8.88442347,
                    50.02458639
                ]
            },
            "properties": {
                "RSU coordinates": [
                    8.8852953,
                    50.0244786
                ],
                "Distance": 63.5,
                "Frequency": 5.9,
                "RSSI": -86.69,
                "LOS": "False"
            }
        },
        {
            "type": "Feature",
            "geometry": {
                "type": "Point",
                "coordinates": [
                    8.88452034,
                    50.02469419
                ]
            },
            "properties": {
                "RSU coordinates": [
                    8.8852953,
                    50.0244786
                ],
                "Distance": 60.4,
                "Frequency": 5.9,
                "RSSI": -56.26,
                "LOS": "True"
            }
        },
        {
            "type": "Feature",
            "geometry": {
                "type": "Point",
                "coordinates": [
                    8.88481095,
                    50.02501757
                ]
            },
            "properties": {
                "RSU coordinates": [
                    8.8852953,
                    50.0244786
                ],
                "Distance": 69.28,
                "Frequency": 5.9,
                "RSSI": -87.44,
                "LOS": "False"
            }
        },
        {
            "type": "Feature",
            "geometry": {
                "type": "Point",
                "coordinates": [
                    8.88539217,
                    50.02566433
                ]
            },
            "properties": {
                "RSU coordinates": [
                    8.8852953,
                    50.0244786
                ],
                "Distance": 132.18,
                "Frequency": 5.9,
                "RSSI": -92.97999999999999,
                "LOS": "False"
            }
        },
        {
            "type": "Feature",
            "geometry": {
                "type": "Point",
                "coordinates": [
                    8.88471408,
                    50.02469419
                ]
            },
            "properties": {
                "RSU coordinates": [
                    8.8852953,
                    50.0244786
                ],
                "Distance": 48.0,
                "Frequency": 5.9,
                "RSSI": -54.29,
                "LOS": "True"
            }
        },
        {
            "type": "Feature",
            "geometry": {
                "type": "Point",
                "coordinates": [
                    8.88490782,
                    50.02490977
                ]
            },
            "properties": {
                "RSU coordinates": [
                    8.8852953,
                    50.0244786
                ],
                "Distance": 55.43,
                "Frequency": 5.9,
                "RSSI": -85.52000000000001,
                "LOS": "False"
            }
        },
        {
            "type": "Feature",
            "geometry": {
                "type": "Point",
                "coordinates": [
                    8.88510156,
                    50.02512536
                ]
            },
            "properties": {
                "RSU coordinates": [
                    8.8852953,
                    50.0244786
                ],
                "Distance": 73.32,
                "Frequency": 5.9,
                "RSSI": -87.92,
                "LOS": "False"
            }
        },
        {
            "type": "Feature",
            "geometry": {
                "type": "Point",
                "coordinates": [
                    8.88539217,
                    50.02544874
                ]
            },
            "properties": {
                "RSU coordinates": [
                    8.8852953,
                    50.0244786
                ],
                "Distance": 108.22,
                "Frequency": 5.9,
                "RSSI": -61.26,
                "LOS": "True"
            }
        },
        {
            "type": "Feature",
            "geometry": {
                "type": "Point",
                "coordinates": [
                    8.88471408,
                    50.0244786
                ]
            },
            "properties": {
                "RSU coordinates": [
                    8.8852953,
                    50.0244786
                ],
                "Distance": 41.57,
                "Frequency": 5.9,
                "RSSI": -98.06,
                "LOS": "False"
            }
        },
        {
            "type": "Feature",
            "geometry": {
                "type": "Point",
                "coordinates": [
                    8.88481095,
                    50.02458639
                ]
            },
            "properties": {
                "RSU coordinates": [
                    8.8852953,
                    50.0244786
                ],
                "Distance": 36.66,
                "Frequency": 5.9,
                "RSSI": -51.98,
                "LOS": "True"
            }
        },
        {
            "type": "Feature",
            "geometry": {
                "type": "Point",
                "coordinates": [
                    8.88500469,
                    50.02480198
                ]
            },
            "properties": {
                "RSU coordinates": [
                    8.8852953,
                    50.0244786
                ],
                "Distance": 41.57,
                "Frequency": 5.9,
                "RSSI": -68.06,
                "LOS": "False"
            }
        },
        {
            "type": "Feature",
            "geometry": {
                "type": "Point",
                "coordinates": [
                    8.8852953,
                    50.02512536
                ]
            },
            "properties": {
                "RSU coordinates": [
                    8.8852953,
                    50.0244786
                ],
                "Distance": 72.0,
                "Frequency": 5.9,
                "RSSI": -87.77000000000001,
                "LOS": "False"
            }
        },
        {
            "type": "Feature",
            "geometry": {
                "type": "Point",
                "coordinates": [
                    8.88539217,
                    50.02523316
                ]
            },
            "properties": {
                "RSU coordinates": [
                    8.8852953,
                    50.0244786
                ],
                "Distance": 84.29,
                "Frequency": 5.9,
                "RSSI": -59.12,
                "LOS": "True"
            }
        },
        {
            "type": "Feature",
            "geometry": {
                "type": "Point",
                "coordinates": [
                    8.88548904,
                    50.02534095
                ]
            },
            "properties": {
                "RSU coordinates": [
                    8.8852953,
                    50.0244786
                ],
                "Distance": 96.99,
                "Frequency": 5.9,
                "RSSI": -90.32,
                "LOS": "False"
            }
        },
        {
            "type": "Feature",
            "geometry": {
                "type": "Point",
                "coordinates": [
                    8.88490782,
                    50.0244786
                ]
            },
            "properties": {
                "RSU coordinates": [
                    8.8852953,
                    50.0244786
                ],
                "Distance": 27.71,
                "Frequency": 5.9,
                "RSSI": -94.58,
                "LOS": "False"
            }
        },
        {
            "type": "Feature",
            "geometry": {
                "type": "Point",
                "coordinates": [
                    8.88500469,
                    50.02458639
                ]
            },
            "properties": {
                "RSU coordinates": [
                    8.8852953,
                    50.0244786
                ],
                "Distance": 24.0,
                "Frequency": 5.9,
                "RSSI": -48.34,
                "LOS": "True"
            }
        },
        {
            "type": "Feature",
            "geometry": {
                "type": "Point",
                "coordinates": [
                    8.88539217,
                    50.02501757
                ]
            },
            "properties": {
                "RSU coordinates": [
                    8.8852953,
                    50.0244786
                ],
                "Distance": 60.4,
                "Frequency": 5.9,
                "RSSI": -56.26,
                "LOS": "True"
            }
        },
        {
            "type": "Feature",
            "geometry": {
                "type": "Point",
                "coordinates": [
                    8.88519843,
                    50.02458639
                ]
            },
            "properties": {
                "RSU coordinates": [
                    8.8852953,
                    50.0244786
                ],
                "Distance": 13.86,
                "Frequency": 5.9,
                "RSSI": -43.63,
                "LOS": "True"
            }
        },
        {
            "type": "Feature",
            "geometry": {
                "type": "Point",
                "coordinates": [
                    8.8852953,
                    50.02469419
                ]
            },
            "properties": {
                "RSU coordinates": [
                    8.8852953,
                    50.0244786
                ],
                "Distance": 24.0,
                "Frequency": 5.9,
                "RSSI": -48.34,
                "LOS": "True"
            }
        },
        {
            "type": "Feature",
            "geometry": {
                "type": "Point",
                "coordinates": [
                    8.88539217,
                    50.02480198
                ]
            },
            "properties": {
                "RSU coordinates": [
                    8.8852953,
                    50.0244786
                ],
                "Distance": 36.66,
                "Frequency": 5.9,
                "RSSI": -51.98,
                "LOS": "True"
            }
        },
        {
            "type": "Feature",
            "geometry": {
                "type": "Point",
                "coordinates": [
                    8.88558591,
                    50.02501757
                ]
            },
            "properties": {
                "RSU coordinates": [
                    8.8852953,
                    50.0244786
                ],
                "Distance": 63.5,
                "Frequency": 5.9,
                "RSSI": -86.69,
                "LOS": "False"
            }
        },
        {
            "type": "Feature",
            "geometry": {
                "type": "Point",
                "coordinates": [
                    8.88539217,
                    50.02458639
                ]
            },
            "properties": {
                "RSU coordinates": [
                    8.8852953,
                    50.0244786
                ],
                "Distance": 13.86,
                "Frequency": 5.9,
                "RSSI": -43.63,
                "LOS": "True"
            }
        },
        {
            "type": "Feature",
            "geometry": {
                "type": "Point",
                "coordinates": [
                    8.88558591,
                    50.02480198
                ]
            },
            "properties": {
                "RSU coordinates": [
                    8.8852953,
                    50.0244786
                ],
                "Distance": 41.57,
                "Frequency": 5.9,
                "RSSI": -68.06,
                "LOS": "False"
            }
        },
        {
            "type": "Feature",
            "geometry": {
                "type": "Point",
                "coordinates": [
                    8.88568278,
                    50.02490977
                ]
            },
            "properties": {
                "RSU coordinates": [
                    8.8852953,
                    50.0244786
                ],
                "Distance": 55.43,
                "Frequency": 5.9,
                "RSSI": -70.52000000000001,
                "LOS": "False"
            }
        },
        {
            "type": "Feature",
            "geometry": {
                "type": "Point",
                "coordinates": [
                    8.88510156,
                    50.02404743
                ]
            },
            "properties": {
                "RSU coordinates": [
                    8.8852953,
                    50.0244786
                ],
                "Distance": 49.96,
                "Frequency": 5.9,
                "RSSI": -99.63,
                "LOS": "False"
            }
        },
        {
            "type": "Feature",
            "geometry": {
                "type": "Point",
                "coordinates": [
                    8.88539217,
                    50.02437081
                ]
            },
            "properties": {
                "RSU coordinates": [
                    8.8852953,
                    50.0244786
                ],
                "Distance": 13.86,
                "Frequency": 5.9,
                "RSSI": -43.63,
                "LOS": "True"
            }
        },
        {
            "type": "Feature",
            "geometry": {
                "type": "Point",
                "coordinates": [
                    8.88548904,
                    50.0244786
                ]
            },
            "properties": {
                "RSU coordinates": [
                    8.8852953,
                    50.0244786
                ],
                "Distance": 13.86,
                "Frequency": 5.9,
                "RSSI": -43.63,
                "LOS": "True"
            }
        },
        {
            "type": "Feature",
            "geometry": {
                "type": "Point",
                "coordinates": [
                    8.88587652,
                    50.02490977
                ]
            },
            "properties": {
                "RSU coordinates": [
                    8.8852953,
                    50.0244786
                ],
                "Distance": 63.5,
                "Frequency": 5.9,
                "RSSI": -86.69,
                "LOS": "False"
            }
        },
        {
            "type": "Feature",
            "geometry": {
                "type": "Point",
                "coordinates": [
                    8.88539217,
                    50.02415522
                ]
            },
            "properties": {
                "RSU coordinates": [
                    8.8852953,
                    50.0244786
                ],
                "Distance": 36.66,
                "Frequency": 5.9,
                "RSSI": -51.98,
                "LOS": "True"
            }
        },
        {
            "type": "Feature",
            "geometry": {
                "type": "Point",
                "coordinates": [
                    8.88548904,
                    50.02426301
                ]
            },
            "properties": {
                "RSU coordinates": [
                    8.8852953,
                    50.0244786
                ],
                "Distance": 27.71,
                "Frequency": 5.9,
                "RSSI": -49.58,
                "LOS": "True"
            }
        },
        {
            "type": "Feature",
            "geometry": {
                "type": "Point",
                "coordinates": [
                    8.88558591,
                    50.02437081
                ]
            },
            "properties": {
                "RSU coordinates": [
                    8.8852953,
                    50.0244786
                ],
                "Distance": 24.0,
                "Frequency": 5.9,
                "RSSI": -48.34,
                "LOS": "True"
            }
        },
        {
            "type": "Feature",
            "geometry": {
                "type": "Point",
                "coordinates": [
                    8.88568278,
                    50.0244786
                ]
            },
            "properties": {
                "RSU coordinates": [
                    8.8852953,
                    50.0244786
                ],
                "Distance": 27.71,
                "Frequency": 5.9,
                "RSSI": -49.58,
                "LOS": "True"
            }
        },
        {
            "type": "Feature",
            "geometry": {
                "type": "Point",
                "coordinates": [
                    8.88577965,
                    50.02458639
                ]
            },
            "properties": {
                "RSU coordinates": [
                    8.8852953,
                    50.0244786
                ],
                "Distance": 36.66,
                "Frequency": 5.9,
                "RSSI": -51.98,
                "LOS": "True"
            }
        },
        {
            "type": "Feature",
            "geometry": {
                "type": "Point",
                "coordinates": [
                    8.88548904,
                    50.02404743
                ]
            },
            "properties": {
                "RSU coordinates": [
                    8.8852953,
                    50.0244786
                ],
                "Distance": 49.96,
                "Frequency": 5.9,
                "RSSI": -54.63,
                "LOS": "True"
            }
        },
        {
            "type": "Feature",
            "geometry": {
                "type": "Point",
                "coordinates": [
                    8.88558591,
                    50.02415522
                ]
            },
            "properties": {
                "RSU coordinates": [
                    8.8852953,
                    50.0244786
                ],
                "Distance": 41.57,
                "Frequency": 5.9,
                "RSSI": -53.06,
                "LOS": "True"
            }
        },
        {
            "type": "Feature",
            "geometry": {
                "type": "Point",
                "coordinates": [
                    8.88568278,
                    50.02426301
                ]
            },
            "properties": {
                "RSU coordinates": [
                    8.8852953,
                    50.0244786
                ],
                "Distance": 36.66,
                "Frequency": 5.9,
                "RSSI": -51.98,
                "LOS": "True"
            }
        },
        {
            "type": "Feature",
            "geometry": {
                "type": "Point",
                "coordinates": [
                    8.88577965,
                    50.02437081
                ]
            },
            "properties": {
                "RSU coordinates": [
                    8.8852953,
                    50.0244786
                ],
                "Distance": 36.66,
                "Frequency": 5.9,
                "RSSI": -66.97999999999999,
                "LOS": "False"
            }
        },
        {
            "type": "Feature",
            "geometry": {
                "type": "Point",
                "coordinates": [
                    8.88597339,
                    50.02458639
                ]
            },
            "properties": {
                "RSU coordinates": [
                    8.8852953,
                    50.0244786
                ],
                "Distance": 49.96,
                "Frequency": 5.9,
                "RSSI": -54.63,
                "LOS": "True"
            }
        },
        {
            "type": "Feature",
            "geometry": {
                "type": "Point",
                "coordinates": [
                    8.8855859,
                    50.02393963
                ]
            },
            "properties": {
                "RSU coordinates": [
                    8.8852953,
                    50.0244786
                ],
                "Distance": 63.5,
                "Frequency": 5.9,
                "RSSI": -56.69,
                "LOS": "True"
            }
        },
        {
            "type": "Feature",
            "geometry": {
                "type": "Point",
                "coordinates": [
                    8.88577964,
                    50.02415522
                ]
            },
            "properties": {
                "RSU coordinates": [
                    8.8852953,
                    50.0244786
                ],
                "Distance": 49.96,
                "Frequency": 5.9,
                "RSSI": -69.63,
                "LOS": "False"
            }
        },
        {
            "type": "Feature",
            "geometry": {
                "type": "Point",
                "coordinates": [
                    8.88587651,
                    50.02426301
                ]
            },
            "properties": {
                "RSU coordinates": [
                    8.8852953,
                    50.0244786
                ],
                "Distance": 48.0,
                "Frequency": 5.9,
                "RSSI": -54.29,
                "LOS": "True"
            }
        },
        {
            "type": "Feature",
            "geometry": {
                "type": "Point",
                "coordinates": [
                    8.88607025,
                    50.0244786
                ]
            },
            "properties": {
                "RSU coordinates": [
                    8.8852953,
                    50.0244786
                ],
                "Distance": 55.43,
                "Frequency": 5.9,
                "RSSI": -70.52000000000001,
                "LOS": "False"
            }
        },
        {
            "type": "Feature",
            "geometry": {
                "type": "Point",
                "coordinates": [
                    8.88616713,
                    50.02458639
                ]
            },
            "properties": {
                "RSU coordinates": [
                    8.8852953,
                    50.0244786
                ],
                "Distance": 63.5,
                "Frequency": 5.9,
                "RSSI": -56.69,
                "LOS": "True"
            }
        },
        {
            "type": "Feature",
            "geometry": {
                "type": "Point",
                "coordinates": [
                    8.886264,
                    50.02469419
                ]
            },
            "properties": {
                "RSU coordinates": [
                    8.8852953,
                    50.0244786
                ],
                "Distance": 73.32,
                "Frequency": 5.9,
                "RSSI": -72.92,
                "LOS": "False"
            }
        },
        {
            "type": "Feature",
            "geometry": {
                "type": "Point",
                "coordinates": [
                    8.88568277,
                    50.02383184
                ]
            },
            "properties": {
                "RSU coordinates": [
                    8.8852953,
                    50.0244786
                ],
                "Distance": 77.15,
                "Frequency": 5.9,
                "RSSI": -58.36,
                "LOS": "True"
            }
        },
        {
            "type": "Feature",
            "geometry": {
                "type": "Point",
                "coordinates": [
                    8.88587651,
                    50.02404743
                ]
            },
            "properties": {
                "RSU coordinates": [
                    8.8852953,
                    50.0244786
                ],
                "Distance": 63.5,
                "Frequency": 5.9,
                "RSSI": -86.69,
                "LOS": "False"
            }
        },
        {
            "type": "Feature",
            "geometry": {
                "type": "Point",
                "coordinates": [
                    8.88597338,
                    50.02415522
                ]
            },
            "properties": {
                "RSU coordinates": [
                    8.8852953,
                    50.0244786
                ],
                "Distance": 60.4,
                "Frequency": 5.9,
                "RSSI": -56.26,
                "LOS": "True"
            }
        },
        {
            "type": "Feature",
            "geometry": {
                "type": "Point",
                "coordinates": [
                    8.88607025,
                    50.02426301
                ]
            },
            "properties": {
                "RSU coordinates": [
                    8.8852953,
                    50.0244786
                ],
                "Distance": 60.4,
                "Frequency": 5.9,
                "RSSI": -71.25999999999999,
                "LOS": "False"
            }
        },
        {
            "type": "Feature",
            "geometry": {
                "type": "Point",
                "coordinates": [
                    8.88626399,
                    50.0244786
                ]
            },
            "properties": {
                "RSU coordinates": [
                    8.8852953,
                    50.0244786
                ],
                "Distance": 69.28,
                "Frequency": 5.9,
                "RSSI": -87.44,
                "LOS": "False"
            }
        },
        {
            "type": "Feature",
            "geometry": {
                "type": "Point",
                "coordinates": [
                    8.88636086,
                    50.02458639
                ]
            },
            "properties": {
                "RSU coordinates": [
                    8.8852953,
                    50.0244786
                ],
                "Distance": 77.15,
                "Frequency": 5.9,
                "RSSI": -73.36,
                "LOS": "False"
            }
        },
        {
            "type": "Feature",
            "geometry": {
                "type": "Point",
                "coordinates": [
                    8.88645774,
                    50.02469419
                ]
            },
            "properties": {
                "RSU coordinates": [
                    8.8852953,
                    50.0244786
                ],
                "Distance": 86.53,
                "Frequency": 5.9,
                "RSSI": -74.34,
                "LOS": "False"
            }
        },
        {
            "type": "Feature",
            "geometry": {
                "type": "Point",
                "coordinates": [
                    8.88577964,
                    50.02372404
                ]
            },
            "properties": {
                "RSU coordinates": [
                    8.8852953,
                    50.0244786
                ],
                "Distance": 90.86,
                "Frequency": 5.9,
                "RSSI": -59.76,
                "LOS": "True"
            }
        },
        {
            "type": "Feature",
            "geometry": {
                "type": "Point",
                "coordinates": [
                    8.88597338,
                    50.02393963
                ]
            },
            "properties": {
                "RSU coordinates": [
                    8.8852953,
                    50.0244786
                ],
                "Distance": 77.15,
                "Frequency": 5.9,
                "RSSI": -88.36,
                "LOS": "False"
            }
        },
        {
            "type": "Feature",
            "geometry": {
                "type": "Point",
                "coordinates": [
                    8.8865546,
                    50.02458639
                ]
            },
            "properties": {
                "RSU coordinates": [
                    8.8852953,
                    50.0244786
                ],
                "Distance": 90.86,
                "Frequency": 5.9,
                "RSSI": -89.75999999999999,
                "LOS": "False"
            }
        },
        {
            "type": "Feature",
            "geometry": {
                "type": "Point",
                "coordinates": [
                    8.88665148,
                    50.02469419
                ]
            },
            "properties": {
                "RSU coordinates": [
                    8.8852953,
                    50.0244786
                ],
                "Distance": 99.92,
                "Frequency": 5.9,
                "RSSI": -75.58,
                "LOS": "False"
            }
        },
        {
            "type": "Feature",
            "geometry": {
                "type": "Point",
                "coordinates": [
                    8.88674835,
                    50.02480198
                ]
            },
            "properties": {
                "RSU coordinates": [
                    8.8852953,
                    50.0244786
                ],
                "Distance": 109.98,
                "Frequency": 5.9,
                "RSSI": -91.4,
                "LOS": "False"
            }
        },
        {
            "type": "Feature",
            "geometry": {
                "type": "Point",
                "coordinates": [
                    8.88587651,
                    50.02361625
                ]
            },
            "properties": {
                "RSU coordinates": [
                    8.8852953,
                    50.0244786
                ],
                "Distance": 104.61,
                "Frequency": 5.9,
                "RSSI": -60.97,
                "LOS": "True"
            }
        },
        {
            "type": "Feature",
            "geometry": {
                "type": "Point",
                "coordinates": [
                    8.88626398,
                    50.02404743
                ]
            },
            "properties": {
                "RSU coordinates": [
                    8.8852953,
                    50.0244786
                ],
                "Distance": 84.29,
                "Frequency": 5.9,
                "RSSI": -89.12,
                "LOS": "False"
            }
        },
        {
            "type": "Feature",
            "geometry": {
                "type": "Point",
                "coordinates": [
                    8.88636085,
                    50.02415522
                ]
            },
            "properties": {
                "RSU coordinates": [
                    8.8852953,
                    50.0244786
                ],
                "Distance": 84.29,
                "Frequency": 5.9,
                "RSSI": -74.12,
                "LOS": "False"
            }
        },
        {
            "type": "Feature",
            "geometry": {
                "type": "Point",
                "coordinates": [
                    8.88674834,
                    50.02458639
                ]
            },
            "properties": {
                "RSU coordinates": [
                    8.8852953,
                    50.0244786
                ],
                "Distance": 104.61,
                "Frequency": 5.9,
                "RSSI": -90.97,
                "LOS": "False"
            }
        },
        {
            "type": "Feature",
            "geometry": {
                "type": "Point",
                "coordinates": [
                    8.88684522,
                    50.02469419
                ]
            },
            "properties": {
                "RSU coordinates": [
                    8.8852953,
                    50.0244786
                ],
                "Distance": 113.42,
                "Frequency": 5.9,
                "RSSI": -76.66,
                "LOS": "False"
            }
        },
        {
            "type": "Feature",
            "geometry": {
                "type": "Point",
                "coordinates": [
                    8.8858765,
                    50.02340066
                ]
            },
            "properties": {
                "RSU coordinates": [
                    8.8852953,
                    50.0244786
                ],
                "Distance": 127.0,
                "Frequency": 5.9,
                "RSSI": -62.63,
                "LOS": "True"
            }
        },
        {
            "type": "Feature",
            "geometry": {
                "type": "Point",
                "coordinates": [
                    8.88645772,
                    50.02404743
                ]
            },
            "properties": {
                "RSU coordinates": [
                    8.8852953,
                    50.0244786
                ],
                "Distance": 96.0,
                "Frequency": 5.9,
                "RSSI": -90.22999999999999,
                "LOS": "False"
            }
        },
        {
            "type": "Feature",
            "geometry": {
                "type": "Point",
                "coordinates": [
                    8.88655459,
                    50.02415522
                ]
            },
            "properties": {
                "RSU coordinates": [
                    8.8852953,
                    50.0244786
                ],
                "Distance": 96.99,
                "Frequency": 5.9,
                "RSSI": -75.32,
                "LOS": "False"
            }
        },
        {
            "type": "Feature",
            "geometry": {
                "type": "Point",
                "coordinates": [
                    8.88597337,
                    50.02329287
                ]
            },
            "properties": {
                "RSU coordinates": [
                    8.8852953,
                    50.0244786
                ],
                "Distance": 140.63,
                "Frequency": 5.9,
                "RSSI": -63.51,
                "LOS": "True"
            }
        },
        {
            "type": "Feature",
            "geometry": {
                "type": "Point",
                "coordinates": [
                    8.88723269,
                    50.02469419
                ]
            },
            "properties": {
                "RSU coordinates": [
                    8.8852953,
                    50.0244786
                ],
                "Distance": 140.63,
                "Frequency": 5.9,
                "RSSI": -93.50999999999999,
                "LOS": "False"
            }
        },
        {
            "type": "Feature",
            "geometry": {
                "type": "Point",
                "coordinates": [
                    8.88607023,
                    50.02318508
                ]
            },
            "properties": {
                "RSU coordinates": [
                    8.8852953,
                    50.0244786
                ],
                "Distance": 154.3,
                "Frequency": 5.9,
                "RSSI": -64.3,
                "LOS": "True"
            }
        },
        {
            "type": "Feature",
            "geometry": {
                "type": "Point",
                "coordinates": [
                    8.88684519,
                    50.02404743
                ]
            },
            "properties": {
                "RSU coordinates": [
                    8.8852953,
                    50.0244786
                ],
                "Distance": 120.8,
                "Frequency": 5.9,
                "RSSI": -77.2,
                "LOS": "False"
            }
        },
        {
            "type": "Feature",
            "geometry": {
                "type": "Point",
                "coordinates": [
                    8.88742643,
                    50.02469419
                ]
            },
            "properties": {
                "RSU coordinates": [
                    8.8852953,
                    50.0244786
                ],
                "Distance": 154.3,
                "Frequency": 5.9,
                "RSSI": -94.3,
                "LOS": "False"
            }
        },
        {
            "type": "Feature",
            "geometry": {
                "type": "Point",
                "coordinates": [
                    8.88703893,
                    50.02404743
                ]
            },
            "properties": {
                "RSU coordinates": [
                    8.8852953,
                    50.0244786
                ],
                "Distance": 133.63,
                "Frequency": 5.9,
                "RSSI": -78.07,
                "LOS": "False"
            }
        },
        {
            "type": "Feature",
            "geometry": {
                "type": "Point",
                "coordinates": [
                    8.88616709,
                    50.0228617
                ]
            },
            "properties": {
                "RSU coordinates": [
                    8.8852953,
                    50.0244786
                ],
                "Distance": 190.49,
                "Frequency": 5.9,
                "RSSI": -66.11,
                "LOS": "True"
            }
        },
        {
            "type": "Feature",
            "geometry": {
                "type": "Point",
                "coordinates": [
                    8.88626396,
                    50.0227539
                ]
            },
            "properties": {
                "RSU coordinates": [
                    8.8852953,
                    50.0244786
                ],
                "Distance": 204.12,
                "Frequency": 5.9,
                "RSSI": -66.7,
                "LOS": "True"
            }
        },
        {
            "type": "Feature",
            "geometry": {
                "type": "Point",
                "coordinates": [
                    8.88732953,
                    50.02393963
                ]
            },
            "properties": {
                "RSU coordinates": [
                    8.8852953,
                    50.0244786
                ],
                "Distance": 157.38,
                "Frequency": 5.9,
                "RSSI": -79.47,
                "LOS": "False"
            }
        },
        {
            "type": "Feature",
            "geometry": {
                "type": "Point",
                "coordinates": [
                    8.88810453,
                    50.02480198
                ]
            },
            "properties": {
                "RSU coordinates": [
                    8.8852953,
                    50.0244786
                ],
                "Distance": 204.12,
                "Frequency": 5.9,
                "RSSI": -96.7,
                "LOS": "False"
            }
        },
        {
            "type": "Feature",
            "geometry": {
                "type": "Point",
                "coordinates": [
                    8.88636082,
                    50.02264611
                ]
            },
            "properties": {
                "RSU coordinates": [
                    8.8852953,
                    50.0244786
                ],
                "Distance": 217.77,
                "Frequency": 5.9,
                "RSSI": -67.26,
                "LOS": "True"
            }
        },
        {
            "type": "Feature",
            "geometry": {
                "type": "Point",
                "coordinates": [
                    8.88752327,
                    50.02393963
                ]
            },
            "properties": {
                "RSU coordinates": [
                    8.8852953,
                    50.0244786
                ],
                "Distance": 170.27,
                "Frequency": 5.9,
                "RSSI": -95.15,
                "LOS": "False"
            }
        },
        {
            "type": "Feature",
            "geometry": {
                "type": "Point",
                "coordinates": [
                    8.88829827,
                    50.02480198
                ]
            },
            "properties": {
                "RSU coordinates": [
                    8.8852953,
                    50.0244786
                ],
                "Distance": 217.77,
                "Frequency": 5.9,
                "RSSI": -97.26,
                "LOS": "False"
            }
        },
        {
            "type": "Feature",
            "geometry": {
                "type": "Point",
                "coordinates": [
                    8.88645768,
                    50.02253832
                ]
            },
            "properties": {
                "RSU coordinates": [
                    8.8852953,
                    50.0244786
                ],
                "Distance": 231.45,
                "Frequency": 5.9,
                "RSSI": -67.78,
                "LOS": "True"
            }
        },
        {
            "type": "Feature",
            "geometry": {
                "type": "Point",
                "coordinates": [
                    8.88655455,
                    50.02243052
                ]
            },
            "properties": {
                "RSU coordinates": [
                    8.8852953,
                    50.0244786
                ],
                "Distance": 245.14,
                "Frequency": 5.9,
                "RSSI": -68.27,
                "LOS": "True"
            }
        },
        {
            "type": "Feature",
            "geometry": {
                "type": "Point",
                "coordinates": [
                    8.88781387,
                    50.02383184
                ]
            },
            "properties": {
                "RSU coordinates": [
                    8.8852953,
                    50.0244786
                ],
                "Distance": 193.99,
                "Frequency": 5.9,
                "RSSI": -96.27,
                "LOS": "False"
            }
        },
        {
            "type": "Feature",
            "geometry": {
                "type": "Point",
                "coordinates": [
                    8.88674826,
                    50.02199935
                ]
            },
            "properties": {
                "RSU coordinates": [
                    8.8852953,
                    50.0244786
                ],
                "Distance": 294.92,
                "Frequency": 5.9,
                "RSSI": -84.86,
                "LOS": "False"
            }
        },
        {
            "type": "Feature",
            "geometry": {
                "type": "Point",
                "coordinates": [
                    8.88684512,
                    50.02189155
                ]
            },
            "properties": {
                "RSU coordinates": [
                    8.8852953,
                    50.0244786
                ],
                "Distance": 308.6,
                "Frequency": 5.9,
                "RSSI": -70.25,
                "LOS": "True"
            }
        },
        {
            "type": "Feature",
            "geometry": {
                "type": "Point",
                "coordinates": [
                    8.88694199,
                    50.02178376
                ]
            },
            "properties": {
                "RSU coordinates": [
                    8.8852953,
                    50.0244786
                ],
                "Distance": 322.29,
                "Frequency": 5.9,
                "RSSI": -70.62,
                "LOS": "True"
            }
        },
        {
            "type": "Feature",
            "geometry": {
                "type": "Point",
                "coordinates": [
                    8.88703885,
                    50.02167597
                ]
            },
            "properties": {
                "RSU coordinates": [
                    8.8852953,
                    50.0244786
                ],
                "Distance": 336.0,
                "Frequency": 5.9,
                "RSSI": -85.98,
                "LOS": "False"
            }
        }
    ]
}