{
    "type": "FeatureCollection",
    "features": [
        {
            "type": "Feature",
            "geometry": {
                "type": "Point",
                "coordinates": [
                    8.79238277,
                    53.06928063
                ]
            },
            "properties": {
                "RSU coordinates": [
                    8.7978724,
                    53.0663702
                ],
                "Distance": 489.7,
                "Frequency": 5.9,
                "RSSI": -74.21,
                "LOS": "True"
            }
        },
        {
            "type": "Feature",
            "geometry": {
                "type": "Point",
                "coordinates": [
                    8.79248634,
                    53.06938842
                ]
            },
            "properties": {
                "RSU coordinates": [
                    8.7978724,
                    53.0663702
                ],
                "Distance": 492.63,
                "Frequency": 5.9,
                "RSSI": -74.26,
                "LOS": "True"
            }
        },
        {
            "type": "Feature",
            "geometry": {
                "type": "Point",
                "coordinates": [
                    8.79258993,
                    53.06928063
                ]
            },
            "properties": {
                "RSU coordinates": [
                    8.7978724,
                    53.0663702
                ],
                "Distance": 479.4,
                "Frequency": 5.9,
                "RSSI": -74.03,
                "LOS": "True"
            }
        },
        {
            "type": "Feature",
            "geometry": {
                "type": "Point",
                "coordinates": [
                    8.79269352,
                    53.06917283
                ]
            },
            "properties": {
                "RSU coordinates": [
                    8.7978724,
                    53.0663702
                ],
                "Distance": 466.2,
                "Frequency": 5.9,
                "RSSI": -73.79,
                "LOS": "True"
            }
        },
        {
            "type": "Feature",
            "geometry": {
                "type": "Point",
                "coordinates": [
                    8.79279711,
                    53.06906504
                ]
            },
            "properties": {
                "RSU coordinates": [
                    8.7978724,
                    53.0663702
                ],
                "Distance": 453.04,
                "Frequency": 5.9,
                "RSSI": -73.54,
                "LOS": "True"
            }
        },
        {
            "type": "Feature",
            "geometry": {
                "type": "Point",
                "coordinates": [
                    8.79290067,
                    53.06917283
                ]
            },
            "properties": {
                "RSU coordinates": [
                    8.7978724,
                    53.0663702
                ],
                "Distance": 456.0,
                "Frequency": 5.9,
                "RSSI": -73.6,
                "LOS": "True"
            }
        },
        {
            "type": "Feature",
            "geometry": {
                "type": "Point",
                "coordinates": [
                    8.79300426,
                    53.06906504
                ]
            },
            "properties": {
                "RSU coordinates": [
                    8.7978724,
                    53.0663702
                ],
                "Distance": 442.76,
                "Frequency": 5.9,
                "RSSI": -73.34,
                "LOS": "True"
            }
        },
        {
            "type": "Feature",
            "geometry": {
                "type": "Point",
                "coordinates": [
                    8.79310785,
                    53.06895725
                ]
            },
            "properties": {
                "RSU coordinates": [
                    8.7978724,
                    53.0663702
                ],
                "Distance": 429.55,
                "Frequency": 5.9,
                "RSSI": -73.08,
                "LOS": "True"
            }
        },
        {
            "type": "Feature",
            "geometry": {
                "type": "Point",
                "coordinates": [
                    8.79321144,
                    53.06884945
                ]
            },
            "properties": {
                "RSU coordinates": [
                    8.7978724,
                    53.0663702
                ],
                "Distance": 416.38,
                "Frequency": 5.9,
                "RSSI": -72.82,
                "LOS": "True"
            }
        },
        {
            "type": "Feature",
            "geometry": {
                "type": "Point",
                "coordinates": [
                    8.79331501,
                    53.06895725
                ]
            },
            "properties": {
                "RSU coordinates": [
                    8.7978724,
                    53.0663702
                ],
                "Distance": 419.37,
                "Frequency": 5.9,
                "RSSI": -72.88,
                "LOS": "True"
            }
        },
        {
            "type": "Feature",
            "geometry": {
                "type": "Point",
                "coordinates": [
                    8.7934186,
                    53.06884945
                ]
            },
            "properties": {
                "RSU coordinates": [
                    8.7978724,
                    53.0663702
                ],
                "Distance": 406.11,
                "Frequency": 5.9,
                "RSSI": -72.6,
                "LOS": "True"
            }
        },
        {
            "type": "Feature",
            "geometry": {
                "type": "Point",
                "coordinates": [
                    8.79352218,
                    53.06874166
                ]
            },
            "properties": {
                "RSU coordinates": [
                    8.7978724,
                    53.0663702
                ],
                "Distance": 392.9,
                "Frequency": 5.9,
                "RSSI": -72.32,
                "LOS": "True"
            }
        },
        {
            "type": "Feature",
            "geometry": {
                "type": "Point",
                "coordinates": [
                    8.79362577,
                    53.06863387
                ]
            },
            "properties": {
                "RSU coordinates": [
                    8.7978724,
                    53.0663702
                ],
                "Distance": 379.73,
                "Frequency": 5.9,
                "RSSI": -72.03,
                "LOS": "True"
            }
        },
        {
            "type": "Feature",
            "geometry": {
                "type": "Point",
                "coordinates": [
                    8.79372936,
                    53.06852607
                ]
            },
            "properties": {
                "RSU coordinates": [
                    8.7978724,
                    53.0663702
                ],
                "Distance": 366.61,
                "Frequency": 5.9,
                "RSSI": -71.73,
                "LOS": "True"
            }
        },
        {
            "type": "Feature",
            "geometry": {
                "type": "Point",
                "coordinates": [
                    8.79383292,
                    53.06863387
                ]
            },
            "properties": {
                "RSU coordinates": [
                    8.7978724,
                    53.0663702
                ],
                "Distance": 369.48,
                "Frequency": 5.9,
                "RSSI": -71.79,
                "LOS": "True"
            }
        },
        {
            "type": "Feature",
            "geometry": {
                "type": "Point",
                "coordinates": [
                    8.79393651,
                    53.06852607
                ]
            },
            "properties": {
                "RSU coordinates": [
                    8.7978724,
                    53.0663702
                ],
                "Distance": 356.25,
                "Frequency": 5.9,
                "RSSI": -71.48,
                "LOS": "True"
            }
        },
        {
            "type": "Feature",
            "geometry": {
                "type": "Point",
                "coordinates": [
                    8.79404009,
                    53.06841828
                ]
            },
            "properties": {
                "RSU coordinates": [
                    8.7978724,
                    53.0663702
                ],
                "Distance": 343.07,
                "Frequency": 5.9,
                "RSSI": -71.16,
                "LOS": "True"
            }
        },
        {
            "type": "Feature",
            "geometry": {
                "type": "Point",
                "coordinates": [
                    8.79414368,
                    53.06831048
                ]
            },
            "properties": {
                "RSU coordinates": [
                    8.7978724,
                    53.0663702
                ],
                "Distance": 329.95,
                "Frequency": 5.9,
                "RSSI": -70.82,
                "LOS": "True"
            }
        },
        {
            "type": "Feature",
            "geometry": {
                "type": "Point",
                "coordinates": [
                    8.79424725,
                    53.06841828
                ]
            },
            "properties": {
                "RSU coordinates": [
                    8.7978724,
                    53.0663702
                ],
                "Distance": 332.84,
                "Frequency": 5.9,
                "RSSI": -70.9,
                "LOS": "True"
            }
        },
        {
            "type": "Feature",
            "geometry": {
                "type": "Point",
                "coordinates": [
                    8.79435083,
                    53.06831048
                ]
            },
            "properties": {
                "RSU coordinates": [
                    8.7978724,
                    53.0663702
                ],
                "Distance": 319.6,
                "Frequency": 5.9,
                "RSSI": -70.55,
                "LOS": "True"
            }
        },
        {
            "type": "Feature",
            "geometry": {
                "type": "Point",
                "coordinates": [
                    8.79445442,
                    53.06820269
                ]
            },
            "properties": {
                "RSU coordinates": [
                    8.7978724,
                    53.0663702
                ],
                "Distance": 306.41,
                "Frequency": 5.9,
                "RSSI": -70.19,
                "LOS": "True"
            }
        },
        {
            "type": "Feature",
            "geometry": {
                "type": "Point",
                "coordinates": [
                    8.794558,
                    53.0680949
                ]
            },
            "properties": {
                "RSU coordinates": [
                    8.7978724,
                    53.0663702
                ],
                "Distance": 293.28,
                "Frequency": 5.9,
                "RSSI": -69.81,
                "LOS": "True"
            }
        },
        {
            "type": "Feature",
            "geometry": {
                "type": "Point",
                "coordinates": [
                    8.79466157,
                    53.06820269
                ]
            },
            "properties": {
                "RSU coordinates": [
                    8.7978724,
                    53.0663702
                ],
                "Distance": 296.22,
                "Frequency": 5.9,
                "RSSI": -69.9,
                "LOS": "True"
            }
        },
        {
            "type": "Feature",
            "geometry": {
                "type": "Point",
                "coordinates": [
                    8.79476515,
                    53.0680949
                ]
            },
            "properties": {
                "RSU coordinates": [
                    8.7978724,
                    53.0663702
                ],
                "Distance": 282.96,
                "Frequency": 5.9,
                "RSSI": -69.5,
                "LOS": "True"
            }
        },
        {
            "type": "Feature",
            "geometry": {
                "type": "Point",
                "coordinates": [
                    8.79486873,
                    53.0679871
                ]
            },
            "properties": {
                "RSU coordinates": [
                    8.7978724,
                    53.0663702
                ],
                "Distance": 269.76,
                "Frequency": 5.9,
                "RSSI": -69.09,
                "LOS": "True"
            }
        },
        {
            "type": "Feature",
            "geometry": {
                "type": "Point",
                "coordinates": [
                    8.79497231,
                    53.06787931
                ]
            },
            "properties": {
                "RSU coordinates": [
                    8.7978724,
                    53.0663702
                ],
                "Distance": 256.62,
                "Frequency": 5.9,
                "RSSI": -68.67,
                "LOS": "True"
            }
        },
        {
            "type": "Feature",
            "geometry": {
                "type": "Point",
                "coordinates": [
                    8.79507588,
                    53.0679871
                ]
            },
            "properties": {
                "RSU coordinates": [
                    8.7978724,
                    53.0663702
                ],
                "Distance": 259.6,
                "Frequency": 5.9,
                "RSSI": -83.77,
                "LOS": "False"
            }
        },
        {
            "type": "Feature",
            "geometry": {
                "type": "Point",
                "coordinates": [
                    8.79517946,
                    53.06787931
                ]
            },
            "properties": {
                "RSU coordinates": [
                    8.7978724,
                    53.0663702
                ],
                "Distance": 246.32,
                "Frequency": 5.9,
                "RSSI": -68.31,
                "LOS": "True"
            }
        },
        {
            "type": "Feature",
            "geometry": {
                "type": "Point",
                "coordinates": [
                    8.79528304,
                    53.06777152
                ]
            },
            "properties": {
                "RSU coordinates": [
                    8.7978724,
                    53.0663702
                ],
                "Distance": 233.1,
                "Frequency": 5.9,
                "RSSI": -67.84,
                "LOS": "True"
            }
        },
        {
            "type": "Feature",
            "geometry": {
                "type": "Point",
                "coordinates": [
                    8.79538662,
                    53.06766372
                ]
            },
            "properties": {
                "RSU coordinates": [
                    8.7978724,
                    53.0663702
                ],
                "Distance": 219.96,
                "Frequency": 5.9,
                "RSSI": -67.34,
                "LOS": "True"
            }
        },
        {
            "type": "Feature",
            "geometry": {
                "type": "Point",
                "coordinates": [
                    8.7954902,
                    53.06755593
                ]
            },
            "properties": {
                "RSU coordinates": [
                    8.7978724,
                    53.0663702
                ],
                "Distance": 206.92,
                "Frequency": 5.9,
                "RSSI": -66.82,
                "LOS": "True"
            }
        },
        {
            "type": "Feature",
            "geometry": {
                "type": "Point",
                "coordinates": [
                    8.79559377,
                    53.06766372
                ]
            },
            "properties": {
                "RSU coordinates": [
                    8.7978724,
                    53.0663702
                ],
                "Distance": 209.69,
                "Frequency": 5.9,
                "RSSI": -66.93,
                "LOS": "True"
            }
        },
        {
            "type": "Feature",
            "geometry": {
                "type": "Point",
                "coordinates": [
                    8.79569735,
                    53.06755593
                ]
            },
            "properties": {
                "RSU coordinates": [
                    8.7978724,
                    53.0663702
                ],
                "Distance": 196.45,
                "Frequency": 5.9,
                "RSSI": -66.37,
                "LOS": "True"
            }
        },
        {
            "type": "Feature",
            "geometry": {
                "type": "Point",
                "coordinates": [
                    8.79580093,
                    53.06744814
                ]
            },
            "properties": {
                "RSU coordinates": [
                    8.7978724,
                    53.0663702
                ],
                "Distance": 183.3,
                "Frequency": 5.9,
                "RSSI": -65.78,
                "LOS": "True"
            }
        },
        {
            "type": "Feature",
            "geometry": {
                "type": "Point",
                "coordinates": [
                    8.79590451,
                    53.06734034
                ]
            },
            "properties": {
                "RSU coordinates": [
                    8.7978724,
                    53.0663702
                ],
                "Distance": 170.27,
                "Frequency": 5.9,
                "RSSI": -65.15,
                "LOS": "True"
            }
        },
        {
            "type": "Feature",
            "geometry": {
                "type": "Point",
                "coordinates": [
                    8.79600808,
                    53.06744814
                ]
            },
            "properties": {
                "RSU coordinates": [
                    8.7978724,
                    53.0663702
                ],
                "Distance": 173.07,
                "Frequency": 5.9,
                "RSSI": -65.29,
                "LOS": "True"
            }
        },
        {
            "type": "Feature",
            "geometry": {
                "type": "Point",
                "coordinates": [
                    8.79600809,
                    53.06723255
                ]
            },
            "properties": {
                "RSU coordinates": [
                    8.7978724,
                    53.0663702
                ],
                "Distance": 157.38,
                "Frequency": 5.9,
                "RSSI": -94.47,
                "LOS": "False"
            }
        },
        {
            "type": "Feature",
            "geometry": {
                "type": "Point",
                "coordinates": [
                    8.79611166,
                    53.06734034
                ]
            },
            "properties": {
                "RSU coordinates": [
                    8.7978724,
                    53.0663702
                ],
                "Distance": 159.8,
                "Frequency": 5.9,
                "RSSI": -64.6,
                "LOS": "True"
            }
        },
        {
            "type": "Feature",
            "geometry": {
                "type": "Point",
                "coordinates": [
                    8.79621523,
                    53.06723255
                ]
            },
            "properties": {
                "RSU coordinates": [
                    8.7978724,
                    53.0663702
                ],
                "Distance": 146.64,
                "Frequency": 5.9,
                "RSSI": -63.87,
                "LOS": "True"
            }
        },
        {
            "type": "Feature",
            "geometry": {
                "type": "Point",
                "coordinates": [
                    8.7963188,
                    53.06734034
                ]
            },
            "properties": {
                "RSU coordinates": [
                    8.7978724,
                    53.0663702
                ],
                "Distance": 149.88,
                "Frequency": 5.9,
                "RSSI": -94.05,
                "LOS": "False"
            }
        },
        {
            "type": "Feature",
            "geometry": {
                "type": "Point",
                "coordinates": [
                    8.79631881,
                    53.06712476
                ]
            },
            "properties": {
                "RSU coordinates": [
                    8.7978724,
                    53.0663702
                ],
                "Distance": 133.63,
                "Frequency": 5.9,
                "RSSI": -63.07,
                "LOS": "True"
            }
        },
        {
            "type": "Feature",
            "geometry": {
                "type": "Point",
                "coordinates": [
                    8.79642238,
                    53.06723255
                ]
            },
            "properties": {
                "RSU coordinates": [
                    8.7978724,
                    53.0663702
                ],
                "Distance": 136.47,
                "Frequency": 5.9,
                "RSSI": -63.25,
                "LOS": "True"
            }
        },
        {
            "type": "Feature",
            "geometry": {
                "type": "Point",
                "coordinates": [
                    8.79642239,
                    53.06701696
                ]
            },
            "properties": {
                "RSU coordinates": [
                    8.7978724,
                    53.0663702
                ],
                "Distance": 120.8,
                "Frequency": 5.9,
                "RSSI": -77.2,
                "LOS": "False"
            }
        },
        {
            "type": "Feature",
            "geometry": {
                "type": "Point",
                "coordinates": [
                    8.79652595,
                    53.06712476
                ]
            },
            "properties": {
                "RSU coordinates": [
                    8.7978724,
                    53.0663702
                ],
                "Distance": 123.16,
                "Frequency": 5.9,
                "RSSI": -62.37,
                "LOS": "True"
            }
        },
        {
            "type": "Feature",
            "geometry": {
                "type": "Point",
                "coordinates": [
                    8.79642239,
                    53.06680137
                ]
            },
            "properties": {
                "RSU coordinates": [
                    8.7978724,
                    53.0663702
                ],
                "Distance": 108.22,
                "Frequency": 5.9,
                "RSSI": -91.25999999999999,
                "LOS": "False"
            }
        },
        {
            "type": "Feature",
            "geometry": {
                "type": "Point",
                "coordinates": [
                    8.79652596,
                    53.06690917
                ]
            },
            "properties": {
                "RSU coordinates": [
                    8.7978724,
                    53.0663702
                ],
                "Distance": 108.22,
                "Frequency": 5.9,
                "RSSI": -76.25999999999999,
                "LOS": "False"
            }
        },
        {
            "type": "Feature",
            "geometry": {
                "type": "Point",
                "coordinates": [
                    8.79662953,
                    53.06701696
                ]
            },
            "properties": {
                "RSU coordinates": [
                    8.7978724,
                    53.0663702
                ],
                "Distance": 109.98,
                "Frequency": 5.9,
                "RSSI": -61.4,
                "LOS": "True"
            }
        },
        {
            "type": "Feature",
            "geometry": {
                "type": "Point",
                "coordinates": [
                    8.79662954,
                    53.06680137
                ]
            },
            "properties": {
                "RSU coordinates": [
                    8.7978724,
                    53.0663702
                ],
                "Distance": 96.0,
                "Frequency": 5.9,
                "RSSI": -90.22999999999999,
                "LOS": "False"
            }
        },
        {
            "type": "Feature",
            "geometry": {
                "type": "Point",
                "coordinates": [
                    8.79673311,
                    53.06690917
                ]
            },
            "properties": {
                "RSU coordinates": [
                    8.7978724,
                    53.0663702
                ],
                "Distance": 96.99,
                "Frequency": 5.9,
                "RSSI": -60.32,
                "LOS": "True"
            }
        },
        {
            "type": "Feature",
            "geometry": {
                "type": "Point",
                "coordinates": [
                    8.79683668,
                    53.06701696
                ]
            },
            "properties": {
                "RSU coordinates": [
                    8.7978724,
                    53.0663702
                ],
                "Distance": 99.92,
                "Frequency": 5.9,
                "RSSI": -60.58,
                "LOS": "True"
            }
        },
        {
            "type": "Feature",
            "geometry": {
                "type": "Point",
                "coordinates": [
                    8.79683668,
                    53.06680137
                ]
            },
            "properties": {
                "RSU coordinates": [
                    8.7978724,
                    53.0663702
                ],
                "Distance": 84.29,
                "Frequency": 5.9,
                "RSSI": -74.12,
                "LOS": "False"
            }
        },
        {
            "type": "Feature",
            "geometry": {
                "type": "Point",
                "coordinates": [
                    8.79694025,
                    53.06690917
                ]
            },
            "properties": {
                "RSU coordinates": [
                    8.7978724,
                    53.0663702
                ],
                "Distance": 86.53,
                "Frequency": 5.9,
                "RSSI": -59.34,
                "LOS": "True"
            }
        },
        {
            "type": "Feature",
            "geometry": {
                "type": "Point",
                "coordinates": [
                    8.79704382,
                    53.06680137
                ]
            },
            "properties": {
                "RSU coordinates": [
                    8.7978724,
                    53.0663702
                ],
                "Distance": 73.32,
                "Frequency": 5.9,
                "RSSI": -57.92,
                "LOS": "True"
            }
        },
        {
            "type": "Feature",
            "geometry": {
                "type": "Point",
                "coordinates": [
                    8.79735454,
                    53.06712476
                ]
            },
            "properties": {
                "RSU coordinates": [
                    8.7978724,
                    53.0663702
                ],
                "Distance": 90.86,
                "Frequency": 5.9,
                "RSSI": -89.75999999999999,
                "LOS": "False"
            }
        },
        {
            "type": "Feature",
            "geometry": {
                "type": "Point",
                "coordinates": [
                    8.7971474,
                    53.06669358
                ]
            },
            "properties": {
                "RSU coordinates": [
                    8.7978724,
                    53.0663702
                ],
                "Distance": 60.4,
                "Frequency": 5.9,
                "RSSI": -56.26,
                "LOS": "True"
            }
        },
        {
            "type": "Feature",
            "geometry": {
                "type": "Point",
                "coordinates": [
                    8.79725097,
                    53.06680137
                ]
            },
            "properties": {
                "RSU coordinates": [
                    8.7978724,
                    53.0663702
                ],
                "Distance": 63.5,
                "Frequency": 5.9,
                "RSSI": -56.69,
                "LOS": "True"
            }
        },
        {
            "type": "Feature",
            "geometry": {
                "type": "Point",
                "coordinates": [
                    8.79745811,
                    53.06701696
                ]
            },
            "properties": {
                "RSU coordinates": [
                    8.7978724,
                    53.0663702
                ],
                "Distance": 77.15,
                "Frequency": 5.9,
                "RSSI": -88.36,
                "LOS": "False"
            }
        },
        {
            "type": "Feature",
            "geometry": {
                "type": "Point",
                "coordinates": [
                    8.79590461,
                    53.06518447
                ]
            },
            "properties": {
                "RSU coordinates": [
                    8.7978724,
                    53.0663702
                ],
                "Distance": 186.42,
                "Frequency": 5.9,
                "RSSI": -95.93,
                "LOS": "False"
            }
        },
        {
            "type": "Feature",
            "geometry": {
                "type": "Point",
                "coordinates": [
                    8.7971474,
                    53.06647799
                ]
            },
            "properties": {
                "RSU coordinates": [
                    8.7978724,
                    53.0663702
                ],
                "Distance": 49.96,
                "Frequency": 5.9,
                "RSSI": -99.63,
                "LOS": "False"
            }
        },
        {
            "type": "Feature",
            "geometry": {
                "type": "Point",
                "coordinates": [
                    8.79735454,
                    53.06669358
                ]
            },
            "properties": {
                "RSU coordinates": [
                    8.7978724,
                    53.0663702
                ],
                "Distance": 49.96,
                "Frequency": 5.9,
                "RSSI": -54.63,
                "LOS": "True"
            }
        },
        {
            "type": "Feature",
            "geometry": {
                "type": "Point",
                "coordinates": [
                    8.79642244,
                    53.06550785
                ]
            },
            "properties": {
                "RSU coordinates": [
                    8.7978724,
                    53.0663702
                ],
                "Distance": 136.47,
                "Frequency": 5.9,
                "RSSI": -78.25,
                "LOS": "False"
            }
        },
        {
            "type": "Feature",
            "geometry": {
                "type": "Point",
                "coordinates": [
                    8.796526,
                    53.06561564
                ]
            },
            "properties": {
                "RSU coordinates": [
                    8.7978724,
                    53.0663702
                ],
                "Distance": 123.16,
                "Frequency": 5.9,
                "RSSI": -77.37,
                "LOS": "False"
            }
        },
        {
            "type": "Feature",
            "geometry": {
                "type": "Point",
                "coordinates": [
                    8.79725097,
                    53.0663702
                ]
            },
            "properties": {
                "RSU coordinates": [
                    8.7978724,
                    53.0663702
                ],
                "Distance": 41.57,
                "Frequency": 5.9,
                "RSSI": -98.06,
                "LOS": "False"
            }
        },
        {
            "type": "Feature",
            "geometry": {
                "type": "Point",
                "coordinates": [
                    8.79745811,
                    53.06658579
                ]
            },
            "properties": {
                "RSU coordinates": [
                    8.7978724,
                    53.0663702
                ],
                "Distance": 36.66,
                "Frequency": 5.9,
                "RSSI": -51.98,
                "LOS": "True"
            }
        },
        {
            "type": "Feature",
            "geometry": {
                "type": "Point",
                "coordinates": [
                    8.79766526,
                    53.06680137
                ]
            },
            "properties": {
                "RSU coordinates": [
                    8.7978724,
                    53.0663702
                ],
                "Distance": 49.96,
                "Frequency": 5.9,
                "RSSI": -84.63,
                "LOS": "False"
            }
        },
        {
            "type": "Feature",
            "geometry": {
                "type": "Point",
                "coordinates": [
                    8.79694027,
                    53.06583123
                ]
            },
            "properties": {
                "RSU coordinates": [
                    8.7978724,
                    53.0663702
                ],
                "Distance": 86.53,
                "Frequency": 5.9,
                "RSSI": -74.34,
                "LOS": "False"
            }
        },
        {
            "type": "Feature",
            "geometry": {
                "type": "Point",
                "coordinates": [
                    8.79704384,
                    53.06593903
                ]
            },
            "properties": {
                "RSU coordinates": [
                    8.7978724,
                    53.0663702
                ],
                "Distance": 73.32,
                "Frequency": 5.9,
                "RSSI": -72.92,
                "LOS": "False"
            }
        },
        {
            "type": "Feature",
            "geometry": {
                "type": "Point",
                "coordinates": [
                    8.79714741,
                    53.06604682
                ]
            },
            "properties": {
                "RSU coordinates": [
                    8.7978724,
                    53.0663702
                ],
                "Distance": 60.4,
                "Frequency": 5.9,
                "RSSI": -86.25999999999999,
                "LOS": "False"
            }
        },
        {
            "type": "Feature",
            "geometry": {
                "type": "Point",
                "coordinates": [
                    8.79745812,
                    53.0663702
                ]
            },
            "properties": {
                "RSU coordinates": [
                    8.7978724,
                    53.0663702
                ],
                "Distance": 27.71,
                "Frequency": 5.9,
                "RSSI": -79.58,
                "LOS": "False"
            }
        },
        {
            "type": "Feature",
            "geometry": {
                "type": "Point",
                "coordinates": [
                    8.79756169,
                    53.06647799
                ]
            },
            "properties": {
                "RSU coordinates": [
                    8.7978724,
                    53.0663702
                ],
                "Distance": 24.0,
                "Frequency": 5.9,
                "RSSI": -48.34,
                "LOS": "True"
            }
        },
        {
            "type": "Feature",
            "geometry": {
                "type": "Point",
                "coordinates": [
                    8.79766526,
                    53.06658579
                ]
            },
            "properties": {
                "RSU coordinates": [
                    8.7978724,
                    53.0663702
                ],
                "Distance": 27.71,
                "Frequency": 5.9,
                "RSSI": -49.58,
                "LOS": "True"
            }
        },
        {
            "type": "Feature",
            "geometry": {
                "type": "Point",
                "coordinates": [
                    8.79776883,
                    53.06669358
                ]
            },
            "properties": {
                "RSU coordinates": [
                    8.7978724,
                    53.0663702
                ],
                "Distance": 36.66,
                "Frequency": 5.9,
                "RSSI": -81.97999999999999,
                "LOS": "False"
            }
        },
        {
            "type": "Feature",
            "geometry": {
                "type": "Point",
                "coordinates": [
                    8.79735455,
                    53.06604682
                ]
            },
            "properties": {
                "RSU coordinates": [
                    8.7978724,
                    53.0663702
                ],
                "Distance": 49.96,
                "Frequency": 5.9,
                "RSSI": -99.63,
                "LOS": "False"
            }
        },
        {
            "type": "Feature",
            "geometry": {
                "type": "Point",
                "coordinates": [
                    8.79745812,
                    53.06615461
                ]
            },
            "properties": {
                "RSU coordinates": [
                    8.7978724,
                    53.0663702
                ],
                "Distance": 36.66,
                "Frequency": 5.9,
                "RSSI": -66.97999999999999,
                "LOS": "False"
            }
        },
        {
            "type": "Feature",
            "geometry": {
                "type": "Point",
                "coordinates": [
                    8.79756169,
                    53.06626241
                ]
            },
            "properties": {
                "RSU coordinates": [
                    8.7978724,
                    53.0663702
                ],
                "Distance": 24.0,
                "Frequency": 5.9,
                "RSSI": -78.34,
                "LOS": "False"
            }
        },
        {
            "type": "Feature",
            "geometry": {
                "type": "Point",
                "coordinates": [
                    8.79776883,
                    53.06647799
                ]
            },
            "properties": {
                "RSU coordinates": [
                    8.7978724,
                    53.0663702
                ],
                "Distance": 13.86,
                "Frequency": 5.9,
                "RSSI": -43.63,
                "LOS": "True"
            }
        },
        {
            "type": "Feature",
            "geometry": {
                "type": "Point",
                "coordinates": [
                    8.79766526,
                    53.06615461
                ]
            },
            "properties": {
                "RSU coordinates": [
                    8.7978724,
                    53.0663702
                ],
                "Distance": 27.71,
                "Frequency": 5.9,
                "RSSI": -79.58,
                "LOS": "False"
            }
        },
        {
            "type": "Feature",
            "geometry": {
                "type": "Point",
                "coordinates": [
                    8.79797597,
                    53.06647799
                ]
            },
            "properties": {
                "RSU coordinates": [
                    8.7978724,
                    53.0663702
                ],
                "Distance": 13.86,
                "Frequency": 5.9,
                "RSSI": -43.63,
                "LOS": "True"
            }
        },
        {
            "type": "Feature",
            "geometry": {
                "type": "Point",
                "coordinates": [
                    8.79807954,
                    53.06658579
                ]
            },
            "properties": {
                "RSU coordinates": [
                    8.7978724,
                    53.0663702
                ],
                "Distance": 27.71,
                "Frequency": 5.9,
                "RSSI": -49.58,
                "LOS": "True"
            }
        },
        {
            "type": "Feature",
            "geometry": {
                "type": "Point",
                "coordinates": [
                    8.79818311,
                    53.06669358
                ]
            },
            "properties": {
                "RSU coordinates": [
                    8.7978724,
                    53.0663702
                ],
                "Distance": 41.57,
                "Frequency": 5.9,
                "RSSI": -53.06,
                "LOS": "True"
            }
        },
        {
            "type": "Feature",
            "geometry": {
                "type": "Point",
                "coordinates": [
                    8.79756169,
                    53.06583123
                ]
            },
            "properties": {
                "RSU coordinates": [
                    8.7978724,
                    53.0663702
                ],
                "Distance": 63.5,
                "Frequency": 5.9,
                "RSSI": -86.69,
                "LOS": "False"
            }
        },
        {
            "type": "Feature",
            "geometry": {
                "type": "Point",
                "coordinates": [
                    8.79766526,
                    53.06593903
                ]
            },
            "properties": {
                "RSU coordinates": [
                    8.7978724,
                    53.0663702
                ],
                "Distance": 49.96,
                "Frequency": 5.9,
                "RSSI": -99.63,
                "LOS": "False"
            }
        },
        {
            "type": "Feature",
            "geometry": {
                "type": "Point",
                "coordinates": [
                    8.79776883,
                    53.06604682
                ]
            },
            "properties": {
                "RSU coordinates": [
                    8.7978724,
                    53.0663702
                ],
                "Distance": 36.66,
                "Frequency": 5.9,
                "RSSI": -81.97999999999999,
                "LOS": "False"
            }
        },
        {
            "type": "Feature",
            "geometry": {
                "type": "Point",
                "coordinates": [
                    8.79797597,
                    53.06626241
                ]
            },
            "properties": {
                "RSU coordinates": [
                    8.7978724,
                    53.0663702
                ],
                "Distance": 13.86,
                "Frequency": 5.9,
                "RSSI": -43.63,
                "LOS": "True"
            }
        },
        {
            "type": "Feature",
            "geometry": {
                "type": "Point",
                "coordinates": [
                    8.79839026,
                    53.06669358
                ]
            },
            "properties": {
                "RSU coordinates": [
                    8.7978724,
                    53.0663702
                ],
                "Distance": 49.96,
                "Frequency": 5.9,
                "RSSI": -54.63,
                "LOS": "True"
            }
        },
        {
            "type": "Feature",
            "geometry": {
                "type": "Point",
                "coordinates": [
                    8.79849383,
                    53.06680137
                ]
            },
            "properties": {
                "RSU coordinates": [
                    8.7978724,
                    53.0663702
                ],
                "Distance": 63.5,
                "Frequency": 5.9,
                "RSSI": -56.69,
                "LOS": "True"
            }
        },
        {
            "type": "Feature",
            "geometry": {
                "type": "Point",
                "coordinates": [
                    8.79859741,
                    53.06690917
                ]
            },
            "properties": {
                "RSU coordinates": [
                    8.7978724,
                    53.0663702
                ],
                "Distance": 77.15,
                "Frequency": 5.9,
                "RSSI": -58.36,
                "LOS": "True"
            }
        },
        {
            "type": "Feature",
            "geometry": {
                "type": "Point",
                "coordinates": [
                    8.79818311,
                    53.06626241
                ]
            },
            "properties": {
                "RSU coordinates": [
                    8.7978724,
                    53.0663702
                ],
                "Distance": 24.0,
                "Frequency": 5.9,
                "RSSI": -48.34,
                "LOS": "True"
            }
        },
        {
            "type": "Feature",
            "geometry": {
                "type": "Point",
                "coordinates": [
                    8.79828668,
                    53.0663702
                ]
            },
            "properties": {
                "RSU coordinates": [
                    8.7978724,
                    53.0663702
                ],
                "Distance": 27.71,
                "Frequency": 5.9,
                "RSSI": -79.58,
                "LOS": "False"
            }
        },
        {
            "type": "Feature",
            "geometry": {
                "type": "Point",
                "coordinates": [
                    8.79839026,
                    53.06647799
                ]
            },
            "properties": {
                "RSU coordinates": [
                    8.7978724,
                    53.0663702
                ],
                "Distance": 36.66,
                "Frequency": 5.9,
                "RSSI": -81.97999999999999,
                "LOS": "False"
            }
        },
        {
            "type": "Feature",
            "geometry": {
                "type": "Point",
                "coordinates": [
                    8.7990117,
                    53.06712476
                ]
            },
            "properties": {
                "RSU coordinates": [
                    8.7978724,
                    53.0663702
                ],
                "Distance": 113.42,
                "Frequency": 5.9,
                "RSSI": -61.66,
                "LOS": "True"
            }
        },
        {
            "type": "Feature",
            "geometry": {
                "type": "Point",
                "coordinates": [
                    8.79911528,
                    53.06723255
                ]
            },
            "properties": {
                "RSU coordinates": [
                    8.7978724,
                    53.0663702
                ],
                "Distance": 127.0,
                "Frequency": 5.9,
                "RSSI": -62.63,
                "LOS": "True"
            }
        },
        {
            "type": "Feature",
            "geometry": {
                "type": "Point",
                "coordinates": [
                    8.79807954,
                    53.06593903
                ]
            },
            "properties": {
                "RSU coordinates": [
                    8.7978724,
                    53.0663702
                ],
                "Distance": 49.96,
                "Frequency": 5.9,
                "RSSI": -99.63,
                "LOS": "False"
            }
        },
        {
            "type": "Feature",
            "geometry": {
                "type": "Point",
                "coordinates": [
                    8.79818311,
                    53.06604682
                ]
            },
            "properties": {
                "RSU coordinates": [
                    8.7978724,
                    53.0663702
                ],
                "Distance": 41.57,
                "Frequency": 5.9,
                "RSSI": -68.06,
                "LOS": "False"
            }
        },
        {
            "type": "Feature",
            "geometry": {
                "type": "Point",
                "coordinates": [
                    8.79828668,
                    53.06615461
                ]
            },
            "properties": {
                "RSU coordinates": [
                    8.7978724,
                    53.0663702
                ],
                "Distance": 36.66,
                "Frequency": 5.9,
                "RSSI": -51.98,
                "LOS": "True"
            }
        },
        {
            "type": "Feature",
            "geometry": {
                "type": "Point",
                "coordinates": [
                    8.79952958,
                    53.06744814
                ]
            },
            "properties": {
                "RSU coordinates": [
                    8.7978724,
                    53.0663702
                ],
                "Distance": 163.36,
                "Frequency": 5.9,
                "RSSI": -64.79,
                "LOS": "True"
            }
        },
        {
            "type": "Feature",
            "geometry": {
                "type": "Point",
                "coordinates": [
                    8.79963315,
                    53.06755593
                ]
            },
            "properties": {
                "RSU coordinates": [
                    8.7978724,
                    53.0663702
                ],
                "Distance": 176.91,
                "Frequency": 5.9,
                "RSSI": -65.48,
                "LOS": "True"
            }
        },
        {
            "type": "Feature",
            "geometry": {
                "type": "Point",
                "coordinates": [
                    8.79973673,
                    53.06766372
                ]
            },
            "properties": {
                "RSU coordinates": [
                    8.7978724,
                    53.0663702
                ],
                "Distance": 190.49,
                "Frequency": 5.9,
                "RSSI": -81.11,
                "LOS": "False"
            }
        },
        {
            "type": "Feature",
            "geometry": {
                "type": "Point",
                "coordinates": [
                    8.79839025,
                    53.06604682
                ]
            },
            "properties": {
                "RSU coordinates": [
                    8.7978724,
                    53.0663702
                ],
                "Distance": 49.96,
                "Frequency": 5.9,
                "RSSI": -54.63,
                "LOS": "True"
            }
        },
        {
            "type": "Feature",
            "geometry": {
                "type": "Point",
                "coordinates": [
                    8.79849382,
                    53.06615461
                ]
            },
            "properties": {
                "RSU coordinates": [
                    8.7978724,
                    53.0663702
                ],
                "Distance": 48.0,
                "Frequency": 5.9,
                "RSSI": -54.29,
                "LOS": "True"
            }
        },
        {
            "type": "Feature",
            "geometry": {
                "type": "Point",
                "coordinates": [
                    8.80015104,
                    53.06787931
                ]
            },
            "properties": {
                "RSU coordinates": [
                    8.7978724,
                    53.0663702
                ],
                "Distance": 226.84,
                "Frequency": 5.9,
                "RSSI": -67.61,
                "LOS": "True"
            }
        },
        {
            "type": "Feature",
            "geometry": {
                "type": "Point",
                "coordinates": [
                    8.79839025,
                    53.06583123
                ]
            },
            "properties": {
                "RSU coordinates": [
                    8.7978724,
                    53.0663702
                ],
                "Distance": 69.28,
                "Frequency": 5.9,
                "RSSI": -87.44,
                "LOS": "False"
            }
        },
        {
            "type": "Feature",
            "geometry": {
                "type": "Point",
                "coordinates": [
                    8.79859739,
                    53.06604682
                ]
            },
            "properties": {
                "RSU coordinates": [
                    8.7978724,
                    53.0663702
                ],
                "Distance": 60.4,
                "Frequency": 5.9,
                "RSSI": -56.26,
                "LOS": "True"
            }
        },
        {
            "type": "Feature",
            "geometry": {
                "type": "Point",
                "coordinates": [
                    8.80077252,
                    53.06831048
                ]
            },
            "properties": {
                "RSU coordinates": [
                    8.7978724,
                    53.0663702
                ],
                "Distance": 290.32,
                "Frequency": 5.9,
                "RSSI": -69.72,
                "LOS": "True"
            }
        },
        {
            "type": "Feature",
            "geometry": {
                "type": "Point",
                "coordinates": [
                    8.79870096,
                    53.06593903
                ]
            },
            "properties": {
                "RSU coordinates": [
                    8.7978724,
                    53.0663702
                ],
                "Distance": 73.32,
                "Frequency": 5.9,
                "RSSI": -57.92,
                "LOS": "True"
            }
        },
        {
            "type": "Feature",
            "geometry": {
                "type": "Point",
                "coordinates": [
                    8.80129042,
                    53.06863387
                ]
            },
            "properties": {
                "RSU coordinates": [
                    8.7978724,
                    53.0663702
                ],
                "Distance": 340.26,
                "Frequency": 5.9,
                "RSSI": -71.09,
                "LOS": "True"
            }
        },
        {
            "type": "Feature",
            "geometry": {
                "type": "Point",
                "coordinates": [
                    8.801394,
                    53.06874166
                ]
            },
            "properties": {
                "RSU coordinates": [
                    8.7978724,
                    53.0663702
                ],
                "Distance": 353.81,
                "Frequency": 5.9,
                "RSSI": -71.42,
                "LOS": "True"
            }
        },
        {
            "type": "Feature",
            "geometry": {
                "type": "Point",
                "coordinates": [
                    8.79880453,
                    53.06583123
                ]
            },
            "properties": {
                "RSU coordinates": [
                    8.7978724,
                    53.0663702
                ],
                "Distance": 86.53,
                "Frequency": 5.9,
                "RSSI": -59.34,
                "LOS": "True"
            }
        },
        {
            "type": "Feature",
            "geometry": {
                "type": "Point",
                "coordinates": [
                    8.7989081,
                    53.06593903
                ]
            },
            "properties": {
                "RSU coordinates": [
                    8.7978724,
                    53.0663702
                ],
                "Distance": 84.29,
                "Frequency": 5.9,
                "RSSI": -74.12,
                "LOS": "False"
            }
        },
        {
            "type": "Feature",
            "geometry": {
                "type": "Point",
                "coordinates": [
                    8.79890809,
                    53.06572344
                ]
            },
            "properties": {
                "RSU coordinates": [
                    8.7978724,
                    53.0663702
                ],
                "Distance": 99.92,
                "Frequency": 5.9,
                "RSSI": -60.58,
                "LOS": "True"
            }
        },
        {
            "type": "Feature",
            "geometry": {
                "type": "Point",
                "coordinates": [
                    8.79901167,
                    53.06583123
                ]
            },
            "properties": {
                "RSU coordinates": [
                    8.7978724,
                    53.0663702
                ],
                "Distance": 96.99,
                "Frequency": 5.9,
                "RSSI": -60.32,
                "LOS": "True"
            }
        },
        {
            "type": "Feature",
            "geometry": {
                "type": "Point",
                "coordinates": [
                    8.79911523,
                    53.06572344
                ]
            },
            "properties": {
                "RSU coordinates": [
                    8.7978724,
                    53.0663702
                ],
                "Distance": 109.98,
                "Frequency": 5.9,
                "RSSI": -61.4,
                "LOS": "True"
            }
        },
        {
            "type": "Feature",
            "geometry": {
                "type": "Point",
                "coordinates": [
                    8.7992188,
                    53.06561564
                ]
            },
            "properties": {
                "RSU coordinates": [
                    8.7978724,
                    53.0663702
                ],
                "Distance": 123.16,
                "Frequency": 5.9,
                "RSSI": -62.37,
                "LOS": "True"
            }
        },
        {
            "type": "Feature",
            "geometry": {
                "type": "Point",
                "coordinates": [
                    8.79932236,
                    53.06550785
                ]
            },
            "properties": {
                "RSU coordinates": [
                    8.7978724,
                    53.0663702
                ],
                "Distance": 136.47,
                "Frequency": 5.9,
                "RSSI": -63.25,
                "LOS": "True"
            }
        },
        {
            "type": "Feature",
            "geometry": {
                "type": "Point",
                "coordinates": [
                    8.79942594,
                    53.06561564
                ]
            },
            "properties": {
                "RSU coordinates": [
                    8.7978724,
                    53.0663702
                ],
                "Distance": 133.63,
                "Frequency": 5.9,
                "RSSI": -63.07,
                "LOS": "True"
            }
        },
        {
            "type": "Feature",
            "geometry": {
                "type": "Point",
                "coordinates": [
                    8.7995295,
                    53.06550785
                ]
            },
            "properties": {
                "RSU coordinates": [
                    8.7978724,
                    53.0663702
                ],
                "Distance": 146.64,
                "Frequency": 5.9,
                "RSSI": -63.87,
                "LOS": "True"
            }
        },
        {
            "type": "Feature",
            "geometry": {
                "type": "Point",
                "coordinates": [
                    8.79963307,
                    53.06540006
                ]
            },
            "properties": {
                "RSU coordinates": [
                    8.7978724,
                    53.0663702
                ],
                "Distance": 159.8,
                "Frequency": 5.9,
                "RSSI": -64.6,
                "LOS": "True"
            }
        },
        {
            "type": "Feature",
            "geometry": {
                "type": "Point",
                "coordinates": [
                    8.79973663,
                    53.06529226
                ]
            },
            "properties": {
                "RSU coordinates": [
                    8.7978724,
                    53.0663702
                ],
                "Distance": 173.07,
                "Frequency": 5.9,
                "RSSI": -65.29,
                "LOS": "True"
            }
        },
        {
            "type": "Feature",
            "geometry": {
                "type": "Point",
                "coordinates": [
                    8.7998402,
                    53.06540006
                ]
            },
            "properties": {
                "RSU coordinates": [
                    8.7978724,
                    53.0663702
                ],
                "Distance": 170.27,
                "Frequency": 5.9,
                "RSSI": -65.15,
                "LOS": "True"
            }
        },
        {
            "type": "Feature",
            "geometry": {
                "type": "Point",
                "coordinates": [
                    8.79994377,
                    53.06529226
                ]
            },
            "properties": {
                "RSU coordinates": [
                    8.7978724,
                    53.0663702
                ],
                "Distance": 183.3,
                "Frequency": 5.9,
                "RSSI": -65.78,
                "LOS": "True"
            }
        },
        {
            "type": "Feature",
            "geometry": {
                "type": "Point",
                "coordinates": [
                    8.80004733,
                    53.06518447
                ]
            },
            "properties": {
                "RSU coordinates": [
                    8.7978724,
                    53.0663702
                ],
                "Distance": 196.45,
                "Frequency": 5.9,
                "RSSI": -66.37,
                "LOS": "True"
            }
        },
        {
            "type": "Feature",
            "geometry": {
                "type": "Point",
                "coordinates": [
                    8.80015089,
                    53.06507668
                ]
            },
            "properties": {
                "RSU coordinates": [
                    8.7978724,
                    53.0663702
                ],
                "Distance": 209.69,
                "Frequency": 5.9,
                "RSSI": -66.93,
                "LOS": "True"
            }
        },
        {
            "type": "Feature",
            "geometry": {
                "type": "Point",
                "coordinates": [
                    8.80025445,
                    53.06496888
                ]
            },
            "properties": {
                "RSU coordinates": [
                    8.7978724,
                    53.0663702
                ],
                "Distance": 223.0,
                "Frequency": 5.9,
                "RSSI": -67.46,
                "LOS": "True"
            }
        },
        {
            "type": "Feature",
            "geometry": {
                "type": "Point",
                "coordinates": [
                    8.80035803,
                    53.06507668
                ]
            },
            "properties": {
                "RSU coordinates": [
                    8.7978724,
                    53.0663702
                ],
                "Distance": 219.96,
                "Frequency": 5.9,
                "RSSI": -67.34,
                "LOS": "True"
            }
        },
        {
            "type": "Feature",
            "geometry": {
                "type": "Point",
                "coordinates": [
                    8.80046159,
                    53.06496888
                ]
            },
            "properties": {
                "RSU coordinates": [
                    8.7978724,
                    53.0663702
                ],
                "Distance": 233.1,
                "Frequency": 5.9,
                "RSSI": -67.84,
                "LOS": "True"
            }
        },
        {
            "type": "Feature",
            "geometry": {
                "type": "Point",
                "coordinates": [
                    8.80056515,
                    53.06486109
                ]
            },
            "properties": {
                "RSU coordinates": [
                    8.7978724,
                    53.0663702
                ],
                "Distance": 246.32,
                "Frequency": 5.9,
                "RSSI": -68.31,
                "LOS": "True"
            }
        },
        {
            "type": "Feature",
            "geometry": {
                "type": "Point",
                "coordinates": [
                    8.80066871,
                    53.0647533
                ]
            },
            "properties": {
                "RSU coordinates": [
                    8.7978724,
                    53.0663702
                ],
                "Distance": 259.6,
                "Frequency": 5.9,
                "RSSI": -68.77,
                "LOS": "True"
            }
        },
        {
            "type": "Feature",
            "geometry": {
                "type": "Point",
                "coordinates": [
                    8.80087584,
                    53.0647533
                ]
            },
            "properties": {
                "RSU coordinates": [
                    8.7978724,
                    53.0663702
                ],
                "Distance": 269.76,
                "Frequency": 5.9,
                "RSSI": -99.09,
                "LOS": "False"
            }
        },
        {
            "type": "Feature",
            "geometry": {
                "type": "Point",
                "coordinates": [
                    8.8009794,
                    53.0646455
                ]
            },
            "properties": {
                "RSU coordinates": [
                    8.7978724,
                    53.0663702
                ],
                "Distance": 282.96,
                "Frequency": 5.9,
                "RSSI": -69.5,
                "LOS": "True"
            }
        },
        {
            "type": "Feature",
            "geometry": {
                "type": "Point",
                "coordinates": [
                    8.80108296,
                    53.06453771
                ]
            },
            "properties": {
                "RSU coordinates": [
                    8.7978724,
                    53.0663702
                ],
                "Distance": 296.22,
                "Frequency": 5.9,
                "RSSI": -69.9,
                "LOS": "True"
            }
        },
        {
            "type": "Feature",
            "geometry": {
                "type": "Point",
                "coordinates": [
                    8.80118652,
                    53.06442992
                ]
            },
            "properties": {
                "RSU coordinates": [
                    8.7978724,
                    53.0663702
                ],
                "Distance": 309.53,
                "Frequency": 5.9,
                "RSSI": -70.27,
                "LOS": "True"
            }
        },
        {
            "type": "Feature",
            "geometry": {
                "type": "Point",
                "coordinates": [
                    8.80139365,
                    53.06442992
                ]
            },
            "properties": {
                "RSU coordinates": [
                    8.7978724,
                    53.0663702
                ],
                "Distance": 319.6,
                "Frequency": 5.9,
                "RSSI": -70.55,
                "LOS": "True"
            }
        },
        {
            "type": "Feature",
            "geometry": {
                "type": "Point",
                "coordinates": [
                    8.80149721,
                    53.06432212
                ]
            },
            "properties": {
                "RSU coordinates": [
                    8.7978724,
                    53.0663702
                ],
                "Distance": 332.84,
                "Frequency": 5.9,
                "RSSI": -70.9,
                "LOS": "True"
            }
        },
        {
            "type": "Feature",
            "geometry": {
                "type": "Point",
                "coordinates": [
                    8.80160077,
                    53.06421433
                ]
            },
            "properties": {
                "RSU coordinates": [
                    8.7978724,
                    53.0663702
                ],
                "Distance": 346.13,
                "Frequency": 5.9,
                "RSSI": -71.23,
                "LOS": "True"
            }
        },
        {
            "type": "Feature",
            "geometry": {
                "type": "Point",
                "coordinates": [
                    8.80170432,
                    53.06410653
                ]
            },
            "properties": {
                "RSU coordinates": [
                    8.7978724,
                    53.0663702
                ],
                "Distance": 359.47,
                "Frequency": 5.9,
                "RSSI": -86.56,
                "LOS": "False"
            }
        },
        {
            "type": "Feature",
            "geometry": {
                "type": "Point",
                "coordinates": [
                    8.8018079,
                    53.06421433
                ]
            },
            "properties": {
                "RSU coordinates": [
                    8.7978724,
                    53.0663702
                ],
                "Distance": 356.25,
                "Frequency": 5.9,
                "RSSI": -71.48,
                "LOS": "True"
            }
        },
        {
            "type": "Feature",
            "geometry": {
                "type": "Point",
                "coordinates": [
                    8.80191145,
                    53.06410653
                ]
            },
            "properties": {
                "RSU coordinates": [
                    8.7978724,
                    53.0663702
                ],
                "Distance": 369.48,
                "Frequency": 5.9,
                "RSSI": -71.79,
                "LOS": "True"
            }
        },
        {
            "type": "Feature",
            "geometry": {
                "type": "Point",
                "coordinates": [
                    8.80232569,
                    53.06389095
                ]
            },
            "properties": {
                "RSU coordinates": [
                    8.7978724,
                    53.0663702
                ],
                "Distance": 406.11,
                "Frequency": 5.9,
                "RSSI": -87.6,
                "LOS": "False"
            }
        }
    ]
}