{
    "type": "FeatureCollection",
    "features": [
        {
            "type": "Feature",
            "geometry": {
                "type": "Point",
                "coordinates": [
                    8.76862365,
                    53.08368332
                ]
            },
            "properties": {
                "RSU coordinates": [
                    8.7740115,
                    53.0806651
                ],
                "Distance": 492.63,
                "Frequency": 5.9,
                "RSSI": -89.26,
                "LOS": "False"
            }
        },
        {
            "type": "Feature",
            "geometry": {
                "type": "Point",
                "coordinates": [
                    8.76903812,
                    53.08346773
                ]
            },
            "properties": {
                "RSU coordinates": [
                    8.7740115,
                    53.0806651
                ],
                "Distance": 456.0,
                "Frequency": 5.9,
                "RSSI": -88.6,
                "LOS": "False"
            }
        },
        {
            "type": "Feature",
            "geometry": {
                "type": "Point",
                "coordinates": [
                    8.76955622,
                    53.08314435
                ]
            },
            "properties": {
                "RSU coordinates": [
                    8.7740115,
                    53.0806651
                ],
                "Distance": 406.11,
                "Frequency": 5.9,
                "RSSI": -87.6,
                "LOS": "False"
            }
        },
        {
            "type": "Feature",
            "geometry": {
                "type": "Point",
                "coordinates": [
                    8.76997068,
                    53.08292877
                ]
            },
            "properties": {
                "RSU coordinates": [
                    8.7740115,
                    53.0806651
                ],
                "Distance": 369.48,
                "Frequency": 5.9,
                "RSSI": -86.79,
                "LOS": "False"
            }
        },
        {
            "type": "Feature",
            "geometry": {
                "type": "Point",
                "coordinates": [
                    8.77038514,
                    53.08271318
                ]
            },
            "properties": {
                "RSU coordinates": [
                    8.7740115,
                    53.0806651
                ],
                "Distance": 332.84,
                "Frequency": 5.9,
                "RSSI": -85.9,
                "LOS": "False"
            }
        },
        {
            "type": "Feature",
            "geometry": {
                "type": "Point",
                "coordinates": [
                    8.77059236,
                    53.08271318
                ]
            },
            "properties": {
                "RSU coordinates": [
                    8.7740115,
                    53.0806651
                ],
                "Distance": 322.89,
                "Frequency": 5.9,
                "RSSI": -85.64,
                "LOS": "False"
            }
        },
        {
            "type": "Feature",
            "geometry": {
                "type": "Point",
                "coordinates": [
                    8.77069598,
                    53.08260538
                ]
            },
            "properties": {
                "RSU coordinates": [
                    8.7740115,
                    53.0806651
                ],
                "Distance": 309.53,
                "Frequency": 5.9,
                "RSSI": -70.27,
                "LOS": "True"
            }
        },
        {
            "type": "Feature",
            "geometry": {
                "type": "Point",
                "coordinates": [
                    8.7707996,
                    53.08249759
                ]
            },
            "properties": {
                "RSU coordinates": [
                    8.7740115,
                    53.0806651
                ],
                "Distance": 296.22,
                "Frequency": 5.9,
                "RSSI": -84.9,
                "LOS": "False"
            }
        },
        {
            "type": "Feature",
            "geometry": {
                "type": "Point",
                "coordinates": [
                    8.77090322,
                    53.0823898
                ]
            },
            "properties": {
                "RSU coordinates": [
                    8.7740115,
                    53.0806651
                ],
                "Distance": 282.96,
                "Frequency": 5.9,
                "RSSI": -99.5,
                "LOS": "False"
            }
        },
        {
            "type": "Feature",
            "geometry": {
                "type": "Point",
                "coordinates": [
                    8.77100682,
                    53.08249759
                ]
            },
            "properties": {
                "RSU coordinates": [
                    8.7740115,
                    53.0806651
                ],
                "Distance": 286.33,
                "Frequency": 5.9,
                "RSSI": -69.61,
                "LOS": "True"
            }
        },
        {
            "type": "Feature",
            "geometry": {
                "type": "Point",
                "coordinates": [
                    8.77111044,
                    53.0823898
                ]
            },
            "properties": {
                "RSU coordinates": [
                    8.7740115,
                    53.0806651
                ],
                "Distance": 272.94,
                "Frequency": 5.9,
                "RSSI": -69.2,
                "LOS": "True"
            }
        },
        {
            "type": "Feature",
            "geometry": {
                "type": "Point",
                "coordinates": [
                    8.77121405,
                    53.082282
                ]
            },
            "properties": {
                "RSU coordinates": [
                    8.7740115,
                    53.0806651
                ],
                "Distance": 259.6,
                "Frequency": 5.9,
                "RSSI": -83.77,
                "LOS": "False"
            }
        },
        {
            "type": "Feature",
            "geometry": {
                "type": "Point",
                "coordinates": [
                    8.77131767,
                    53.08217421
                ]
            },
            "properties": {
                "RSU coordinates": [
                    8.7740115,
                    53.0806651
                ],
                "Distance": 246.32,
                "Frequency": 5.9,
                "RSSI": -83.31,
                "LOS": "False"
            }
        },
        {
            "type": "Feature",
            "geometry": {
                "type": "Point",
                "coordinates": [
                    8.77142127,
                    53.082282
                ]
            },
            "properties": {
                "RSU coordinates": [
                    8.7740115,
                    53.0806651
                ],
                "Distance": 249.8,
                "Frequency": 5.9,
                "RSSI": -68.44,
                "LOS": "True"
            }
        },
        {
            "type": "Feature",
            "geometry": {
                "type": "Point",
                "coordinates": [
                    8.77152489,
                    53.08217421
                ]
            },
            "properties": {
                "RSU coordinates": [
                    8.7740115,
                    53.0806651
                ],
                "Distance": 236.37,
                "Frequency": 5.9,
                "RSSI": -67.96,
                "LOS": "True"
            }
        },
        {
            "type": "Feature",
            "geometry": {
                "type": "Point",
                "coordinates": [
                    8.7716285,
                    53.08206642
                ]
            },
            "properties": {
                "RSU coordinates": [
                    8.7740115,
                    53.0806651
                ],
                "Distance": 223.0,
                "Frequency": 5.9,
                "RSSI": -67.46,
                "LOS": "True"
            }
        },
        {
            "type": "Feature",
            "geometry": {
                "type": "Point",
                "coordinates": [
                    8.77173212,
                    53.08195862
                ]
            },
            "properties": {
                "RSU coordinates": [
                    8.7740115,
                    53.0806651
                ],
                "Distance": 209.69,
                "Frequency": 5.9,
                "RSSI": -66.93,
                "LOS": "True"
            }
        },
        {
            "type": "Feature",
            "geometry": {
                "type": "Point",
                "coordinates": [
                    8.77183573,
                    53.08185083
                ]
            },
            "properties": {
                "RSU coordinates": [
                    8.7740115,
                    53.0806651
                ],
                "Distance": 196.45,
                "Frequency": 5.9,
                "RSSI": -66.37,
                "LOS": "True"
            }
        },
        {
            "type": "Feature",
            "geometry": {
                "type": "Point",
                "coordinates": [
                    8.77193933,
                    53.08195862
                ]
            },
            "properties": {
                "RSU coordinates": [
                    8.7740115,
                    53.0806651
                ],
                "Distance": 199.84,
                "Frequency": 5.9,
                "RSSI": -66.52,
                "LOS": "True"
            }
        },
        {
            "type": "Feature",
            "geometry": {
                "type": "Point",
                "coordinates": [
                    8.77183574,
                    53.08163524
                ]
            },
            "properties": {
                "RSU coordinates": [
                    8.7740115,
                    53.0806651
                ],
                "Distance": 181.2,
                "Frequency": 5.9,
                "RSSI": -95.68,
                "LOS": "False"
            }
        },
        {
            "type": "Feature",
            "geometry": {
                "type": "Point",
                "coordinates": [
                    8.77204295,
                    53.08185083
                ]
            },
            "properties": {
                "RSU coordinates": [
                    8.7740115,
                    53.0806651
                ],
                "Distance": 186.42,
                "Frequency": 5.9,
                "RSSI": -65.93,
                "LOS": "True"
            }
        },
        {
            "type": "Feature",
            "geometry": {
                "type": "Point",
                "coordinates": [
                    8.77214656,
                    53.08174304
                ]
            },
            "properties": {
                "RSU coordinates": [
                    8.7740115,
                    53.0806651
                ],
                "Distance": 173.07,
                "Frequency": 5.9,
                "RSSI": -65.29,
                "LOS": "True"
            }
        },
        {
            "type": "Feature",
            "geometry": {
                "type": "Point",
                "coordinates": [
                    8.77214657,
                    53.08152745
                ]
            },
            "properties": {
                "RSU coordinates": [
                    8.7740115,
                    53.0806651
                ],
                "Distance": 157.38,
                "Frequency": 5.9,
                "RSSI": -79.47,
                "LOS": "False"
            }
        },
        {
            "type": "Feature",
            "geometry": {
                "type": "Point",
                "coordinates": [
                    8.77225017,
                    53.08163524
                ]
            },
            "properties": {
                "RSU coordinates": [
                    8.7740115,
                    53.0806651
                ],
                "Distance": 159.8,
                "Frequency": 5.9,
                "RSSI": -64.6,
                "LOS": "True"
            }
        },
        {
            "type": "Feature",
            "geometry": {
                "type": "Point",
                "coordinates": [
                    8.77235378,
                    53.08152745
                ]
            },
            "properties": {
                "RSU coordinates": [
                    8.7740115,
                    53.0806651
                ],
                "Distance": 146.64,
                "Frequency": 5.9,
                "RSSI": -63.87,
                "LOS": "True"
            }
        },
        {
            "type": "Feature",
            "geometry": {
                "type": "Point",
                "coordinates": [
                    8.77245739,
                    53.08163524
                ]
            },
            "properties": {
                "RSU coordinates": [
                    8.7740115,
                    53.0806651
                ],
                "Distance": 149.88,
                "Frequency": 5.9,
                "RSSI": -64.05,
                "LOS": "True"
            }
        },
        {
            "type": "Feature",
            "geometry": {
                "type": "Point",
                "coordinates": [
                    8.77245739,
                    53.08141966
                ]
            },
            "properties": {
                "RSU coordinates": [
                    8.7740115,
                    53.0806651
                ],
                "Distance": 133.63,
                "Frequency": 5.9,
                "RSSI": -63.07,
                "LOS": "True"
            }
        },
        {
            "type": "Feature",
            "geometry": {
                "type": "Point",
                "coordinates": [
                    8.772561,
                    53.08152745
                ]
            },
            "properties": {
                "RSU coordinates": [
                    8.7740115,
                    53.0806651
                ],
                "Distance": 136.47,
                "Frequency": 5.9,
                "RSSI": -63.25,
                "LOS": "True"
            }
        },
        {
            "type": "Feature",
            "geometry": {
                "type": "Point",
                "coordinates": [
                    8.772561,
                    53.08131186
                ]
            },
            "properties": {
                "RSU coordinates": [
                    8.7740115,
                    53.0806651
                ],
                "Distance": 120.8,
                "Frequency": 5.9,
                "RSSI": -62.2,
                "LOS": "True"
            }
        },
        {
            "type": "Feature",
            "geometry": {
                "type": "Point",
                "coordinates": [
                    8.77266461,
                    53.08141966
                ]
            },
            "properties": {
                "RSU coordinates": [
                    8.7740115,
                    53.0806651
                ],
                "Distance": 123.16,
                "Frequency": 5.9,
                "RSSI": -62.37,
                "LOS": "True"
            }
        },
        {
            "type": "Feature",
            "geometry": {
                "type": "Point",
                "coordinates": [
                    8.77276822,
                    53.08131186
                ]
            },
            "properties": {
                "RSU coordinates": [
                    8.7740115,
                    53.0806651
                ],
                "Distance": 109.98,
                "Frequency": 5.9,
                "RSSI": -61.4,
                "LOS": "True"
            }
        },
        {
            "type": "Feature",
            "geometry": {
                "type": "Point",
                "coordinates": [
                    8.77287183,
                    53.08120407
                ]
            },
            "properties": {
                "RSU coordinates": [
                    8.7740115,
                    53.0806651
                ],
                "Distance": 96.99,
                "Frequency": 5.9,
                "RSSI": -60.32,
                "LOS": "True"
            }
        },
        {
            "type": "Feature",
            "geometry": {
                "type": "Point",
                "coordinates": [
                    8.77297543,
                    53.08131186
                ]
            },
            "properties": {
                "RSU coordinates": [
                    8.7740115,
                    53.0806651
                ],
                "Distance": 99.92,
                "Frequency": 5.9,
                "RSSI": -60.58,
                "LOS": "True"
            }
        },
        {
            "type": "Feature",
            "geometry": {
                "type": "Point",
                "coordinates": [
                    8.77307904,
                    53.08120407
                ]
            },
            "properties": {
                "RSU coordinates": [
                    8.7740115,
                    53.0806651
                ],
                "Distance": 86.53,
                "Frequency": 5.9,
                "RSSI": -59.34,
                "LOS": "True"
            }
        },
        {
            "type": "Feature",
            "geometry": {
                "type": "Point",
                "coordinates": [
                    8.77318265,
                    53.08109627
                ]
            },
            "properties": {
                "RSU coordinates": [
                    8.7740115,
                    53.0806651
                ],
                "Distance": 73.32,
                "Frequency": 5.9,
                "RSSI": -57.92,
                "LOS": "True"
            }
        },
        {
            "type": "Feature",
            "geometry": {
                "type": "Point",
                "coordinates": [
                    8.77328626,
                    53.08098848
                ]
            },
            "properties": {
                "RSU coordinates": [
                    8.7740115,
                    53.0806651
                ],
                "Distance": 60.4,
                "Frequency": 5.9,
                "RSSI": -56.26,
                "LOS": "True"
            }
        },
        {
            "type": "Feature",
            "geometry": {
                "type": "Point",
                "coordinates": [
                    8.77338986,
                    53.08109627
                ]
            },
            "properties": {
                "RSU coordinates": [
                    8.7740115,
                    53.0806651
                ],
                "Distance": 63.5,
                "Frequency": 5.9,
                "RSSI": -56.69,
                "LOS": "True"
            }
        },
        {
            "type": "Feature",
            "geometry": {
                "type": "Point",
                "coordinates": [
                    8.77318266,
                    53.0806651
                ]
            },
            "properties": {
                "RSU coordinates": [
                    8.7740115,
                    53.0806651
                ],
                "Distance": 55.43,
                "Frequency": 5.9,
                "RSSI": -85.52000000000001,
                "LOS": "False"
            }
        },
        {
            "type": "Feature",
            "geometry": {
                "type": "Point",
                "coordinates": [
                    8.77349347,
                    53.08098848
                ]
            },
            "properties": {
                "RSU coordinates": [
                    8.7740115,
                    53.0806651
                ],
                "Distance": 49.96,
                "Frequency": 5.9,
                "RSSI": -54.63,
                "LOS": "True"
            }
        },
        {
            "type": "Feature",
            "geometry": {
                "type": "Point",
                "coordinates": [
                    8.77370068,
                    53.08120407
                ]
            },
            "properties": {
                "RSU coordinates": [
                    8.7740115,
                    53.0806651
                ],
                "Distance": 63.5,
                "Frequency": 5.9,
                "RSSI": -86.69,
                "LOS": "False"
            }
        },
        {
            "type": "Feature",
            "geometry": {
                "type": "Point",
                "coordinates": [
                    8.77307906,
                    53.08034172
                ]
            },
            "properties": {
                "RSU coordinates": [
                    8.7740115,
                    53.0806651
                ],
                "Distance": 72.0,
                "Frequency": 5.9,
                "RSSI": -72.77000000000001,
                "LOS": "False"
            }
        },
        {
            "type": "Feature",
            "geometry": {
                "type": "Point",
                "coordinates": [
                    8.77318266,
                    53.08044951
                ]
            },
            "properties": {
                "RSU coordinates": [
                    8.7740115,
                    53.0806651
                ],
                "Distance": 60.4,
                "Frequency": 5.9,
                "RSSI": -71.25999999999999,
                "LOS": "False"
            }
        },
        {
            "type": "Feature",
            "geometry": {
                "type": "Point",
                "coordinates": [
                    8.77338987,
                    53.0806651
                ]
            },
            "properties": {
                "RSU coordinates": [
                    8.7740115,
                    53.0806651
                ],
                "Distance": 41.57,
                "Frequency": 5.9,
                "RSSI": -68.06,
                "LOS": "False"
            }
        },
        {
            "type": "Feature",
            "geometry": {
                "type": "Point",
                "coordinates": [
                    8.77359708,
                    53.08088069
                ]
            },
            "properties": {
                "RSU coordinates": [
                    8.7740115,
                    53.0806651
                ],
                "Distance": 36.66,
                "Frequency": 5.9,
                "RSSI": -51.98,
                "LOS": "True"
            }
        },
        {
            "type": "Feature",
            "geometry": {
                "type": "Point",
                "coordinates": [
                    8.77380429,
                    53.08109627
                ]
            },
            "properties": {
                "RSU coordinates": [
                    8.7740115,
                    53.0806651
                ],
                "Distance": 49.96,
                "Frequency": 5.9,
                "RSSI": -84.63,
                "LOS": "False"
            }
        },
        {
            "type": "Feature",
            "geometry": {
                "type": "Point",
                "coordinates": [
                    8.77338987,
                    53.08044951
                ]
            },
            "properties": {
                "RSU coordinates": [
                    8.7740115,
                    53.0806651
                ],
                "Distance": 48.0,
                "Frequency": 5.9,
                "RSSI": -69.28999999999999,
                "LOS": "False"
            }
        },
        {
            "type": "Feature",
            "geometry": {
                "type": "Point",
                "coordinates": [
                    8.77349347,
                    53.08055731
                ]
            },
            "properties": {
                "RSU coordinates": [
                    8.7740115,
                    53.0806651
                ],
                "Distance": 36.66,
                "Frequency": 5.9,
                "RSSI": -66.97999999999999,
                "LOS": "False"
            }
        },
        {
            "type": "Feature",
            "geometry": {
                "type": "Point",
                "coordinates": [
                    8.77370068,
                    53.08077289
                ]
            },
            "properties": {
                "RSU coordinates": [
                    8.7740115,
                    53.0806651
                ],
                "Distance": 24.0,
                "Frequency": 5.9,
                "RSSI": -48.34,
                "LOS": "True"
            }
        },
        {
            "type": "Feature",
            "geometry": {
                "type": "Point",
                "coordinates": [
                    8.77380429,
                    53.08088069
                ]
            },
            "properties": {
                "RSU coordinates": [
                    8.7740115,
                    53.0806651
                ],
                "Distance": 27.71,
                "Frequency": 5.9,
                "RSSI": -49.58,
                "LOS": "True"
            }
        },
        {
            "type": "Feature",
            "geometry": {
                "type": "Point",
                "coordinates": [
                    8.7740115,
                    53.08109627
                ]
            },
            "properties": {
                "RSU coordinates": [
                    8.7740115,
                    53.0806651
                ],
                "Distance": 48.0,
                "Frequency": 5.9,
                "RSSI": -84.28999999999999,
                "LOS": "False"
            }
        },
        {
            "type": "Feature",
            "geometry": {
                "type": "Point",
                "coordinates": [
                    8.77370068,
                    53.08055731
                ]
            },
            "properties": {
                "RSU coordinates": [
                    8.7740115,
                    53.0806651
                ],
                "Distance": 24.0,
                "Frequency": 5.9,
                "RSSI": -63.34,
                "LOS": "False"
            }
        },
        {
            "type": "Feature",
            "geometry": {
                "type": "Point",
                "coordinates": [
                    8.77390789,
                    53.08077289
                ]
            },
            "properties": {
                "RSU coordinates": [
                    8.7740115,
                    53.0806651
                ],
                "Distance": 13.86,
                "Frequency": 5.9,
                "RSSI": -43.63,
                "LOS": "True"
            }
        },
        {
            "type": "Feature",
            "geometry": {
                "type": "Point",
                "coordinates": [
                    8.77442593,
                    53.08131186
                ]
            },
            "properties": {
                "RSU coordinates": [
                    8.7740115,
                    53.0806651
                ],
                "Distance": 77.15,
                "Frequency": 5.9,
                "RSSI": -88.36,
                "LOS": "False"
            }
        },
        {
            "type": "Feature",
            "geometry": {
                "type": "Point",
                "coordinates": [
                    8.77152512,
                    53.07807805
                ]
            },
            "properties": {
                "RSU coordinates": [
                    8.7740115,
                    53.0806651
                ],
                "Distance": 332.55,
                "Frequency": 5.9,
                "RSSI": -85.89,
                "LOS": "False"
            }
        },
        {
            "type": "Feature",
            "geometry": {
                "type": "Point",
                "coordinates": [
                    8.77162872,
                    53.07818585
                ]
            },
            "properties": {
                "RSU coordinates": [
                    8.7740115,
                    53.0806651
                ],
                "Distance": 318.7,
                "Frequency": 5.9,
                "RSSI": -85.52,
                "LOS": "False"
            }
        },
        {
            "type": "Feature",
            "geometry": {
                "type": "Point",
                "coordinates": [
                    8.77214669,
                    53.07872482
                ]
            },
            "properties": {
                "RSU coordinates": [
                    8.7740115,
                    53.0806651
                ],
                "Distance": 249.42,
                "Frequency": 5.9,
                "RSSI": -68.42,
                "LOS": "True"
            }
        },
        {
            "type": "Feature",
            "geometry": {
                "type": "Point",
                "coordinates": [
                    8.77225029,
                    53.07883261
                ]
            },
            "properties": {
                "RSU coordinates": [
                    8.7740115,
                    53.0806651
                ],
                "Distance": 235.56,
                "Frequency": 5.9,
                "RSSI": -67.93,
                "LOS": "True"
            }
        },
        {
            "type": "Feature",
            "geometry": {
                "type": "Point",
                "coordinates": [
                    8.77235388,
                    53.0789404
                ]
            },
            "properties": {
                "RSU coordinates": [
                    8.7740115,
                    53.0806651
                ],
                "Distance": 221.7,
                "Frequency": 5.9,
                "RSSI": -67.41,
                "LOS": "True"
            }
        },
        {
            "type": "Feature",
            "geometry": {
                "type": "Point",
                "coordinates": [
                    8.77245748,
                    53.0790482
                ]
            },
            "properties": {
                "RSU coordinates": [
                    8.7740115,
                    53.0806651
                ],
                "Distance": 207.85,
                "Frequency": 5.9,
                "RSSI": -66.86,
                "LOS": "True"
            }
        },
        {
            "type": "Feature",
            "geometry": {
                "type": "Point",
                "coordinates": [
                    8.77256108,
                    53.07915599
                ]
            },
            "properties": {
                "RSU coordinates": [
                    8.7740115,
                    53.0806651
                ],
                "Distance": 193.99,
                "Frequency": 5.9,
                "RSSI": -66.27,
                "LOS": "True"
            }
        },
        {
            "type": "Feature",
            "geometry": {
                "type": "Point",
                "coordinates": [
                    8.77266468,
                    53.07926378
                ]
            },
            "properties": {
                "RSU coordinates": [
                    8.7740115,
                    53.0806651
                ],
                "Distance": 180.13,
                "Frequency": 5.9,
                "RSSI": -65.63,
                "LOS": "True"
            }
        },
        {
            "type": "Feature",
            "geometry": {
                "type": "Point",
                "coordinates": [
                    8.77276827,
                    53.07937158
                ]
            },
            "properties": {
                "RSU coordinates": [
                    8.7740115,
                    53.0806651
                ],
                "Distance": 166.28,
                "Frequency": 5.9,
                "RSSI": -64.94,
                "LOS": "True"
            }
        },
        {
            "type": "Feature",
            "geometry": {
                "type": "Point",
                "coordinates": [
                    8.77287187,
                    53.07947937
                ]
            },
            "properties": {
                "RSU coordinates": [
                    8.7740115,
                    53.0806651
                ],
                "Distance": 152.42,
                "Frequency": 5.9,
                "RSSI": -64.2,
                "LOS": "True"
            }
        },
        {
            "type": "Feature",
            "geometry": {
                "type": "Point",
                "coordinates": [
                    8.77297547,
                    53.07958716
                ]
            },
            "properties": {
                "RSU coordinates": [
                    8.7740115,
                    53.0806651
                ],
                "Distance": 138.56,
                "Frequency": 5.9,
                "RSSI": -63.38,
                "LOS": "True"
            }
        },
        {
            "type": "Feature",
            "geometry": {
                "type": "Point",
                "coordinates": [
                    8.77307907,
                    53.07969496
                ]
            },
            "properties": {
                "RSU coordinates": [
                    8.7740115,
                    53.0806651
                ],
                "Distance": 124.71,
                "Frequency": 5.9,
                "RSSI": -62.48,
                "LOS": "True"
            }
        },
        {
            "type": "Feature",
            "geometry": {
                "type": "Point",
                "coordinates": [
                    8.77318267,
                    53.07980275
                ]
            },
            "properties": {
                "RSU coordinates": [
                    8.7740115,
                    53.0806651
                ],
                "Distance": 110.85,
                "Frequency": 5.9,
                "RSSI": -61.47,
                "LOS": "True"
            }
        },
        {
            "type": "Feature",
            "geometry": {
                "type": "Point",
                "coordinates": [
                    8.77328628,
                    53.07991054
                ]
            },
            "properties": {
                "RSU coordinates": [
                    8.7740115,
                    53.0806651
                ],
                "Distance": 96.99,
                "Frequency": 5.9,
                "RSSI": -60.32,
                "LOS": "True"
            }
        },
        {
            "type": "Feature",
            "geometry": {
                "type": "Point",
                "coordinates": [
                    8.77338988,
                    53.08001834
                ]
            },
            "properties": {
                "RSU coordinates": [
                    8.7740115,
                    53.0806651
                ],
                "Distance": 83.14,
                "Frequency": 5.9,
                "RSSI": -59.0,
                "LOS": "True"
            }
        },
        {
            "type": "Feature",
            "geometry": {
                "type": "Point",
                "coordinates": [
                    8.77349348,
                    53.08012613
                ]
            },
            "properties": {
                "RSU coordinates": [
                    8.7740115,
                    53.0806651
                ],
                "Distance": 69.28,
                "Frequency": 5.9,
                "RSSI": -57.44,
                "LOS": "True"
            }
        },
        {
            "type": "Feature",
            "geometry": {
                "type": "Point",
                "coordinates": [
                    8.77359708,
                    53.08023393
                ]
            },
            "properties": {
                "RSU coordinates": [
                    8.7740115,
                    53.0806651
                ],
                "Distance": 55.43,
                "Frequency": 5.9,
                "RSSI": -55.52,
                "LOS": "True"
            }
        },
        {
            "type": "Feature",
            "geometry": {
                "type": "Point",
                "coordinates": [
                    8.77370069,
                    53.08034172
                ]
            },
            "properties": {
                "RSU coordinates": [
                    8.7740115,
                    53.0806651
                ],
                "Distance": 41.57,
                "Frequency": 5.9,
                "RSSI": -53.06,
                "LOS": "True"
            }
        },
        {
            "type": "Feature",
            "geometry": {
                "type": "Point",
                "coordinates": [
                    8.77380429,
                    53.08044951
                ]
            },
            "properties": {
                "RSU coordinates": [
                    8.7740115,
                    53.0806651
                ],
                "Distance": 27.71,
                "Frequency": 5.9,
                "RSSI": -49.58,
                "LOS": "True"
            }
        },
        {
            "type": "Feature",
            "geometry": {
                "type": "Point",
                "coordinates": [
                    8.77390789,
                    53.08055731
                ]
            },
            "properties": {
                "RSU coordinates": [
                    8.7740115,
                    53.0806651
                ],
                "Distance": 13.86,
                "Frequency": 5.9,
                "RSSI": -43.63,
                "LOS": "True"
            }
        },
        {
            "type": "Feature",
            "geometry": {
                "type": "Point",
                "coordinates": [
                    8.77442593,
                    53.08109627
                ]
            },
            "properties": {
                "RSU coordinates": [
                    8.7740115,
                    53.0806651
                ],
                "Distance": 55.43,
                "Frequency": 5.9,
                "RSSI": -85.52000000000001,
                "LOS": "False"
            }
        },
        {
            "type": "Feature",
            "geometry": {
                "type": "Point",
                "coordinates": [
                    8.77452953,
                    53.08120407
                ]
            },
            "properties": {
                "RSU coordinates": [
                    8.7740115,
                    53.0806651
                ],
                "Distance": 69.28,
                "Frequency": 5.9,
                "RSSI": -87.44,
                "LOS": "False"
            }
        },
        {
            "type": "Feature",
            "geometry": {
                "type": "Point",
                "coordinates": [
                    8.77173232,
                    53.07807805
                ]
            },
            "properties": {
                "RSU coordinates": [
                    8.7740115,
                    53.0806651
                ],
                "Distance": 325.85,
                "Frequency": 5.9,
                "RSSI": -85.71,
                "LOS": "False"
            }
        },
        {
            "type": "Feature",
            "geometry": {
                "type": "Point",
                "coordinates": [
                    8.77183591,
                    53.07818585
                ]
            },
            "properties": {
                "RSU coordinates": [
                    8.7740115,
                    53.0806651
                ],
                "Distance": 312.0,
                "Frequency": 5.9,
                "RSSI": -85.34,
                "LOS": "False"
            }
        },
        {
            "type": "Feature",
            "geometry": {
                "type": "Point",
                "coordinates": [
                    8.77370069,
                    53.08012613
                ]
            },
            "properties": {
                "RSU coordinates": [
                    8.7740115,
                    53.0806651
                ],
                "Distance": 63.5,
                "Frequency": 5.9,
                "RSSI": -86.69,
                "LOS": "False"
            }
        },
        {
            "type": "Feature",
            "geometry": {
                "type": "Point",
                "coordinates": [
                    8.7739079,
                    53.08034172
                ]
            },
            "properties": {
                "RSU coordinates": [
                    8.7740115,
                    53.0806651
                ],
                "Distance": 36.66,
                "Frequency": 5.9,
                "RSSI": -66.97999999999999,
                "LOS": "False"
            }
        },
        {
            "type": "Feature",
            "geometry": {
                "type": "Point",
                "coordinates": [
                    8.77411511,
                    53.08055731
                ]
            },
            "properties": {
                "RSU coordinates": [
                    8.7740115,
                    53.0806651
                ],
                "Distance": 13.86,
                "Frequency": 5.9,
                "RSSI": -43.63,
                "LOS": "True"
            }
        },
        {
            "type": "Feature",
            "geometry": {
                "type": "Point",
                "coordinates": [
                    8.77421871,
                    53.0806651
                ]
            },
            "properties": {
                "RSU coordinates": [
                    8.7740115,
                    53.0806651
                ],
                "Distance": 13.86,
                "Frequency": 5.9,
                "RSSI": -43.63,
                "LOS": "True"
            }
        },
        {
            "type": "Feature",
            "geometry": {
                "type": "Point",
                "coordinates": [
                    8.77442592,
                    53.08088069
                ]
            },
            "properties": {
                "RSU coordinates": [
                    8.7740115,
                    53.0806651
                ],
                "Distance": 36.66,
                "Frequency": 5.9,
                "RSSI": -66.97999999999999,
                "LOS": "False"
            }
        },
        {
            "type": "Feature",
            "geometry": {
                "type": "Point",
                "coordinates": [
                    8.77380429,
                    53.08001834
                ]
            },
            "properties": {
                "RSU coordinates": [
                    8.7740115,
                    53.0806651
                ],
                "Distance": 73.32,
                "Frequency": 5.9,
                "RSSI": -87.92,
                "LOS": "False"
            }
        },
        {
            "type": "Feature",
            "geometry": {
                "type": "Point",
                "coordinates": [
                    8.7739079,
                    53.08012613
                ]
            },
            "properties": {
                "RSU coordinates": [
                    8.7740115,
                    53.0806651
                ],
                "Distance": 60.4,
                "Frequency": 5.9,
                "RSSI": -71.25999999999999,
                "LOS": "False"
            }
        },
        {
            "type": "Feature",
            "geometry": {
                "type": "Point",
                "coordinates": [
                    8.7740115,
                    53.08023393
                ]
            },
            "properties": {
                "RSU coordinates": [
                    8.7740115,
                    53.0806651
                ],
                "Distance": 48.0,
                "Frequency": 5.9,
                "RSSI": -69.28999999999999,
                "LOS": "False"
            }
        },
        {
            "type": "Feature",
            "geometry": {
                "type": "Point",
                "coordinates": [
                    8.7741151,
                    53.08034172
                ]
            },
            "properties": {
                "RSU coordinates": [
                    8.7740115,
                    53.0806651
                ],
                "Distance": 36.66,
                "Frequency": 5.9,
                "RSSI": -81.97999999999999,
                "LOS": "False"
            }
        },
        {
            "type": "Feature",
            "geometry": {
                "type": "Point",
                "coordinates": [
                    8.77432232,
                    53.08055731
                ]
            },
            "properties": {
                "RSU coordinates": [
                    8.7740115,
                    53.0806651
                ],
                "Distance": 24.0,
                "Frequency": 5.9,
                "RSSI": -48.34,
                "LOS": "True"
            }
        },
        {
            "type": "Feature",
            "geometry": {
                "type": "Point",
                "coordinates": [
                    8.77452953,
                    53.08077289
                ]
            },
            "properties": {
                "RSU coordinates": [
                    8.7740115,
                    53.0806651
                ],
                "Distance": 36.66,
                "Frequency": 5.9,
                "RSSI": -96.97999999999999,
                "LOS": "False"
            }
        },
        {
            "type": "Feature",
            "geometry": {
                "type": "Point",
                "coordinates": [
                    8.77473674,
                    53.08098848
                ]
            },
            "properties": {
                "RSU coordinates": [
                    8.7740115,
                    53.0806651
                ],
                "Distance": 60.4,
                "Frequency": 5.9,
                "RSSI": -86.25999999999999,
                "LOS": "False"
            }
        },
        {
            "type": "Feature",
            "geometry": {
                "type": "Point",
                "coordinates": [
                    8.77484035,
                    53.08109627
                ]
            },
            "properties": {
                "RSU coordinates": [
                    8.7740115,
                    53.0806651
                ],
                "Distance": 73.32,
                "Frequency": 5.9,
                "RSSI": -87.92,
                "LOS": "False"
            }
        },
        {
            "type": "Feature",
            "geometry": {
                "type": "Point",
                "coordinates": [
                    8.7739079,
                    53.07991054
                ]
            },
            "properties": {
                "RSU coordinates": [
                    8.7740115,
                    53.0806651
                ],
                "Distance": 84.29,
                "Frequency": 5.9,
                "RSSI": -89.12,
                "LOS": "False"
            }
        },
        {
            "type": "Feature",
            "geometry": {
                "type": "Point",
                "coordinates": [
                    8.77421871,
                    53.08023393
                ]
            },
            "properties": {
                "RSU coordinates": [
                    8.7740115,
                    53.0806651
                ],
                "Distance": 49.96,
                "Frequency": 5.9,
                "RSSI": -99.63,
                "LOS": "False"
            }
        },
        {
            "type": "Feature",
            "geometry": {
                "type": "Point",
                "coordinates": [
                    8.77442592,
                    53.08044951
                ]
            },
            "properties": {
                "RSU coordinates": [
                    8.7740115,
                    53.0806651
                ],
                "Distance": 36.66,
                "Frequency": 5.9,
                "RSSI": -51.98,
                "LOS": "True"
            }
        },
        {
            "type": "Feature",
            "geometry": {
                "type": "Point",
                "coordinates": [
                    8.77463313,
                    53.0806651
                ]
            },
            "properties": {
                "RSU coordinates": [
                    8.7740115,
                    53.0806651
                ],
                "Distance": 41.57,
                "Frequency": 5.9,
                "RSSI": -83.06,
                "LOS": "False"
            }
        },
        {
            "type": "Feature",
            "geometry": {
                "type": "Point",
                "coordinates": [
                    8.77473674,
                    53.08077289
                ]
            },
            "properties": {
                "RSU coordinates": [
                    8.7740115,
                    53.0806651
                ],
                "Distance": 49.96,
                "Frequency": 5.9,
                "RSSI": -99.63,
                "LOS": "False"
            }
        },
        {
            "type": "Feature",
            "geometry": {
                "type": "Point",
                "coordinates": [
                    8.77452952,
                    53.08034172
                ]
            },
            "properties": {
                "RSU coordinates": [
                    8.7740115,
                    53.0806651
                ],
                "Distance": 49.96,
                "Frequency": 5.9,
                "RSSI": -54.63,
                "LOS": "True"
            }
        },
        {
            "type": "Feature",
            "geometry": {
                "type": "Point",
                "coordinates": [
                    8.77463313,
                    53.08044951
                ]
            },
            "properties": {
                "RSU coordinates": [
                    8.7740115,
                    53.0806651
                ],
                "Distance": 48.0,
                "Frequency": 5.9,
                "RSSI": -54.29,
                "LOS": "True"
            }
        },
        {
            "type": "Feature",
            "geometry": {
                "type": "Point",
                "coordinates": [
                    8.77473674,
                    53.08055731
                ]
            },
            "properties": {
                "RSU coordinates": [
                    8.7740115,
                    53.0806651
                ],
                "Distance": 49.96,
                "Frequency": 5.9,
                "RSSI": -84.63,
                "LOS": "False"
            }
        },
        {
            "type": "Feature",
            "geometry": {
                "type": "Point",
                "coordinates": [
                    8.77463313,
                    53.08023393
                ]
            },
            "properties": {
                "RSU coordinates": [
                    8.7740115,
                    53.0806651
                ],
                "Distance": 63.5,
                "Frequency": 5.9,
                "RSSI": -56.69,
                "LOS": "True"
            }
        },
        {
            "type": "Feature",
            "geometry": {
                "type": "Point",
                "coordinates": [
                    8.77473673,
                    53.08034172
                ]
            },
            "properties": {
                "RSU coordinates": [
                    8.7740115,
                    53.0806651
                ],
                "Distance": 60.4,
                "Frequency": 5.9,
                "RSSI": -56.26,
                "LOS": "True"
            }
        },
        {
            "type": "Feature",
            "geometry": {
                "type": "Point",
                "coordinates": [
                    8.77484033,
                    53.08023393
                ]
            },
            "properties": {
                "RSU coordinates": [
                    8.7740115,
                    53.0806651
                ],
                "Distance": 73.32,
                "Frequency": 5.9,
                "RSSI": -57.92,
                "LOS": "True"
            }
        },
        {
            "type": "Feature",
            "geometry": {
                "type": "Point",
                "coordinates": [
                    8.77494394,
                    53.08034172
                ]
            },
            "properties": {
                "RSU coordinates": [
                    8.7740115,
                    53.0806651
                ],
                "Distance": 72.0,
                "Frequency": 5.9,
                "RSSI": -72.77000000000001,
                "LOS": "False"
            }
        },
        {
            "type": "Feature",
            "geometry": {
                "type": "Point",
                "coordinates": [
                    8.77504755,
                    53.08044951
                ]
            },
            "properties": {
                "RSU coordinates": [
                    8.7740115,
                    53.0806651
                ],
                "Distance": 73.32,
                "Frequency": 5.9,
                "RSSI": -87.92,
                "LOS": "False"
            }
        },
        {
            "type": "Feature",
            "geometry": {
                "type": "Point",
                "coordinates": [
                    8.77494394,
                    53.08012613
                ]
            },
            "properties": {
                "RSU coordinates": [
                    8.7740115,
                    53.0806651
                ],
                "Distance": 86.53,
                "Frequency": 5.9,
                "RSSI": -59.34,
                "LOS": "True"
            }
        },
        {
            "type": "Feature",
            "geometry": {
                "type": "Point",
                "coordinates": [
                    8.77504754,
                    53.08023393
                ]
            },
            "properties": {
                "RSU coordinates": [
                    8.7740115,
                    53.0806651
                ],
                "Distance": 84.29,
                "Frequency": 5.9,
                "RSSI": -59.12,
                "LOS": "True"
            }
        },
        {
            "type": "Feature",
            "geometry": {
                "type": "Point",
                "coordinates": [
                    8.77504754,
                    53.08001834
                ]
            },
            "properties": {
                "RSU coordinates": [
                    8.7740115,
                    53.0806651
                ],
                "Distance": 99.92,
                "Frequency": 5.9,
                "RSSI": -60.58,
                "LOS": "True"
            }
        },
        {
            "type": "Feature",
            "geometry": {
                "type": "Point",
                "coordinates": [
                    8.77515114,
                    53.08012613
                ]
            },
            "properties": {
                "RSU coordinates": [
                    8.7740115,
                    53.0806651
                ],
                "Distance": 96.99,
                "Frequency": 5.9,
                "RSSI": -60.32,
                "LOS": "True"
            }
        },
        {
            "type": "Feature",
            "geometry": {
                "type": "Point",
                "coordinates": [
                    8.77525474,
                    53.08001834
                ]
            },
            "properties": {
                "RSU coordinates": [
                    8.7740115,
                    53.0806651
                ],
                "Distance": 109.98,
                "Frequency": 5.9,
                "RSSI": -61.4,
                "LOS": "True"
            }
        },
        {
            "type": "Feature",
            "geometry": {
                "type": "Point",
                "coordinates": [
                    8.77535835,
                    53.08012613
                ]
            },
            "properties": {
                "RSU coordinates": [
                    8.7740115,
                    53.0806651
                ],
                "Distance": 108.22,
                "Frequency": 5.9,
                "RSSI": -76.25999999999999,
                "LOS": "False"
            }
        },
        {
            "type": "Feature",
            "geometry": {
                "type": "Point",
                "coordinates": [
                    8.77546196,
                    53.08023393
                ]
            },
            "properties": {
                "RSU coordinates": [
                    8.7740115,
                    53.0806651
                ],
                "Distance": 108.22,
                "Frequency": 5.9,
                "RSSI": -91.25999999999999,
                "LOS": "False"
            }
        },
        {
            "type": "Feature",
            "geometry": {
                "type": "Point",
                "coordinates": [
                    8.77535835,
                    53.07991054
                ]
            },
            "properties": {
                "RSU coordinates": [
                    8.7740115,
                    53.0806651
                ],
                "Distance": 123.16,
                "Frequency": 5.9,
                "RSSI": -62.37,
                "LOS": "True"
            }
        },
        {
            "type": "Feature",
            "geometry": {
                "type": "Point",
                "coordinates": [
                    8.77546195,
                    53.08001834
                ]
            },
            "properties": {
                "RSU coordinates": [
                    8.7740115,
                    53.0806651
                ],
                "Distance": 120.8,
                "Frequency": 5.9,
                "RSSI": -62.2,
                "LOS": "True"
            }
        },
        {
            "type": "Feature",
            "geometry": {
                "type": "Point",
                "coordinates": [
                    8.77556556,
                    53.08012613
                ]
            },
            "properties": {
                "RSU coordinates": [
                    8.7740115,
                    53.0806651
                ],
                "Distance": 120.0,
                "Frequency": 5.9,
                "RSSI": -92.15,
                "LOS": "False"
            }
        },
        {
            "type": "Feature",
            "geometry": {
                "type": "Point",
                "coordinates": [
                    8.77556555,
                    53.07991054
                ]
            },
            "properties": {
                "RSU coordinates": [
                    8.7740115,
                    53.0806651
                ],
                "Distance": 133.63,
                "Frequency": 5.9,
                "RSSI": -63.07,
                "LOS": "True"
            }
        },
        {
            "type": "Feature",
            "geometry": {
                "type": "Point",
                "coordinates": [
                    8.77566916,
                    53.08001834
                ]
            },
            "properties": {
                "RSU coordinates": [
                    8.7740115,
                    53.0806651
                ],
                "Distance": 132.18,
                "Frequency": 5.9,
                "RSSI": -77.97999999999999,
                "LOS": "False"
            }
        },
        {
            "type": "Feature",
            "geometry": {
                "type": "Point",
                "coordinates": [
                    8.77566915,
                    53.07980275
                ]
            },
            "properties": {
                "RSU coordinates": [
                    8.7740115,
                    53.0806651
                ],
                "Distance": 146.64,
                "Frequency": 5.9,
                "RSSI": -63.87,
                "LOS": "True"
            }
        },
        {
            "type": "Feature",
            "geometry": {
                "type": "Point",
                "coordinates": [
                    8.77577276,
                    53.07991054
                ]
            },
            "properties": {
                "RSU coordinates": [
                    8.7740115,
                    53.0806651
                ],
                "Distance": 144.67,
                "Frequency": 5.9,
                "RSSI": -63.75,
                "LOS": "True"
            }
        },
        {
            "type": "Feature",
            "geometry": {
                "type": "Point",
                "coordinates": [
                    8.77577275,
                    53.07969496
                ]
            },
            "properties": {
                "RSU coordinates": [
                    8.7740115,
                    53.0806651
                ],
                "Distance": 159.8,
                "Frequency": 5.9,
                "RSSI": -64.6,
                "LOS": "True"
            }
        },
        {
            "type": "Feature",
            "geometry": {
                "type": "Point",
                "coordinates": [
                    8.77587636,
                    53.07980275
                ]
            },
            "properties": {
                "RSU coordinates": [
                    8.7740115,
                    53.0806651
                ],
                "Distance": 157.38,
                "Frequency": 5.9,
                "RSSI": -64.47,
                "LOS": "True"
            }
        },
        {
            "type": "Feature",
            "geometry": {
                "type": "Point",
                "coordinates": [
                    8.77597996,
                    53.07969496
                ]
            },
            "properties": {
                "RSU coordinates": [
                    8.7740115,
                    53.0806651
                ],
                "Distance": 170.27,
                "Frequency": 5.9,
                "RSSI": -65.15,
                "LOS": "True"
            }
        },
        {
            "type": "Feature",
            "geometry": {
                "type": "Point",
                "coordinates": [
                    8.77608356,
                    53.07980275
                ]
            },
            "properties": {
                "RSU coordinates": [
                    8.7740115,
                    53.0806651
                ],
                "Distance": 168.57,
                "Frequency": 5.9,
                "RSSI": -65.06,
                "LOS": "True"
            }
        },
        {
            "type": "Feature",
            "geometry": {
                "type": "Point",
                "coordinates": [
                    8.77608355,
                    53.07958716
                ]
            },
            "properties": {
                "RSU coordinates": [
                    8.7740115,
                    53.0806651
                ],
                "Distance": 183.3,
                "Frequency": 5.9,
                "RSSI": -65.78,
                "LOS": "True"
            }
        },
        {
            "type": "Feature",
            "geometry": {
                "type": "Point",
                "coordinates": [
                    8.77618716,
                    53.07969496
                ]
            },
            "properties": {
                "RSU coordinates": [
                    8.7740115,
                    53.0806651
                ],
                "Distance": 181.2,
                "Frequency": 5.9,
                "RSSI": -65.68,
                "LOS": "True"
            }
        },
        {
            "type": "Feature",
            "geometry": {
                "type": "Point",
                "coordinates": [
                    8.77629076,
                    53.07958716
                ]
            },
            "properties": {
                "RSU coordinates": [
                    8.7740115,
                    53.0806651
                ],
                "Distance": 193.99,
                "Frequency": 5.9,
                "RSSI": -66.27,
                "LOS": "True"
            }
        },
        {
            "type": "Feature",
            "geometry": {
                "type": "Point",
                "coordinates": [
                    8.77639437,
                    53.07969496
                ]
            },
            "properties": {
                "RSU coordinates": [
                    8.7740115,
                    53.0806651
                ],
                "Distance": 192.5,
                "Frequency": 5.9,
                "RSSI": -81.2,
                "LOS": "False"
            }
        },
        {
            "type": "Feature",
            "geometry": {
                "type": "Point",
                "coordinates": [
                    8.77639436,
                    53.07947937
                ]
            },
            "properties": {
                "RSU coordinates": [
                    8.7740115,
                    53.0806651
                ],
                "Distance": 206.92,
                "Frequency": 5.9,
                "RSSI": -66.82,
                "LOS": "True"
            }
        },
        {
            "type": "Feature",
            "geometry": {
                "type": "Point",
                "coordinates": [
                    8.77649796,
                    53.07958716
                ]
            },
            "properties": {
                "RSU coordinates": [
                    8.7740115,
                    53.0806651
                ],
                "Distance": 205.06,
                "Frequency": 5.9,
                "RSSI": -66.74,
                "LOS": "True"
            }
        },
        {
            "type": "Feature",
            "geometry": {
                "type": "Point",
                "coordinates": [
                    8.77660156,
                    53.07947937
                ]
            },
            "properties": {
                "RSU coordinates": [
                    8.7740115,
                    53.0806651
                ],
                "Distance": 217.77,
                "Frequency": 5.9,
                "RSSI": -67.26,
                "LOS": "True"
            }
        },
        {
            "type": "Feature",
            "geometry": {
                "type": "Point",
                "coordinates": [
                    8.77670516,
                    53.07937158
                ]
            },
            "properties": {
                "RSU coordinates": [
                    8.7740115,
                    53.0806651
                ],
                "Distance": 230.62,
                "Frequency": 5.9,
                "RSSI": -67.75,
                "LOS": "True"
            }
        },
        {
            "type": "Feature",
            "geometry": {
                "type": "Point",
                "coordinates": [
                    8.77680877,
                    53.07947937
                ]
            },
            "properties": {
                "RSU coordinates": [
                    8.7740115,
                    53.0806651
                ],
                "Distance": 228.95,
                "Frequency": 5.9,
                "RSSI": -67.69,
                "LOS": "True"
            }
        },
        {
            "type": "Feature",
            "geometry": {
                "type": "Point",
                "coordinates": [
                    8.77691236,
                    53.07937158
                ]
            },
            "properties": {
                "RSU coordinates": [
                    8.7740115,
                    53.0806651
                ],
                "Distance": 241.59,
                "Frequency": 5.9,
                "RSSI": -68.15,
                "LOS": "True"
            }
        },
        {
            "type": "Feature",
            "geometry": {
                "type": "Point",
                "coordinates": [
                    8.77701596,
                    53.07926378
                ]
            },
            "properties": {
                "RSU coordinates": [
                    8.7740115,
                    53.0806651
                ],
                "Distance": 254.37,
                "Frequency": 5.9,
                "RSSI": -68.59,
                "LOS": "True"
            }
        },
        {
            "type": "Feature",
            "geometry": {
                "type": "Point",
                "coordinates": [
                    8.77711956,
                    53.07937158
                ]
            },
            "properties": {
                "RSU coordinates": [
                    8.7740115,
                    53.0806651
                ],
                "Distance": 252.86,
                "Frequency": 5.9,
                "RSSI": -68.54,
                "LOS": "True"
            }
        },
        {
            "type": "Feature",
            "geometry": {
                "type": "Point",
                "coordinates": [
                    8.77722316,
                    53.07926378
                ]
            },
            "properties": {
                "RSU coordinates": [
                    8.7740115,
                    53.0806651
                ],
                "Distance": 265.45,
                "Frequency": 5.9,
                "RSSI": -68.96,
                "LOS": "True"
            }
        },
        {
            "type": "Feature",
            "geometry": {
                "type": "Point",
                "coordinates": [
                    8.77732675,
                    53.07915599
                ]
            },
            "properties": {
                "RSU coordinates": [
                    8.7740115,
                    53.0806651
                ],
                "Distance": 278.17,
                "Frequency": 5.9,
                "RSSI": -69.36,
                "LOS": "True"
            }
        },
        {
            "type": "Feature",
            "geometry": {
                "type": "Point",
                "coordinates": [
                    8.77743036,
                    53.07926378
                ]
            },
            "properties": {
                "RSU coordinates": [
                    8.7740115,
                    53.0806651
                ],
                "Distance": 276.78,
                "Frequency": 5.9,
                "RSSI": -84.31,
                "LOS": "False"
            }
        },
        {
            "type": "Feature",
            "geometry": {
                "type": "Point",
                "coordinates": [
                    8.77743035,
                    53.0790482
                ]
            },
            "properties": {
                "RSU coordinates": [
                    8.7740115,
                    53.0806651
                ],
                "Distance": 290.98,
                "Frequency": 5.9,
                "RSSI": -99.74,
                "LOS": "False"
            }
        },
        {
            "type": "Feature",
            "geometry": {
                "type": "Point",
                "coordinates": [
                    8.77753396,
                    53.07915599
                ]
            },
            "properties": {
                "RSU coordinates": [
                    8.7740115,
                    53.0806651
                ],
                "Distance": 289.33,
                "Frequency": 5.9,
                "RSSI": -69.7,
                "LOS": "True"
            }
        },
        {
            "type": "Feature",
            "geometry": {
                "type": "Point",
                "coordinates": [
                    8.77763755,
                    53.0790482
                ]
            },
            "properties": {
                "RSU coordinates": [
                    8.7740115,
                    53.0806651
                ],
                "Distance": 301.99,
                "Frequency": 5.9,
                "RSSI": -70.06,
                "LOS": "True"
            }
        },
        {
            "type": "Feature",
            "geometry": {
                "type": "Point",
                "coordinates": [
                    8.77774114,
                    53.0789404
                ]
            },
            "properties": {
                "RSU coordinates": [
                    8.7740115,
                    53.0806651
                ],
                "Distance": 314.76,
                "Frequency": 5.9,
                "RSSI": -85.42,
                "LOS": "False"
            }
        },
        {
            "type": "Feature",
            "geometry": {
                "type": "Point",
                "coordinates": [
                    8.77784475,
                    53.0790482
                ]
            },
            "properties": {
                "RSU coordinates": [
                    8.7740115,
                    53.0806651
                ],
                "Distance": 313.23,
                "Frequency": 5.9,
                "RSSI": -70.38,
                "LOS": "True"
            }
        },
        {
            "type": "Feature",
            "geometry": {
                "type": "Point",
                "coordinates": [
                    8.77815555,
                    53.0789404
                ]
            },
            "properties": {
                "RSU coordinates": [
                    8.7740115,
                    53.0806651
                ],
                "Distance": 337.14,
                "Frequency": 5.9,
                "RSSI": -71.01,
                "LOS": "True"
            }
        },
        {
            "type": "Feature",
            "geometry": {
                "type": "Point",
                "coordinates": [
                    8.77846634,
                    53.07883261
                ]
            },
            "properties": {
                "RSU coordinates": [
                    8.7740115,
                    53.0806651
                ],
                "Distance": 361.07,
                "Frequency": 5.9,
                "RSSI": -71.59,
                "LOS": "True"
            }
        }
    ]
}