{
    "type": "FeatureCollection",
    "features": [
        {
            "type": "Feature",
            "geometry": {
                "type": "Point",
                "coordinates": [
                    8.46341904,
                    49.49200045
                ]
            },
            "properties": {
                "RSU coordinates": [
                    8.4647604,
                    49.4911381
                ],
                "Distance": 136.47,
                "Frequency": 5.9,
                "RSSI": -78.25,
                "LOS": "False"
            }
        },
        {
            "type": "Feature",
            "geometry": {
                "type": "Point",
                "coordinates": [
                    8.46351485,
                    49.49210824
                ]
            },
            "properties": {
                "RSU coordinates": [
                    8.4647604,
                    49.4911381
                ],
                "Distance": 140.63,
                "Frequency": 5.9,
                "RSSI": -93.50999999999999,
                "LOS": "False"
            }
        },
        {
            "type": "Feature",
            "geometry": {
                "type": "Point",
                "coordinates": [
                    8.46351486,
                    49.49189266
                ]
            },
            "properties": {
                "RSU coordinates": [
                    8.4647604,
                    49.4911381
                ],
                "Distance": 123.16,
                "Frequency": 5.9,
                "RSSI": -92.37,
                "LOS": "False"
            }
        },
        {
            "type": "Feature",
            "geometry": {
                "type": "Point",
                "coordinates": [
                    8.46361066,
                    49.49200045
                ]
            },
            "properties": {
                "RSU coordinates": [
                    8.4647604,
                    49.4911381
                ],
                "Distance": 127.0,
                "Frequency": 5.9,
                "RSSI": -92.63,
                "LOS": "False"
            }
        },
        {
            "type": "Feature",
            "geometry": {
                "type": "Point",
                "coordinates": [
                    8.46361067,
                    49.49178486
                ]
            },
            "properties": {
                "RSU coordinates": [
                    8.4647604,
                    49.4911381
                ],
                "Distance": 109.98,
                "Frequency": 5.9,
                "RSSI": -91.4,
                "LOS": "False"
            }
        },
        {
            "type": "Feature",
            "geometry": {
                "type": "Point",
                "coordinates": [
                    8.46370648,
                    49.49189266
                ]
            },
            "properties": {
                "RSU coordinates": [
                    8.4647604,
                    49.4911381
                ],
                "Distance": 113.42,
                "Frequency": 5.9,
                "RSSI": -91.66,
                "LOS": "False"
            }
        },
        {
            "type": "Feature",
            "geometry": {
                "type": "Point",
                "coordinates": [
                    8.46380229,
                    49.49178486
                ]
            },
            "properties": {
                "RSU coordinates": [
                    8.4647604,
                    49.4911381
                ],
                "Distance": 99.92,
                "Frequency": 5.9,
                "RSSI": -75.58,
                "LOS": "False"
            }
        },
        {
            "type": "Feature",
            "geometry": {
                "type": "Point",
                "coordinates": [
                    8.4638981,
                    49.49167707
                ]
            },
            "properties": {
                "RSU coordinates": [
                    8.4647604,
                    49.4911381
                ],
                "Distance": 86.53,
                "Frequency": 5.9,
                "RSSI": -89.34,
                "LOS": "False"
            }
        },
        {
            "type": "Feature",
            "geometry": {
                "type": "Point",
                "coordinates": [
                    8.46399391,
                    49.49178486
                ]
            },
            "properties": {
                "RSU coordinates": [
                    8.4647604,
                    49.4911381
                ],
                "Distance": 90.86,
                "Frequency": 5.9,
                "RSSI": -89.75999999999999,
                "LOS": "False"
            }
        },
        {
            "type": "Feature",
            "geometry": {
                "type": "Point",
                "coordinates": [
                    8.46399392,
                    49.49156927
                ]
            },
            "properties": {
                "RSU coordinates": [
                    8.4647604,
                    49.4911381
                ],
                "Distance": 73.32,
                "Frequency": 5.9,
                "RSSI": -87.92,
                "LOS": "False"
            }
        },
        {
            "type": "Feature",
            "geometry": {
                "type": "Point",
                "coordinates": [
                    8.46408973,
                    49.49167707
                ]
            },
            "properties": {
                "RSU coordinates": [
                    8.4647604,
                    49.4911381
                ],
                "Distance": 77.15,
                "Frequency": 5.9,
                "RSSI": -88.36,
                "LOS": "False"
            }
        },
        {
            "type": "Feature",
            "geometry": {
                "type": "Point",
                "coordinates": [
                    8.4654311,
                    49.49318618
                ]
            },
            "properties": {
                "RSU coordinates": [
                    8.4647604,
                    49.4911381
                ],
                "Distance": 233.1,
                "Frequency": 5.9,
                "RSSI": -97.84,
                "LOS": "False"
            }
        },
        {
            "type": "Feature",
            "geometry": {
                "type": "Point",
                "coordinates": [
                    8.46466459,
                    49.49210824
                ]
            },
            "properties": {
                "RSU coordinates": [
                    8.4647604,
                    49.4911381
                ],
                "Distance": 108.22,
                "Frequency": 5.9,
                "RSSI": -91.25999999999999,
                "LOS": "False"
            }
        },
        {
            "type": "Feature",
            "geometry": {
                "type": "Point",
                "coordinates": [
                    8.4647604,
                    49.49221604
                ]
            },
            "properties": {
                "RSU coordinates": [
                    8.4647604,
                    49.4911381
                ],
                "Distance": 120.0,
                "Frequency": 5.9,
                "RSSI": -92.15,
                "LOS": "False"
            }
        },
        {
            "type": "Feature",
            "geometry": {
                "type": "Point",
                "coordinates": [
                    8.46485621,
                    49.49232383
                ]
            },
            "properties": {
                "RSU coordinates": [
                    8.4647604,
                    49.4911381
                ],
                "Distance": 132.18,
                "Frequency": 5.9,
                "RSSI": -92.97999999999999,
                "LOS": "False"
            }
        },
        {
            "type": "Feature",
            "geometry": {
                "type": "Point",
                "coordinates": [
                    8.46495202,
                    49.49243162
                ]
            },
            "properties": {
                "RSU coordinates": [
                    8.4647604,
                    49.4911381
                ],
                "Distance": 144.67,
                "Frequency": 5.9,
                "RSSI": -93.75,
                "LOS": "False"
            }
        },
        {
            "type": "Feature",
            "geometry": {
                "type": "Point",
                "coordinates": [
                    8.46504784,
                    49.49253942
                ]
            },
            "properties": {
                "RSU coordinates": [
                    8.4647604,
                    49.4911381
                ],
                "Distance": 157.38,
                "Frequency": 5.9,
                "RSSI": -94.47,
                "LOS": "False"
            }
        },
        {
            "type": "Feature",
            "geometry": {
                "type": "Point",
                "coordinates": [
                    8.46514365,
                    49.49264721
                ]
            },
            "properties": {
                "RSU coordinates": [
                    8.4647604,
                    49.4911381
                ],
                "Distance": 170.27,
                "Frequency": 5.9,
                "RSSI": -95.15,
                "LOS": "False"
            }
        },
        {
            "type": "Feature",
            "geometry": {
                "type": "Point",
                "coordinates": [
                    8.46523946,
                    49.492755
                ]
            },
            "properties": {
                "RSU coordinates": [
                    8.4647604,
                    49.4911381
                ],
                "Distance": 183.3,
                "Frequency": 5.9,
                "RSSI": -95.78,
                "LOS": "False"
            }
        },
        {
            "type": "Feature",
            "geometry": {
                "type": "Point",
                "coordinates": [
                    8.46533528,
                    49.4928628
                ]
            },
            "properties": {
                "RSU coordinates": [
                    8.4647604,
                    49.4911381
                ],
                "Distance": 196.45,
                "Frequency": 5.9,
                "RSSI": -96.37,
                "LOS": "False"
            }
        },
        {
            "type": "Feature",
            "geometry": {
                "type": "Point",
                "coordinates": [
                    8.46428135,
                    49.49146148
                ]
            },
            "properties": {
                "RSU coordinates": [
                    8.4647604,
                    49.4911381
                ],
                "Distance": 49.96,
                "Frequency": 5.9,
                "RSSI": -69.63,
                "LOS": "False"
            }
        },
        {
            "type": "Feature",
            "geometry": {
                "type": "Point",
                "coordinates": [
                    8.46447297,
                    49.49167707
                ]
            },
            "properties": {
                "RSU coordinates": [
                    8.4647604,
                    49.4911381
                ],
                "Distance": 63.5,
                "Frequency": 5.9,
                "RSSI": -86.69,
                "LOS": "False"
            }
        },
        {
            "type": "Feature",
            "geometry": {
                "type": "Point",
                "coordinates": [
                    8.46456878,
                    49.49178486
                ]
            },
            "properties": {
                "RSU coordinates": [
                    8.4647604,
                    49.4911381
                ],
                "Distance": 73.32,
                "Frequency": 5.9,
                "RSSI": -87.92,
                "LOS": "False"
            }
        },
        {
            "type": "Feature",
            "geometry": {
                "type": "Point",
                "coordinates": [
                    8.46466459,
                    49.49189266
                ]
            },
            "properties": {
                "RSU coordinates": [
                    8.4647604,
                    49.4911381
                ],
                "Distance": 84.29,
                "Frequency": 5.9,
                "RSSI": -89.12,
                "LOS": "False"
            }
        },
        {
            "type": "Feature",
            "geometry": {
                "type": "Point",
                "coordinates": [
                    8.4647604,
                    49.49200045
                ]
            },
            "properties": {
                "RSU coordinates": [
                    8.4647604,
                    49.4911381
                ],
                "Distance": 96.0,
                "Frequency": 5.9,
                "RSSI": -75.22999999999999,
                "LOS": "False"
            }
        },
        {
            "type": "Feature",
            "geometry": {
                "type": "Point",
                "coordinates": [
                    8.46437716,
                    49.49135369
                ]
            },
            "properties": {
                "RSU coordinates": [
                    8.4647604,
                    49.4911381
                ],
                "Distance": 36.66,
                "Frequency": 5.9,
                "RSSI": -81.97999999999999,
                "LOS": "False"
            }
        },
        {
            "type": "Feature",
            "geometry": {
                "type": "Point",
                "coordinates": [
                    8.46456878,
                    49.49156927
                ]
            },
            "properties": {
                "RSU coordinates": [
                    8.4647604,
                    49.4911381
                ],
                "Distance": 49.96,
                "Frequency": 5.9,
                "RSSI": -84.63,
                "LOS": "False"
            }
        },
        {
            "type": "Feature",
            "geometry": {
                "type": "Point",
                "coordinates": [
                    8.46466459,
                    49.49167707
                ]
            },
            "properties": {
                "RSU coordinates": [
                    8.4647604,
                    49.4911381
                ],
                "Distance": 60.4,
                "Frequency": 5.9,
                "RSSI": -86.25999999999999,
                "LOS": "False"
            }
        },
        {
            "type": "Feature",
            "geometry": {
                "type": "Point",
                "coordinates": [
                    8.4647604,
                    49.49178486
                ]
            },
            "properties": {
                "RSU coordinates": [
                    8.4647604,
                    49.4911381
                ],
                "Distance": 72.0,
                "Frequency": 5.9,
                "RSSI": -72.77000000000001,
                "LOS": "False"
            }
        },
        {
            "type": "Feature",
            "geometry": {
                "type": "Point",
                "coordinates": [
                    8.46485621,
                    49.49189266
                ]
            },
            "properties": {
                "RSU coordinates": [
                    8.4647604,
                    49.4911381
                ],
                "Distance": 84.29,
                "Frequency": 5.9,
                "RSSI": -74.12,
                "LOS": "False"
            }
        },
        {
            "type": "Feature",
            "geometry": {
                "type": "Point",
                "coordinates": [
                    8.4655269,
                    49.49264721
                ]
            },
            "properties": {
                "RSU coordinates": [
                    8.4647604,
                    49.4911381
                ],
                "Distance": 176.91,
                "Frequency": 5.9,
                "RSSI": -95.48,
                "LOS": "False"
            }
        },
        {
            "type": "Feature",
            "geometry": {
                "type": "Point",
                "coordinates": [
                    8.46418554,
                    49.49092251
                ]
            },
            "properties": {
                "RSU coordinates": [
                    8.4647604,
                    49.4911381
                ],
                "Distance": 48.0,
                "Frequency": 5.9,
                "RSSI": -84.28999999999999,
                "LOS": "False"
            }
        },
        {
            "type": "Feature",
            "geometry": {
                "type": "Point",
                "coordinates": [
                    8.46456878,
                    49.49135369
                ]
            },
            "properties": {
                "RSU coordinates": [
                    8.4647604,
                    49.4911381
                ],
                "Distance": 27.71,
                "Frequency": 5.9,
                "RSSI": -64.58,
                "LOS": "False"
            }
        },
        {
            "type": "Feature",
            "geometry": {
                "type": "Point",
                "coordinates": [
                    8.4647604,
                    49.49156927
                ]
            },
            "properties": {
                "RSU coordinates": [
                    8.4647604,
                    49.4911381
                ],
                "Distance": 48.0,
                "Frequency": 5.9,
                "RSSI": -69.28999999999999,
                "LOS": "False"
            }
        },
        {
            "type": "Feature",
            "geometry": {
                "type": "Point",
                "coordinates": [
                    8.46485621,
                    49.49167707
                ]
            },
            "properties": {
                "RSU coordinates": [
                    8.4647604,
                    49.4911381
                ],
                "Distance": 60.4,
                "Frequency": 5.9,
                "RSSI": -71.25999999999999,
                "LOS": "False"
            }
        },
        {
            "type": "Feature",
            "geometry": {
                "type": "Point",
                "coordinates": [
                    8.46495202,
                    49.49178486
                ]
            },
            "properties": {
                "RSU coordinates": [
                    8.4647604,
                    49.4911381
                ],
                "Distance": 73.32,
                "Frequency": 5.9,
                "RSSI": -72.92,
                "LOS": "False"
            }
        },
        {
            "type": "Feature",
            "geometry": {
                "type": "Point",
                "coordinates": [
                    8.46562271,
                    49.49253942
                ]
            },
            "properties": {
                "RSU coordinates": [
                    8.4647604,
                    49.4911381
                ],
                "Distance": 168.0,
                "Frequency": 5.9,
                "RSSI": -95.03,
                "LOS": "False"
            }
        },
        {
            "type": "Feature",
            "geometry": {
                "type": "Point",
                "coordinates": [
                    8.46121572,
                    49.48736532
                ]
            },
            "properties": {
                "RSU coordinates": [
                    8.4647604,
                    49.4911381
                ],
                "Distance": 492.05,
                "Frequency": 5.9,
                "RSSI": -89.25,
                "LOS": "False"
            }
        },
        {
            "type": "Feature",
            "geometry": {
                "type": "Point",
                "coordinates": [
                    8.46131151,
                    49.48747312
                ]
            },
            "properties": {
                "RSU coordinates": [
                    8.4647604,
                    49.4911381
                ],
                "Distance": 478.2,
                "Frequency": 5.9,
                "RSSI": -89.0,
                "LOS": "False"
            }
        },
        {
            "type": "Feature",
            "geometry": {
                "type": "Point",
                "coordinates": [
                    8.46140731,
                    49.48758091
                ]
            },
            "properties": {
                "RSU coordinates": [
                    8.4647604,
                    49.4911381
                ],
                "Distance": 464.34,
                "Frequency": 5.9,
                "RSSI": -88.75,
                "LOS": "False"
            }
        },
        {
            "type": "Feature",
            "geometry": {
                "type": "Point",
                "coordinates": [
                    8.46169469,
                    49.48790429
                ]
            },
            "properties": {
                "RSU coordinates": [
                    8.4647604,
                    49.4911381
                ],
                "Distance": 422.79,
                "Frequency": 5.9,
                "RSSI": -72.95,
                "LOS": "True"
            }
        },
        {
            "type": "Feature",
            "geometry": {
                "type": "Point",
                "coordinates": [
                    8.46179049,
                    49.48801209
                ]
            },
            "properties": {
                "RSU coordinates": [
                    8.4647604,
                    49.4911381
                ],
                "Distance": 408.94,
                "Frequency": 5.9,
                "RSSI": -72.66,
                "LOS": "True"
            }
        },
        {
            "type": "Feature",
            "geometry": {
                "type": "Point",
                "coordinates": [
                    8.46188629,
                    49.48811988
                ]
            },
            "properties": {
                "RSU coordinates": [
                    8.4647604,
                    49.4911381
                ],
                "Distance": 395.09,
                "Frequency": 5.9,
                "RSSI": -72.37,
                "LOS": "True"
            }
        },
        {
            "type": "Feature",
            "geometry": {
                "type": "Point",
                "coordinates": [
                    8.46198209,
                    49.48822767
                ]
            },
            "properties": {
                "RSU coordinates": [
                    8.4647604,
                    49.4911381
                ],
                "Distance": 381.24,
                "Frequency": 5.9,
                "RSSI": -72.06,
                "LOS": "True"
            }
        },
        {
            "type": "Feature",
            "geometry": {
                "type": "Point",
                "coordinates": [
                    8.46207788,
                    49.48833547
                ]
            },
            "properties": {
                "RSU coordinates": [
                    8.4647604,
                    49.4911381
                ],
                "Distance": 367.39,
                "Frequency": 5.9,
                "RSSI": -71.74,
                "LOS": "True"
            }
        },
        {
            "type": "Feature",
            "geometry": {
                "type": "Point",
                "coordinates": [
                    8.46217368,
                    49.48844326
                ]
            },
            "properties": {
                "RSU coordinates": [
                    8.4647604,
                    49.4911381
                ],
                "Distance": 353.54,
                "Frequency": 5.9,
                "RSSI": -71.41,
                "LOS": "True"
            }
        },
        {
            "type": "Feature",
            "geometry": {
                "type": "Point",
                "coordinates": [
                    8.46226948,
                    49.48855105
                ]
            },
            "properties": {
                "RSU coordinates": [
                    8.4647604,
                    49.4911381
                ],
                "Distance": 339.69,
                "Frequency": 5.9,
                "RSSI": -86.07,
                "LOS": "False"
            }
        },
        {
            "type": "Feature",
            "geometry": {
                "type": "Point",
                "coordinates": [
                    8.46236528,
                    49.48865885
                ]
            },
            "properties": {
                "RSU coordinates": [
                    8.4647604,
                    49.4911381
                ],
                "Distance": 325.85,
                "Frequency": 5.9,
                "RSSI": -85.71,
                "LOS": "False"
            }
        },
        {
            "type": "Feature",
            "geometry": {
                "type": "Point",
                "coordinates": [
                    8.46246108,
                    49.48876664
                ]
            },
            "properties": {
                "RSU coordinates": [
                    8.4647604,
                    49.4911381
                ],
                "Distance": 312.0,
                "Frequency": 5.9,
                "RSSI": -85.34,
                "LOS": "False"
            }
        },
        {
            "type": "Feature",
            "geometry": {
                "type": "Point",
                "coordinates": [
                    8.46255688,
                    49.48887443
                ]
            },
            "properties": {
                "RSU coordinates": [
                    8.4647604,
                    49.4911381
                ],
                "Distance": 298.15,
                "Frequency": 5.9,
                "RSSI": -99.95,
                "LOS": "False"
            }
        },
        {
            "type": "Feature",
            "geometry": {
                "type": "Point",
                "coordinates": [
                    8.46466459,
                    49.49124589
                ]
            },
            "properties": {
                "RSU coordinates": [
                    8.4647604,
                    49.4911381
                ],
                "Distance": 13.86,
                "Frequency": 5.9,
                "RSSI": -58.63,
                "LOS": "False"
            }
        },
        {
            "type": "Feature",
            "geometry": {
                "type": "Point",
                "coordinates": [
                    8.46495202,
                    49.49156927
                ]
            },
            "properties": {
                "RSU coordinates": [
                    8.4647604,
                    49.4911381
                ],
                "Distance": 49.96,
                "Frequency": 5.9,
                "RSSI": -69.63,
                "LOS": "False"
            }
        },
        {
            "type": "Feature",
            "geometry": {
                "type": "Point",
                "coordinates": [
                    8.46504783,
                    49.49167707
                ]
            },
            "properties": {
                "RSU coordinates": [
                    8.4647604,
                    49.4911381
                ],
                "Distance": 63.5,
                "Frequency": 5.9,
                "RSSI": -71.69,
                "LOS": "False"
            }
        },
        {
            "type": "Feature",
            "geometry": {
                "type": "Point",
                "coordinates": [
                    8.46514364,
                    49.49178486
                ]
            },
            "properties": {
                "RSU coordinates": [
                    8.4647604,
                    49.4911381
                ],
                "Distance": 77.15,
                "Frequency": 5.9,
                "RSSI": -73.36,
                "LOS": "False"
            }
        },
        {
            "type": "Feature",
            "geometry": {
                "type": "Point",
                "coordinates": [
                    8.46523946,
                    49.49189266
                ]
            },
            "properties": {
                "RSU coordinates": [
                    8.4647604,
                    49.4911381
                ],
                "Distance": 90.86,
                "Frequency": 5.9,
                "RSSI": -74.75999999999999,
                "LOS": "False"
            }
        },
        {
            "type": "Feature",
            "geometry": {
                "type": "Point",
                "coordinates": [
                    8.46533527,
                    49.49200045
                ]
            },
            "properties": {
                "RSU coordinates": [
                    8.4647604,
                    49.4911381
                ],
                "Distance": 104.61,
                "Frequency": 5.9,
                "RSSI": -75.97,
                "LOS": "False"
            }
        },
        {
            "type": "Feature",
            "geometry": {
                "type": "Point",
                "coordinates": [
                    8.46581434,
                    49.49253942
                ]
            },
            "properties": {
                "RSU coordinates": [
                    8.4647604,
                    49.4911381
                ],
                "Distance": 173.62,
                "Frequency": 5.9,
                "RSSI": -95.32,
                "LOS": "False"
            }
        },
        {
            "type": "Feature",
            "geometry": {
                "type": "Point",
                "coordinates": [
                    8.46600597,
                    49.492755
                ]
            },
            "properties": {
                "RSU coordinates": [
                    8.4647604,
                    49.4911381
                ],
                "Distance": 201.28,
                "Frequency": 5.9,
                "RSSI": -96.58,
                "LOS": "False"
            }
        },
        {
            "type": "Feature",
            "geometry": {
                "type": "Point",
                "coordinates": [
                    8.46610178,
                    49.4928628
                ]
            },
            "properties": {
                "RSU coordinates": [
                    8.4647604,
                    49.4911381
                ],
                "Distance": 215.11,
                "Frequency": 5.9,
                "RSSI": -97.15,
                "LOS": "False"
            }
        },
        {
            "type": "Feature",
            "geometry": {
                "type": "Point",
                "coordinates": [
                    8.46217369,
                    49.48822767
                ]
            },
            "properties": {
                "RSU coordinates": [
                    8.4647604,
                    49.4911381
                ],
                "Distance": 374.12,
                "Frequency": 5.9,
                "RSSI": -71.9,
                "LOS": "True"
            }
        },
        {
            "type": "Feature",
            "geometry": {
                "type": "Point",
                "coordinates": [
                    8.46226949,
                    49.48833547
                ]
            },
            "properties": {
                "RSU coordinates": [
                    8.4647604,
                    49.4911381
                ],
                "Distance": 360.27,
                "Frequency": 5.9,
                "RSSI": -71.58,
                "LOS": "True"
            }
        },
        {
            "type": "Feature",
            "geometry": {
                "type": "Point",
                "coordinates": [
                    8.46236529,
                    49.48844326
                ]
            },
            "properties": {
                "RSU coordinates": [
                    8.4647604,
                    49.4911381
                ],
                "Distance": 346.41,
                "Frequency": 5.9,
                "RSSI": -71.24,
                "LOS": "True"
            }
        },
        {
            "type": "Feature",
            "geometry": {
                "type": "Point",
                "coordinates": [
                    8.46246109,
                    49.48855105
                ]
            },
            "properties": {
                "RSU coordinates": [
                    8.4647604,
                    49.4911381
                ],
                "Distance": 332.55,
                "Frequency": 5.9,
                "RSSI": -70.89,
                "LOS": "True"
            }
        },
        {
            "type": "Feature",
            "geometry": {
                "type": "Point",
                "coordinates": [
                    8.46255689,
                    49.48865885
                ]
            },
            "properties": {
                "RSU coordinates": [
                    8.4647604,
                    49.4911381
                ],
                "Distance": 318.7,
                "Frequency": 5.9,
                "RSSI": -70.52,
                "LOS": "True"
            }
        },
        {
            "type": "Feature",
            "geometry": {
                "type": "Point",
                "coordinates": [
                    8.46265269,
                    49.48876664
                ]
            },
            "properties": {
                "RSU coordinates": [
                    8.4647604,
                    49.4911381
                ],
                "Distance": 304.84,
                "Frequency": 5.9,
                "RSSI": -70.14,
                "LOS": "True"
            }
        },
        {
            "type": "Feature",
            "geometry": {
                "type": "Point",
                "coordinates": [
                    8.46274849,
                    49.48887443
                ]
            },
            "properties": {
                "RSU coordinates": [
                    8.4647604,
                    49.4911381
                ],
                "Distance": 290.98,
                "Frequency": 5.9,
                "RSSI": -69.74,
                "LOS": "True"
            }
        },
        {
            "type": "Feature",
            "geometry": {
                "type": "Point",
                "coordinates": [
                    8.46284429,
                    49.48898223
                ]
            },
            "properties": {
                "RSU coordinates": [
                    8.4647604,
                    49.4911381
                ],
                "Distance": 277.13,
                "Frequency": 5.9,
                "RSSI": -69.33,
                "LOS": "True"
            }
        },
        {
            "type": "Feature",
            "geometry": {
                "type": "Point",
                "coordinates": [
                    8.46294009,
                    49.48909002
                ]
            },
            "properties": {
                "RSU coordinates": [
                    8.4647604,
                    49.4911381
                ],
                "Distance": 263.27,
                "Frequency": 5.9,
                "RSSI": -68.89,
                "LOS": "True"
            }
        },
        {
            "type": "Feature",
            "geometry": {
                "type": "Point",
                "coordinates": [
                    8.46303589,
                    49.48919782
                ]
            },
            "properties": {
                "RSU coordinates": [
                    8.4647604,
                    49.4911381
                ],
                "Distance": 249.42,
                "Frequency": 5.9,
                "RSSI": -68.42,
                "LOS": "True"
            }
        },
        {
            "type": "Feature",
            "geometry": {
                "type": "Point",
                "coordinates": [
                    8.4631317,
                    49.48930561
                ]
            },
            "properties": {
                "RSU coordinates": [
                    8.4647604,
                    49.4911381
                ],
                "Distance": 235.56,
                "Frequency": 5.9,
                "RSSI": -67.93,
                "LOS": "True"
            }
        },
        {
            "type": "Feature",
            "geometry": {
                "type": "Point",
                "coordinates": [
                    8.4632275,
                    49.4894134
                ]
            },
            "properties": {
                "RSU coordinates": [
                    8.4647604,
                    49.4911381
                ],
                "Distance": 221.7,
                "Frequency": 5.9,
                "RSSI": -67.41,
                "LOS": "True"
            }
        },
        {
            "type": "Feature",
            "geometry": {
                "type": "Point",
                "coordinates": [
                    8.4633233,
                    49.4895212
                ]
            },
            "properties": {
                "RSU coordinates": [
                    8.4647604,
                    49.4911381
                ],
                "Distance": 207.85,
                "Frequency": 5.9,
                "RSSI": -66.86,
                "LOS": "True"
            }
        },
        {
            "type": "Feature",
            "geometry": {
                "type": "Point",
                "coordinates": [
                    8.46341911,
                    49.48962899
                ]
            },
            "properties": {
                "RSU coordinates": [
                    8.4647604,
                    49.4911381
                ],
                "Distance": 193.99,
                "Frequency": 5.9,
                "RSSI": -66.27,
                "LOS": "True"
            }
        },
        {
            "type": "Feature",
            "geometry": {
                "type": "Point",
                "coordinates": [
                    8.46351491,
                    49.48973678
                ]
            },
            "properties": {
                "RSU coordinates": [
                    8.4647604,
                    49.4911381
                ],
                "Distance": 180.13,
                "Frequency": 5.9,
                "RSSI": -65.63,
                "LOS": "True"
            }
        },
        {
            "type": "Feature",
            "geometry": {
                "type": "Point",
                "coordinates": [
                    8.46361071,
                    49.48984458
                ]
            },
            "properties": {
                "RSU coordinates": [
                    8.4647604,
                    49.4911381
                ],
                "Distance": 166.28,
                "Frequency": 5.9,
                "RSSI": -64.94,
                "LOS": "True"
            }
        },
        {
            "type": "Feature",
            "geometry": {
                "type": "Point",
                "coordinates": [
                    8.46370652,
                    49.48995237
                ]
            },
            "properties": {
                "RSU coordinates": [
                    8.4647604,
                    49.4911381
                ],
                "Distance": 152.42,
                "Frequency": 5.9,
                "RSSI": -64.2,
                "LOS": "True"
            }
        },
        {
            "type": "Feature",
            "geometry": {
                "type": "Point",
                "coordinates": [
                    8.46380232,
                    49.49006016
                ]
            },
            "properties": {
                "RSU coordinates": [
                    8.4647604,
                    49.4911381
                ],
                "Distance": 138.56,
                "Frequency": 5.9,
                "RSSI": -63.38,
                "LOS": "True"
            }
        },
        {
            "type": "Feature",
            "geometry": {
                "type": "Point",
                "coordinates": [
                    8.46389813,
                    49.49016796
                ]
            },
            "properties": {
                "RSU coordinates": [
                    8.4647604,
                    49.4911381
                ],
                "Distance": 124.71,
                "Frequency": 5.9,
                "RSSI": -62.48,
                "LOS": "True"
            }
        },
        {
            "type": "Feature",
            "geometry": {
                "type": "Point",
                "coordinates": [
                    8.46399394,
                    49.49027575
                ]
            },
            "properties": {
                "RSU coordinates": [
                    8.4647604,
                    49.4911381
                ],
                "Distance": 110.85,
                "Frequency": 5.9,
                "RSSI": -61.47,
                "LOS": "True"
            }
        },
        {
            "type": "Feature",
            "geometry": {
                "type": "Point",
                "coordinates": [
                    8.46408974,
                    49.49038354
                ]
            },
            "properties": {
                "RSU coordinates": [
                    8.4647604,
                    49.4911381
                ],
                "Distance": 96.99,
                "Frequency": 5.9,
                "RSSI": -60.32,
                "LOS": "True"
            }
        },
        {
            "type": "Feature",
            "geometry": {
                "type": "Point",
                "coordinates": [
                    8.46418555,
                    49.49049134
                ]
            },
            "properties": {
                "RSU coordinates": [
                    8.4647604,
                    49.4911381
                ],
                "Distance": 83.14,
                "Frequency": 5.9,
                "RSSI": -59.0,
                "LOS": "True"
            }
        },
        {
            "type": "Feature",
            "geometry": {
                "type": "Point",
                "coordinates": [
                    8.46428136,
                    49.49059913
                ]
            },
            "properties": {
                "RSU coordinates": [
                    8.4647604,
                    49.4911381
                ],
                "Distance": 69.28,
                "Frequency": 5.9,
                "RSSI": -57.44,
                "LOS": "True"
            }
        },
        {
            "type": "Feature",
            "geometry": {
                "type": "Point",
                "coordinates": [
                    8.46437716,
                    49.49070693
                ]
            },
            "properties": {
                "RSU coordinates": [
                    8.4647604,
                    49.4911381
                ],
                "Distance": 55.43,
                "Frequency": 5.9,
                "RSSI": -55.52,
                "LOS": "True"
            }
        },
        {
            "type": "Feature",
            "geometry": {
                "type": "Point",
                "coordinates": [
                    8.46447297,
                    49.49081472
                ]
            },
            "properties": {
                "RSU coordinates": [
                    8.4647604,
                    49.4911381
                ],
                "Distance": 41.57,
                "Frequency": 5.9,
                "RSSI": -53.06,
                "LOS": "True"
            }
        },
        {
            "type": "Feature",
            "geometry": {
                "type": "Point",
                "coordinates": [
                    8.46456878,
                    49.49092251
                ]
            },
            "properties": {
                "RSU coordinates": [
                    8.4647604,
                    49.4911381
                ],
                "Distance": 27.71,
                "Frequency": 5.9,
                "RSSI": -49.58,
                "LOS": "True"
            }
        },
        {
            "type": "Feature",
            "geometry": {
                "type": "Point",
                "coordinates": [
                    8.46466459,
                    49.49103031
                ]
            },
            "properties": {
                "RSU coordinates": [
                    8.4647604,
                    49.4911381
                ],
                "Distance": 13.86,
                "Frequency": 5.9,
                "RSSI": -43.63,
                "LOS": "True"
            }
        },
        {
            "type": "Feature",
            "geometry": {
                "type": "Point",
                "coordinates": [
                    8.46485621,
                    49.49124589
                ]
            },
            "properties": {
                "RSU coordinates": [
                    8.4647604,
                    49.4911381
                ],
                "Distance": 13.86,
                "Frequency": 5.9,
                "RSSI": -43.63,
                "LOS": "True"
            }
        },
        {
            "type": "Feature",
            "geometry": {
                "type": "Point",
                "coordinates": [
                    8.46495202,
                    49.49135369
                ]
            },
            "properties": {
                "RSU coordinates": [
                    8.4647604,
                    49.4911381
                ],
                "Distance": 27.71,
                "Frequency": 5.9,
                "RSSI": -49.58,
                "LOS": "True"
            }
        },
        {
            "type": "Feature",
            "geometry": {
                "type": "Point",
                "coordinates": [
                    8.46504783,
                    49.49146148
                ]
            },
            "properties": {
                "RSU coordinates": [
                    8.4647604,
                    49.4911381
                ],
                "Distance": 41.57,
                "Frequency": 5.9,
                "RSSI": -53.06,
                "LOS": "True"
            }
        },
        {
            "type": "Feature",
            "geometry": {
                "type": "Point",
                "coordinates": [
                    8.46514364,
                    49.49156927
                ]
            },
            "properties": {
                "RSU coordinates": [
                    8.4647604,
                    49.4911381
                ],
                "Distance": 55.43,
                "Frequency": 5.9,
                "RSSI": -55.52,
                "LOS": "True"
            }
        },
        {
            "type": "Feature",
            "geometry": {
                "type": "Point",
                "coordinates": [
                    8.46523945,
                    49.49167707
                ]
            },
            "properties": {
                "RSU coordinates": [
                    8.4647604,
                    49.4911381
                ],
                "Distance": 69.28,
                "Frequency": 5.9,
                "RSSI": -57.44,
                "LOS": "True"
            }
        },
        {
            "type": "Feature",
            "geometry": {
                "type": "Point",
                "coordinates": [
                    8.46533527,
                    49.49178486
                ]
            },
            "properties": {
                "RSU coordinates": [
                    8.4647604,
                    49.4911381
                ],
                "Distance": 83.14,
                "Frequency": 5.9,
                "RSSI": -59.0,
                "LOS": "True"
            }
        },
        {
            "type": "Feature",
            "geometry": {
                "type": "Point",
                "coordinates": [
                    8.46543108,
                    49.49189266
                ]
            },
            "properties": {
                "RSU coordinates": [
                    8.4647604,
                    49.4911381
                ],
                "Distance": 96.99,
                "Frequency": 5.9,
                "RSSI": -60.32,
                "LOS": "True"
            }
        },
        {
            "type": "Feature",
            "geometry": {
                "type": "Point",
                "coordinates": [
                    8.46552689,
                    49.49200045
                ]
            },
            "properties": {
                "RSU coordinates": [
                    8.4647604,
                    49.4911381
                ],
                "Distance": 110.85,
                "Frequency": 5.9,
                "RSSI": -61.47,
                "LOS": "True"
            }
        },
        {
            "type": "Feature",
            "geometry": {
                "type": "Point",
                "coordinates": [
                    8.46591015,
                    49.49243162
                ]
            },
            "properties": {
                "RSU coordinates": [
                    8.4647604,
                    49.4911381
                ],
                "Distance": 166.28,
                "Frequency": 5.9,
                "RSSI": -79.94,
                "LOS": "False"
            }
        },
        {
            "type": "Feature",
            "geometry": {
                "type": "Point",
                "coordinates": [
                    8.46619759,
                    49.492755
                ]
            },
            "properties": {
                "RSU coordinates": [
                    8.4647604,
                    49.4911381
                ],
                "Distance": 207.85,
                "Frequency": 5.9,
                "RSSI": -96.86,
                "LOS": "False"
            }
        },
        {
            "type": "Feature",
            "geometry": {
                "type": "Point",
                "coordinates": [
                    8.46629341,
                    49.4928628
                ]
            },
            "properties": {
                "RSU coordinates": [
                    8.4647604,
                    49.4911381
                ],
                "Distance": 221.7,
                "Frequency": 5.9,
                "RSSI": -97.41,
                "LOS": "False"
            }
        },
        {
            "type": "Feature",
            "geometry": {
                "type": "Point",
                "coordinates": [
                    8.46638923,
                    49.49297059
                ]
            },
            "properties": {
                "RSU coordinates": [
                    8.4647604,
                    49.4911381
                ],
                "Distance": 235.56,
                "Frequency": 5.9,
                "RSSI": -97.93,
                "LOS": "False"
            }
        },
        {
            "type": "Feature",
            "geometry": {
                "type": "Point",
                "coordinates": [
                    8.46648504,
                    49.49307838
                ]
            },
            "properties": {
                "RSU coordinates": [
                    8.4647604,
                    49.4911381
                ],
                "Distance": 249.42,
                "Frequency": 5.9,
                "RSSI": -98.42,
                "LOS": "False"
            }
        },
        {
            "type": "Feature",
            "geometry": {
                "type": "Point",
                "coordinates": [
                    8.46658086,
                    49.49318618
                ]
            },
            "properties": {
                "RSU coordinates": [
                    8.4647604,
                    49.4911381
                ],
                "Distance": 263.27,
                "Frequency": 5.9,
                "RSSI": -98.89,
                "LOS": "False"
            }
        },
        {
            "type": "Feature",
            "geometry": {
                "type": "Point",
                "coordinates": [
                    8.46667668,
                    49.49329397
                ]
            },
            "properties": {
                "RSU coordinates": [
                    8.4647604,
                    49.4911381
                ],
                "Distance": 277.13,
                "Frequency": 5.9,
                "RSSI": -99.33,
                "LOS": "False"
            }
        },
        {
            "type": "Feature",
            "geometry": {
                "type": "Point",
                "coordinates": [
                    8.4667725,
                    49.49340177
                ]
            },
            "properties": {
                "RSU coordinates": [
                    8.4647604,
                    49.4911381
                ],
                "Distance": 290.98,
                "Frequency": 5.9,
                "RSSI": -99.74,
                "LOS": "False"
            }
        },
        {
            "type": "Feature",
            "geometry": {
                "type": "Point",
                "coordinates": [
                    8.46418555,
                    49.49027575
                ]
            },
            "properties": {
                "RSU coordinates": [
                    8.4647604,
                    49.4911381
                ],
                "Distance": 104.61,
                "Frequency": 5.9,
                "RSSI": -60.97,
                "LOS": "True"
            }
        },
        {
            "type": "Feature",
            "geometry": {
                "type": "Point",
                "coordinates": [
                    8.46428136,
                    49.49038354
                ]
            },
            "properties": {
                "RSU coordinates": [
                    8.4647604,
                    49.4911381
                ],
                "Distance": 90.86,
                "Frequency": 5.9,
                "RSSI": -59.76,
                "LOS": "True"
            }
        },
        {
            "type": "Feature",
            "geometry": {
                "type": "Point",
                "coordinates": [
                    8.46437717,
                    49.49049134
                ]
            },
            "properties": {
                "RSU coordinates": [
                    8.4647604,
                    49.4911381
                ],
                "Distance": 77.15,
                "Frequency": 5.9,
                "RSSI": -73.36,
                "LOS": "False"
            }
        },
        {
            "type": "Feature",
            "geometry": {
                "type": "Point",
                "coordinates": [
                    8.46447297,
                    49.49059913
                ]
            },
            "properties": {
                "RSU coordinates": [
                    8.4647604,
                    49.4911381
                ],
                "Distance": 63.5,
                "Frequency": 5.9,
                "RSSI": -71.69,
                "LOS": "False"
            }
        },
        {
            "type": "Feature",
            "geometry": {
                "type": "Point",
                "coordinates": [
                    8.46466459,
                    49.49081472
                ]
            },
            "properties": {
                "RSU coordinates": [
                    8.4647604,
                    49.4911381
                ],
                "Distance": 36.66,
                "Frequency": 5.9,
                "RSSI": -66.97999999999999,
                "LOS": "False"
            }
        },
        {
            "type": "Feature",
            "geometry": {
                "type": "Point",
                "coordinates": [
                    8.46485621,
                    49.49103031
                ]
            },
            "properties": {
                "RSU coordinates": [
                    8.4647604,
                    49.4911381
                ],
                "Distance": 13.86,
                "Frequency": 5.9,
                "RSSI": -58.63,
                "LOS": "False"
            }
        },
        {
            "type": "Feature",
            "geometry": {
                "type": "Point",
                "coordinates": [
                    8.46495202,
                    49.4911381
                ]
            },
            "properties": {
                "RSU coordinates": [
                    8.4647604,
                    49.4911381
                ],
                "Distance": 13.86,
                "Frequency": 5.9,
                "RSSI": -43.63,
                "LOS": "True"
            }
        },
        {
            "type": "Feature",
            "geometry": {
                "type": "Point",
                "coordinates": [
                    8.46523945,
                    49.49146148
                ]
            },
            "properties": {
                "RSU coordinates": [
                    8.4647604,
                    49.4911381
                ],
                "Distance": 49.96,
                "Frequency": 5.9,
                "RSSI": -69.63,
                "LOS": "False"
            }
        },
        {
            "type": "Feature",
            "geometry": {
                "type": "Point",
                "coordinates": [
                    8.46533526,
                    49.49156927
                ]
            },
            "properties": {
                "RSU coordinates": [
                    8.4647604,
                    49.4911381
                ],
                "Distance": 63.5,
                "Frequency": 5.9,
                "RSSI": -56.69,
                "LOS": "True"
            }
        },
        {
            "type": "Feature",
            "geometry": {
                "type": "Point",
                "coordinates": [
                    8.46543107,
                    49.49167707
                ]
            },
            "properties": {
                "RSU coordinates": [
                    8.4647604,
                    49.4911381
                ],
                "Distance": 77.15,
                "Frequency": 5.9,
                "RSSI": -73.36,
                "LOS": "False"
            }
        },
        {
            "type": "Feature",
            "geometry": {
                "type": "Point",
                "coordinates": [
                    8.46552689,
                    49.49178486
                ]
            },
            "properties": {
                "RSU coordinates": [
                    8.4647604,
                    49.4911381
                ],
                "Distance": 90.86,
                "Frequency": 5.9,
                "RSSI": -74.75999999999999,
                "LOS": "False"
            }
        },
        {
            "type": "Feature",
            "geometry": {
                "type": "Point",
                "coordinates": [
                    8.4656227,
                    49.49189266
                ]
            },
            "properties": {
                "RSU coordinates": [
                    8.4647604,
                    49.4911381
                ],
                "Distance": 104.61,
                "Frequency": 5.9,
                "RSSI": -60.97,
                "LOS": "True"
            }
        },
        {
            "type": "Feature",
            "geometry": {
                "type": "Point",
                "coordinates": [
                    8.46571851,
                    49.49200045
                ]
            },
            "properties": {
                "RSU coordinates": [
                    8.4647604,
                    49.4911381
                ],
                "Distance": 118.39,
                "Frequency": 5.9,
                "RSSI": -62.03,
                "LOS": "True"
            }
        },
        {
            "type": "Feature",
            "geometry": {
                "type": "Point",
                "coordinates": [
                    8.46581433,
                    49.49210824
                ]
            },
            "properties": {
                "RSU coordinates": [
                    8.4647604,
                    49.4911381
                ],
                "Distance": 132.18,
                "Frequency": 5.9,
                "RSSI": -77.97999999999999,
                "LOS": "False"
            }
        },
        {
            "type": "Feature",
            "geometry": {
                "type": "Point",
                "coordinates": [
                    8.46600596,
                    49.49232383
                ]
            },
            "properties": {
                "RSU coordinates": [
                    8.4647604,
                    49.4911381
                ],
                "Distance": 159.8,
                "Frequency": 5.9,
                "RSSI": -79.6,
                "LOS": "False"
            }
        },
        {
            "type": "Feature",
            "geometry": {
                "type": "Point",
                "coordinates": [
                    8.46648503,
                    49.4928628
                ]
            },
            "properties": {
                "RSU coordinates": [
                    8.4647604,
                    49.4911381
                ],
                "Distance": 228.95,
                "Frequency": 5.9,
                "RSSI": -82.69,
                "LOS": "False"
            }
        },
        {
            "type": "Feature",
            "geometry": {
                "type": "Point",
                "coordinates": [
                    8.46658085,
                    49.49297059
                ]
            },
            "properties": {
                "RSU coordinates": [
                    8.4647604,
                    49.4911381
                ],
                "Distance": 242.78,
                "Frequency": 5.9,
                "RSSI": -83.19,
                "LOS": "False"
            }
        },
        {
            "type": "Feature",
            "geometry": {
                "type": "Point",
                "coordinates": [
                    8.46667667,
                    49.49307838
                ]
            },
            "properties": {
                "RSU coordinates": [
                    8.4647604,
                    49.4911381
                ],
                "Distance": 256.62,
                "Frequency": 5.9,
                "RSSI": -83.67,
                "LOS": "False"
            }
        },
        {
            "type": "Feature",
            "geometry": {
                "type": "Point",
                "coordinates": [
                    8.46677249,
                    49.49318618
                ]
            },
            "properties": {
                "RSU coordinates": [
                    8.4647604,
                    49.4911381
                ],
                "Distance": 270.47,
                "Frequency": 5.9,
                "RSSI": -84.12,
                "LOS": "False"
            }
        },
        {
            "type": "Feature",
            "geometry": {
                "type": "Point",
                "coordinates": [
                    8.46686831,
                    49.49329397
                ]
            },
            "properties": {
                "RSU coordinates": [
                    8.4647604,
                    49.4911381
                ],
                "Distance": 284.31,
                "Frequency": 5.9,
                "RSSI": -84.55,
                "LOS": "False"
            }
        },
        {
            "type": "Feature",
            "geometry": {
                "type": "Point",
                "coordinates": [
                    8.46696412,
                    49.49340177
                ]
            },
            "properties": {
                "RSU coordinates": [
                    8.4647604,
                    49.4911381
                ],
                "Distance": 298.15,
                "Frequency": 5.9,
                "RSSI": -84.95,
                "LOS": "False"
            }
        },
        {
            "type": "Feature",
            "geometry": {
                "type": "Point",
                "coordinates": [
                    8.46705994,
                    49.49350956
                ]
            },
            "properties": {
                "RSU coordinates": [
                    8.4647604,
                    49.4911381
                ],
                "Distance": 312.0,
                "Frequency": 5.9,
                "RSSI": -85.34,
                "LOS": "False"
            }
        },
        {
            "type": "Feature",
            "geometry": {
                "type": "Point",
                "coordinates": [
                    8.46715576,
                    49.49361735
                ]
            },
            "properties": {
                "RSU coordinates": [
                    8.4647604,
                    49.4911381
                ],
                "Distance": 325.85,
                "Frequency": 5.9,
                "RSSI": -85.71,
                "LOS": "False"
            }
        },
        {
            "type": "Feature",
            "geometry": {
                "type": "Point",
                "coordinates": [
                    8.46725158,
                    49.49372515
                ]
            },
            "properties": {
                "RSU coordinates": [
                    8.4647604,
                    49.4911381
                ],
                "Distance": 339.69,
                "Frequency": 5.9,
                "RSSI": -86.07,
                "LOS": "False"
            }
        },
        {
            "type": "Feature",
            "geometry": {
                "type": "Point",
                "coordinates": [
                    8.4673474,
                    49.49383294
                ]
            },
            "properties": {
                "RSU coordinates": [
                    8.4647604,
                    49.4911381
                ],
                "Distance": 353.54,
                "Frequency": 5.9,
                "RSSI": -86.41,
                "LOS": "False"
            }
        },
        {
            "type": "Feature",
            "geometry": {
                "type": "Point",
                "coordinates": [
                    8.46744322,
                    49.49394073
                ]
            },
            "properties": {
                "RSU coordinates": [
                    8.4647604,
                    49.4911381
                ],
                "Distance": 367.39,
                "Frequency": 5.9,
                "RSSI": -86.74,
                "LOS": "False"
            }
        },
        {
            "type": "Feature",
            "geometry": {
                "type": "Point",
                "coordinates": [
                    8.46753905,
                    49.49404853
                ]
            },
            "properties": {
                "RSU coordinates": [
                    8.4647604,
                    49.4911381
                ],
                "Distance": 381.24,
                "Frequency": 5.9,
                "RSSI": -87.06,
                "LOS": "False"
            }
        },
        {
            "type": "Feature",
            "geometry": {
                "type": "Point",
                "coordinates": [
                    8.46447298,
                    49.49038354
                ]
            },
            "properties": {
                "RSU coordinates": [
                    8.4647604,
                    49.4911381
                ],
                "Distance": 86.53,
                "Frequency": 5.9,
                "RSSI": -89.34,
                "LOS": "False"
            }
        },
        {
            "type": "Feature",
            "geometry": {
                "type": "Point",
                "coordinates": [
                    8.46466459,
                    49.49059913
                ]
            },
            "properties": {
                "RSU coordinates": [
                    8.4647604,
                    49.4911381
                ],
                "Distance": 60.4,
                "Frequency": 5.9,
                "RSSI": -71.25999999999999,
                "LOS": "False"
            }
        },
        {
            "type": "Feature",
            "geometry": {
                "type": "Point",
                "coordinates": [
                    8.4647604,
                    49.49070693
                ]
            },
            "properties": {
                "RSU coordinates": [
                    8.4647604,
                    49.4911381
                ],
                "Distance": 48.0,
                "Frequency": 5.9,
                "RSSI": -69.28999999999999,
                "LOS": "False"
            }
        },
        {
            "type": "Feature",
            "geometry": {
                "type": "Point",
                "coordinates": [
                    8.46485621,
                    49.49081472
                ]
            },
            "properties": {
                "RSU coordinates": [
                    8.4647604,
                    49.4911381
                ],
                "Distance": 36.66,
                "Frequency": 5.9,
                "RSSI": -66.97999999999999,
                "LOS": "False"
            }
        },
        {
            "type": "Feature",
            "geometry": {
                "type": "Point",
                "coordinates": [
                    8.46514364,
                    49.4911381
                ]
            },
            "properties": {
                "RSU coordinates": [
                    8.4647604,
                    49.4911381
                ],
                "Distance": 27.71,
                "Frequency": 5.9,
                "RSSI": -49.58,
                "LOS": "True"
            }
        },
        {
            "type": "Feature",
            "geometry": {
                "type": "Point",
                "coordinates": [
                    8.46533526,
                    49.49135369
                ]
            },
            "properties": {
                "RSU coordinates": [
                    8.4647604,
                    49.4911381
                ],
                "Distance": 48.0,
                "Frequency": 5.9,
                "RSSI": -69.28999999999999,
                "LOS": "False"
            }
        },
        {
            "type": "Feature",
            "geometry": {
                "type": "Point",
                "coordinates": [
                    8.46543107,
                    49.49146148
                ]
            },
            "properties": {
                "RSU coordinates": [
                    8.4647604,
                    49.4911381
                ],
                "Distance": 60.4,
                "Frequency": 5.9,
                "RSSI": -71.25999999999999,
                "LOS": "False"
            }
        },
        {
            "type": "Feature",
            "geometry": {
                "type": "Point",
                "coordinates": [
                    8.4656227,
                    49.49167707
                ]
            },
            "properties": {
                "RSU coordinates": [
                    8.4647604,
                    49.4911381
                ],
                "Distance": 86.53,
                "Frequency": 5.9,
                "RSSI": -89.34,
                "LOS": "False"
            }
        },
        {
            "type": "Feature",
            "geometry": {
                "type": "Point",
                "coordinates": [
                    8.46571851,
                    49.49178486
                ]
            },
            "properties": {
                "RSU coordinates": [
                    8.4647604,
                    49.4911381
                ],
                "Distance": 99.92,
                "Frequency": 5.9,
                "RSSI": -90.58,
                "LOS": "False"
            }
        },
        {
            "type": "Feature",
            "geometry": {
                "type": "Point",
                "coordinates": [
                    8.46619758,
                    49.49232383
                ]
            },
            "properties": {
                "RSU coordinates": [
                    8.4647604,
                    49.4911381
                ],
                "Distance": 168.0,
                "Frequency": 5.9,
                "RSSI": -95.03,
                "LOS": "False"
            }
        },
        {
            "type": "Feature",
            "geometry": {
                "type": "Point",
                "coordinates": [
                    8.46648503,
                    49.49264721
                ]
            },
            "properties": {
                "RSU coordinates": [
                    8.4647604,
                    49.4911381
                ],
                "Distance": 209.23,
                "Frequency": 5.9,
                "RSSI": -96.92,
                "LOS": "False"
            }
        },
        {
            "type": "Feature",
            "geometry": {
                "type": "Point",
                "coordinates": [
                    8.46456878,
                    49.49027575
                ]
            },
            "properties": {
                "RSU coordinates": [
                    8.4647604,
                    49.4911381
                ],
                "Distance": 96.99,
                "Frequency": 5.9,
                "RSSI": -90.32,
                "LOS": "False"
            }
        },
        {
            "type": "Feature",
            "geometry": {
                "type": "Point",
                "coordinates": [
                    8.46485621,
                    49.49059913
                ]
            },
            "properties": {
                "RSU coordinates": [
                    8.4647604,
                    49.4911381
                ],
                "Distance": 60.4,
                "Frequency": 5.9,
                "RSSI": -71.25999999999999,
                "LOS": "False"
            }
        },
        {
            "type": "Feature",
            "geometry": {
                "type": "Point",
                "coordinates": [
                    8.46495202,
                    49.49070693
                ]
            },
            "properties": {
                "RSU coordinates": [
                    8.4647604,
                    49.4911381
                ],
                "Distance": 49.96,
                "Frequency": 5.9,
                "RSSI": -69.63,
                "LOS": "False"
            }
        },
        {
            "type": "Feature",
            "geometry": {
                "type": "Point",
                "coordinates": [
                    8.46523945,
                    49.49103031
                ]
            },
            "properties": {
                "RSU coordinates": [
                    8.4647604,
                    49.4911381
                ],
                "Distance": 36.66,
                "Frequency": 5.9,
                "RSSI": -66.97999999999999,
                "LOS": "False"
            }
        },
        {
            "type": "Feature",
            "geometry": {
                "type": "Point",
                "coordinates": [
                    8.46543107,
                    49.49124589
                ]
            },
            "properties": {
                "RSU coordinates": [
                    8.4647604,
                    49.4911381
                ],
                "Distance": 49.96,
                "Frequency": 5.9,
                "RSSI": -69.63,
                "LOS": "False"
            }
        },
        {
            "type": "Feature",
            "geometry": {
                "type": "Point",
                "coordinates": [
                    8.46552688,
                    49.49135369
                ]
            },
            "properties": {
                "RSU coordinates": [
                    8.4647604,
                    49.4911381
                ],
                "Distance": 60.4,
                "Frequency": 5.9,
                "RSSI": -71.25999999999999,
                "LOS": "False"
            }
        },
        {
            "type": "Feature",
            "geometry": {
                "type": "Point",
                "coordinates": [
                    8.46562269,
                    49.49146148
                ]
            },
            "properties": {
                "RSU coordinates": [
                    8.4647604,
                    49.4911381
                ],
                "Distance": 72.0,
                "Frequency": 5.9,
                "RSSI": -72.77000000000001,
                "LOS": "False"
            }
        },
        {
            "type": "Feature",
            "geometry": {
                "type": "Point",
                "coordinates": [
                    8.4657185,
                    49.49156927
                ]
            },
            "properties": {
                "RSU coordinates": [
                    8.4647604,
                    49.4911381
                ],
                "Distance": 84.29,
                "Frequency": 5.9,
                "RSSI": -89.12,
                "LOS": "False"
            }
        },
        {
            "type": "Feature",
            "geometry": {
                "type": "Point",
                "coordinates": [
                    8.46581432,
                    49.49167707
                ]
            },
            "properties": {
                "RSU coordinates": [
                    8.4647604,
                    49.4911381
                ],
                "Distance": 96.99,
                "Frequency": 5.9,
                "RSSI": -90.32,
                "LOS": "False"
            }
        },
        {
            "type": "Feature",
            "geometry": {
                "type": "Point",
                "coordinates": [
                    8.46591013,
                    49.49178486
                ]
            },
            "properties": {
                "RSU coordinates": [
                    8.4647604,
                    49.4911381
                ],
                "Distance": 109.98,
                "Frequency": 5.9,
                "RSSI": -91.4,
                "LOS": "False"
            }
        },
        {
            "type": "Feature",
            "geometry": {
                "type": "Point",
                "coordinates": [
                    8.46629339,
                    49.49221604
                ]
            },
            "properties": {
                "RSU coordinates": [
                    8.4647604,
                    49.4911381
                ],
                "Distance": 163.36,
                "Frequency": 5.9,
                "RSSI": -94.79,
                "LOS": "False"
            }
        },
        {
            "type": "Feature",
            "geometry": {
                "type": "Point",
                "coordinates": [
                    8.4663892,
                    49.49232383
                ]
            },
            "properties": {
                "RSU coordinates": [
                    8.4647604,
                    49.4911381
                ],
                "Distance": 176.91,
                "Frequency": 5.9,
                "RSSI": -95.48,
                "LOS": "False"
            }
        },
        {
            "type": "Feature",
            "geometry": {
                "type": "Point",
                "coordinates": [
                    8.4647604,
                    49.49027575
                ]
            },
            "properties": {
                "RSU coordinates": [
                    8.4647604,
                    49.4911381
                ],
                "Distance": 96.0,
                "Frequency": 5.9,
                "RSSI": -90.22999999999999,
                "LOS": "False"
            }
        },
        {
            "type": "Feature",
            "geometry": {
                "type": "Point",
                "coordinates": [
                    8.46495202,
                    49.49049134
                ]
            },
            "properties": {
                "RSU coordinates": [
                    8.4647604,
                    49.4911381
                ],
                "Distance": 73.32,
                "Frequency": 5.9,
                "RSSI": -72.92,
                "LOS": "False"
            }
        },
        {
            "type": "Feature",
            "geometry": {
                "type": "Point",
                "coordinates": [
                    8.46504783,
                    49.49059913
                ]
            },
            "properties": {
                "RSU coordinates": [
                    8.4647604,
                    49.4911381
                ],
                "Distance": 63.5,
                "Frequency": 5.9,
                "RSSI": -71.69,
                "LOS": "False"
            }
        },
        {
            "type": "Feature",
            "geometry": {
                "type": "Point",
                "coordinates": [
                    8.46543107,
                    49.49103031
                ]
            },
            "properties": {
                "RSU coordinates": [
                    8.4647604,
                    49.4911381
                ],
                "Distance": 49.96,
                "Frequency": 5.9,
                "RSSI": -69.63,
                "LOS": "False"
            }
        },
        {
            "type": "Feature",
            "geometry": {
                "type": "Point",
                "coordinates": [
                    8.4657185,
                    49.49135369
                ]
            },
            "properties": {
                "RSU coordinates": [
                    8.4647604,
                    49.4911381
                ],
                "Distance": 73.32,
                "Frequency": 5.9,
                "RSSI": -72.92,
                "LOS": "False"
            }
        },
        {
            "type": "Feature",
            "geometry": {
                "type": "Point",
                "coordinates": [
                    8.46591013,
                    49.49156927
                ]
            },
            "properties": {
                "RSU coordinates": [
                    8.4647604,
                    49.4911381
                ],
                "Distance": 96.0,
                "Frequency": 5.9,
                "RSSI": -90.22999999999999,
                "LOS": "False"
            }
        },
        {
            "type": "Feature",
            "geometry": {
                "type": "Point",
                "coordinates": [
                    8.46600594,
                    49.49167707
                ]
            },
            "properties": {
                "RSU coordinates": [
                    8.4647604,
                    49.4911381
                ],
                "Distance": 108.22,
                "Frequency": 5.9,
                "RSSI": -91.25999999999999,
                "LOS": "False"
            }
        },
        {
            "type": "Feature",
            "geometry": {
                "type": "Point",
                "coordinates": [
                    8.46610175,
                    49.49178486
                ]
            },
            "properties": {
                "RSU coordinates": [
                    8.4647604,
                    49.4911381
                ],
                "Distance": 120.8,
                "Frequency": 5.9,
                "RSSI": -92.2,
                "LOS": "False"
            }
        },
        {
            "type": "Feature",
            "geometry": {
                "type": "Point",
                "coordinates": [
                    8.46485621,
                    49.49016796
                ]
            },
            "properties": {
                "RSU coordinates": [
                    8.4647604,
                    49.4911381
                ],
                "Distance": 108.22,
                "Frequency": 5.9,
                "RSSI": -91.25999999999999,
                "LOS": "False"
            }
        },
        {
            "type": "Feature",
            "geometry": {
                "type": "Point",
                "coordinates": [
                    8.46495202,
                    49.49027575
                ]
            },
            "properties": {
                "RSU coordinates": [
                    8.4647604,
                    49.4911381
                ],
                "Distance": 96.99,
                "Frequency": 5.9,
                "RSSI": -90.32,
                "LOS": "False"
            }
        },
        {
            "type": "Feature",
            "geometry": {
                "type": "Point",
                "coordinates": [
                    8.46504782,
                    49.49038354
                ]
            },
            "properties": {
                "RSU coordinates": [
                    8.4647604,
                    49.4911381
                ],
                "Distance": 86.53,
                "Frequency": 5.9,
                "RSSI": -89.34,
                "LOS": "False"
            }
        },
        {
            "type": "Feature",
            "geometry": {
                "type": "Point",
                "coordinates": [
                    8.46552687,
                    49.49092251
                ]
            },
            "properties": {
                "RSU coordinates": [
                    8.4647604,
                    49.4911381
                ],
                "Distance": 60.4,
                "Frequency": 5.9,
                "RSSI": -71.25999999999999,
                "LOS": "False"
            }
        },
        {
            "type": "Feature",
            "geometry": {
                "type": "Point",
                "coordinates": [
                    8.46600593,
                    49.49146148
                ]
            },
            "properties": {
                "RSU coordinates": [
                    8.4647604,
                    49.4911381
                ],
                "Distance": 96.99,
                "Frequency": 5.9,
                "RSSI": -90.32,
                "LOS": "False"
            }
        },
        {
            "type": "Feature",
            "geometry": {
                "type": "Point",
                "coordinates": [
                    8.46619756,
                    49.49167707
                ]
            },
            "properties": {
                "RSU coordinates": [
                    8.4647604,
                    49.4911381
                ],
                "Distance": 120.0,
                "Frequency": 5.9,
                "RSSI": -92.15,
                "LOS": "False"
            }
        },
        {
            "type": "Feature",
            "geometry": {
                "type": "Point",
                "coordinates": [
                    8.46495202,
                    49.49006016
                ]
            },
            "properties": {
                "RSU coordinates": [
                    8.4647604,
                    49.4911381
                ],
                "Distance": 120.8,
                "Frequency": 5.9,
                "RSSI": -92.2,
                "LOS": "False"
            }
        },
        {
            "type": "Feature",
            "geometry": {
                "type": "Point",
                "coordinates": [
                    8.46504782,
                    49.49016796
                ]
            },
            "properties": {
                "RSU coordinates": [
                    8.4647604,
                    49.4911381
                ],
                "Distance": 109.98,
                "Frequency": 5.9,
                "RSSI": -91.4,
                "LOS": "False"
            }
        },
        {
            "type": "Feature",
            "geometry": {
                "type": "Point",
                "coordinates": [
                    8.46514363,
                    49.49027575
                ]
            },
            "properties": {
                "RSU coordinates": [
                    8.4647604,
                    49.4911381
                ],
                "Distance": 99.92,
                "Frequency": 5.9,
                "RSSI": -75.58,
                "LOS": "False"
            }
        },
        {
            "type": "Feature",
            "geometry": {
                "type": "Point",
                "coordinates": [
                    8.46571849,
                    49.49092251
                ]
            },
            "properties": {
                "RSU coordinates": [
                    8.4647604,
                    49.4911381
                ],
                "Distance": 73.32,
                "Frequency": 5.9,
                "RSSI": -72.92,
                "LOS": "False"
            }
        },
        {
            "type": "Feature",
            "geometry": {
                "type": "Point",
                "coordinates": [
                    8.4658143,
                    49.49103031
                ]
            },
            "properties": {
                "RSU coordinates": [
                    8.4647604,
                    49.4911381
                ],
                "Distance": 77.15,
                "Frequency": 5.9,
                "RSSI": -88.36,
                "LOS": "False"
            }
        },
        {
            "type": "Feature",
            "geometry": {
                "type": "Point",
                "coordinates": [
                    8.46591012,
                    49.4911381
                ]
            },
            "properties": {
                "RSU coordinates": [
                    8.4647604,
                    49.4911381
                ],
                "Distance": 83.14,
                "Frequency": 5.9,
                "RSSI": -89.0,
                "LOS": "False"
            }
        },
        {
            "type": "Feature",
            "geometry": {
                "type": "Point",
                "coordinates": [
                    8.46619755,
                    49.49146148
                ]
            },
            "properties": {
                "RSU coordinates": [
                    8.4647604,
                    49.4911381
                ],
                "Distance": 109.98,
                "Frequency": 5.9,
                "RSSI": -91.4,
                "LOS": "False"
            }
        },
        {
            "type": "Feature",
            "geometry": {
                "type": "Point",
                "coordinates": [
                    8.46638918,
                    49.49167707
                ]
            },
            "properties": {
                "RSU coordinates": [
                    8.4647604,
                    49.4911381
                ],
                "Distance": 132.18,
                "Frequency": 5.9,
                "RSSI": -92.97999999999999,
                "LOS": "False"
            }
        },
        {
            "type": "Feature",
            "geometry": {
                "type": "Point",
                "coordinates": [
                    8.466485,
                    49.49178486
                ]
            },
            "properties": {
                "RSU coordinates": [
                    8.4647604,
                    49.4911381
                ],
                "Distance": 144.0,
                "Frequency": 5.9,
                "RSSI": -93.71000000000001,
                "LOS": "False"
            }
        },
        {
            "type": "Feature",
            "geometry": {
                "type": "Point",
                "coordinates": [
                    8.46495201,
                    49.48984458
                ]
            },
            "properties": {
                "RSU coordinates": [
                    8.4647604,
                    49.4911381
                ],
                "Distance": 144.67,
                "Frequency": 5.9,
                "RSSI": -93.75,
                "LOS": "False"
            }
        },
        {
            "type": "Feature",
            "geometry": {
                "type": "Point",
                "coordinates": [
                    8.46504782,
                    49.48995237
                ]
            },
            "properties": {
                "RSU coordinates": [
                    8.4647604,
                    49.4911381
                ],
                "Distance": 133.63,
                "Frequency": 5.9,
                "RSSI": -93.07,
                "LOS": "False"
            }
        },
        {
            "type": "Feature",
            "geometry": {
                "type": "Point",
                "coordinates": [
                    8.46514363,
                    49.49006016
                ]
            },
            "properties": {
                "RSU coordinates": [
                    8.4647604,
                    49.4911381
                ],
                "Distance": 123.16,
                "Frequency": 5.9,
                "RSSI": -92.37,
                "LOS": "False"
            }
        },
        {
            "type": "Feature",
            "geometry": {
                "type": "Point",
                "coordinates": [
                    8.4658143,
                    49.49081472
                ]
            },
            "properties": {
                "RSU coordinates": [
                    8.4647604,
                    49.4911381
                ],
                "Distance": 84.29,
                "Frequency": 5.9,
                "RSSI": -89.12,
                "LOS": "False"
            }
        },
        {
            "type": "Feature",
            "geometry": {
                "type": "Point",
                "coordinates": [
                    8.46514363,
                    49.48984458
                ]
            },
            "properties": {
                "RSU coordinates": [
                    8.4647604,
                    49.4911381
                ],
                "Distance": 146.64,
                "Frequency": 5.9,
                "RSSI": -93.87,
                "LOS": "False"
            }
        },
        {
            "type": "Feature",
            "geometry": {
                "type": "Point",
                "coordinates": [
                    8.46600592,
                    49.49081472
                ]
            },
            "properties": {
                "RSU coordinates": [
                    8.4647604,
                    49.4911381
                ],
                "Distance": 96.99,
                "Frequency": 5.9,
                "RSSI": -75.32,
                "LOS": "False"
            }
        },
        {
            "type": "Feature",
            "geometry": {
                "type": "Point",
                "coordinates": [
                    8.46523943,
                    49.48973678
                ]
            },
            "properties": {
                "RSU coordinates": [
                    8.4647604,
                    49.4911381
                ],
                "Distance": 159.8,
                "Frequency": 5.9,
                "RSSI": -94.6,
                "LOS": "False"
            }
        },
        {
            "type": "Feature",
            "geometry": {
                "type": "Point",
                "coordinates": [
                    8.46533524,
                    49.48984458
                ]
            },
            "properties": {
                "RSU coordinates": [
                    8.4647604,
                    49.4911381
                ],
                "Distance": 149.88,
                "Frequency": 5.9,
                "RSSI": -94.05,
                "LOS": "False"
            }
        },
        {
            "type": "Feature",
            "geometry": {
                "type": "Point",
                "coordinates": [
                    8.46629334,
                    49.49070693
                ]
            },
            "properties": {
                "RSU coordinates": [
                    8.4647604,
                    49.4911381
                ],
                "Distance": 120.8,
                "Frequency": 5.9,
                "RSSI": -77.2,
                "LOS": "False"
            }
        },
        {
            "type": "Feature",
            "geometry": {
                "type": "Point",
                "coordinates": [
                    8.46658076,
                    49.49059913
                ]
            },
            "properties": {
                "RSU coordinates": [
                    8.4647604,
                    49.4911381
                ],
                "Distance": 144.67,
                "Frequency": 5.9,
                "RSSI": -93.75,
                "LOS": "False"
            }
        }
    ]
}