{
    "type": "FeatureCollection",
    "features": [
        {
            "type": "Feature",
            "geometry": {
                "type": "Point",
                "coordinates": [
                    8.85760356,
                    49.92972735
                ]
            },
            "properties": {
                "RSU coordinates": [
                    8.8592471,
                    49.9255234
                ],
                "Distance": 482.59,
                "Frequency": 5.9,
                "RSSI": -89.08,
                "LOS": "False"
            }
        },
        {
            "type": "Feature",
            "geometry": {
                "type": "Point",
                "coordinates": [
                    8.85770024,
                    49.92961956
                ]
            },
            "properties": {
                "RSU coordinates": [
                    8.8592471,
                    49.9255234
                ],
                "Distance": 469.28,
                "Frequency": 5.9,
                "RSSI": -88.84,
                "LOS": "False"
            }
        },
        {
            "type": "Feature",
            "geometry": {
                "type": "Point",
                "coordinates": [
                    8.85779693,
                    49.92951176
                ]
            },
            "properties": {
                "RSU coordinates": [
                    8.8592471,
                    49.9255234
                ],
                "Distance": 456.0,
                "Frequency": 5.9,
                "RSSI": -73.6,
                "LOS": "True"
            }
        },
        {
            "type": "Feature",
            "geometry": {
                "type": "Point",
                "coordinates": [
                    8.85779693,
                    49.92929618
                ]
            },
            "properties": {
                "RSU coordinates": [
                    8.8592471,
                    49.9255234
                ],
                "Distance": 432.67,
                "Frequency": 5.9,
                "RSSI": -88.15,
                "LOS": "False"
            }
        },
        {
            "type": "Feature",
            "geometry": {
                "type": "Point",
                "coordinates": [
                    8.85789361,
                    49.92918838
                ]
            },
            "properties": {
                "RSU coordinates": [
                    8.8592471,
                    49.9255234
                ],
                "Distance": 419.37,
                "Frequency": 5.9,
                "RSSI": -72.88,
                "LOS": "True"
            }
        },
        {
            "type": "Feature",
            "geometry": {
                "type": "Point",
                "coordinates": [
                    8.85789362,
                    49.92897279
                ]
            },
            "properties": {
                "RSU coordinates": [
                    8.8592471,
                    49.9255234
                ],
                "Distance": 396.06,
                "Frequency": 5.9,
                "RSSI": -87.39,
                "LOS": "False"
            }
        },
        {
            "type": "Feature",
            "geometry": {
                "type": "Point",
                "coordinates": [
                    8.8579903,
                    49.928865
                ]
            },
            "properties": {
                "RSU coordinates": [
                    8.8592471,
                    49.9255234
                ],
                "Distance": 382.75,
                "Frequency": 5.9,
                "RSSI": -72.09,
                "LOS": "True"
            }
        },
        {
            "type": "Feature",
            "geometry": {
                "type": "Point",
                "coordinates": [
                    8.85808698,
                    49.92854162
                ]
            },
            "properties": {
                "RSU coordinates": [
                    8.8592471,
                    49.9255234
                ],
                "Distance": 346.13,
                "Frequency": 5.9,
                "RSSI": -86.23,
                "LOS": "False"
            }
        },
        {
            "type": "Feature",
            "geometry": {
                "type": "Point",
                "coordinates": [
                    8.85818366,
                    49.92843383
                ]
            },
            "properties": {
                "RSU coordinates": [
                    8.8592471,
                    49.9255234
                ],
                "Distance": 332.84,
                "Frequency": 5.9,
                "RSSI": -70.9,
                "LOS": "True"
            }
        },
        {
            "type": "Feature",
            "geometry": {
                "type": "Point",
                "coordinates": [
                    8.85828035,
                    49.92811045
                ]
            },
            "properties": {
                "RSU coordinates": [
                    8.8592471,
                    49.9255234
                ],
                "Distance": 296.22,
                "Frequency": 5.9,
                "RSSI": -69.9,
                "LOS": "True"
            }
        },
        {
            "type": "Feature",
            "geometry": {
                "type": "Point",
                "coordinates": [
                    8.85837702,
                    49.92800265
                ]
            },
            "properties": {
                "RSU coordinates": [
                    8.8592471,
                    49.9255234
                ],
                "Distance": 282.96,
                "Frequency": 5.9,
                "RSSI": -69.5,
                "LOS": "True"
            }
        },
        {
            "type": "Feature",
            "geometry": {
                "type": "Point",
                "coordinates": [
                    8.85837703,
                    49.92778707
                ]
            },
            "properties": {
                "RSU coordinates": [
                    8.8592471,
                    49.9255234
                ],
                "Distance": 259.6,
                "Frequency": 5.9,
                "RSSI": -83.77,
                "LOS": "False"
            }
        },
        {
            "type": "Feature",
            "geometry": {
                "type": "Point",
                "coordinates": [
                    8.8584737,
                    49.92767927
                ]
            },
            "properties": {
                "RSU coordinates": [
                    8.8592471,
                    49.9255234
                ],
                "Distance": 246.32,
                "Frequency": 5.9,
                "RSSI": -68.31,
                "LOS": "True"
            }
        },
        {
            "type": "Feature",
            "geometry": {
                "type": "Point",
                "coordinates": [
                    8.85847371,
                    49.92746368
                ]
            },
            "properties": {
                "RSU coordinates": [
                    8.8592471,
                    49.9255234
                ],
                "Distance": 223.0,
                "Frequency": 5.9,
                "RSSI": -97.46,
                "LOS": "False"
            }
        },
        {
            "type": "Feature",
            "geometry": {
                "type": "Point",
                "coordinates": [
                    8.85857038,
                    49.92735589
                ]
            },
            "properties": {
                "RSU coordinates": [
                    8.8592471,
                    49.9255234
                ],
                "Distance": 209.69,
                "Frequency": 5.9,
                "RSSI": -66.93,
                "LOS": "True"
            }
        },
        {
            "type": "Feature",
            "geometry": {
                "type": "Point",
                "coordinates": [
                    8.85866706,
                    49.9272481
                ]
            },
            "properties": {
                "RSU coordinates": [
                    8.8592471,
                    49.9255234
                ],
                "Distance": 196.45,
                "Frequency": 5.9,
                "RSSI": -96.37,
                "LOS": "False"
            }
        },
        {
            "type": "Feature",
            "geometry": {
                "type": "Point",
                "coordinates": [
                    8.85866706,
                    49.92703251
                ]
            },
            "properties": {
                "RSU coordinates": [
                    8.8592471,
                    49.9255234
                ],
                "Distance": 173.07,
                "Frequency": 5.9,
                "RSSI": -80.29,
                "LOS": "False"
            }
        },
        {
            "type": "Feature",
            "geometry": {
                "type": "Point",
                "coordinates": [
                    8.85876373,
                    49.92692472
                ]
            },
            "properties": {
                "RSU coordinates": [
                    8.8592471,
                    49.9255234
                ],
                "Distance": 159.8,
                "Frequency": 5.9,
                "RSSI": -64.6,
                "LOS": "True"
            }
        },
        {
            "type": "Feature",
            "geometry": {
                "type": "Point",
                "coordinates": [
                    8.85886041,
                    49.92660134
                ]
            },
            "properties": {
                "RSU coordinates": [
                    8.8592471,
                    49.9255234
                ],
                "Distance": 123.16,
                "Frequency": 5.9,
                "RSSI": -62.37,
                "LOS": "True"
            }
        },
        {
            "type": "Feature",
            "geometry": {
                "type": "Point",
                "coordinates": [
                    8.85808706,
                    49.9255234
                ]
            },
            "properties": {
                "RSU coordinates": [
                    8.8592471,
                    49.9255234
                ],
                "Distance": 83.14,
                "Frequency": 5.9,
                "RSSI": -89.0,
                "LOS": "False"
            }
        },
        {
            "type": "Feature",
            "geometry": {
                "type": "Point",
                "coordinates": [
                    8.85895708,
                    49.92649354
                ]
            },
            "properties": {
                "RSU coordinates": [
                    8.8592471,
                    49.9255234
                ],
                "Distance": 109.98,
                "Frequency": 5.9,
                "RSSI": -76.4,
                "LOS": "False"
            }
        },
        {
            "type": "Feature",
            "geometry": {
                "type": "Point",
                "coordinates": [
                    8.85895708,
                    49.92627796
                ]
            },
            "properties": {
                "RSU coordinates": [
                    8.8592471,
                    49.9255234
                ],
                "Distance": 86.53,
                "Frequency": 5.9,
                "RSSI": -74.34,
                "LOS": "False"
            }
        },
        {
            "type": "Feature",
            "geometry": {
                "type": "Point",
                "coordinates": [
                    8.85847374,
                    49.9255234
                ]
            },
            "properties": {
                "RSU coordinates": [
                    8.8592471,
                    49.9255234
                ],
                "Distance": 55.43,
                "Frequency": 5.9,
                "RSSI": -70.52000000000001,
                "LOS": "False"
            }
        },
        {
            "type": "Feature",
            "geometry": {
                "type": "Point",
                "coordinates": [
                    8.85905376,
                    49.92617016
                ]
            },
            "properties": {
                "RSU coordinates": [
                    8.8592471,
                    49.9255234
                ],
                "Distance": 73.32,
                "Frequency": 5.9,
                "RSSI": -57.92,
                "LOS": "True"
            }
        },
        {
            "type": "Feature",
            "geometry": {
                "type": "Point",
                "coordinates": [
                    8.85866708,
                    49.9255234
                ]
            },
            "properties": {
                "RSU coordinates": [
                    8.8592471,
                    49.9255234
                ],
                "Distance": 41.57,
                "Frequency": 5.9,
                "RSSI": -68.06,
                "LOS": "False"
            }
        },
        {
            "type": "Feature",
            "geometry": {
                "type": "Point",
                "coordinates": [
                    8.85876375,
                    49.92563119
                ]
            },
            "properties": {
                "RSU coordinates": [
                    8.8592471,
                    49.9255234
                ],
                "Distance": 36.66,
                "Frequency": 5.9,
                "RSSI": -96.97999999999999,
                "LOS": "False"
            }
        },
        {
            "type": "Feature",
            "geometry": {
                "type": "Point",
                "coordinates": [
                    8.85886042,
                    49.92573899
                ]
            },
            "properties": {
                "RSU coordinates": [
                    8.8592471,
                    49.9255234
                ],
                "Distance": 36.66,
                "Frequency": 5.9,
                "RSSI": -96.97999999999999,
                "LOS": "False"
            }
        },
        {
            "type": "Feature",
            "geometry": {
                "type": "Point",
                "coordinates": [
                    8.85915043,
                    49.92606237
                ]
            },
            "properties": {
                "RSU coordinates": [
                    8.8592471,
                    49.9255234
                ],
                "Distance": 60.4,
                "Frequency": 5.9,
                "RSSI": -71.25999999999999,
                "LOS": "False"
            }
        },
        {
            "type": "Feature",
            "geometry": {
                "type": "Point",
                "coordinates": [
                    8.85866708,
                    49.92530781
                ]
            },
            "properties": {
                "RSU coordinates": [
                    8.8592471,
                    49.9255234
                ],
                "Distance": 48.0,
                "Frequency": 5.9,
                "RSSI": -99.28999999999999,
                "LOS": "False"
            }
        },
        {
            "type": "Feature",
            "geometry": {
                "type": "Point",
                "coordinates": [
                    8.85876375,
                    49.92541561
                ]
            },
            "properties": {
                "RSU coordinates": [
                    8.8592471,
                    49.9255234
                ],
                "Distance": 36.66,
                "Frequency": 5.9,
                "RSSI": -96.97999999999999,
                "LOS": "False"
            }
        },
        {
            "type": "Feature",
            "geometry": {
                "type": "Point",
                "coordinates": [
                    8.85886042,
                    49.9255234
                ]
            },
            "properties": {
                "RSU coordinates": [
                    8.8592471,
                    49.9255234
                ],
                "Distance": 27.71,
                "Frequency": 5.9,
                "RSSI": -64.58,
                "LOS": "False"
            }
        },
        {
            "type": "Feature",
            "geometry": {
                "type": "Point",
                "coordinates": [
                    8.85915043,
                    49.92584678
                ]
            },
            "properties": {
                "RSU coordinates": [
                    8.8592471,
                    49.9255234
                ],
                "Distance": 36.66,
                "Frequency": 5.9,
                "RSSI": -51.98,
                "LOS": "True"
            }
        },
        {
            "type": "Feature",
            "geometry": {
                "type": "Point",
                "coordinates": [
                    8.85818375,
                    49.92455326
                ]
            },
            "properties": {
                "RSU coordinates": [
                    8.8592471,
                    49.9255234
                ],
                "Distance": 132.18,
                "Frequency": 5.9,
                "RSSI": -92.97999999999999,
                "LOS": "False"
            }
        },
        {
            "type": "Feature",
            "geometry": {
                "type": "Point",
                "coordinates": [
                    8.85886042,
                    49.92530781
                ]
            },
            "properties": {
                "RSU coordinates": [
                    8.8592471,
                    49.9255234
                ],
                "Distance": 36.66,
                "Frequency": 5.9,
                "RSSI": -81.97999999999999,
                "LOS": "False"
            }
        },
        {
            "type": "Feature",
            "geometry": {
                "type": "Point",
                "coordinates": [
                    8.85895709,
                    49.92541561
                ]
            },
            "properties": {
                "RSU coordinates": [
                    8.8592471,
                    49.9255234
                ],
                "Distance": 24.0,
                "Frequency": 5.9,
                "RSSI": -93.34,
                "LOS": "False"
            }
        },
        {
            "type": "Feature",
            "geometry": {
                "type": "Point",
                "coordinates": [
                    8.85905376,
                    49.9255234
                ]
            },
            "properties": {
                "RSU coordinates": [
                    8.8592471,
                    49.9255234
                ],
                "Distance": 13.86,
                "Frequency": 5.9,
                "RSSI": -58.63,
                "LOS": "False"
            }
        },
        {
            "type": "Feature",
            "geometry": {
                "type": "Point",
                "coordinates": [
                    8.85915043,
                    49.92563119
                ]
            },
            "properties": {
                "RSU coordinates": [
                    8.8592471,
                    49.9255234
                ],
                "Distance": 13.86,
                "Frequency": 5.9,
                "RSSI": -58.63,
                "LOS": "False"
            }
        },
        {
            "type": "Feature",
            "geometry": {
                "type": "Point",
                "coordinates": [
                    8.8592471,
                    49.92573899
                ]
            },
            "properties": {
                "RSU coordinates": [
                    8.8592471,
                    49.9255234
                ],
                "Distance": 24.0,
                "Frequency": 5.9,
                "RSSI": -48.34,
                "LOS": "True"
            }
        },
        {
            "type": "Feature",
            "geometry": {
                "type": "Point",
                "coordinates": [
                    8.85944044,
                    49.92595457
                ]
            },
            "properties": {
                "RSU coordinates": [
                    8.8592471,
                    49.9255234
                ],
                "Distance": 49.96,
                "Frequency": 5.9,
                "RSSI": -99.63,
                "LOS": "False"
            }
        },
        {
            "type": "Feature",
            "geometry": {
                "type": "Point",
                "coordinates": [
                    8.85905376,
                    49.92530781
                ]
            },
            "properties": {
                "RSU coordinates": [
                    8.8592471,
                    49.9255234
                ],
                "Distance": 27.71,
                "Frequency": 5.9,
                "RSSI": -64.58,
                "LOS": "False"
            }
        },
        {
            "type": "Feature",
            "geometry": {
                "type": "Point",
                "coordinates": [
                    8.85915043,
                    49.92541561
                ]
            },
            "properties": {
                "RSU coordinates": [
                    8.8592471,
                    49.9255234
                ],
                "Distance": 13.86,
                "Frequency": 5.9,
                "RSSI": -58.63,
                "LOS": "False"
            }
        },
        {
            "type": "Feature",
            "geometry": {
                "type": "Point",
                "coordinates": [
                    8.85944044,
                    49.92573899
                ]
            },
            "properties": {
                "RSU coordinates": [
                    8.8592471,
                    49.9255234
                ],
                "Distance": 27.71,
                "Frequency": 5.9,
                "RSSI": -79.58,
                "LOS": "False"
            }
        },
        {
            "type": "Feature",
            "geometry": {
                "type": "Point",
                "coordinates": [
                    8.85905376,
                    49.92509223
                ]
            },
            "properties": {
                "RSU coordinates": [
                    8.8592471,
                    49.9255234
                ],
                "Distance": 49.96,
                "Frequency": 5.9,
                "RSSI": -99.63,
                "LOS": "False"
            }
        },
        {
            "type": "Feature",
            "geometry": {
                "type": "Point",
                "coordinates": [
                    8.85915043,
                    49.92520002
                ]
            },
            "properties": {
                "RSU coordinates": [
                    8.8592471,
                    49.9255234
                ],
                "Distance": 36.66,
                "Frequency": 5.9,
                "RSSI": -66.97999999999999,
                "LOS": "False"
            }
        },
        {
            "type": "Feature",
            "geometry": {
                "type": "Point",
                "coordinates": [
                    8.85934377,
                    49.92541561
                ]
            },
            "properties": {
                "RSU coordinates": [
                    8.8592471,
                    49.9255234
                ],
                "Distance": 13.86,
                "Frequency": 5.9,
                "RSSI": -43.63,
                "LOS": "True"
            }
        },
        {
            "type": "Feature",
            "geometry": {
                "type": "Point",
                "coordinates": [
                    8.85944044,
                    49.9255234
                ]
            },
            "properties": {
                "RSU coordinates": [
                    8.8592471,
                    49.9255234
                ],
                "Distance": 13.86,
                "Frequency": 5.9,
                "RSSI": -43.63,
                "LOS": "True"
            }
        },
        {
            "type": "Feature",
            "geometry": {
                "type": "Point",
                "coordinates": [
                    8.85953711,
                    49.92563119
                ]
            },
            "properties": {
                "RSU coordinates": [
                    8.8592471,
                    49.9255234
                ],
                "Distance": 24.0,
                "Frequency": 5.9,
                "RSSI": -48.34,
                "LOS": "True"
            }
        },
        {
            "type": "Feature",
            "geometry": {
                "type": "Point",
                "coordinates": [
                    8.85973045,
                    49.92584678
                ]
            },
            "properties": {
                "RSU coordinates": [
                    8.8592471,
                    49.9255234
                ],
                "Distance": 49.96,
                "Frequency": 5.9,
                "RSSI": -99.63,
                "LOS": "False"
            }
        },
        {
            "type": "Feature",
            "geometry": {
                "type": "Point",
                "coordinates": [
                    8.85905376,
                    49.92487664
                ]
            },
            "properties": {
                "RSU coordinates": [
                    8.8592471,
                    49.9255234
                ],
                "Distance": 73.32,
                "Frequency": 5.9,
                "RSSI": -87.92,
                "LOS": "False"
            }
        },
        {
            "type": "Feature",
            "geometry": {
                "type": "Point",
                "coordinates": [
                    8.85915043,
                    49.92498443
                ]
            },
            "properties": {
                "RSU coordinates": [
                    8.8592471,
                    49.9255234
                ],
                "Distance": 60.4,
                "Frequency": 5.9,
                "RSSI": -86.25999999999999,
                "LOS": "False"
            }
        },
        {
            "type": "Feature",
            "geometry": {
                "type": "Point",
                "coordinates": [
                    8.85934377,
                    49.92520002
                ]
            },
            "properties": {
                "RSU coordinates": [
                    8.8592471,
                    49.9255234
                ],
                "Distance": 36.66,
                "Frequency": 5.9,
                "RSSI": -51.98,
                "LOS": "True"
            }
        },
        {
            "type": "Feature",
            "geometry": {
                "type": "Point",
                "coordinates": [
                    8.85944044,
                    49.92530781
                ]
            },
            "properties": {
                "RSU coordinates": [
                    8.8592471,
                    49.9255234
                ],
                "Distance": 27.71,
                "Frequency": 5.9,
                "RSSI": -49.58,
                "LOS": "True"
            }
        },
        {
            "type": "Feature",
            "geometry": {
                "type": "Point",
                "coordinates": [
                    8.85963378,
                    49.9255234
                ]
            },
            "properties": {
                "RSU coordinates": [
                    8.8592471,
                    49.9255234
                ],
                "Distance": 27.71,
                "Frequency": 5.9,
                "RSSI": -49.58,
                "LOS": "True"
            }
        },
        {
            "type": "Feature",
            "geometry": {
                "type": "Point",
                "coordinates": [
                    8.85973045,
                    49.92563119
                ]
            },
            "properties": {
                "RSU coordinates": [
                    8.8592471,
                    49.9255234
                ],
                "Distance": 36.66,
                "Frequency": 5.9,
                "RSSI": -51.98,
                "LOS": "True"
            }
        },
        {
            "type": "Feature",
            "geometry": {
                "type": "Point",
                "coordinates": [
                    8.85905376,
                    49.92466105
                ]
            },
            "properties": {
                "RSU coordinates": [
                    8.8592471,
                    49.9255234
                ],
                "Distance": 96.99,
                "Frequency": 5.9,
                "RSSI": -90.32,
                "LOS": "False"
            }
        },
        {
            "type": "Feature",
            "geometry": {
                "type": "Point",
                "coordinates": [
                    8.85934377,
                    49.92498443
                ]
            },
            "properties": {
                "RSU coordinates": [
                    8.8592471,
                    49.9255234
                ],
                "Distance": 60.4,
                "Frequency": 5.9,
                "RSSI": -86.25999999999999,
                "LOS": "False"
            }
        },
        {
            "type": "Feature",
            "geometry": {
                "type": "Point",
                "coordinates": [
                    8.85944044,
                    49.92509223
                ]
            },
            "properties": {
                "RSU coordinates": [
                    8.8592471,
                    49.9255234
                ],
                "Distance": 49.96,
                "Frequency": 5.9,
                "RSSI": -54.63,
                "LOS": "True"
            }
        },
        {
            "type": "Feature",
            "geometry": {
                "type": "Point",
                "coordinates": [
                    8.85963378,
                    49.92530781
                ]
            },
            "properties": {
                "RSU coordinates": [
                    8.8592471,
                    49.9255234
                ],
                "Distance": 36.66,
                "Frequency": 5.9,
                "RSSI": -66.97999999999999,
                "LOS": "False"
            }
        },
        {
            "type": "Feature",
            "geometry": {
                "type": "Point",
                "coordinates": [
                    8.85982712,
                    49.9255234
                ]
            },
            "properties": {
                "RSU coordinates": [
                    8.8592471,
                    49.9255234
                ],
                "Distance": 41.57,
                "Frequency": 5.9,
                "RSSI": -68.06,
                "LOS": "False"
            }
        },
        {
            "type": "Feature",
            "geometry": {
                "type": "Point",
                "coordinates": [
                    8.86002047,
                    49.92573899
                ]
            },
            "properties": {
                "RSU coordinates": [
                    8.8592471,
                    49.9255234
                ],
                "Distance": 60.4,
                "Frequency": 5.9,
                "RSSI": -56.26,
                "LOS": "True"
            }
        },
        {
            "type": "Feature",
            "geometry": {
                "type": "Point",
                "coordinates": [
                    8.85944044,
                    49.92487664
                ]
            },
            "properties": {
                "RSU coordinates": [
                    8.8592471,
                    49.9255234
                ],
                "Distance": 73.32,
                "Frequency": 5.9,
                "RSSI": -57.92,
                "LOS": "True"
            }
        },
        {
            "type": "Feature",
            "geometry": {
                "type": "Point",
                "coordinates": [
                    8.85953711,
                    49.92498443
                ]
            },
            "properties": {
                "RSU coordinates": [
                    8.8592471,
                    49.9255234
                ],
                "Distance": 63.5,
                "Frequency": 5.9,
                "RSSI": -56.69,
                "LOS": "True"
            }
        },
        {
            "type": "Feature",
            "geometry": {
                "type": "Point",
                "coordinates": [
                    8.85992379,
                    49.92541561
                ]
            },
            "properties": {
                "RSU coordinates": [
                    8.8592471,
                    49.9255234
                ],
                "Distance": 49.96,
                "Frequency": 5.9,
                "RSSI": -69.63,
                "LOS": "False"
            }
        },
        {
            "type": "Feature",
            "geometry": {
                "type": "Point",
                "coordinates": [
                    8.86021381,
                    49.92573899
                ]
            },
            "properties": {
                "RSU coordinates": [
                    8.8592471,
                    49.9255234
                ],
                "Distance": 73.32,
                "Frequency": 5.9,
                "RSSI": -57.92,
                "LOS": "True"
            }
        },
        {
            "type": "Feature",
            "geometry": {
                "type": "Point",
                "coordinates": [
                    8.86031048,
                    49.92584678
                ]
            },
            "properties": {
                "RSU coordinates": [
                    8.8592471,
                    49.9255234
                ],
                "Distance": 84.29,
                "Frequency": 5.9,
                "RSSI": -89.12,
                "LOS": "False"
            }
        },
        {
            "type": "Feature",
            "geometry": {
                "type": "Point",
                "coordinates": [
                    8.85953711,
                    49.92476884
                ]
            },
            "properties": {
                "RSU coordinates": [
                    8.8592471,
                    49.9255234
                ],
                "Distance": 86.53,
                "Frequency": 5.9,
                "RSSI": -59.34,
                "LOS": "True"
            }
        },
        {
            "type": "Feature",
            "geometry": {
                "type": "Point",
                "coordinates": [
                    8.85963378,
                    49.92487664
                ]
            },
            "properties": {
                "RSU coordinates": [
                    8.8592471,
                    49.9255234
                ],
                "Distance": 77.15,
                "Frequency": 5.9,
                "RSSI": -58.36,
                "LOS": "True"
            }
        },
        {
            "type": "Feature",
            "geometry": {
                "type": "Point",
                "coordinates": [
                    8.86011713,
                    49.92541561
                ]
            },
            "properties": {
                "RSU coordinates": [
                    8.8592471,
                    49.9255234
                ],
                "Distance": 63.5,
                "Frequency": 5.9,
                "RSSI": -86.69,
                "LOS": "False"
            }
        },
        {
            "type": "Feature",
            "geometry": {
                "type": "Point",
                "coordinates": [
                    8.8595371,
                    49.92455326
                ]
            },
            "properties": {
                "RSU coordinates": [
                    8.8592471,
                    49.9255234
                ],
                "Distance": 109.98,
                "Frequency": 5.9,
                "RSSI": -91.4,
                "LOS": "False"
            }
        },
        {
            "type": "Feature",
            "geometry": {
                "type": "Point",
                "coordinates": [
                    8.85963377,
                    49.92466105
                ]
            },
            "properties": {
                "RSU coordinates": [
                    8.8592471,
                    49.9255234
                ],
                "Distance": 99.92,
                "Frequency": 5.9,
                "RSSI": -60.58,
                "LOS": "True"
            }
        },
        {
            "type": "Feature",
            "geometry": {
                "type": "Point",
                "coordinates": [
                    8.86031047,
                    49.92541561
                ]
            },
            "properties": {
                "RSU coordinates": [
                    8.8592471,
                    49.9255234
                ],
                "Distance": 77.15,
                "Frequency": 5.9,
                "RSSI": -88.36,
                "LOS": "False"
            }
        },
        {
            "type": "Feature",
            "geometry": {
                "type": "Point",
                "coordinates": [
                    8.86069716,
                    49.92584678
                ]
            },
            "properties": {
                "RSU coordinates": [
                    8.8592471,
                    49.9255234
                ],
                "Distance": 109.98,
                "Frequency": 5.9,
                "RSSI": -91.4,
                "LOS": "False"
            }
        },
        {
            "type": "Feature",
            "geometry": {
                "type": "Point",
                "coordinates": [
                    8.85963377,
                    49.92444546
                ]
            },
            "properties": {
                "RSU coordinates": [
                    8.8592471,
                    49.9255234
                ],
                "Distance": 123.16,
                "Frequency": 5.9,
                "RSSI": -62.37,
                "LOS": "True"
            }
        },
        {
            "type": "Feature",
            "geometry": {
                "type": "Point",
                "coordinates": [
                    8.85973044,
                    49.92455326
                ]
            },
            "properties": {
                "RSU coordinates": [
                    8.8592471,
                    49.9255234
                ],
                "Distance": 113.42,
                "Frequency": 5.9,
                "RSSI": -61.66,
                "LOS": "True"
            }
        },
        {
            "type": "Feature",
            "geometry": {
                "type": "Point",
                "coordinates": [
                    8.85982711,
                    49.92466105
                ]
            },
            "properties": {
                "RSU coordinates": [
                    8.8592471,
                    49.9255234
                ],
                "Distance": 104.61,
                "Frequency": 5.9,
                "RSSI": -90.97,
                "LOS": "False"
            }
        },
        {
            "type": "Feature",
            "geometry": {
                "type": "Point",
                "coordinates": [
                    8.86050381,
                    49.92541561
                ]
            },
            "properties": {
                "RSU coordinates": [
                    8.8592471,
                    49.9255234
                ],
                "Distance": 90.86,
                "Frequency": 5.9,
                "RSSI": -89.75999999999999,
                "LOS": "False"
            }
        },
        {
            "type": "Feature",
            "geometry": {
                "type": "Point",
                "coordinates": [
                    8.86089051,
                    49.92584678
                ]
            },
            "properties": {
                "RSU coordinates": [
                    8.8592471,
                    49.9255234
                ],
                "Distance": 123.16,
                "Frequency": 5.9,
                "RSSI": -92.37,
                "LOS": "False"
            }
        },
        {
            "type": "Feature",
            "geometry": {
                "type": "Point",
                "coordinates": [
                    8.86098718,
                    49.92595457
                ]
            },
            "properties": {
                "RSU coordinates": [
                    8.8592471,
                    49.9255234
                ],
                "Distance": 133.63,
                "Frequency": 5.9,
                "RSSI": -93.07,
                "LOS": "False"
            }
        },
        {
            "type": "Feature",
            "geometry": {
                "type": "Point",
                "coordinates": [
                    8.85963377,
                    49.92422988
                ]
            },
            "properties": {
                "RSU coordinates": [
                    8.8592471,
                    49.9255234
                ],
                "Distance": 146.64,
                "Frequency": 5.9,
                "RSSI": -93.87,
                "LOS": "False"
            }
        },
        {
            "type": "Feature",
            "geometry": {
                "type": "Point",
                "coordinates": [
                    8.85973044,
                    49.92433767
                ]
            },
            "properties": {
                "RSU coordinates": [
                    8.8592471,
                    49.9255234
                ],
                "Distance": 136.47,
                "Frequency": 5.9,
                "RSSI": -78.25,
                "LOS": "False"
            }
        },
        {
            "type": "Feature",
            "geometry": {
                "type": "Point",
                "coordinates": [
                    8.85992378,
                    49.92455326
                ]
            },
            "properties": {
                "RSU coordinates": [
                    8.8592471,
                    49.9255234
                ],
                "Distance": 118.39,
                "Frequency": 5.9,
                "RSSI": -92.03,
                "LOS": "False"
            }
        },
        {
            "type": "Feature",
            "geometry": {
                "type": "Point",
                "coordinates": [
                    8.86069715,
                    49.92541561
                ]
            },
            "properties": {
                "RSU coordinates": [
                    8.8592471,
                    49.9255234
                ],
                "Distance": 104.61,
                "Frequency": 5.9,
                "RSSI": -90.97,
                "LOS": "False"
            }
        },
        {
            "type": "Feature",
            "geometry": {
                "type": "Point",
                "coordinates": [
                    8.86118052,
                    49.92595457
                ]
            },
            "properties": {
                "RSU coordinates": [
                    8.8592471,
                    49.9255234
                ],
                "Distance": 146.64,
                "Frequency": 5.9,
                "RSSI": -93.87,
                "LOS": "False"
            }
        },
        {
            "type": "Feature",
            "geometry": {
                "type": "Point",
                "coordinates": [
                    8.86137386,
                    49.92595457
                ]
            },
            "properties": {
                "RSU coordinates": [
                    8.8592471,
                    49.9255234
                ],
                "Distance": 159.8,
                "Frequency": 5.9,
                "RSSI": -94.6,
                "LOS": "False"
            }
        },
        {
            "type": "Feature",
            "geometry": {
                "type": "Point",
                "coordinates": [
                    8.8598271,
                    49.92401429
                ]
            },
            "properties": {
                "RSU coordinates": [
                    8.8592471,
                    49.9255234
                ],
                "Distance": 173.07,
                "Frequency": 5.9,
                "RSSI": -95.29,
                "LOS": "False"
            }
        },
        {
            "type": "Feature",
            "geometry": {
                "type": "Point",
                "coordinates": [
                    8.8601171,
                    49.9239065
                ]
            },
            "properties": {
                "RSU coordinates": [
                    8.8592471,
                    49.9255234
                ],
                "Distance": 190.49,
                "Frequency": 5.9,
                "RSSI": -96.11,
                "LOS": "False"
            }
        },
        {
            "type": "Feature",
            "geometry": {
                "type": "Point",
                "coordinates": [
                    8.86031043,
                    49.92347532
                ]
            },
            "properties": {
                "RSU coordinates": [
                    8.8592471,
                    49.9255234
                ],
                "Distance": 240.4,
                "Frequency": 5.9,
                "RSSI": -83.11,
                "LOS": "False"
            }
        },
        {
            "type": "Feature",
            "geometry": {
                "type": "Point",
                "coordinates": [
                    8.86040709,
                    49.92336753
                ]
            },
            "properties": {
                "RSU coordinates": [
                    8.8592471,
                    49.9255234
                ],
                "Distance": 253.99,
                "Frequency": 5.9,
                "RSSI": -98.58,
                "LOS": "False"
            }
        }
    ]
}