{
    "type": "FeatureCollection",
    "features": [
        {
            "type": "Feature",
            "geometry": {
                "type": "Point",
                "coordinates": [
                    8.68276898,
                    50.11878894
                ]
            },
            "properties": {
                "RSU coordinates": [
                    8.6858749,
                    50.117711
                ],
                "Distance": 252.1,
                "Frequency": 5.9,
                "RSSI": -98.51,
                "LOS": "False"
            }
        },
        {
            "type": "Feature",
            "geometry": {
                "type": "Point",
                "coordinates": [
                    8.68306017,
                    50.11868114
                ]
            },
            "properties": {
                "RSU coordinates": [
                    8.6858749,
                    50.117711
                ],
                "Distance": 228.11,
                "Frequency": 5.9,
                "RSSI": -97.66,
                "LOS": "False"
            }
        },
        {
            "type": "Feature",
            "geometry": {
                "type": "Point",
                "coordinates": [
                    8.68441896,
                    50.12019025
                ]
            },
            "properties": {
                "RSU coordinates": [
                    8.6858749,
                    50.117711
                ],
                "Distance": 294.92,
                "Frequency": 5.9,
                "RSSI": -99.86,
                "LOS": "False"
            }
        },
        {
            "type": "Feature",
            "geometry": {
                "type": "Point",
                "coordinates": [
                    8.68451602,
                    50.12008246
                ]
            },
            "properties": {
                "RSU coordinates": [
                    8.6858749,
                    50.117711
                ],
                "Distance": 281.25,
                "Frequency": 5.9,
                "RSSI": -99.45,
                "LOS": "False"
            }
        },
        {
            "type": "Feature",
            "geometry": {
                "type": "Point",
                "coordinates": [
                    8.68461308,
                    50.12019025
                ]
            },
            "properties": {
                "RSU coordinates": [
                    8.6858749,
                    50.117711
                ],
                "Distance": 290.32,
                "Frequency": 5.9,
                "RSSI": -99.72,
                "LOS": "False"
            }
        },
        {
            "type": "Feature",
            "geometry": {
                "type": "Point",
                "coordinates": [
                    8.68335135,
                    50.11857335
                ]
            },
            "properties": {
                "RSU coordinates": [
                    8.6858749,
                    50.117711
                ],
                "Distance": 204.12,
                "Frequency": 5.9,
                "RSSI": -96.7,
                "LOS": "False"
            }
        },
        {
            "type": "Feature",
            "geometry": {
                "type": "Point",
                "coordinates": [
                    8.68461309,
                    50.11997467
                ]
            },
            "properties": {
                "RSU coordinates": [
                    8.6858749,
                    50.117711
                ],
                "Distance": 267.61,
                "Frequency": 5.9,
                "RSSI": -99.03,
                "LOS": "False"
            }
        },
        {
            "type": "Feature",
            "geometry": {
                "type": "Point",
                "coordinates": [
                    8.68490427,
                    50.12029805
                ]
            },
            "properties": {
                "RSU coordinates": [
                    8.6858749,
                    50.117711
                ],
                "Distance": 296.22,
                "Frequency": 5.9,
                "RSSI": -99.9,
                "LOS": "False"
            }
        },
        {
            "type": "Feature",
            "geometry": {
                "type": "Point",
                "coordinates": [
                    8.68471015,
                    50.11986687
                ]
            },
            "properties": {
                "RSU coordinates": [
                    8.6858749,
                    50.117711
                ],
                "Distance": 253.99,
                "Frequency": 5.9,
                "RSSI": -98.58,
                "LOS": "False"
            }
        },
        {
            "type": "Feature",
            "geometry": {
                "type": "Point",
                "coordinates": [
                    8.68500133,
                    50.12019025
                ]
            },
            "properties": {
                "RSU coordinates": [
                    8.6858749,
                    50.117711
                ],
                "Distance": 282.96,
                "Frequency": 5.9,
                "RSSI": -99.5,
                "LOS": "False"
            }
        },
        {
            "type": "Feature",
            "geometry": {
                "type": "Point",
                "coordinates": [
                    8.6850984,
                    50.12029805
                ]
            },
            "properties": {
                "RSU coordinates": [
                    8.6858749,
                    50.117711
                ],
                "Distance": 293.28,
                "Frequency": 5.9,
                "RSSI": -99.81,
                "LOS": "False"
            }
        },
        {
            "type": "Feature",
            "geometry": {
                "type": "Point",
                "coordinates": [
                    8.68364254,
                    50.11846556
                ]
            },
            "properties": {
                "RSU coordinates": [
                    8.6858749,
                    50.117711
                ],
                "Distance": 180.13,
                "Frequency": 5.9,
                "RSSI": -95.63,
                "LOS": "False"
            }
        },
        {
            "type": "Feature",
            "geometry": {
                "type": "Point",
                "coordinates": [
                    8.68471016,
                    50.11965128
                ]
            },
            "properties": {
                "RSU coordinates": [
                    8.6858749,
                    50.117711
                ],
                "Distance": 231.45,
                "Frequency": 5.9,
                "RSSI": -82.78,
                "LOS": "False"
            }
        },
        {
            "type": "Feature",
            "geometry": {
                "type": "Point",
                "coordinates": [
                    8.68480722,
                    50.11975908
                ]
            },
            "properties": {
                "RSU coordinates": [
                    8.6858749,
                    50.117711
                ],
                "Distance": 240.4,
                "Frequency": 5.9,
                "RSSI": -98.11,
                "LOS": "False"
            }
        },
        {
            "type": "Feature",
            "geometry": {
                "type": "Point",
                "coordinates": [
                    8.68490428,
                    50.11986687
                ]
            },
            "properties": {
                "RSU coordinates": [
                    8.6858749,
                    50.117711
                ],
                "Distance": 249.8,
                "Frequency": 5.9,
                "RSSI": -98.44,
                "LOS": "False"
            }
        },
        {
            "type": "Feature",
            "geometry": {
                "type": "Point",
                "coordinates": [
                    8.68500134,
                    50.11997467
                ]
            },
            "properties": {
                "RSU coordinates": [
                    8.6858749,
                    50.117711
                ],
                "Distance": 259.6,
                "Frequency": 5.9,
                "RSSI": -83.77,
                "LOS": "False"
            }
        },
        {
            "type": "Feature",
            "geometry": {
                "type": "Point",
                "coordinates": [
                    8.6850984,
                    50.12008246
                ]
            },
            "properties": {
                "RSU coordinates": [
                    8.6858749,
                    50.117711
                ],
                "Distance": 269.76,
                "Frequency": 5.9,
                "RSSI": -99.09,
                "LOS": "False"
            }
        },
        {
            "type": "Feature",
            "geometry": {
                "type": "Point",
                "coordinates": [
                    8.68480722,
                    50.11954349
                ]
            },
            "properties": {
                "RSU coordinates": [
                    8.6858749,
                    50.117711
                ],
                "Distance": 217.77,
                "Frequency": 5.9,
                "RSSI": -82.26,
                "LOS": "False"
            }
        },
        {
            "type": "Feature",
            "geometry": {
                "type": "Point",
                "coordinates": [
                    8.6850984,
                    50.11986687
                ]
            },
            "properties": {
                "RSU coordinates": [
                    8.6858749,
                    50.117711
                ],
                "Distance": 246.32,
                "Frequency": 5.9,
                "RSSI": -83.31,
                "LOS": "False"
            }
        },
        {
            "type": "Feature",
            "geometry": {
                "type": "Point",
                "coordinates": [
                    8.68519546,
                    50.11997467
                ]
            },
            "properties": {
                "RSU coordinates": [
                    8.6858749,
                    50.117711
                ],
                "Distance": 256.62,
                "Frequency": 5.9,
                "RSSI": -83.67,
                "LOS": "False"
            }
        },
        {
            "type": "Feature",
            "geometry": {
                "type": "Point",
                "coordinates": [
                    8.68529252,
                    50.12008246
                ]
            },
            "properties": {
                "RSU coordinates": [
                    8.6858749,
                    50.117711
                ],
                "Distance": 267.25,
                "Frequency": 5.9,
                "RSSI": -99.01,
                "LOS": "False"
            }
        },
        {
            "type": "Feature",
            "geometry": {
                "type": "Point",
                "coordinates": [
                    8.68538959,
                    50.12019025
                ]
            },
            "properties": {
                "RSU coordinates": [
                    8.6858749,
                    50.117711
                ],
                "Distance": 278.17,
                "Frequency": 5.9,
                "RSSI": -99.36,
                "LOS": "False"
            }
        },
        {
            "type": "Feature",
            "geometry": {
                "type": "Point",
                "coordinates": [
                    8.68315729,
                    50.11749541
                ]
            },
            "properties": {
                "RSU coordinates": [
                    8.6858749,
                    50.117711
                ],
                "Distance": 195.47,
                "Frequency": 5.9,
                "RSSI": -96.33,
                "LOS": "False"
            }
        },
        {
            "type": "Feature",
            "geometry": {
                "type": "Point",
                "coordinates": [
                    8.68325435,
                    50.11760321
                ]
            },
            "properties": {
                "RSU coordinates": [
                    8.6858749,
                    50.117711
                ],
                "Distance": 187.45,
                "Frequency": 5.9,
                "RSSI": -95.97,
                "LOS": "False"
            }
        },
        {
            "type": "Feature",
            "geometry": {
                "type": "Point",
                "coordinates": [
                    8.68490429,
                    50.1194357
                ]
            },
            "properties": {
                "RSU coordinates": [
                    8.6858749,
                    50.117711
                ],
                "Distance": 204.12,
                "Frequency": 5.9,
                "RSSI": -81.7,
                "LOS": "False"
            }
        },
        {
            "type": "Feature",
            "geometry": {
                "type": "Point",
                "coordinates": [
                    8.68500135,
                    50.11954349
                ]
            },
            "properties": {
                "RSU coordinates": [
                    8.6858749,
                    50.117711
                ],
                "Distance": 213.32,
                "Frequency": 5.9,
                "RSSI": -82.08,
                "LOS": "False"
            }
        },
        {
            "type": "Feature",
            "geometry": {
                "type": "Point",
                "coordinates": [
                    8.68529253,
                    50.11986687
                ]
            },
            "properties": {
                "RSU coordinates": [
                    8.6858749,
                    50.117711
                ],
                "Distance": 243.57,
                "Frequency": 5.9,
                "RSSI": -98.22,
                "LOS": "False"
            }
        },
        {
            "type": "Feature",
            "geometry": {
                "type": "Point",
                "coordinates": [
                    8.68538959,
                    50.11997467
                ]
            },
            "properties": {
                "RSU coordinates": [
                    8.6858749,
                    50.117711
                ],
                "Distance": 254.37,
                "Frequency": 5.9,
                "RSSI": -98.59,
                "LOS": "False"
            }
        },
        {
            "type": "Feature",
            "geometry": {
                "type": "Point",
                "coordinates": [
                    8.68335141,
                    50.11749541
                ]
            },
            "properties": {
                "RSU coordinates": [
                    8.6858749,
                    50.117711
                ],
                "Distance": 181.73,
                "Frequency": 5.9,
                "RSSI": -95.71,
                "LOS": "False"
            }
        },
        {
            "type": "Feature",
            "geometry": {
                "type": "Point",
                "coordinates": [
                    8.68344846,
                    50.11760321
                ]
            },
            "properties": {
                "RSU coordinates": [
                    8.6858749,
                    50.117711
                ],
                "Distance": 173.62,
                "Frequency": 5.9,
                "RSSI": -95.32,
                "LOS": "False"
            }
        },
        {
            "type": "Feature",
            "geometry": {
                "type": "Point",
                "coordinates": [
                    8.68490429,
                    50.11922011
                ]
            },
            "properties": {
                "RSU coordinates": [
                    8.6858749,
                    50.117711
                ],
                "Distance": 181.73,
                "Frequency": 5.9,
                "RSSI": -95.71,
                "LOS": "False"
            }
        },
        {
            "type": "Feature",
            "geometry": {
                "type": "Point",
                "coordinates": [
                    8.68500135,
                    50.1193279
                ]
            },
            "properties": {
                "RSU coordinates": [
                    8.6858749,
                    50.117711
                ],
                "Distance": 190.49,
                "Frequency": 5.9,
                "RSSI": -81.11,
                "LOS": "False"
            }
        },
        {
            "type": "Feature",
            "geometry": {
                "type": "Point",
                "coordinates": [
                    8.68509841,
                    50.1194357
                ]
            },
            "properties": {
                "RSU coordinates": [
                    8.6858749,
                    50.117711
                ],
                "Distance": 199.84,
                "Frequency": 5.9,
                "RSSI": -81.52,
                "LOS": "False"
            }
        },
        {
            "type": "Feature",
            "geometry": {
                "type": "Point",
                "coordinates": [
                    8.68519547,
                    50.11954349
                ]
            },
            "properties": {
                "RSU coordinates": [
                    8.6858749,
                    50.117711
                ],
                "Distance": 209.69,
                "Frequency": 5.9,
                "RSSI": -66.93,
                "LOS": "True"
            }
        },
        {
            "type": "Feature",
            "geometry": {
                "type": "Point",
                "coordinates": [
                    8.68529253,
                    50.11965128
                ]
            },
            "properties": {
                "RSU coordinates": [
                    8.6858749,
                    50.117711
                ],
                "Distance": 219.96,
                "Frequency": 5.9,
                "RSSI": -67.34,
                "LOS": "True"
            }
        },
        {
            "type": "Feature",
            "geometry": {
                "type": "Point",
                "coordinates": [
                    8.68548665,
                    50.11986687
                ]
            },
            "properties": {
                "RSU coordinates": [
                    8.6858749,
                    50.117711
                ],
                "Distance": 241.59,
                "Frequency": 5.9,
                "RSSI": -83.15,
                "LOS": "False"
            }
        },
        {
            "type": "Feature",
            "geometry": {
                "type": "Point",
                "coordinates": [
                    8.68354552,
                    50.11749541
                ]
            },
            "properties": {
                "RSU coordinates": [
                    8.6858749,
                    50.117711
                ],
                "Distance": 168.0,
                "Frequency": 5.9,
                "RSSI": -95.03,
                "LOS": "False"
            }
        },
        {
            "type": "Feature",
            "geometry": {
                "type": "Point",
                "coordinates": [
                    8.68500135,
                    50.11911232
                ]
            },
            "properties": {
                "RSU coordinates": [
                    8.6858749,
                    50.117711
                ],
                "Distance": 168.0,
                "Frequency": 5.9,
                "RSSI": -80.03,
                "LOS": "False"
            }
        },
        {
            "type": "Feature",
            "geometry": {
                "type": "Point",
                "coordinates": [
                    8.68509841,
                    50.11922011
                ]
            },
            "properties": {
                "RSU coordinates": [
                    8.6858749,
                    50.117711
                ],
                "Distance": 176.91,
                "Frequency": 5.9,
                "RSSI": -80.48,
                "LOS": "False"
            }
        },
        {
            "type": "Feature",
            "geometry": {
                "type": "Point",
                "coordinates": [
                    8.68519547,
                    50.1193279
                ]
            },
            "properties": {
                "RSU coordinates": [
                    8.6858749,
                    50.117711
                ],
                "Distance": 186.42,
                "Frequency": 5.9,
                "RSSI": -80.93,
                "LOS": "False"
            }
        },
        {
            "type": "Feature",
            "geometry": {
                "type": "Point",
                "coordinates": [
                    8.68529253,
                    50.1194357
                ]
            },
            "properties": {
                "RSU coordinates": [
                    8.6858749,
                    50.117711
                ],
                "Distance": 196.45,
                "Frequency": 5.9,
                "RSSI": -66.37,
                "LOS": "True"
            }
        },
        {
            "type": "Feature",
            "geometry": {
                "type": "Point",
                "coordinates": [
                    8.68538959,
                    50.11954349
                ]
            },
            "properties": {
                "RSU coordinates": [
                    8.6858749,
                    50.117711
                ],
                "Distance": 206.92,
                "Frequency": 5.9,
                "RSSI": -81.82,
                "LOS": "False"
            }
        },
        {
            "type": "Feature",
            "geometry": {
                "type": "Point",
                "coordinates": [
                    8.68548665,
                    50.11965128
                ]
            },
            "properties": {
                "RSU coordinates": [
                    8.6858749,
                    50.117711
                ],
                "Distance": 217.77,
                "Frequency": 5.9,
                "RSSI": -82.26,
                "LOS": "False"
            }
        },
        {
            "type": "Feature",
            "geometry": {
                "type": "Point",
                "coordinates": [
                    8.68558371,
                    50.11975908
                ]
            },
            "properties": {
                "RSU coordinates": [
                    8.6858749,
                    50.117711
                ],
                "Distance": 228.95,
                "Frequency": 5.9,
                "RSSI": -97.69,
                "LOS": "False"
            }
        },
        {
            "type": "Feature",
            "geometry": {
                "type": "Point",
                "coordinates": [
                    8.68568078,
                    50.11986687
                ]
            },
            "properties": {
                "RSU coordinates": [
                    8.6858749,
                    50.117711
                ],
                "Distance": 240.4,
                "Frequency": 5.9,
                "RSSI": -98.11,
                "LOS": "False"
            }
        },
        {
            "type": "Feature",
            "geometry": {
                "type": "Point",
                "coordinates": [
                    8.68509842,
                    50.11900452
                ]
            },
            "properties": {
                "RSU coordinates": [
                    8.6858749,
                    50.117711
                ],
                "Distance": 154.3,
                "Frequency": 5.9,
                "RSSI": -79.3,
                "LOS": "False"
            }
        },
        {
            "type": "Feature",
            "geometry": {
                "type": "Point",
                "coordinates": [
                    8.68519548,
                    50.11911232
                ]
            },
            "properties": {
                "RSU coordinates": [
                    8.6858749,
                    50.117711
                ],
                "Distance": 163.36,
                "Frequency": 5.9,
                "RSSI": -79.79,
                "LOS": "False"
            }
        },
        {
            "type": "Feature",
            "geometry": {
                "type": "Point",
                "coordinates": [
                    8.68529253,
                    50.11922011
                ]
            },
            "properties": {
                "RSU coordinates": [
                    8.6858749,
                    50.117711
                ],
                "Distance": 173.07,
                "Frequency": 5.9,
                "RSSI": -65.29,
                "LOS": "True"
            }
        },
        {
            "type": "Feature",
            "geometry": {
                "type": "Point",
                "coordinates": [
                    8.68538959,
                    50.1193279
                ]
            },
            "properties": {
                "RSU coordinates": [
                    8.6858749,
                    50.117711
                ],
                "Distance": 183.3,
                "Frequency": 5.9,
                "RSSI": -65.78,
                "LOS": "True"
            }
        },
        {
            "type": "Feature",
            "geometry": {
                "type": "Point",
                "coordinates": [
                    8.68548665,
                    50.1194357
                ]
            },
            "properties": {
                "RSU coordinates": [
                    8.6858749,
                    50.117711
                ],
                "Distance": 193.99,
                "Frequency": 5.9,
                "RSSI": -81.27,
                "LOS": "False"
            }
        },
        {
            "type": "Feature",
            "geometry": {
                "type": "Point",
                "coordinates": [
                    8.68558372,
                    50.11954349
                ]
            },
            "properties": {
                "RSU coordinates": [
                    8.6858749,
                    50.117711
                ],
                "Distance": 205.06,
                "Frequency": 5.9,
                "RSSI": -96.74,
                "LOS": "False"
            }
        },
        {
            "type": "Feature",
            "geometry": {
                "type": "Point",
                "coordinates": [
                    8.68568078,
                    50.11965128
                ]
            },
            "properties": {
                "RSU coordinates": [
                    8.6858749,
                    50.117711
                ],
                "Distance": 216.44,
                "Frequency": 5.9,
                "RSSI": -97.21,
                "LOS": "False"
            }
        },
        {
            "type": "Feature",
            "geometry": {
                "type": "Point",
                "coordinates": [
                    8.68577784,
                    50.11975908
                ]
            },
            "properties": {
                "RSU coordinates": [
                    8.6858749,
                    50.117711
                ],
                "Distance": 228.11,
                "Frequency": 5.9,
                "RSSI": -97.66,
                "LOS": "False"
            }
        },
        {
            "type": "Feature",
            "geometry": {
                "type": "Point",
                "coordinates": [
                    8.6858749,
                    50.11986687
                ]
            },
            "properties": {
                "RSU coordinates": [
                    8.6858749,
                    50.117711
                ],
                "Distance": 240.0,
                "Frequency": 5.9,
                "RSSI": -98.09,
                "LOS": "False"
            }
        },
        {
            "type": "Feature",
            "geometry": {
                "type": "Point",
                "coordinates": [
                    8.68616609,
                    50.12019025
                ]
            },
            "properties": {
                "RSU coordinates": [
                    8.6858749,
                    50.117711
                ],
                "Distance": 276.78,
                "Frequency": 5.9,
                "RSSI": -99.31,
                "LOS": "False"
            }
        },
        {
            "type": "Feature",
            "geometry": {
                "type": "Point",
                "coordinates": [
                    8.68626315,
                    50.12029805
                ]
            },
            "properties": {
                "RSU coordinates": [
                    8.6858749,
                    50.117711
                ],
                "Distance": 289.33,
                "Frequency": 5.9,
                "RSSI": -84.7,
                "LOS": "False"
            }
        },
        {
            "type": "Feature",
            "geometry": {
                "type": "Point",
                "coordinates": [
                    8.6836426,
                    50.11717203
                ]
            },
            "properties": {
                "RSU coordinates": [
                    8.6858749,
                    50.117711
                ],
                "Distance": 170.27,
                "Frequency": 5.9,
                "RSSI": -95.15,
                "LOS": "False"
            }
        },
        {
            "type": "Feature",
            "geometry": {
                "type": "Point",
                "coordinates": [
                    8.68393375,
                    50.11749541
                ]
            },
            "properties": {
                "RSU coordinates": [
                    8.6858749,
                    50.117711
                ],
                "Distance": 140.63,
                "Frequency": 5.9,
                "RSSI": -93.50999999999999,
                "LOS": "False"
            }
        },
        {
            "type": "Feature",
            "geometry": {
                "type": "Point",
                "coordinates": [
                    8.68403081,
                    50.11760321
                ]
            },
            "properties": {
                "RSU coordinates": [
                    8.6858749,
                    50.117711
                ],
                "Distance": 132.18,
                "Frequency": 5.9,
                "RSSI": -77.97999999999999,
                "LOS": "False"
            }
        },
        {
            "type": "Feature",
            "geometry": {
                "type": "Point",
                "coordinates": [
                    8.68519548,
                    50.11889673
                ]
            },
            "properties": {
                "RSU coordinates": [
                    8.6858749,
                    50.117711
                ],
                "Distance": 140.63,
                "Frequency": 5.9,
                "RSSI": -78.50999999999999,
                "LOS": "False"
            }
        },
        {
            "type": "Feature",
            "geometry": {
                "type": "Point",
                "coordinates": [
                    8.68529254,
                    50.11900452
                ]
            },
            "properties": {
                "RSU coordinates": [
                    8.6858749,
                    50.117711
                ],
                "Distance": 149.88,
                "Frequency": 5.9,
                "RSSI": -79.05,
                "LOS": "False"
            }
        },
        {
            "type": "Feature",
            "geometry": {
                "type": "Point",
                "coordinates": [
                    8.6853896,
                    50.11911232
                ]
            },
            "properties": {
                "RSU coordinates": [
                    8.6858749,
                    50.117711
                ],
                "Distance": 159.8,
                "Frequency": 5.9,
                "RSSI": -64.6,
                "LOS": "True"
            }
        },
        {
            "type": "Feature",
            "geometry": {
                "type": "Point",
                "coordinates": [
                    8.68548666,
                    50.11922011
                ]
            },
            "properties": {
                "RSU coordinates": [
                    8.6858749,
                    50.117711
                ],
                "Distance": 170.27,
                "Frequency": 5.9,
                "RSSI": -80.15,
                "LOS": "False"
            }
        },
        {
            "type": "Feature",
            "geometry": {
                "type": "Point",
                "coordinates": [
                    8.68558372,
                    50.1193279
                ]
            },
            "properties": {
                "RSU coordinates": [
                    8.6858749,
                    50.117711
                ],
                "Distance": 181.2,
                "Frequency": 5.9,
                "RSSI": -80.68,
                "LOS": "False"
            }
        },
        {
            "type": "Feature",
            "geometry": {
                "type": "Point",
                "coordinates": [
                    8.68568078,
                    50.1194357
                ]
            },
            "properties": {
                "RSU coordinates": [
                    8.6858749,
                    50.117711
                ],
                "Distance": 192.5,
                "Frequency": 5.9,
                "RSSI": -96.2,
                "LOS": "False"
            }
        },
        {
            "type": "Feature",
            "geometry": {
                "type": "Point",
                "coordinates": [
                    8.68577784,
                    50.11954349
                ]
            },
            "properties": {
                "RSU coordinates": [
                    8.6858749,
                    50.117711
                ],
                "Distance": 204.12,
                "Frequency": 5.9,
                "RSSI": -96.7,
                "LOS": "False"
            }
        },
        {
            "type": "Feature",
            "geometry": {
                "type": "Point",
                "coordinates": [
                    8.6858749,
                    50.11965128
                ]
            },
            "properties": {
                "RSU coordinates": [
                    8.6858749,
                    50.117711
                ],
                "Distance": 216.0,
                "Frequency": 5.9,
                "RSSI": -97.19,
                "LOS": "False"
            }
        },
        {
            "type": "Feature",
            "geometry": {
                "type": "Point",
                "coordinates": [
                    8.68606902,
                    50.11986687
                ]
            },
            "properties": {
                "RSU coordinates": [
                    8.6858749,
                    50.117711
                ],
                "Distance": 240.4,
                "Frequency": 5.9,
                "RSSI": -98.11,
                "LOS": "False"
            }
        },
        {
            "type": "Feature",
            "geometry": {
                "type": "Point",
                "coordinates": [
                    8.68616609,
                    50.11997467
                ]
            },
            "properties": {
                "RSU coordinates": [
                    8.6858749,
                    50.117711
                ],
                "Distance": 252.86,
                "Frequency": 5.9,
                "RSSI": -98.54,
                "LOS": "False"
            }
        },
        {
            "type": "Feature",
            "geometry": {
                "type": "Point",
                "coordinates": [
                    8.68626315,
                    50.12008246
                ]
            },
            "properties": {
                "RSU coordinates": [
                    8.6858749,
                    50.117711
                ],
                "Distance": 265.45,
                "Frequency": 5.9,
                "RSSI": -83.96,
                "LOS": "False"
            }
        },
        {
            "type": "Feature",
            "geometry": {
                "type": "Point",
                "coordinates": [
                    8.68636021,
                    50.12019025
                ]
            },
            "properties": {
                "RSU coordinates": [
                    8.6858749,
                    50.117711
                ],
                "Distance": 278.17,
                "Frequency": 5.9,
                "RSSI": -99.36,
                "LOS": "False"
            }
        },
        {
            "type": "Feature",
            "geometry": {
                "type": "Point",
                "coordinates": [
                    8.68393376,
                    50.11727983
                ]
            },
            "properties": {
                "RSU coordinates": [
                    8.6858749,
                    50.117711
                ],
                "Distance": 146.64,
                "Frequency": 5.9,
                "RSSI": -93.87,
                "LOS": "False"
            }
        },
        {
            "type": "Feature",
            "geometry": {
                "type": "Point",
                "coordinates": [
                    8.68403081,
                    50.11738762
                ]
            },
            "properties": {
                "RSU coordinates": [
                    8.6858749,
                    50.117711
                ],
                "Distance": 136.47,
                "Frequency": 5.9,
                "RSSI": -93.25,
                "LOS": "False"
            }
        },
        {
            "type": "Feature",
            "geometry": {
                "type": "Point",
                "coordinates": [
                    8.68412787,
                    50.11749541
                ]
            },
            "properties": {
                "RSU coordinates": [
                    8.6858749,
                    50.117711
                ],
                "Distance": 127.0,
                "Frequency": 5.9,
                "RSSI": -92.63,
                "LOS": "False"
            }
        },
        {
            "type": "Feature",
            "geometry": {
                "type": "Point",
                "coordinates": [
                    8.68422492,
                    50.11760321
                ]
            },
            "properties": {
                "RSU coordinates": [
                    8.6858749,
                    50.117711
                ],
                "Distance": 118.39,
                "Frequency": 5.9,
                "RSSI": -77.03,
                "LOS": "False"
            }
        },
        {
            "type": "Feature",
            "geometry": {
                "type": "Point",
                "coordinates": [
                    8.68529254,
                    50.11878894
                ]
            },
            "properties": {
                "RSU coordinates": [
                    8.6858749,
                    50.117711
                ],
                "Distance": 127.0,
                "Frequency": 5.9,
                "RSSI": -77.63,
                "LOS": "False"
            }
        },
        {
            "type": "Feature",
            "geometry": {
                "type": "Point",
                "coordinates": [
                    8.6853896,
                    50.11889673
                ]
            },
            "properties": {
                "RSU coordinates": [
                    8.6858749,
                    50.117711
                ],
                "Distance": 136.47,
                "Frequency": 5.9,
                "RSSI": -78.25,
                "LOS": "False"
            }
        },
        {
            "type": "Feature",
            "geometry": {
                "type": "Point",
                "coordinates": [
                    8.68548666,
                    50.11900452
                ]
            },
            "properties": {
                "RSU coordinates": [
                    8.6858749,
                    50.117711
                ],
                "Distance": 146.64,
                "Frequency": 5.9,
                "RSSI": -63.87,
                "LOS": "True"
            }
        },
        {
            "type": "Feature",
            "geometry": {
                "type": "Point",
                "coordinates": [
                    8.68558372,
                    50.11911232
                ]
            },
            "properties": {
                "RSU coordinates": [
                    8.6858749,
                    50.117711
                ],
                "Distance": 157.38,
                "Frequency": 5.9,
                "RSSI": -79.47,
                "LOS": "False"
            }
        },
        {
            "type": "Feature",
            "geometry": {
                "type": "Point",
                "coordinates": [
                    8.68568078,
                    50.11922011
                ]
            },
            "properties": {
                "RSU coordinates": [
                    8.6858749,
                    50.117711
                ],
                "Distance": 168.57,
                "Frequency": 5.9,
                "RSSI": -95.06,
                "LOS": "False"
            }
        },
        {
            "type": "Feature",
            "geometry": {
                "type": "Point",
                "coordinates": [
                    8.68577784,
                    50.1193279
                ]
            },
            "properties": {
                "RSU coordinates": [
                    8.6858749,
                    50.117711
                ],
                "Distance": 180.13,
                "Frequency": 5.9,
                "RSSI": -95.63,
                "LOS": "False"
            }
        },
        {
            "type": "Feature",
            "geometry": {
                "type": "Point",
                "coordinates": [
                    8.6858749,
                    50.1194357
                ]
            },
            "properties": {
                "RSU coordinates": [
                    8.6858749,
                    50.117711
                ],
                "Distance": 192.0,
                "Frequency": 5.9,
                "RSSI": -96.18,
                "LOS": "False"
            }
        },
        {
            "type": "Feature",
            "geometry": {
                "type": "Point",
                "coordinates": [
                    8.68606902,
                    50.11965128
                ]
            },
            "properties": {
                "RSU coordinates": [
                    8.6858749,
                    50.117711
                ],
                "Distance": 216.44,
                "Frequency": 5.9,
                "RSSI": -97.21,
                "LOS": "False"
            }
        },
        {
            "type": "Feature",
            "geometry": {
                "type": "Point",
                "coordinates": [
                    8.68616609,
                    50.11975908
                ]
            },
            "properties": {
                "RSU coordinates": [
                    8.6858749,
                    50.117711
                ],
                "Distance": 228.95,
                "Frequency": 5.9,
                "RSSI": -97.69,
                "LOS": "False"
            }
        },
        {
            "type": "Feature",
            "geometry": {
                "type": "Point",
                "coordinates": [
                    8.68626315,
                    50.11986687
                ]
            },
            "properties": {
                "RSU coordinates": [
                    8.6858749,
                    50.117711
                ],
                "Distance": 241.59,
                "Frequency": 5.9,
                "RSSI": -83.15,
                "LOS": "False"
            }
        },
        {
            "type": "Feature",
            "geometry": {
                "type": "Point",
                "coordinates": [
                    8.68412788,
                    50.11727983
                ]
            },
            "properties": {
                "RSU coordinates": [
                    8.6858749,
                    50.117711
                ],
                "Distance": 133.63,
                "Frequency": 5.9,
                "RSSI": -93.07,
                "LOS": "False"
            }
        },
        {
            "type": "Feature",
            "geometry": {
                "type": "Point",
                "coordinates": [
                    8.68422493,
                    50.11738762
                ]
            },
            "properties": {
                "RSU coordinates": [
                    8.6858749,
                    50.117711
                ],
                "Distance": 123.16,
                "Frequency": 5.9,
                "RSSI": -92.37,
                "LOS": "False"
            }
        },
        {
            "type": "Feature",
            "geometry": {
                "type": "Point",
                "coordinates": [
                    8.68432198,
                    50.11749541
                ]
            },
            "properties": {
                "RSU coordinates": [
                    8.6858749,
                    50.117711
                ],
                "Distance": 113.42,
                "Frequency": 5.9,
                "RSSI": -91.66,
                "LOS": "False"
            }
        },
        {
            "type": "Feature",
            "geometry": {
                "type": "Point",
                "coordinates": [
                    8.68441904,
                    50.11760321
                ]
            },
            "properties": {
                "RSU coordinates": [
                    8.6858749,
                    50.117711
                ],
                "Distance": 104.61,
                "Frequency": 5.9,
                "RSSI": -75.97,
                "LOS": "False"
            }
        },
        {
            "type": "Feature",
            "geometry": {
                "type": "Point",
                "coordinates": [
                    8.6853896,
                    50.11868114
                ]
            },
            "properties": {
                "RSU coordinates": [
                    8.6858749,
                    50.117711
                ],
                "Distance": 113.42,
                "Frequency": 5.9,
                "RSSI": -76.66,
                "LOS": "False"
            }
        },
        {
            "type": "Feature",
            "geometry": {
                "type": "Point",
                "coordinates": [
                    8.68548666,
                    50.11878894
                ]
            },
            "properties": {
                "RSU coordinates": [
                    8.6858749,
                    50.117711
                ],
                "Distance": 123.16,
                "Frequency": 5.9,
                "RSSI": -62.37,
                "LOS": "True"
            }
        },
        {
            "type": "Feature",
            "geometry": {
                "type": "Point",
                "coordinates": [
                    8.68558372,
                    50.11889673
                ]
            },
            "properties": {
                "RSU coordinates": [
                    8.6858749,
                    50.117711
                ],
                "Distance": 133.63,
                "Frequency": 5.9,
                "RSSI": -78.07,
                "LOS": "False"
            }
        },
        {
            "type": "Feature",
            "geometry": {
                "type": "Point",
                "coordinates": [
                    8.68568078,
                    50.11900452
                ]
            },
            "properties": {
                "RSU coordinates": [
                    8.6858749,
                    50.117711
                ],
                "Distance": 144.67,
                "Frequency": 5.9,
                "RSSI": -93.75,
                "LOS": "False"
            }
        },
        {
            "type": "Feature",
            "geometry": {
                "type": "Point",
                "coordinates": [
                    8.68577784,
                    50.11911232
                ]
            },
            "properties": {
                "RSU coordinates": [
                    8.6858749,
                    50.117711
                ],
                "Distance": 156.15,
                "Frequency": 5.9,
                "RSSI": -94.41,
                "LOS": "False"
            }
        },
        {
            "type": "Feature",
            "geometry": {
                "type": "Point",
                "coordinates": [
                    8.6858749,
                    50.11922011
                ]
            },
            "properties": {
                "RSU coordinates": [
                    8.6858749,
                    50.117711
                ],
                "Distance": 168.0,
                "Frequency": 5.9,
                "RSSI": -95.03,
                "LOS": "False"
            }
        },
        {
            "type": "Feature",
            "geometry": {
                "type": "Point",
                "coordinates": [
                    8.68606902,
                    50.1194357
                ]
            },
            "properties": {
                "RSU coordinates": [
                    8.6858749,
                    50.117711
                ],
                "Distance": 192.5,
                "Frequency": 5.9,
                "RSSI": -96.2,
                "LOS": "False"
            }
        },
        {
            "type": "Feature",
            "geometry": {
                "type": "Point",
                "coordinates": [
                    8.68616608,
                    50.11954349
                ]
            },
            "properties": {
                "RSU coordinates": [
                    8.6858749,
                    50.117711
                ],
                "Distance": 205.06,
                "Frequency": 5.9,
                "RSSI": -81.74,
                "LOS": "False"
            }
        },
        {
            "type": "Feature",
            "geometry": {
                "type": "Point",
                "coordinates": [
                    8.68626315,
                    50.11965128
                ]
            },
            "properties": {
                "RSU coordinates": [
                    8.6858749,
                    50.117711
                ],
                "Distance": 217.77,
                "Frequency": 5.9,
                "RSSI": -97.26,
                "LOS": "False"
            }
        },
        {
            "type": "Feature",
            "geometry": {
                "type": "Point",
                "coordinates": [
                    8.68441904,
                    50.11738762
                ]
            },
            "properties": {
                "RSU coordinates": [
                    8.6858749,
                    50.117711
                ],
                "Distance": 109.98,
                "Frequency": 5.9,
                "RSSI": -91.4,
                "LOS": "False"
            }
        },
        {
            "type": "Feature",
            "geometry": {
                "type": "Point",
                "coordinates": [
                    8.6845161,
                    50.11749541
                ]
            },
            "properties": {
                "RSU coordinates": [
                    8.6858749,
                    50.117711
                ],
                "Distance": 99.92,
                "Frequency": 5.9,
                "RSSI": -90.58,
                "LOS": "False"
            }
        },
        {
            "type": "Feature",
            "geometry": {
                "type": "Point",
                "coordinates": [
                    8.68461315,
                    50.11760321
                ]
            },
            "properties": {
                "RSU coordinates": [
                    8.6858749,
                    50.117711
                ],
                "Distance": 90.86,
                "Frequency": 5.9,
                "RSSI": -74.75999999999999,
                "LOS": "False"
            }
        },
        {
            "type": "Feature",
            "geometry": {
                "type": "Point",
                "coordinates": [
                    8.68471021,
                    50.117711
                ]
            },
            "properties": {
                "RSU coordinates": [
                    8.6858749,
                    50.117711
                ],
                "Distance": 83.14,
                "Frequency": 5.9,
                "RSSI": -89.0,
                "LOS": "False"
            }
        },
        {
            "type": "Feature",
            "geometry": {
                "type": "Point",
                "coordinates": [
                    8.6853896,
                    50.11846556
                ]
            },
            "properties": {
                "RSU coordinates": [
                    8.6858749,
                    50.117711
                ],
                "Distance": 90.86,
                "Frequency": 5.9,
                "RSSI": -89.75999999999999,
                "LOS": "False"
            }
        },
        {
            "type": "Feature",
            "geometry": {
                "type": "Point",
                "coordinates": [
                    8.68548666,
                    50.11857335
                ]
            },
            "properties": {
                "RSU coordinates": [
                    8.6858749,
                    50.117711
                ],
                "Distance": 99.92,
                "Frequency": 5.9,
                "RSSI": -75.58,
                "LOS": "False"
            }
        },
        {
            "type": "Feature",
            "geometry": {
                "type": "Point",
                "coordinates": [
                    8.68558372,
                    50.11868114
                ]
            },
            "properties": {
                "RSU coordinates": [
                    8.6858749,
                    50.117711
                ],
                "Distance": 109.98,
                "Frequency": 5.9,
                "RSSI": -61.4,
                "LOS": "True"
            }
        },
        {
            "type": "Feature",
            "geometry": {
                "type": "Point",
                "coordinates": [
                    8.68568078,
                    50.11878894
                ]
            },
            "properties": {
                "RSU coordinates": [
                    8.6858749,
                    50.117711
                ],
                "Distance": 120.8,
                "Frequency": 5.9,
                "RSSI": -77.2,
                "LOS": "False"
            }
        },
        {
            "type": "Feature",
            "geometry": {
                "type": "Point",
                "coordinates": [
                    8.68577784,
                    50.11889673
                ]
            },
            "properties": {
                "RSU coordinates": [
                    8.6858749,
                    50.117711
                ],
                "Distance": 132.18,
                "Frequency": 5.9,
                "RSSI": -92.97999999999999,
                "LOS": "False"
            }
        },
        {
            "type": "Feature",
            "geometry": {
                "type": "Point",
                "coordinates": [
                    8.6858749,
                    50.11900452
                ]
            },
            "properties": {
                "RSU coordinates": [
                    8.6858749,
                    50.117711
                ],
                "Distance": 144.0,
                "Frequency": 5.9,
                "RSSI": -93.71000000000001,
                "LOS": "False"
            }
        },
        {
            "type": "Feature",
            "geometry": {
                "type": "Point",
                "coordinates": [
                    8.68606902,
                    50.11922011
                ]
            },
            "properties": {
                "RSU coordinates": [
                    8.6858749,
                    50.117711
                ],
                "Distance": 168.57,
                "Frequency": 5.9,
                "RSSI": -95.06,
                "LOS": "False"
            }
        },
        {
            "type": "Feature",
            "geometry": {
                "type": "Point",
                "coordinates": [
                    8.68616608,
                    50.1193279
                ]
            },
            "properties": {
                "RSU coordinates": [
                    8.6858749,
                    50.117711
                ],
                "Distance": 181.2,
                "Frequency": 5.9,
                "RSSI": -80.68,
                "LOS": "False"
            }
        },
        {
            "type": "Feature",
            "geometry": {
                "type": "Point",
                "coordinates": [
                    8.68471021,
                    50.11749541
                ]
            },
            "properties": {
                "RSU coordinates": [
                    8.6858749,
                    50.117711
                ],
                "Distance": 86.53,
                "Frequency": 5.9,
                "RSSI": -89.34,
                "LOS": "False"
            }
        },
        {
            "type": "Feature",
            "geometry": {
                "type": "Point",
                "coordinates": [
                    8.68480727,
                    50.11760321
                ]
            },
            "properties": {
                "RSU coordinates": [
                    8.6858749,
                    50.117711
                ],
                "Distance": 77.15,
                "Frequency": 5.9,
                "RSSI": -73.36,
                "LOS": "False"
            }
        },
        {
            "type": "Feature",
            "geometry": {
                "type": "Point",
                "coordinates": [
                    8.68490432,
                    50.117711
                ]
            },
            "properties": {
                "RSU coordinates": [
                    8.6858749,
                    50.117711
                ],
                "Distance": 69.28,
                "Frequency": 5.9,
                "RSSI": -72.44,
                "LOS": "False"
            }
        },
        {
            "type": "Feature",
            "geometry": {
                "type": "Point",
                "coordinates": [
                    8.68509843,
                    50.11792659
                ]
            },
            "properties": {
                "RSU coordinates": [
                    8.6858749,
                    50.117711
                ],
                "Distance": 60.4,
                "Frequency": 5.9,
                "RSSI": -86.25999999999999,
                "LOS": "False"
            }
        },
        {
            "type": "Feature",
            "geometry": {
                "type": "Point",
                "coordinates": [
                    8.68548666,
                    50.11835776
                ]
            },
            "properties": {
                "RSU coordinates": [
                    8.6858749,
                    50.117711
                ],
                "Distance": 77.15,
                "Frequency": 5.9,
                "RSSI": -73.36,
                "LOS": "False"
            }
        },
        {
            "type": "Feature",
            "geometry": {
                "type": "Point",
                "coordinates": [
                    8.68558372,
                    50.11846556
                ]
            },
            "properties": {
                "RSU coordinates": [
                    8.6858749,
                    50.117711
                ],
                "Distance": 86.53,
                "Frequency": 5.9,
                "RSSI": -59.34,
                "LOS": "True"
            }
        },
        {
            "type": "Feature",
            "geometry": {
                "type": "Point",
                "coordinates": [
                    8.68606902,
                    50.11900452
                ]
            },
            "properties": {
                "RSU coordinates": [
                    8.6858749,
                    50.117711
                ],
                "Distance": 144.67,
                "Frequency": 5.9,
                "RSSI": -78.75,
                "LOS": "False"
            }
        },
        {
            "type": "Feature",
            "geometry": {
                "type": "Point",
                "coordinates": [
                    8.68616608,
                    50.11911232
                ]
            },
            "properties": {
                "RSU coordinates": [
                    8.6858749,
                    50.117711
                ],
                "Distance": 157.38,
                "Frequency": 5.9,
                "RSSI": -94.47,
                "LOS": "False"
            }
        },
        {
            "type": "Feature",
            "geometry": {
                "type": "Point",
                "coordinates": [
                    8.68490433,
                    50.11749541
                ]
            },
            "properties": {
                "RSU coordinates": [
                    8.6858749,
                    50.117711
                ],
                "Distance": 73.32,
                "Frequency": 5.9,
                "RSSI": -87.92,
                "LOS": "False"
            }
        },
        {
            "type": "Feature",
            "geometry": {
                "type": "Point",
                "coordinates": [
                    8.68500138,
                    50.11760321
                ]
            },
            "properties": {
                "RSU coordinates": [
                    8.6858749,
                    50.117711
                ],
                "Distance": 63.5,
                "Frequency": 5.9,
                "RSSI": -86.69,
                "LOS": "False"
            }
        },
        {
            "type": "Feature",
            "geometry": {
                "type": "Point",
                "coordinates": [
                    8.68509844,
                    50.117711
                ]
            },
            "properties": {
                "RSU coordinates": [
                    8.6858749,
                    50.117711
                ],
                "Distance": 55.43,
                "Frequency": 5.9,
                "RSSI": -70.52000000000001,
                "LOS": "False"
            }
        },
        {
            "type": "Feature",
            "geometry": {
                "type": "Point",
                "coordinates": [
                    8.68529255,
                    50.11792659
                ]
            },
            "properties": {
                "RSU coordinates": [
                    8.6858749,
                    50.117711
                ],
                "Distance": 48.0,
                "Frequency": 5.9,
                "RSSI": -84.28999999999999,
                "LOS": "False"
            }
        },
        {
            "type": "Feature",
            "geometry": {
                "type": "Point",
                "coordinates": [
                    8.68538961,
                    50.11803438
                ]
            },
            "properties": {
                "RSU coordinates": [
                    8.6858749,
                    50.117711
                ],
                "Distance": 49.96,
                "Frequency": 5.9,
                "RSSI": -84.63,
                "LOS": "False"
            }
        },
        {
            "type": "Feature",
            "geometry": {
                "type": "Point",
                "coordinates": [
                    8.68558372,
                    50.11824997
                ]
            },
            "properties": {
                "RSU coordinates": [
                    8.6858749,
                    50.117711
                ],
                "Distance": 63.5,
                "Frequency": 5.9,
                "RSSI": -71.69,
                "LOS": "False"
            }
        },
        {
            "type": "Feature",
            "geometry": {
                "type": "Point",
                "coordinates": [
                    8.68568078,
                    50.11835776
                ]
            },
            "properties": {
                "RSU coordinates": [
                    8.6858749,
                    50.117711
                ],
                "Distance": 73.32,
                "Frequency": 5.9,
                "RSSI": -57.92,
                "LOS": "True"
            }
        },
        {
            "type": "Feature",
            "geometry": {
                "type": "Point",
                "coordinates": [
                    8.68577784,
                    50.11846556
                ]
            },
            "properties": {
                "RSU coordinates": [
                    8.6858749,
                    50.117711
                ],
                "Distance": 84.29,
                "Frequency": 5.9,
                "RSSI": -59.12,
                "LOS": "True"
            }
        },
        {
            "type": "Feature",
            "geometry": {
                "type": "Point",
                "coordinates": [
                    8.68606902,
                    50.11878894
                ]
            },
            "properties": {
                "RSU coordinates": [
                    8.6858749,
                    50.117711
                ],
                "Distance": 120.8,
                "Frequency": 5.9,
                "RSSI": -77.2,
                "LOS": "False"
            }
        },
        {
            "type": "Feature",
            "geometry": {
                "type": "Point",
                "coordinates": [
                    8.6851955,
                    50.11760321
                ]
            },
            "properties": {
                "RSU coordinates": [
                    8.6858749,
                    50.117711
                ],
                "Distance": 49.96,
                "Frequency": 5.9,
                "RSSI": -84.63,
                "LOS": "False"
            }
        },
        {
            "type": "Feature",
            "geometry": {
                "type": "Point",
                "coordinates": [
                    8.68529255,
                    50.117711
                ]
            },
            "properties": {
                "RSU coordinates": [
                    8.6858749,
                    50.117711
                ],
                "Distance": 41.57,
                "Frequency": 5.9,
                "RSSI": -68.06,
                "LOS": "False"
            }
        },
        {
            "type": "Feature",
            "geometry": {
                "type": "Point",
                "coordinates": [
                    8.68538961,
                    50.11781879
                ]
            },
            "properties": {
                "RSU coordinates": [
                    8.6858749,
                    50.117711
                ],
                "Distance": 36.66,
                "Frequency": 5.9,
                "RSSI": -81.97999999999999,
                "LOS": "False"
            }
        },
        {
            "type": "Feature",
            "geometry": {
                "type": "Point",
                "coordinates": [
                    8.68548667,
                    50.11792659
                ]
            },
            "properties": {
                "RSU coordinates": [
                    8.6858749,
                    50.117711
                ],
                "Distance": 36.66,
                "Frequency": 5.9,
                "RSSI": -96.97999999999999,
                "LOS": "False"
            }
        },
        {
            "type": "Feature",
            "geometry": {
                "type": "Point",
                "coordinates": [
                    8.68558372,
                    50.11803438
                ]
            },
            "properties": {
                "RSU coordinates": [
                    8.6858749,
                    50.117711
                ],
                "Distance": 41.57,
                "Frequency": 5.9,
                "RSSI": -83.06,
                "LOS": "False"
            }
        },
        {
            "type": "Feature",
            "geometry": {
                "type": "Point",
                "coordinates": [
                    8.68568078,
                    50.11814217
                ]
            },
            "properties": {
                "RSU coordinates": [
                    8.6858749,
                    50.117711
                ],
                "Distance": 49.96,
                "Frequency": 5.9,
                "RSSI": -69.63,
                "LOS": "False"
            }
        },
        {
            "type": "Feature",
            "geometry": {
                "type": "Point",
                "coordinates": [
                    8.68577784,
                    50.11824997
                ]
            },
            "properties": {
                "RSU coordinates": [
                    8.6858749,
                    50.117711
                ],
                "Distance": 60.4,
                "Frequency": 5.9,
                "RSSI": -56.26,
                "LOS": "True"
            }
        },
        {
            "type": "Feature",
            "geometry": {
                "type": "Point",
                "coordinates": [
                    8.6858749,
                    50.11835776
                ]
            },
            "properties": {
                "RSU coordinates": [
                    8.6858749,
                    50.117711
                ],
                "Distance": 72.0,
                "Frequency": 5.9,
                "RSSI": -57.77,
                "LOS": "True"
            }
        },
        {
            "type": "Feature",
            "geometry": {
                "type": "Point",
                "coordinates": [
                    8.68597196,
                    50.11846556
                ]
            },
            "properties": {
                "RSU coordinates": [
                    8.6858749,
                    50.117711
                ],
                "Distance": 84.29,
                "Frequency": 5.9,
                "RSSI": -59.12,
                "LOS": "True"
            }
        },
        {
            "type": "Feature",
            "geometry": {
                "type": "Point",
                "coordinates": [
                    8.68529256,
                    50.11749541
                ]
            },
            "properties": {
                "RSU coordinates": [
                    8.6858749,
                    50.117711
                ],
                "Distance": 48.0,
                "Frequency": 5.9,
                "RSSI": -99.28999999999999,
                "LOS": "False"
            }
        },
        {
            "type": "Feature",
            "geometry": {
                "type": "Point",
                "coordinates": [
                    8.68548667,
                    50.117711
                ]
            },
            "properties": {
                "RSU coordinates": [
                    8.6858749,
                    50.117711
                ],
                "Distance": 27.71,
                "Frequency": 5.9,
                "RSSI": -64.58,
                "LOS": "False"
            }
        },
        {
            "type": "Feature",
            "geometry": {
                "type": "Point",
                "coordinates": [
                    8.68577784,
                    50.11803438
                ]
            },
            "properties": {
                "RSU coordinates": [
                    8.6858749,
                    50.117711
                ],
                "Distance": 36.66,
                "Frequency": 5.9,
                "RSSI": -51.98,
                "LOS": "True"
            }
        },
        {
            "type": "Feature",
            "geometry": {
                "type": "Point",
                "coordinates": [
                    8.6858749,
                    50.11814217
                ]
            },
            "properties": {
                "RSU coordinates": [
                    8.6858749,
                    50.117711
                ],
                "Distance": 48.0,
                "Frequency": 5.9,
                "RSSI": -54.29,
                "LOS": "True"
            }
        },
        {
            "type": "Feature",
            "geometry": {
                "type": "Point",
                "coordinates": [
                    8.68597196,
                    50.11824997
                ]
            },
            "properties": {
                "RSU coordinates": [
                    8.6858749,
                    50.117711
                ],
                "Distance": 60.4,
                "Frequency": 5.9,
                "RSSI": -56.26,
                "LOS": "True"
            }
        },
        {
            "type": "Feature",
            "geometry": {
                "type": "Point",
                "coordinates": [
                    8.68548667,
                    50.11749541
                ]
            },
            "properties": {
                "RSU coordinates": [
                    8.6858749,
                    50.117711
                ],
                "Distance": 36.66,
                "Frequency": 5.9,
                "RSSI": -96.97999999999999,
                "LOS": "False"
            }
        },
        {
            "type": "Feature",
            "geometry": {
                "type": "Point",
                "coordinates": [
                    8.68577784,
                    50.11781879
                ]
            },
            "properties": {
                "RSU coordinates": [
                    8.6858749,
                    50.117711
                ],
                "Distance": 13.86,
                "Frequency": 5.9,
                "RSSI": -43.63,
                "LOS": "True"
            }
        },
        {
            "type": "Feature",
            "geometry": {
                "type": "Point",
                "coordinates": [
                    8.6858749,
                    50.11792659
                ]
            },
            "properties": {
                "RSU coordinates": [
                    8.6858749,
                    50.117711
                ],
                "Distance": 24.0,
                "Frequency": 5.9,
                "RSSI": -48.34,
                "LOS": "True"
            }
        },
        {
            "type": "Feature",
            "geometry": {
                "type": "Point",
                "coordinates": [
                    8.68568079,
                    50.11749541
                ]
            },
            "properties": {
                "RSU coordinates": [
                    8.6858749,
                    50.117711
                ],
                "Distance": 27.71,
                "Frequency": 5.9,
                "RSSI": -64.58,
                "LOS": "False"
            }
        },
        {
            "type": "Feature",
            "geometry": {
                "type": "Point",
                "coordinates": [
                    8.68577784,
                    50.11760321
                ]
            },
            "properties": {
                "RSU coordinates": [
                    8.6858749,
                    50.117711
                ],
                "Distance": 13.86,
                "Frequency": 5.9,
                "RSSI": -43.63,
                "LOS": "True"
            }
        },
        {
            "type": "Feature",
            "geometry": {
                "type": "Point",
                "coordinates": [
                    8.68616608,
                    50.11803438
                ]
            },
            "properties": {
                "RSU coordinates": [
                    8.6858749,
                    50.117711
                ],
                "Distance": 41.57,
                "Frequency": 5.9,
                "RSSI": -98.06,
                "LOS": "False"
            }
        },
        {
            "type": "Feature",
            "geometry": {
                "type": "Point",
                "coordinates": [
                    8.68577784,
                    50.11738762
                ]
            },
            "properties": {
                "RSU coordinates": [
                    8.6858749,
                    50.117711
                ],
                "Distance": 36.66,
                "Frequency": 5.9,
                "RSSI": -51.98,
                "LOS": "True"
            }
        },
        {
            "type": "Feature",
            "geometry": {
                "type": "Point",
                "coordinates": [
                    8.6858749,
                    50.11749541
                ]
            },
            "properties": {
                "RSU coordinates": [
                    8.6858749,
                    50.117711
                ],
                "Distance": 24.0,
                "Frequency": 5.9,
                "RSSI": -48.34,
                "LOS": "True"
            }
        },
        {
            "type": "Feature",
            "geometry": {
                "type": "Point",
                "coordinates": [
                    8.68616607,
                    50.11781879
                ]
            },
            "properties": {
                "RSU coordinates": [
                    8.6858749,
                    50.117711
                ],
                "Distance": 24.0,
                "Frequency": 5.9,
                "RSSI": -63.34,
                "LOS": "False"
            }
        },
        {
            "type": "Feature",
            "geometry": {
                "type": "Point",
                "coordinates": [
                    8.68577784,
                    50.11717203
                ]
            },
            "properties": {
                "RSU coordinates": [
                    8.6858749,
                    50.117711
                ],
                "Distance": 60.4,
                "Frequency": 5.9,
                "RSSI": -56.26,
                "LOS": "True"
            }
        },
        {
            "type": "Feature",
            "geometry": {
                "type": "Point",
                "coordinates": [
                    8.6858749,
                    50.11727983
                ]
            },
            "properties": {
                "RSU coordinates": [
                    8.6858749,
                    50.117711
                ],
                "Distance": 48.0,
                "Frequency": 5.9,
                "RSSI": -54.29,
                "LOS": "True"
            }
        },
        {
            "type": "Feature",
            "geometry": {
                "type": "Point",
                "coordinates": [
                    8.68597196,
                    50.11738762
                ]
            },
            "properties": {
                "RSU coordinates": [
                    8.6858749,
                    50.117711
                ],
                "Distance": 36.66,
                "Frequency": 5.9,
                "RSSI": -66.97999999999999,
                "LOS": "False"
            }
        },
        {
            "type": "Feature",
            "geometry": {
                "type": "Point",
                "coordinates": [
                    8.68616607,
                    50.11760321
                ]
            },
            "properties": {
                "RSU coordinates": [
                    8.6858749,
                    50.117711
                ],
                "Distance": 24.0,
                "Frequency": 5.9,
                "RSSI": -78.34,
                "LOS": "False"
            }
        },
        {
            "type": "Feature",
            "geometry": {
                "type": "Point",
                "coordinates": [
                    8.68626313,
                    50.117711
                ]
            },
            "properties": {
                "RSU coordinates": [
                    8.6858749,
                    50.117711
                ],
                "Distance": 27.71,
                "Frequency": 5.9,
                "RSSI": -64.58,
                "LOS": "False"
            }
        },
        {
            "type": "Feature",
            "geometry": {
                "type": "Point",
                "coordinates": [
                    8.68636019,
                    50.11781879
                ]
            },
            "properties": {
                "RSU coordinates": [
                    8.6858749,
                    50.117711
                ],
                "Distance": 36.66,
                "Frequency": 5.9,
                "RSSI": -66.97999999999999,
                "LOS": "False"
            }
        },
        {
            "type": "Feature",
            "geometry": {
                "type": "Point",
                "coordinates": [
                    8.68577784,
                    50.11695644
                ]
            },
            "properties": {
                "RSU coordinates": [
                    8.6858749,
                    50.117711
                ],
                "Distance": 84.29,
                "Frequency": 5.9,
                "RSSI": -59.12,
                "LOS": "True"
            }
        },
        {
            "type": "Feature",
            "geometry": {
                "type": "Point",
                "coordinates": [
                    8.6858749,
                    50.11706424
                ]
            },
            "properties": {
                "RSU coordinates": [
                    8.6858749,
                    50.117711
                ],
                "Distance": 72.0,
                "Frequency": 5.9,
                "RSSI": -57.77,
                "LOS": "True"
            }
        },
        {
            "type": "Feature",
            "geometry": {
                "type": "Point",
                "coordinates": [
                    8.68597196,
                    50.11717203
                ]
            },
            "properties": {
                "RSU coordinates": [
                    8.6858749,
                    50.117711
                ],
                "Distance": 60.4,
                "Frequency": 5.9,
                "RSSI": -56.26,
                "LOS": "True"
            }
        },
        {
            "type": "Feature",
            "geometry": {
                "type": "Point",
                "coordinates": [
                    8.68645725,
                    50.117711
                ]
            },
            "properties": {
                "RSU coordinates": [
                    8.6858749,
                    50.117711
                ],
                "Distance": 41.57,
                "Frequency": 5.9,
                "RSSI": -83.06,
                "LOS": "False"
            }
        },
        {
            "type": "Feature",
            "geometry": {
                "type": "Point",
                "coordinates": [
                    8.68655431,
                    50.11781879
                ]
            },
            "properties": {
                "RSU coordinates": [
                    8.6858749,
                    50.117711
                ],
                "Distance": 49.96,
                "Frequency": 5.9,
                "RSSI": -84.63,
                "LOS": "False"
            }
        },
        {
            "type": "Feature",
            "geometry": {
                "type": "Point",
                "coordinates": [
                    8.68665137,
                    50.11792659
                ]
            },
            "properties": {
                "RSU coordinates": [
                    8.6858749,
                    50.117711
                ],
                "Distance": 60.4,
                "Frequency": 5.9,
                "RSSI": -86.25999999999999,
                "LOS": "False"
            }
        },
        {
            "type": "Feature",
            "geometry": {
                "type": "Point",
                "coordinates": [
                    8.68577784,
                    50.11674086
                ]
            },
            "properties": {
                "RSU coordinates": [
                    8.6858749,
                    50.117711
                ],
                "Distance": 108.22,
                "Frequency": 5.9,
                "RSSI": -61.26,
                "LOS": "True"
            }
        },
        {
            "type": "Feature",
            "geometry": {
                "type": "Point",
                "coordinates": [
                    8.6858749,
                    50.11684865
                ]
            },
            "properties": {
                "RSU coordinates": [
                    8.6858749,
                    50.117711
                ],
                "Distance": 96.0,
                "Frequency": 5.9,
                "RSSI": -60.23,
                "LOS": "True"
            }
        },
        {
            "type": "Feature",
            "geometry": {
                "type": "Point",
                "coordinates": [
                    8.68597196,
                    50.11695644
                ]
            },
            "properties": {
                "RSU coordinates": [
                    8.6858749,
                    50.117711
                ],
                "Distance": 84.29,
                "Frequency": 5.9,
                "RSSI": -59.12,
                "LOS": "True"
            }
        },
        {
            "type": "Feature",
            "geometry": {
                "type": "Point",
                "coordinates": [
                    8.68568079,
                    50.11641748
                ]
            },
            "properties": {
                "RSU coordinates": [
                    8.6858749,
                    50.117711
                ],
                "Distance": 144.67,
                "Frequency": 5.9,
                "RSSI": -93.75,
                "LOS": "False"
            }
        },
        {
            "type": "Feature",
            "geometry": {
                "type": "Point",
                "coordinates": [
                    8.68597196,
                    50.11674086
                ]
            },
            "properties": {
                "RSU coordinates": [
                    8.6858749,
                    50.117711
                ],
                "Distance": 108.22,
                "Frequency": 5.9,
                "RSSI": -61.26,
                "LOS": "True"
            }
        },
        {
            "type": "Feature",
            "geometry": {
                "type": "Point",
                "coordinates": [
                    8.68597196,
                    50.11652527
                ]
            },
            "properties": {
                "RSU coordinates": [
                    8.6858749,
                    50.117711
                ],
                "Distance": 132.18,
                "Frequency": 5.9,
                "RSSI": -62.98,
                "LOS": "True"
            }
        },
        {
            "type": "Feature",
            "geometry": {
                "type": "Point",
                "coordinates": [
                    8.68606901,
                    50.11663306
                ]
            },
            "properties": {
                "RSU coordinates": [
                    8.6858749,
                    50.117711
                ],
                "Distance": 120.8,
                "Frequency": 5.9,
                "RSSI": -62.2,
                "LOS": "True"
            }
        },
        {
            "type": "Feature",
            "geometry": {
                "type": "Point",
                "coordinates": [
                    8.68606901,
                    50.11641748
                ]
            },
            "properties": {
                "RSU coordinates": [
                    8.6858749,
                    50.117711
                ],
                "Distance": 144.67,
                "Frequency": 5.9,
                "RSSI": -63.75,
                "LOS": "True"
            }
        },
        {
            "type": "Feature",
            "geometry": {
                "type": "Point",
                "coordinates": [
                    8.68606901,
                    50.11620189
                ]
            },
            "properties": {
                "RSU coordinates": [
                    8.6858749,
                    50.117711
                ],
                "Distance": 168.57,
                "Frequency": 5.9,
                "RSSI": -65.06,
                "LOS": "True"
            }
        },
        {
            "type": "Feature",
            "geometry": {
                "type": "Point",
                "coordinates": [
                    8.68616606,
                    50.11630968
                ]
            },
            "properties": {
                "RSU coordinates": [
                    8.6858749,
                    50.117711
                ],
                "Distance": 157.38,
                "Frequency": 5.9,
                "RSSI": -94.47,
                "LOS": "False"
            }
        },
        {
            "type": "Feature",
            "geometry": {
                "type": "Point",
                "coordinates": [
                    8.68616606,
                    50.1160941
                ]
            },
            "properties": {
                "RSU coordinates": [
                    8.6858749,
                    50.117711
                ],
                "Distance": 181.2,
                "Frequency": 5.9,
                "RSSI": -65.68,
                "LOS": "True"
            }
        },
        {
            "type": "Feature",
            "geometry": {
                "type": "Point",
                "coordinates": [
                    8.68616606,
                    50.11587851
                ]
            },
            "properties": {
                "RSU coordinates": [
                    8.6858749,
                    50.117711
                ],
                "Distance": 205.06,
                "Frequency": 5.9,
                "RSSI": -66.74,
                "LOS": "True"
            }
        },
        {
            "type": "Feature",
            "geometry": {
                "type": "Point",
                "coordinates": [
                    8.68626312,
                    50.11577072
                ]
            },
            "properties": {
                "RSU coordinates": [
                    8.6858749,
                    50.117711
                ],
                "Distance": 217.77,
                "Frequency": 5.9,
                "RSSI": -97.26,
                "LOS": "False"
            }
        },
        {
            "type": "Feature",
            "geometry": {
                "type": "Point",
                "coordinates": [
                    8.68626311,
                    50.11555513
                ]
            },
            "properties": {
                "RSU coordinates": [
                    8.6858749,
                    50.117711
                ],
                "Distance": 241.59,
                "Frequency": 5.9,
                "RSSI": -68.15,
                "LOS": "True"
            }
        },
        {
            "type": "Feature",
            "geometry": {
                "type": "Point",
                "coordinates": [
                    8.68636017,
                    50.11544733
                ]
            },
            "properties": {
                "RSU coordinates": [
                    8.6858749,
                    50.117711
                ],
                "Distance": 254.37,
                "Frequency": 5.9,
                "RSSI": -98.59,
                "LOS": "False"
            }
        },
        {
            "type": "Feature",
            "geometry": {
                "type": "Point",
                "coordinates": [
                    8.68636016,
                    50.11523175
                ]
            },
            "properties": {
                "RSU coordinates": [
                    8.6858749,
                    50.117711
                ],
                "Distance": 278.17,
                "Frequency": 5.9,
                "RSSI": -99.36,
                "LOS": "False"
            }
        },
        {
            "type": "Feature",
            "geometry": {
                "type": "Point",
                "coordinates": [
                    8.68636016,
                    50.11501616
                ]
            },
            "properties": {
                "RSU coordinates": [
                    8.6858749,
                    50.117711
                ],
                "Distance": 301.99,
                "Frequency": 5.9,
                "RSSI": -70.06,
                "LOS": "True"
            }
        },
        {
            "type": "Feature",
            "geometry": {
                "type": "Point",
                "coordinates": [
                    8.68645721,
                    50.11469278
                ]
            },
            "properties": {
                "RSU coordinates": [
                    8.6858749,
                    50.117711
                ],
                "Distance": 338.56,
                "Frequency": 5.9,
                "RSSI": -86.04,
                "LOS": "False"
            }
        },
        {
            "type": "Feature",
            "geometry": {
                "type": "Point",
                "coordinates": [
                    8.68645721,
                    50.11447719
                ]
            },
            "properties": {
                "RSU coordinates": [
                    8.6858749,
                    50.117711
                ],
                "Distance": 362.39,
                "Frequency": 5.9,
                "RSSI": -71.63,
                "LOS": "True"
            }
        },
        {
            "type": "Feature",
            "geometry": {
                "type": "Point",
                "coordinates": [
                    8.68655425,
                    50.11415381
                ]
            },
            "properties": {
                "RSU coordinates": [
                    8.6858749,
                    50.117711
                ],
                "Distance": 398.96,
                "Frequency": 5.9,
                "RSSI": -87.45,
                "LOS": "False"
            }
        }
    ]
}