{
    "type": "FeatureCollection",
    "features": [
        {
            "type": "Feature",
            "geometry": {
                "type": "Point",
                "coordinates": [
                    8.561281,
                    50.12507696
                ]
            },
            "properties": {
                "RSU coordinates": [
                    8.5644844,
                    50.1210886
                ],
                "Distance": 499.41,
                "Frequency": 5.9,
                "RSSI": -74.38,
                "LOS": "True"
            }
        },
        {
            "type": "Feature",
            "geometry": {
                "type": "Point",
                "coordinates": [
                    8.56137808,
                    50.12496917
                ]
            },
            "properties": {
                "RSU coordinates": [
                    8.5644844,
                    50.1210886
                ],
                "Distance": 485.57,
                "Frequency": 5.9,
                "RSSI": -74.14,
                "LOS": "True"
            }
        },
        {
            "type": "Feature",
            "geometry": {
                "type": "Point",
                "coordinates": [
                    8.56147516,
                    50.12486138
                ]
            },
            "properties": {
                "RSU coordinates": [
                    8.5644844,
                    50.1210886
                ],
                "Distance": 471.73,
                "Frequency": 5.9,
                "RSSI": -73.89,
                "LOS": "True"
            }
        },
        {
            "type": "Feature",
            "geometry": {
                "type": "Point",
                "coordinates": [
                    8.56157224,
                    50.12475358
                ]
            },
            "properties": {
                "RSU coordinates": [
                    8.5644844,
                    50.1210886
                ],
                "Distance": 457.89,
                "Frequency": 5.9,
                "RSSI": -73.63,
                "LOS": "True"
            }
        },
        {
            "type": "Feature",
            "geometry": {
                "type": "Point",
                "coordinates": [
                    8.56166932,
                    50.12464579
                ]
            },
            "properties": {
                "RSU coordinates": [
                    8.5644844,
                    50.1210886
                ],
                "Distance": 444.05,
                "Frequency": 5.9,
                "RSSI": -73.37,
                "LOS": "True"
            }
        },
        {
            "type": "Feature",
            "geometry": {
                "type": "Point",
                "coordinates": [
                    8.56176639,
                    50.12453799
                ]
            },
            "properties": {
                "RSU coordinates": [
                    8.5644844,
                    50.1210886
                ],
                "Distance": 430.22,
                "Frequency": 5.9,
                "RSSI": -73.1,
                "LOS": "True"
            }
        },
        {
            "type": "Feature",
            "geometry": {
                "type": "Point",
                "coordinates": [
                    8.56186347,
                    50.1244302
                ]
            },
            "properties": {
                "RSU coordinates": [
                    8.5644844,
                    50.1210886
                ],
                "Distance": 416.38,
                "Frequency": 5.9,
                "RSSI": -72.82,
                "LOS": "True"
            }
        },
        {
            "type": "Feature",
            "geometry": {
                "type": "Point",
                "coordinates": [
                    8.5621547,
                    50.12410682
                ]
            },
            "properties": {
                "RSU coordinates": [
                    8.5644844,
                    50.1210886
                ],
                "Distance": 374.89,
                "Frequency": 5.9,
                "RSSI": -71.92,
                "LOS": "True"
            }
        },
        {
            "type": "Feature",
            "geometry": {
                "type": "Point",
                "coordinates": [
                    8.56225178,
                    50.12399903
                ]
            },
            "properties": {
                "RSU coordinates": [
                    8.5644844,
                    50.1210886
                ],
                "Distance": 361.07,
                "Frequency": 5.9,
                "RSSI": -71.59,
                "LOS": "True"
            }
        },
        {
            "type": "Feature",
            "geometry": {
                "type": "Point",
                "coordinates": [
                    8.56234886,
                    50.12367565
                ]
            },
            "properties": {
                "RSU coordinates": [
                    8.5644844,
                    50.1210886
                ],
                "Distance": 325.85,
                "Frequency": 5.9,
                "RSSI": -85.71,
                "LOS": "False"
            }
        },
        {
            "type": "Feature",
            "geometry": {
                "type": "Point",
                "coordinates": [
                    8.56244594,
                    50.12356785
                ]
            },
            "properties": {
                "RSU coordinates": [
                    8.5644844,
                    50.1210886
                ],
                "Distance": 312.0,
                "Frequency": 5.9,
                "RSSI": -70.34,
                "LOS": "True"
            }
        },
        {
            "type": "Feature",
            "geometry": {
                "type": "Point",
                "coordinates": [
                    8.56254301,
                    50.12346006
                ]
            },
            "properties": {
                "RSU coordinates": [
                    8.5644844,
                    50.1210886
                ],
                "Distance": 298.15,
                "Frequency": 5.9,
                "RSSI": -69.95,
                "LOS": "True"
            }
        },
        {
            "type": "Feature",
            "geometry": {
                "type": "Point",
                "coordinates": [
                    8.56264008,
                    50.12335227
                ]
            },
            "properties": {
                "RSU coordinates": [
                    8.5644844,
                    50.1210886
                ],
                "Distance": 284.31,
                "Frequency": 5.9,
                "RSSI": -69.55,
                "LOS": "True"
            }
        },
        {
            "type": "Feature",
            "geometry": {
                "type": "Point",
                "coordinates": [
                    8.56273716,
                    50.12324447
                ]
            },
            "properties": {
                "RSU coordinates": [
                    8.5644844,
                    50.1210886
                ],
                "Distance": 270.47,
                "Frequency": 5.9,
                "RSSI": -69.12,
                "LOS": "True"
            }
        },
        {
            "type": "Feature",
            "geometry": {
                "type": "Point",
                "coordinates": [
                    8.56283423,
                    50.12313668
                ]
            },
            "properties": {
                "RSU coordinates": [
                    8.5644844,
                    50.1210886
                ],
                "Distance": 256.62,
                "Frequency": 5.9,
                "RSSI": -68.67,
                "LOS": "True"
            }
        },
        {
            "type": "Feature",
            "geometry": {
                "type": "Point",
                "coordinates": [
                    8.5629313,
                    50.12302888
                ]
            },
            "properties": {
                "RSU coordinates": [
                    8.5644844,
                    50.1210886
                ],
                "Distance": 242.78,
                "Frequency": 5.9,
                "RSSI": -68.19,
                "LOS": "True"
            }
        },
        {
            "type": "Feature",
            "geometry": {
                "type": "Point",
                "coordinates": [
                    8.56302837,
                    50.12292109
                ]
            },
            "properties": {
                "RSU coordinates": [
                    8.5644844,
                    50.1210886
                ],
                "Distance": 228.95,
                "Frequency": 5.9,
                "RSSI": -67.69,
                "LOS": "True"
            }
        },
        {
            "type": "Feature",
            "geometry": {
                "type": "Point",
                "coordinates": [
                    8.56312545,
                    50.1228133
                ]
            },
            "properties": {
                "RSU coordinates": [
                    8.5644844,
                    50.1210886
                ],
                "Distance": 215.11,
                "Frequency": 5.9,
                "RSSI": -67.15,
                "LOS": "True"
            }
        },
        {
            "type": "Feature",
            "geometry": {
                "type": "Point",
                "coordinates": [
                    8.55972846,
                    50.11882493
                ]
            },
            "properties": {
                "RSU coordinates": [
                    8.5644844,
                    50.1210886
                ],
                "Distance": 422.79,
                "Frequency": 5.9,
                "RSSI": -87.95,
                "LOS": "False"
            }
        },
        {
            "type": "Feature",
            "geometry": {
                "type": "Point",
                "coordinates": [
                    8.55982551,
                    50.11893273
                ]
            },
            "properties": {
                "RSU coordinates": [
                    8.5644844,
                    50.1210886
                ],
                "Distance": 410.11,
                "Frequency": 5.9,
                "RSSI": -87.69,
                "LOS": "False"
            }
        },
        {
            "type": "Feature",
            "geometry": {
                "type": "Point",
                "coordinates": [
                    8.56322252,
                    50.1227055
                ]
            },
            "properties": {
                "RSU coordinates": [
                    8.5644844,
                    50.1210886
                ],
                "Distance": 201.28,
                "Frequency": 5.9,
                "RSSI": -66.58,
                "LOS": "True"
            }
        },
        {
            "type": "Feature",
            "geometry": {
                "type": "Point",
                "coordinates": [
                    8.56011668,
                    50.11904052
                ]
            },
            "properties": {
                "RSU coordinates": [
                    8.5644844,
                    50.1210886
                ],
                "Distance": 386.24,
                "Frequency": 5.9,
                "RSSI": -87.17,
                "LOS": "False"
            }
        },
        {
            "type": "Feature",
            "geometry": {
                "type": "Point",
                "coordinates": [
                    8.56031078,
                    50.11925611
                ]
            },
            "properties": {
                "RSU coordinates": [
                    8.5644844,
                    50.1210886
                ],
                "Distance": 361.07,
                "Frequency": 5.9,
                "RSSI": -86.59,
                "LOS": "False"
            }
        },
        {
            "type": "Feature",
            "geometry": {
                "type": "Point",
                "coordinates": [
                    8.56322252,
                    50.12248992
                ]
            },
            "properties": {
                "RSU coordinates": [
                    8.5644844,
                    50.1210886
                ],
                "Distance": 180.13,
                "Frequency": 5.9,
                "RSSI": -95.63,
                "LOS": "False"
            }
        },
        {
            "type": "Feature",
            "geometry": {
                "type": "Point",
                "coordinates": [
                    8.56331959,
                    50.12259771
                ]
            },
            "properties": {
                "RSU coordinates": [
                    8.5644844,
                    50.1210886
                ],
                "Distance": 187.45,
                "Frequency": 5.9,
                "RSSI": -65.97,
                "LOS": "True"
            }
        },
        {
            "type": "Feature",
            "geometry": {
                "type": "Point",
                "coordinates": [
                    8.56040785,
                    50.11914832
                ]
            },
            "properties": {
                "RSU coordinates": [
                    8.5644844,
                    50.1210886
                ],
                "Distance": 362.39,
                "Frequency": 5.9,
                "RSSI": -71.63,
                "LOS": "True"
            }
        },
        {
            "type": "Feature",
            "geometry": {
                "type": "Point",
                "coordinates": [
                    8.56060195,
                    50.1193639
                ]
            },
            "properties": {
                "RSU coordinates": [
                    8.5644844,
                    50.1210886
                ],
                "Distance": 337.14,
                "Frequency": 5.9,
                "RSSI": -71.01,
                "LOS": "True"
            }
        },
        {
            "type": "Feature",
            "geometry": {
                "type": "Point",
                "coordinates": [
                    8.56069901,
                    50.1194717
                ]
            },
            "properties": {
                "RSU coordinates": [
                    8.5644844,
                    50.1210886
                ],
                "Distance": 324.67,
                "Frequency": 5.9,
                "RSSI": -85.68,
                "LOS": "False"
            }
        },
        {
            "type": "Feature",
            "geometry": {
                "type": "Point",
                "coordinates": [
                    8.56331959,
                    50.12238212
                ]
            },
            "properties": {
                "RSU coordinates": [
                    8.5644844,
                    50.1210886
                ],
                "Distance": 166.28,
                "Frequency": 5.9,
                "RSSI": -79.94,
                "LOS": "False"
            }
        },
        {
            "type": "Feature",
            "geometry": {
                "type": "Point",
                "coordinates": [
                    8.56341666,
                    50.12248992
                ]
            },
            "properties": {
                "RSU coordinates": [
                    8.5644844,
                    50.1210886
                ],
                "Distance": 173.62,
                "Frequency": 5.9,
                "RSSI": -65.32,
                "LOS": "True"
            }
        },
        {
            "type": "Feature",
            "geometry": {
                "type": "Point",
                "coordinates": [
                    8.56079608,
                    50.1193639
                ]
            },
            "properties": {
                "RSU coordinates": [
                    8.5644844,
                    50.1210886
                ],
                "Distance": 325.85,
                "Frequency": 5.9,
                "RSSI": -70.71,
                "LOS": "True"
            }
        },
        {
            "type": "Feature",
            "geometry": {
                "type": "Point",
                "coordinates": [
                    8.56089313,
                    50.1194717
                ]
            },
            "properties": {
                "RSU coordinates": [
                    8.5644844,
                    50.1210886
                ],
                "Distance": 313.23,
                "Frequency": 5.9,
                "RSSI": -70.38,
                "LOS": "True"
            }
        },
        {
            "type": "Feature",
            "geometry": {
                "type": "Point",
                "coordinates": [
                    8.56099018,
                    50.11957949
                ]
            },
            "properties": {
                "RSU coordinates": [
                    8.5644844,
                    50.1210886
                ],
                "Distance": 300.72,
                "Frequency": 5.9,
                "RSSI": -85.03,
                "LOS": "False"
            }
        },
        {
            "type": "Feature",
            "geometry": {
                "type": "Point",
                "coordinates": [
                    8.56351373,
                    50.12238212
                ]
            },
            "properties": {
                "RSU coordinates": [
                    8.5644844,
                    50.1210886
                ],
                "Distance": 159.8,
                "Frequency": 5.9,
                "RSSI": -64.6,
                "LOS": "True"
            }
        },
        {
            "type": "Feature",
            "geometry": {
                "type": "Point",
                "coordinates": [
                    8.56108725,
                    50.1194717
                ]
            },
            "properties": {
                "RSU coordinates": [
                    8.5644844,
                    50.1210886
                ],
                "Distance": 301.99,
                "Frequency": 5.9,
                "RSSI": -70.06,
                "LOS": "True"
            }
        },
        {
            "type": "Feature",
            "geometry": {
                "type": "Point",
                "coordinates": [
                    8.56118431,
                    50.11957949
                ]
            },
            "properties": {
                "RSU coordinates": [
                    8.5644844,
                    50.1210886
                ],
                "Distance": 289.33,
                "Frequency": 5.9,
                "RSSI": -69.7,
                "LOS": "True"
            }
        },
        {
            "type": "Feature",
            "geometry": {
                "type": "Point",
                "coordinates": [
                    8.56128136,
                    50.11968728
                ]
            },
            "properties": {
                "RSU coordinates": [
                    8.5644844,
                    50.1210886
                ],
                "Distance": 276.78,
                "Frequency": 5.9,
                "RSSI": -84.31,
                "LOS": "False"
            }
        },
        {
            "type": "Feature",
            "geometry": {
                "type": "Point",
                "coordinates": [
                    8.56351373,
                    50.12216654
                ]
            },
            "properties": {
                "RSU coordinates": [
                    8.5644844,
                    50.1210886
                ],
                "Distance": 138.56,
                "Frequency": 5.9,
                "RSSI": -63.38,
                "LOS": "True"
            }
        },
        {
            "type": "Feature",
            "geometry": {
                "type": "Point",
                "coordinates": [
                    8.5636108,
                    50.12227433
                ]
            },
            "properties": {
                "RSU coordinates": [
                    8.5644844,
                    50.1210886
                ],
                "Distance": 145.99,
                "Frequency": 5.9,
                "RSSI": -63.83,
                "LOS": "True"
            }
        },
        {
            "type": "Feature",
            "geometry": {
                "type": "Point",
                "coordinates": [
                    8.56147548,
                    50.11968728
                ]
            },
            "properties": {
                "RSU coordinates": [
                    8.5644844,
                    50.1210886
                ],
                "Distance": 265.45,
                "Frequency": 5.9,
                "RSSI": -68.96,
                "LOS": "True"
            }
        },
        {
            "type": "Feature",
            "geometry": {
                "type": "Point",
                "coordinates": [
                    8.56157254,
                    50.11979508
                ]
            },
            "properties": {
                "RSU coordinates": [
                    8.5644844,
                    50.1210886
                ],
                "Distance": 252.86,
                "Frequency": 5.9,
                "RSSI": -68.54,
                "LOS": "True"
            }
        },
        {
            "type": "Feature",
            "geometry": {
                "type": "Point",
                "coordinates": [
                    8.5636108,
                    50.12205874
                ]
            },
            "properties": {
                "RSU coordinates": [
                    8.5644844,
                    50.1210886
                ],
                "Distance": 124.71,
                "Frequency": 5.9,
                "RSSI": -62.48,
                "LOS": "True"
            }
        },
        {
            "type": "Feature",
            "geometry": {
                "type": "Point",
                "coordinates": [
                    8.56176666,
                    50.11979508
                ]
            },
            "properties": {
                "RSU coordinates": [
                    8.5644844,
                    50.1210886
                ],
                "Distance": 241.59,
                "Frequency": 5.9,
                "RSSI": -68.15,
                "LOS": "True"
            }
        },
        {
            "type": "Feature",
            "geometry": {
                "type": "Point",
                "coordinates": [
                    8.56186372,
                    50.11990287
                ]
            },
            "properties": {
                "RSU coordinates": [
                    8.5644844,
                    50.1210886
                ],
                "Distance": 228.95,
                "Frequency": 5.9,
                "RSSI": -67.69,
                "LOS": "True"
            }
        },
        {
            "type": "Feature",
            "geometry": {
                "type": "Point",
                "coordinates": [
                    8.56196078,
                    50.12001066
                ]
            },
            "properties": {
                "RSU coordinates": [
                    8.5644844,
                    50.1210886
                ],
                "Distance": 216.44,
                "Frequency": 5.9,
                "RSSI": -82.21,
                "LOS": "False"
            }
        },
        {
            "type": "Feature",
            "geometry": {
                "type": "Point",
                "coordinates": [
                    8.56370787,
                    50.12195095
                ]
            },
            "properties": {
                "RSU coordinates": [
                    8.5644844,
                    50.1210886
                ],
                "Distance": 110.85,
                "Frequency": 5.9,
                "RSSI": -61.47,
                "LOS": "True"
            }
        },
        {
            "type": "Feature",
            "geometry": {
                "type": "Point",
                "coordinates": [
                    8.5621549,
                    50.12001066
                ]
            },
            "properties": {
                "RSU coordinates": [
                    8.5644844,
                    50.1210886
                ],
                "Distance": 205.06,
                "Frequency": 5.9,
                "RSSI": -66.74,
                "LOS": "True"
            }
        },
        {
            "type": "Feature",
            "geometry": {
                "type": "Point",
                "coordinates": [
                    8.56225196,
                    50.12011846
                ]
            },
            "properties": {
                "RSU coordinates": [
                    8.5644844,
                    50.1210886
                ],
                "Distance": 192.5,
                "Frequency": 5.9,
                "RSSI": -81.2,
                "LOS": "False"
            }
        },
        {
            "type": "Feature",
            "geometry": {
                "type": "Point",
                "coordinates": [
                    8.56380494,
                    50.12184316
                ]
            },
            "properties": {
                "RSU coordinates": [
                    8.5644844,
                    50.1210886
                ],
                "Distance": 96.99,
                "Frequency": 5.9,
                "RSSI": -60.32,
                "LOS": "True"
            }
        },
        {
            "type": "Feature",
            "geometry": {
                "type": "Point",
                "coordinates": [
                    8.56244608,
                    50.12011846
                ]
            },
            "properties": {
                "RSU coordinates": [
                    8.5644844,
                    50.1210886
                ],
                "Distance": 181.2,
                "Frequency": 5.9,
                "RSSI": -65.68,
                "LOS": "True"
            }
        },
        {
            "type": "Feature",
            "geometry": {
                "type": "Point",
                "coordinates": [
                    8.56254314,
                    50.12022625
                ]
            },
            "properties": {
                "RSU coordinates": [
                    8.5644844,
                    50.1210886
                ],
                "Distance": 168.57,
                "Frequency": 5.9,
                "RSSI": -65.06,
                "LOS": "True"
            }
        },
        {
            "type": "Feature",
            "geometry": {
                "type": "Point",
                "coordinates": [
                    8.563902,
                    50.12173536
                ]
            },
            "properties": {
                "RSU coordinates": [
                    8.5644844,
                    50.1210886
                ],
                "Distance": 83.14,
                "Frequency": 5.9,
                "RSSI": -59.0,
                "LOS": "True"
            }
        },
        {
            "type": "Feature",
            "geometry": {
                "type": "Point",
                "coordinates": [
                    8.56399907,
                    50.12184316
                ]
            },
            "properties": {
                "RSU coordinates": [
                    8.5644844,
                    50.1210886
                ],
                "Distance": 90.86,
                "Frequency": 5.9,
                "RSSI": -74.75999999999999,
                "LOS": "False"
            }
        },
        {
            "type": "Feature",
            "geometry": {
                "type": "Point",
                "coordinates": [
                    8.56283433,
                    50.12033404
                ]
            },
            "properties": {
                "RSU coordinates": [
                    8.5644844,
                    50.1210886
                ],
                "Distance": 144.67,
                "Frequency": 5.9,
                "RSSI": -63.75,
                "LOS": "True"
            }
        },
        {
            "type": "Feature",
            "geometry": {
                "type": "Point",
                "coordinates": [
                    8.56361082,
                    50.12119639
                ]
            },
            "properties": {
                "RSU coordinates": [
                    8.5644844,
                    50.1210886
                ],
                "Distance": 63.5,
                "Frequency": 5.9,
                "RSSI": -86.69,
                "LOS": "False"
            }
        },
        {
            "type": "Feature",
            "geometry": {
                "type": "Point",
                "coordinates": [
                    8.56399907,
                    50.12162757
                ]
            },
            "properties": {
                "RSU coordinates": [
                    8.5644844,
                    50.1210886
                ],
                "Distance": 69.28,
                "Frequency": 5.9,
                "RSSI": -57.44,
                "LOS": "True"
            }
        },
        {
            "type": "Feature",
            "geometry": {
                "type": "Point",
                "coordinates": [
                    8.56312551,
                    50.12044184
                ]
            },
            "properties": {
                "RSU coordinates": [
                    8.5644844,
                    50.1210886
                ],
                "Distance": 120.8,
                "Frequency": 5.9,
                "RSSI": -62.2,
                "LOS": "True"
            }
        },
        {
            "type": "Feature",
            "geometry": {
                "type": "Point",
                "coordinates": [
                    8.56322257,
                    50.12054963
                ]
            },
            "properties": {
                "RSU coordinates": [
                    8.5644844,
                    50.1210886
                ],
                "Distance": 108.22,
                "Frequency": 5.9,
                "RSSI": -61.26,
                "LOS": "True"
            }
        },
        {
            "type": "Feature",
            "geometry": {
                "type": "Point",
                "coordinates": [
                    8.56380495,
                    50.12119639
                ]
            },
            "properties": {
                "RSU coordinates": [
                    8.5644844,
                    50.1210886
                ],
                "Distance": 49.96,
                "Frequency": 5.9,
                "RSSI": -84.63,
                "LOS": "False"
            }
        },
        {
            "type": "Feature",
            "geometry": {
                "type": "Point",
                "coordinates": [
                    8.56399907,
                    50.12141198
                ]
            },
            "properties": {
                "RSU coordinates": [
                    8.5644844,
                    50.1210886
                ],
                "Distance": 49.96,
                "Frequency": 5.9,
                "RSSI": -99.63,
                "LOS": "False"
            }
        },
        {
            "type": "Feature",
            "geometry": {
                "type": "Point",
                "coordinates": [
                    8.56409614,
                    50.12151977
                ]
            },
            "properties": {
                "RSU coordinates": [
                    8.5644844,
                    50.1210886
                ],
                "Distance": 55.43,
                "Frequency": 5.9,
                "RSSI": -55.52,
                "LOS": "True"
            }
        },
        {
            "type": "Feature",
            "geometry": {
                "type": "Point",
                "coordinates": [
                    8.56351376,
                    50.12065743
                ]
            },
            "properties": {
                "RSU coordinates": [
                    8.5644844,
                    50.1210886
                ],
                "Distance": 84.29,
                "Frequency": 5.9,
                "RSSI": -59.12,
                "LOS": "True"
            }
        },
        {
            "type": "Feature",
            "geometry": {
                "type": "Point",
                "coordinates": [
                    8.56380495,
                    50.12098081
                ]
            },
            "properties": {
                "RSU coordinates": [
                    8.5644844,
                    50.1210886
                ],
                "Distance": 49.96,
                "Frequency": 5.9,
                "RSSI": -99.63,
                "LOS": "False"
            }
        },
        {
            "type": "Feature",
            "geometry": {
                "type": "Point",
                "coordinates": [
                    8.56399908,
                    50.12119639
                ]
            },
            "properties": {
                "RSU coordinates": [
                    8.5644844,
                    50.1210886
                ],
                "Distance": 36.66,
                "Frequency": 5.9,
                "RSSI": -81.97999999999999,
                "LOS": "False"
            }
        },
        {
            "type": "Feature",
            "geometry": {
                "type": "Point",
                "coordinates": [
                    8.5641932,
                    50.12141198
                ]
            },
            "properties": {
                "RSU coordinates": [
                    8.5644844,
                    50.1210886
                ],
                "Distance": 41.57,
                "Frequency": 5.9,
                "RSSI": -53.06,
                "LOS": "True"
            }
        },
        {
            "type": "Feature",
            "geometry": {
                "type": "Point",
                "coordinates": [
                    8.56341671,
                    50.12033404
                ]
            },
            "properties": {
                "RSU coordinates": [
                    8.5644844,
                    50.1210886
                ],
                "Distance": 113.42,
                "Frequency": 5.9,
                "RSSI": -91.66,
                "LOS": "False"
            }
        },
        {
            "type": "Feature",
            "geometry": {
                "type": "Point",
                "coordinates": [
                    8.56380495,
                    50.12076522
                ]
            },
            "properties": {
                "RSU coordinates": [
                    8.5644844,
                    50.1210886
                ],
                "Distance": 60.4,
                "Frequency": 5.9,
                "RSSI": -56.26,
                "LOS": "True"
            }
        },
        {
            "type": "Feature",
            "geometry": {
                "type": "Point",
                "coordinates": [
                    8.56390201,
                    50.12087301
                ]
            },
            "properties": {
                "RSU coordinates": [
                    8.5644844,
                    50.1210886
                ],
                "Distance": 48.0,
                "Frequency": 5.9,
                "RSSI": -99.28999999999999,
                "LOS": "False"
            }
        },
        {
            "type": "Feature",
            "geometry": {
                "type": "Point",
                "coordinates": [
                    8.56399908,
                    50.12098081
                ]
            },
            "properties": {
                "RSU coordinates": [
                    8.5644844,
                    50.1210886
                ],
                "Distance": 36.66,
                "Frequency": 5.9,
                "RSSI": -81.97999999999999,
                "LOS": "False"
            }
        },
        {
            "type": "Feature",
            "geometry": {
                "type": "Point",
                "coordinates": [
                    8.56409614,
                    50.1210886
                ]
            },
            "properties": {
                "RSU coordinates": [
                    8.5644844,
                    50.1210886
                ],
                "Distance": 27.71,
                "Frequency": 5.9,
                "RSSI": -64.58,
                "LOS": "False"
            }
        },
        {
            "type": "Feature",
            "geometry": {
                "type": "Point",
                "coordinates": [
                    8.56419321,
                    50.12119639
                ]
            },
            "properties": {
                "RSU coordinates": [
                    8.5644844,
                    50.1210886
                ],
                "Distance": 24.0,
                "Frequency": 5.9,
                "RSSI": -63.34,
                "LOS": "False"
            }
        },
        {
            "type": "Feature",
            "geometry": {
                "type": "Point",
                "coordinates": [
                    8.56429027,
                    50.12130419
                ]
            },
            "properties": {
                "RSU coordinates": [
                    8.5644844,
                    50.1210886
                ],
                "Distance": 27.71,
                "Frequency": 5.9,
                "RSSI": -49.58,
                "LOS": "True"
            }
        },
        {
            "type": "Feature",
            "geometry": {
                "type": "Point",
                "coordinates": [
                    8.5644844,
                    50.12151977
                ]
            },
            "properties": {
                "RSU coordinates": [
                    8.5644844,
                    50.1210886
                ],
                "Distance": 48.0,
                "Frequency": 5.9,
                "RSSI": -99.28999999999999,
                "LOS": "False"
            }
        },
        {
            "type": "Feature",
            "geometry": {
                "type": "Point",
                "coordinates": [
                    8.56370789,
                    50.12044184
                ]
            },
            "properties": {
                "RSU coordinates": [
                    8.5644844,
                    50.1210886
                ],
                "Distance": 90.86,
                "Frequency": 5.9,
                "RSSI": -89.75999999999999,
                "LOS": "False"
            }
        },
        {
            "type": "Feature",
            "geometry": {
                "type": "Point",
                "coordinates": [
                    8.56380496,
                    50.12054963
                ]
            },
            "properties": {
                "RSU coordinates": [
                    8.5644844,
                    50.1210886
                ],
                "Distance": 77.15,
                "Frequency": 5.9,
                "RSSI": -88.36,
                "LOS": "False"
            }
        },
        {
            "type": "Feature",
            "geometry": {
                "type": "Point",
                "coordinates": [
                    8.56390202,
                    50.12065743
                ]
            },
            "properties": {
                "RSU coordinates": [
                    8.5644844,
                    50.1210886
                ],
                "Distance": 63.5,
                "Frequency": 5.9,
                "RSSI": -86.69,
                "LOS": "False"
            }
        },
        {
            "type": "Feature",
            "geometry": {
                "type": "Point",
                "coordinates": [
                    8.56399908,
                    50.12076522
                ]
            },
            "properties": {
                "RSU coordinates": [
                    8.5644844,
                    50.1210886
                ],
                "Distance": 49.96,
                "Frequency": 5.9,
                "RSSI": -84.63,
                "LOS": "False"
            }
        },
        {
            "type": "Feature",
            "geometry": {
                "type": "Point",
                "coordinates": [
                    8.56409614,
                    50.12087301
                ]
            },
            "properties": {
                "RSU coordinates": [
                    8.5644844,
                    50.1210886
                ],
                "Distance": 36.66,
                "Frequency": 5.9,
                "RSSI": -51.98,
                "LOS": "True"
            }
        },
        {
            "type": "Feature",
            "geometry": {
                "type": "Point",
                "coordinates": [
                    8.56438734,
                    50.12119639
                ]
            },
            "properties": {
                "RSU coordinates": [
                    8.5644844,
                    50.1210886
                ],
                "Distance": 13.86,
                "Frequency": 5.9,
                "RSSI": -43.63,
                "LOS": "True"
            }
        },
        {
            "type": "Feature",
            "geometry": {
                "type": "Point",
                "coordinates": [
                    8.56458147,
                    50.12141198
                ]
            },
            "properties": {
                "RSU coordinates": [
                    8.5644844,
                    50.1210886
                ],
                "Distance": 36.66,
                "Frequency": 5.9,
                "RSSI": -81.97999999999999,
                "LOS": "False"
            }
        },
        {
            "type": "Feature",
            "geometry": {
                "type": "Point",
                "coordinates": [
                    8.56467853,
                    50.12151977
                ]
            },
            "properties": {
                "RSU coordinates": [
                    8.5644844,
                    50.1210886
                ],
                "Distance": 49.96,
                "Frequency": 5.9,
                "RSSI": -84.63,
                "LOS": "False"
            }
        },
        {
            "type": "Feature",
            "geometry": {
                "type": "Point",
                "coordinates": [
                    8.56487266,
                    50.12173536
                ]
            },
            "properties": {
                "RSU coordinates": [
                    8.5644844,
                    50.1210886
                ],
                "Distance": 77.15,
                "Frequency": 5.9,
                "RSSI": -88.36,
                "LOS": "False"
            }
        },
        {
            "type": "Feature",
            "geometry": {
                "type": "Point",
                "coordinates": [
                    8.56496973,
                    50.12184316
                ]
            },
            "properties": {
                "RSU coordinates": [
                    8.5644844,
                    50.1210886
                ],
                "Distance": 90.86,
                "Frequency": 5.9,
                "RSSI": -89.75999999999999,
                "LOS": "False"
            }
        },
        {
            "type": "Feature",
            "geometry": {
                "type": "Point",
                "coordinates": [
                    8.56419321,
                    50.12076522
                ]
            },
            "properties": {
                "RSU coordinates": [
                    8.5644844,
                    50.1210886
                ],
                "Distance": 41.57,
                "Frequency": 5.9,
                "RSSI": -98.06,
                "LOS": "False"
            }
        },
        {
            "type": "Feature",
            "geometry": {
                "type": "Point",
                "coordinates": [
                    8.56467853,
                    50.12130419
                ]
            },
            "properties": {
                "RSU coordinates": [
                    8.5644844,
                    50.1210886
                ],
                "Distance": 27.71,
                "Frequency": 5.9,
                "RSSI": -64.58,
                "LOS": "False"
            }
        },
        {
            "type": "Feature",
            "geometry": {
                "type": "Point",
                "coordinates": [
                    8.5647756,
                    50.12141198
                ]
            },
            "properties": {
                "RSU coordinates": [
                    8.5644844,
                    50.1210886
                ],
                "Distance": 41.57,
                "Frequency": 5.9,
                "RSSI": -68.06,
                "LOS": "False"
            }
        },
        {
            "type": "Feature",
            "geometry": {
                "type": "Point",
                "coordinates": [
                    8.56487266,
                    50.12151977
                ]
            },
            "properties": {
                "RSU coordinates": [
                    8.5644844,
                    50.1210886
                ],
                "Distance": 55.43,
                "Frequency": 5.9,
                "RSSI": -70.52000000000001,
                "LOS": "False"
            }
        },
        {
            "type": "Feature",
            "geometry": {
                "type": "Point",
                "coordinates": [
                    8.5650668,
                    50.12173536
                ]
            },
            "properties": {
                "RSU coordinates": [
                    8.5644844,
                    50.1210886
                ],
                "Distance": 83.14,
                "Frequency": 5.9,
                "RSSI": -89.0,
                "LOS": "False"
            }
        },
        {
            "type": "Feature",
            "geometry": {
                "type": "Point",
                "coordinates": [
                    8.56409615,
                    50.12044184
                ]
            },
            "properties": {
                "RSU coordinates": [
                    8.5644844,
                    50.1210886
                ],
                "Distance": 77.15,
                "Frequency": 5.9,
                "RSSI": -88.36,
                "LOS": "False"
            }
        },
        {
            "type": "Feature",
            "geometry": {
                "type": "Point",
                "coordinates": [
                    8.56429027,
                    50.12065743
                ]
            },
            "properties": {
                "RSU coordinates": [
                    8.5644844,
                    50.1210886
                ],
                "Distance": 49.96,
                "Frequency": 5.9,
                "RSSI": -84.63,
                "LOS": "False"
            }
        },
        {
            "type": "Feature",
            "geometry": {
                "type": "Point",
                "coordinates": [
                    8.5644844,
                    50.12087301
                ]
            },
            "properties": {
                "RSU coordinates": [
                    8.5644844,
                    50.1210886
                ],
                "Distance": 24.0,
                "Frequency": 5.9,
                "RSSI": -63.34,
                "LOS": "False"
            }
        },
        {
            "type": "Feature",
            "geometry": {
                "type": "Point",
                "coordinates": [
                    8.56458146,
                    50.12098081
                ]
            },
            "properties": {
                "RSU coordinates": [
                    8.5644844,
                    50.1210886
                ],
                "Distance": 13.86,
                "Frequency": 5.9,
                "RSSI": -43.63,
                "LOS": "True"
            }
        },
        {
            "type": "Feature",
            "geometry": {
                "type": "Point",
                "coordinates": [
                    8.56477559,
                    50.12119639
                ]
            },
            "properties": {
                "RSU coordinates": [
                    8.5644844,
                    50.1210886
                ],
                "Distance": 24.0,
                "Frequency": 5.9,
                "RSSI": -48.34,
                "LOS": "True"
            }
        },
        {
            "type": "Feature",
            "geometry": {
                "type": "Point",
                "coordinates": [
                    8.56487266,
                    50.12130419
                ]
            },
            "properties": {
                "RSU coordinates": [
                    8.5644844,
                    50.1210886
                ],
                "Distance": 36.66,
                "Frequency": 5.9,
                "RSSI": -81.97999999999999,
                "LOS": "False"
            }
        },
        {
            "type": "Feature",
            "geometry": {
                "type": "Point",
                "coordinates": [
                    8.56496973,
                    50.12141198
                ]
            },
            "properties": {
                "RSU coordinates": [
                    8.5644844,
                    50.1210886
                ],
                "Distance": 49.96,
                "Frequency": 5.9,
                "RSSI": -99.63,
                "LOS": "False"
            }
        },
        {
            "type": "Feature",
            "geometry": {
                "type": "Point",
                "coordinates": [
                    8.5644844,
                    50.12065743
                ]
            },
            "properties": {
                "RSU coordinates": [
                    8.5644844,
                    50.1210886
                ],
                "Distance": 48.0,
                "Frequency": 5.9,
                "RSSI": -99.28999999999999,
                "LOS": "False"
            }
        },
        {
            "type": "Feature",
            "geometry": {
                "type": "Point",
                "coordinates": [
                    8.56458146,
                    50.12076522
                ]
            },
            "properties": {
                "RSU coordinates": [
                    8.5644844,
                    50.1210886
                ],
                "Distance": 36.66,
                "Frequency": 5.9,
                "RSSI": -81.97999999999999,
                "LOS": "False"
            }
        },
        {
            "type": "Feature",
            "geometry": {
                "type": "Point",
                "coordinates": [
                    8.56467853,
                    50.12087301
                ]
            },
            "properties": {
                "RSU coordinates": [
                    8.5644844,
                    50.1210886
                ],
                "Distance": 27.71,
                "Frequency": 5.9,
                "RSSI": -49.58,
                "LOS": "True"
            }
        },
        {
            "type": "Feature",
            "geometry": {
                "type": "Point",
                "coordinates": [
                    8.56487266,
                    50.1210886
                ]
            },
            "properties": {
                "RSU coordinates": [
                    8.5644844,
                    50.1210886
                ],
                "Distance": 27.71,
                "Frequency": 5.9,
                "RSSI": -79.58,
                "LOS": "False"
            }
        },
        {
            "type": "Feature",
            "geometry": {
                "type": "Point",
                "coordinates": [
                    8.56506679,
                    50.12130419
                ]
            },
            "properties": {
                "RSU coordinates": [
                    8.5644844,
                    50.1210886
                ],
                "Distance": 48.0,
                "Frequency": 5.9,
                "RSSI": -54.29,
                "LOS": "True"
            }
        },
        {
            "type": "Feature",
            "geometry": {
                "type": "Point",
                "coordinates": [
                    8.56516386,
                    50.12141198
                ]
            },
            "properties": {
                "RSU coordinates": [
                    8.5644844,
                    50.1210886
                ],
                "Distance": 60.4,
                "Frequency": 5.9,
                "RSSI": -71.25999999999999,
                "LOS": "False"
            }
        },
        {
            "type": "Feature",
            "geometry": {
                "type": "Point",
                "coordinates": [
                    8.56467853,
                    50.12065743
                ]
            },
            "properties": {
                "RSU coordinates": [
                    8.5644844,
                    50.1210886
                ],
                "Distance": 49.96,
                "Frequency": 5.9,
                "RSSI": -84.63,
                "LOS": "False"
            }
        },
        {
            "type": "Feature",
            "geometry": {
                "type": "Point",
                "coordinates": [
                    8.56477559,
                    50.12076522
                ]
            },
            "properties": {
                "RSU coordinates": [
                    8.5644844,
                    50.1210886
                ],
                "Distance": 41.57,
                "Frequency": 5.9,
                "RSSI": -53.06,
                "LOS": "True"
            }
        },
        {
            "type": "Feature",
            "geometry": {
                "type": "Point",
                "coordinates": [
                    8.56496972,
                    50.12098081
                ]
            },
            "properties": {
                "RSU coordinates": [
                    8.5644844,
                    50.1210886
                ],
                "Distance": 36.66,
                "Frequency": 5.9,
                "RSSI": -81.97999999999999,
                "LOS": "False"
            }
        },
        {
            "type": "Feature",
            "geometry": {
                "type": "Point",
                "coordinates": [
                    8.56506679,
                    50.1210886
                ]
            },
            "properties": {
                "RSU coordinates": [
                    8.5644844,
                    50.1210886
                ],
                "Distance": 41.57,
                "Frequency": 5.9,
                "RSSI": -83.06,
                "LOS": "False"
            }
        },
        {
            "type": "Feature",
            "geometry": {
                "type": "Point",
                "coordinates": [
                    8.56516385,
                    50.12119639
                ]
            },
            "properties": {
                "RSU coordinates": [
                    8.5644844,
                    50.1210886
                ],
                "Distance": 49.96,
                "Frequency": 5.9,
                "RSSI": -99.63,
                "LOS": "False"
            }
        },
        {
            "type": "Feature",
            "geometry": {
                "type": "Point",
                "coordinates": [
                    8.56535799,
                    50.12141198
                ]
            },
            "properties": {
                "RSU coordinates": [
                    8.5644844,
                    50.1210886
                ],
                "Distance": 72.0,
                "Frequency": 5.9,
                "RSSI": -57.77,
                "LOS": "True"
            }
        },
        {
            "type": "Feature",
            "geometry": {
                "type": "Point",
                "coordinates": [
                    8.56545506,
                    50.12151977
                ]
            },
            "properties": {
                "RSU coordinates": [
                    8.5644844,
                    50.1210886
                ],
                "Distance": 84.29,
                "Frequency": 5.9,
                "RSSI": -59.12,
                "LOS": "True"
            }
        },
        {
            "type": "Feature",
            "geometry": {
                "type": "Point",
                "coordinates": [
                    8.56516385,
                    50.12098081
                ]
            },
            "properties": {
                "RSU coordinates": [
                    8.5644844,
                    50.1210886
                ],
                "Distance": 49.96,
                "Frequency": 5.9,
                "RSSI": -84.63,
                "LOS": "False"
            }
        },
        {
            "type": "Feature",
            "geometry": {
                "type": "Point",
                "coordinates": [
                    8.56564919,
                    50.12151977
                ]
            },
            "properties": {
                "RSU coordinates": [
                    8.5644844,
                    50.1210886
                ],
                "Distance": 96.0,
                "Frequency": 5.9,
                "RSSI": -60.23,
                "LOS": "True"
            }
        },
        {
            "type": "Feature",
            "geometry": {
                "type": "Point",
                "coordinates": [
                    8.56574625,
                    50.12162757
                ]
            },
            "properties": {
                "RSU coordinates": [
                    8.5644844,
                    50.1210886
                ],
                "Distance": 108.22,
                "Frequency": 5.9,
                "RSSI": -61.26,
                "LOS": "True"
            }
        },
        {
            "type": "Feature",
            "geometry": {
                "type": "Point",
                "coordinates": [
                    8.56506678,
                    50.12065743
                ]
            },
            "properties": {
                "RSU coordinates": [
                    8.5644844,
                    50.1210886
                ],
                "Distance": 63.5,
                "Frequency": 5.9,
                "RSSI": -86.69,
                "LOS": "False"
            }
        },
        {
            "type": "Feature",
            "geometry": {
                "type": "Point",
                "coordinates": [
                    8.56516385,
                    50.12076522
                ]
            },
            "properties": {
                "RSU coordinates": [
                    8.5644844,
                    50.1210886
                ],
                "Distance": 60.4,
                "Frequency": 5.9,
                "RSSI": -86.25999999999999,
                "LOS": "False"
            }
        },
        {
            "type": "Feature",
            "geometry": {
                "type": "Point",
                "coordinates": [
                    8.56526091,
                    50.12087301
                ]
            },
            "properties": {
                "RSU coordinates": [
                    8.5644844,
                    50.1210886
                ],
                "Distance": 60.4,
                "Frequency": 5.9,
                "RSSI": -86.25999999999999,
                "LOS": "False"
            }
        },
        {
            "type": "Feature",
            "geometry": {
                "type": "Point",
                "coordinates": [
                    8.56603746,
                    50.12173536
                ]
            },
            "properties": {
                "RSU coordinates": [
                    8.5644844,
                    50.1210886
                ],
                "Distance": 132.18,
                "Frequency": 5.9,
                "RSSI": -62.98,
                "LOS": "True"
            }
        },
        {
            "type": "Feature",
            "geometry": {
                "type": "Point",
                "coordinates": [
                    8.56516384,
                    50.12054963
                ]
            },
            "properties": {
                "RSU coordinates": [
                    8.5644844,
                    50.1210886
                ],
                "Distance": 77.15,
                "Frequency": 5.9,
                "RSSI": -88.36,
                "LOS": "False"
            }
        },
        {
            "type": "Feature",
            "geometry": {
                "type": "Point",
                "coordinates": [
                    8.56632866,
                    50.12184316
                ]
            },
            "properties": {
                "RSU coordinates": [
                    8.5644844,
                    50.1210886
                ],
                "Distance": 156.15,
                "Frequency": 5.9,
                "RSSI": -64.41,
                "LOS": "True"
            }
        },
        {
            "type": "Feature",
            "geometry": {
                "type": "Point",
                "coordinates": [
                    8.56642573,
                    50.12195095
                ]
            },
            "properties": {
                "RSU coordinates": [
                    8.5644844,
                    50.1210886
                ],
                "Distance": 168.57,
                "Frequency": 5.9,
                "RSSI": -65.06,
                "LOS": "True"
            }
        },
        {
            "type": "Feature",
            "geometry": {
                "type": "Point",
                "coordinates": [
                    8.56661986,
                    50.12195095
                ]
            },
            "properties": {
                "RSU coordinates": [
                    8.5644844,
                    50.1210886
                ],
                "Distance": 180.13,
                "Frequency": 5.9,
                "RSSI": -65.63,
                "LOS": "True"
            }
        },
        {
            "type": "Feature",
            "geometry": {
                "type": "Point",
                "coordinates": [
                    8.56671693,
                    50.12205874
                ]
            },
            "properties": {
                "RSU coordinates": [
                    8.5644844,
                    50.1210886
                ],
                "Distance": 192.5,
                "Frequency": 5.9,
                "RSSI": -66.2,
                "LOS": "True"
            }
        },
        {
            "type": "Feature",
            "geometry": {
                "type": "Point",
                "coordinates": [
                    8.56691106,
                    50.12205874
                ]
            },
            "properties": {
                "RSU coordinates": [
                    8.5644844,
                    50.1210886
                ],
                "Distance": 204.12,
                "Frequency": 5.9,
                "RSSI": -96.7,
                "LOS": "False"
            }
        },
        {
            "type": "Feature",
            "geometry": {
                "type": "Point",
                "coordinates": [
                    8.56700814,
                    50.12216654
                ]
            },
            "properties": {
                "RSU coordinates": [
                    8.5644844,
                    50.1210886
                ],
                "Distance": 216.44,
                "Frequency": 5.9,
                "RSSI": -67.21,
                "LOS": "True"
            }
        },
        {
            "type": "Feature",
            "geometry": {
                "type": "Point",
                "coordinates": [
                    8.56545503,
                    50.12022625
                ]
            },
            "properties": {
                "RSU coordinates": [
                    8.5644844,
                    50.1210886
                ],
                "Distance": 118.39,
                "Frequency": 5.9,
                "RSSI": -77.03,
                "LOS": "False"
            }
        },
        {
            "type": "Feature",
            "geometry": {
                "type": "Point",
                "coordinates": [
                    8.56729934,
                    50.12227433
                ]
            },
            "properties": {
                "RSU coordinates": [
                    8.5644844,
                    50.1210886
                ],
                "Distance": 240.4,
                "Frequency": 5.9,
                "RSSI": -68.11,
                "LOS": "True"
            }
        },
        {
            "type": "Feature",
            "geometry": {
                "type": "Point",
                "coordinates": [
                    8.56555209,
                    50.12011846
                ]
            },
            "properties": {
                "RSU coordinates": [
                    8.5644844,
                    50.1210886
                ],
                "Distance": 132.18,
                "Frequency": 5.9,
                "RSSI": -62.98,
                "LOS": "True"
            }
        },
        {
            "type": "Feature",
            "geometry": {
                "type": "Point",
                "coordinates": [
                    8.56759055,
                    50.12238212
                ]
            },
            "properties": {
                "RSU coordinates": [
                    8.5644844,
                    50.1210886
                ],
                "Distance": 264.36,
                "Frequency": 5.9,
                "RSSI": -68.92,
                "LOS": "True"
            }
        },
        {
            "type": "Feature",
            "geometry": {
                "type": "Point",
                "coordinates": [
                    8.56564915,
                    50.12001066
                ]
            },
            "properties": {
                "RSU coordinates": [
                    8.5644844,
                    50.1210886
                ],
                "Distance": 145.99,
                "Frequency": 5.9,
                "RSSI": -63.83,
                "LOS": "True"
            }
        },
        {
            "type": "Feature",
            "geometry": {
                "type": "Point",
                "coordinates": [
                    8.56788176,
                    50.12248992
                ]
            },
            "properties": {
                "RSU coordinates": [
                    8.5644844,
                    50.1210886
                ],
                "Distance": 288.33,
                "Frequency": 5.9,
                "RSSI": -69.67,
                "LOS": "True"
            }
        },
        {
            "type": "Feature",
            "geometry": {
                "type": "Point",
                "coordinates": [
                    8.56574621,
                    50.11990287
                ]
            },
            "properties": {
                "RSU coordinates": [
                    8.5644844,
                    50.1210886
                ],
                "Distance": 159.8,
                "Frequency": 5.9,
                "RSSI": -64.6,
                "LOS": "True"
            }
        },
        {
            "type": "Feature",
            "geometry": {
                "type": "Point",
                "coordinates": [
                    8.56817297,
                    50.12259771
                ]
            },
            "properties": {
                "RSU coordinates": [
                    8.5644844,
                    50.1210886
                ],
                "Distance": 312.31,
                "Frequency": 5.9,
                "RSSI": -70.35,
                "LOS": "True"
            }
        },
        {
            "type": "Feature",
            "geometry": {
                "type": "Point",
                "coordinates": [
                    8.56584327,
                    50.11979508
                ]
            },
            "properties": {
                "RSU coordinates": [
                    8.5644844,
                    50.1210886
                ],
                "Distance": 173.62,
                "Frequency": 5.9,
                "RSSI": -65.32,
                "LOS": "True"
            }
        },
        {
            "type": "Feature",
            "geometry": {
                "type": "Point",
                "coordinates": [
                    8.56846418,
                    50.1227055
                ]
            },
            "properties": {
                "RSU coordinates": [
                    8.5644844,
                    50.1210886
                ],
                "Distance": 336.29,
                "Frequency": 5.9,
                "RSSI": -85.98,
                "LOS": "False"
            }
        },
        {
            "type": "Feature",
            "geometry": {
                "type": "Point",
                "coordinates": [
                    8.5687554,
                    50.1228133
                ]
            },
            "properties": {
                "RSU coordinates": [
                    8.5644844,
                    50.1210886
                ],
                "Distance": 360.27,
                "Frequency": 5.9,
                "RSSI": -86.58,
                "LOS": "False"
            }
        },
        {
            "type": "Feature",
            "geometry": {
                "type": "Point",
                "coordinates": [
                    8.56603739,
                    50.11957949
                ]
            },
            "properties": {
                "RSU coordinates": [
                    8.5644844,
                    50.1210886
                ],
                "Distance": 201.28,
                "Frequency": 5.9,
                "RSSI": -81.58,
                "LOS": "False"
            }
        },
        {
            "type": "Feature",
            "geometry": {
                "type": "Point",
                "coordinates": [
                    8.56613444,
                    50.1194717
                ]
            },
            "properties": {
                "RSU coordinates": [
                    8.5644844,
                    50.1210886
                ],
                "Distance": 215.11,
                "Frequency": 5.9,
                "RSSI": -82.15,
                "LOS": "False"
            }
        },
        {
            "type": "Feature",
            "geometry": {
                "type": "Point",
                "coordinates": [
                    8.5662315,
                    50.1193639
                ]
            },
            "properties": {
                "RSU coordinates": [
                    8.5644844,
                    50.1210886
                ],
                "Distance": 228.95,
                "Frequency": 5.9,
                "RSSI": -82.69,
                "LOS": "False"
            }
        },
        {
            "type": "Feature",
            "geometry": {
                "type": "Point",
                "coordinates": [
                    8.56632856,
                    50.11925611
                ]
            },
            "properties": {
                "RSU coordinates": [
                    8.5644844,
                    50.1210886
                ],
                "Distance": 242.78,
                "Frequency": 5.9,
                "RSSI": -98.19,
                "LOS": "False"
            }
        },
        {
            "type": "Feature",
            "geometry": {
                "type": "Point",
                "coordinates": [
                    8.56652268,
                    50.11925611
                ]
            },
            "properties": {
                "RSU coordinates": [
                    8.5644844,
                    50.1210886
                ],
                "Distance": 250.57,
                "Frequency": 5.9,
                "RSSI": -98.46,
                "LOS": "False"
            }
        }
    ]
}