{
    "type": "FeatureCollection",
    "features": [
        {
            "type": "Feature",
            "geometry": {
                "type": "Point",
                "coordinates": [
                    8.54456496,
                    50.10528339
                ]
            },
            "properties": {
                "RSU coordinates": [
                    8.5485433,
                    50.1017262
                ],
                "Distance": 487.34,
                "Frequency": 5.9,
                "RSSI": -74.17,
                "LOS": "True"
            }
        },
        {
            "type": "Feature",
            "geometry": {
                "type": "Point",
                "coordinates": [
                    8.544662,
                    50.10517559
                ]
            },
            "properties": {
                "RSU coordinates": [
                    8.5485433,
                    50.1017262
                ],
                "Distance": 473.56,
                "Frequency": 5.9,
                "RSSI": -73.92,
                "LOS": "True"
            }
        },
        {
            "type": "Feature",
            "geometry": {
                "type": "Point",
                "coordinates": [
                    8.54475905,
                    50.1050678
                ]
            },
            "properties": {
                "RSU coordinates": [
                    8.5485433,
                    50.1017262
                ],
                "Distance": 459.77,
                "Frequency": 5.9,
                "RSSI": -73.67,
                "LOS": "True"
            }
        },
        {
            "type": "Feature",
            "geometry": {
                "type": "Point",
                "coordinates": [
                    8.54485609,
                    50.10496001
                ]
            },
            "properties": {
                "RSU coordinates": [
                    8.5485433,
                    50.1017262
                ],
                "Distance": 446.0,
                "Frequency": 5.9,
                "RSSI": -73.41,
                "LOS": "True"
            }
        },
        {
            "type": "Feature",
            "geometry": {
                "type": "Point",
                "coordinates": [
                    8.54495311,
                    50.1050678
                ]
            },
            "properties": {
                "RSU coordinates": [
                    8.5485433,
                    50.1017262
                ],
                "Distance": 451.77,
                "Frequency": 5.9,
                "RSSI": -88.52,
                "LOS": "False"
            }
        },
        {
            "type": "Feature",
            "geometry": {
                "type": "Point",
                "coordinates": [
                    8.54495313,
                    50.10485221
                ]
            },
            "properties": {
                "RSU coordinates": [
                    8.5485433,
                    50.1017262
                ],
                "Distance": 432.22,
                "Frequency": 5.9,
                "RSSI": -73.14,
                "LOS": "True"
            }
        },
        {
            "type": "Feature",
            "geometry": {
                "type": "Point",
                "coordinates": [
                    8.54505015,
                    50.10496001
                ]
            },
            "properties": {
                "RSU coordinates": [
                    8.5485433,
                    50.1017262
                ],
                "Distance": 437.96,
                "Frequency": 5.9,
                "RSSI": -88.25,
                "LOS": "False"
            }
        },
        {
            "type": "Feature",
            "geometry": {
                "type": "Point",
                "coordinates": [
                    8.54505017,
                    50.10474442
                ]
            },
            "properties": {
                "RSU coordinates": [
                    8.5485433,
                    50.1017262
                ],
                "Distance": 418.45,
                "Frequency": 5.9,
                "RSSI": -72.86,
                "LOS": "True"
            }
        },
        {
            "type": "Feature",
            "geometry": {
                "type": "Point",
                "coordinates": [
                    8.54514719,
                    50.10485221
                ]
            },
            "properties": {
                "RSU coordinates": [
                    8.5485433,
                    50.1017262
                ],
                "Distance": 424.15,
                "Frequency": 5.9,
                "RSSI": -87.98,
                "LOS": "False"
            }
        },
        {
            "type": "Feature",
            "geometry": {
                "type": "Point",
                "coordinates": [
                    8.5451472,
                    50.10463663
                ]
            },
            "properties": {
                "RSU coordinates": [
                    8.5485433,
                    50.1017262
                ],
                "Distance": 404.69,
                "Frequency": 5.9,
                "RSSI": -72.57,
                "LOS": "True"
            }
        },
        {
            "type": "Feature",
            "geometry": {
                "type": "Point",
                "coordinates": [
                    8.54524423,
                    50.10474442
                ]
            },
            "properties": {
                "RSU coordinates": [
                    8.5485433,
                    50.1017262
                ],
                "Distance": 410.35,
                "Frequency": 5.9,
                "RSSI": -87.69,
                "LOS": "False"
            }
        },
        {
            "type": "Feature",
            "geometry": {
                "type": "Point",
                "coordinates": [
                    8.54524424,
                    50.10452883
                ]
            },
            "properties": {
                "RSU coordinates": [
                    8.5485433,
                    50.1017262
                ],
                "Distance": 390.94,
                "Frequency": 5.9,
                "RSSI": -72.28,
                "LOS": "True"
            }
        },
        {
            "type": "Feature",
            "geometry": {
                "type": "Point",
                "coordinates": [
                    8.54534127,
                    50.10463663
                ]
            },
            "properties": {
                "RSU coordinates": [
                    8.5485433,
                    50.1017262
                ],
                "Distance": 396.55,
                "Frequency": 5.9,
                "RSSI": -87.4,
                "LOS": "False"
            }
        },
        {
            "type": "Feature",
            "geometry": {
                "type": "Point",
                "coordinates": [
                    8.54534128,
                    50.10442104
                ]
            },
            "properties": {
                "RSU coordinates": [
                    8.5485433,
                    50.1017262
                ],
                "Distance": 377.19,
                "Frequency": 5.9,
                "RSSI": -71.97,
                "LOS": "True"
            }
        },
        {
            "type": "Feature",
            "geometry": {
                "type": "Point",
                "coordinates": [
                    8.54543831,
                    50.10452883
                ]
            },
            "properties": {
                "RSU coordinates": [
                    8.5485433,
                    50.1017262
                ],
                "Distance": 382.75,
                "Frequency": 5.9,
                "RSSI": -72.09,
                "LOS": "True"
            }
        },
        {
            "type": "Feature",
            "geometry": {
                "type": "Point",
                "coordinates": [
                    8.54553534,
                    50.10442104
                ]
            },
            "properties": {
                "RSU coordinates": [
                    8.5485433,
                    50.1017262
                ],
                "Distance": 368.96,
                "Frequency": 5.9,
                "RSSI": -71.78,
                "LOS": "True"
            }
        },
        {
            "type": "Feature",
            "geometry": {
                "type": "Point",
                "coordinates": [
                    8.54563238,
                    50.10431325
                ]
            },
            "properties": {
                "RSU coordinates": [
                    8.5485433,
                    50.1017262
                ],
                "Distance": 355.17,
                "Frequency": 5.9,
                "RSSI": -71.45,
                "LOS": "True"
            }
        },
        {
            "type": "Feature",
            "geometry": {
                "type": "Point",
                "coordinates": [
                    8.54572942,
                    50.10420545
                ]
            },
            "properties": {
                "RSU coordinates": [
                    8.5485433,
                    50.1017262
                ],
                "Distance": 341.39,
                "Frequency": 5.9,
                "RSSI": -71.11,
                "LOS": "True"
            }
        },
        {
            "type": "Feature",
            "geometry": {
                "type": "Point",
                "coordinates": [
                    8.54582645,
                    50.10409766
                ]
            },
            "properties": {
                "RSU coordinates": [
                    8.5485433,
                    50.1017262
                ],
                "Distance": 327.61,
                "Frequency": 5.9,
                "RSSI": -70.76,
                "LOS": "True"
            }
        },
        {
            "type": "Feature",
            "geometry": {
                "type": "Point",
                "coordinates": [
                    8.54592348,
                    50.10420545
                ]
            },
            "properties": {
                "RSU coordinates": [
                    8.5485433,
                    50.1017262
                ],
                "Distance": 333.42,
                "Frequency": 5.9,
                "RSSI": -85.91,
                "LOS": "False"
            }
        },
        {
            "type": "Feature",
            "geometry": {
                "type": "Point",
                "coordinates": [
                    8.54592349,
                    50.10398987
                ]
            },
            "properties": {
                "RSU coordinates": [
                    8.5485433,
                    50.1017262
                ],
                "Distance": 313.84,
                "Frequency": 5.9,
                "RSSI": -70.39,
                "LOS": "True"
            }
        },
        {
            "type": "Feature",
            "geometry": {
                "type": "Point",
                "coordinates": [
                    8.54602051,
                    50.10409766
                ]
            },
            "properties": {
                "RSU coordinates": [
                    8.5485433,
                    50.1017262
                ],
                "Distance": 319.6,
                "Frequency": 5.9,
                "RSSI": -85.55,
                "LOS": "False"
            }
        },
        {
            "type": "Feature",
            "geometry": {
                "type": "Point",
                "coordinates": [
                    8.54602053,
                    50.10388207
                ]
            },
            "properties": {
                "RSU coordinates": [
                    8.5485433,
                    50.1017262
                ],
                "Distance": 300.08,
                "Frequency": 5.9,
                "RSSI": -70.01,
                "LOS": "True"
            }
        },
        {
            "type": "Feature",
            "geometry": {
                "type": "Point",
                "coordinates": [
                    8.54611755,
                    50.10398987
                ]
            },
            "properties": {
                "RSU coordinates": [
                    8.5485433,
                    50.1017262
                ],
                "Distance": 305.78,
                "Frequency": 5.9,
                "RSSI": -85.17,
                "LOS": "False"
            }
        },
        {
            "type": "Feature",
            "geometry": {
                "type": "Point",
                "coordinates": [
                    8.54611756,
                    50.10377428
                ]
            },
            "properties": {
                "RSU coordinates": [
                    8.5485433,
                    50.1017262
                ],
                "Distance": 286.33,
                "Frequency": 5.9,
                "RSSI": -69.61,
                "LOS": "True"
            }
        },
        {
            "type": "Feature",
            "geometry": {
                "type": "Point",
                "coordinates": [
                    8.54621459,
                    50.10388207
                ]
            },
            "properties": {
                "RSU coordinates": [
                    8.5485433,
                    50.1017262
                ],
                "Distance": 291.97,
                "Frequency": 5.9,
                "RSSI": -84.77,
                "LOS": "False"
            }
        },
        {
            "type": "Feature",
            "geometry": {
                "type": "Point",
                "coordinates": [
                    8.5462146,
                    50.10366648
                ]
            },
            "properties": {
                "RSU coordinates": [
                    8.5485433,
                    50.1017262
                ],
                "Distance": 272.59,
                "Frequency": 5.9,
                "RSSI": -69.18,
                "LOS": "True"
            }
        },
        {
            "type": "Feature",
            "geometry": {
                "type": "Point",
                "coordinates": [
                    8.54631162,
                    50.10377428
                ]
            },
            "properties": {
                "RSU coordinates": [
                    8.5485433,
                    50.1017262
                ],
                "Distance": 278.17,
                "Frequency": 5.9,
                "RSSI": -84.36,
                "LOS": "False"
            }
        },
        {
            "type": "Feature",
            "geometry": {
                "type": "Point",
                "coordinates": [
                    8.54631163,
                    50.10355869
                ]
            },
            "properties": {
                "RSU coordinates": [
                    8.5485433,
                    50.1017262
                ],
                "Distance": 258.86,
                "Frequency": 5.9,
                "RSSI": -68.74,
                "LOS": "True"
            }
        },
        {
            "type": "Feature",
            "geometry": {
                "type": "Point",
                "coordinates": [
                    8.54640865,
                    50.10366648
                ]
            },
            "properties": {
                "RSU coordinates": [
                    8.5485433,
                    50.1017262
                ],
                "Distance": 264.36,
                "Frequency": 5.9,
                "RSSI": -83.92,
                "LOS": "False"
            }
        },
        {
            "type": "Feature",
            "geometry": {
                "type": "Point",
                "coordinates": [
                    8.54640866,
                    50.1034509
                ]
            },
            "properties": {
                "RSU coordinates": [
                    8.5485433,
                    50.1017262
                ],
                "Distance": 245.14,
                "Frequency": 5.9,
                "RSSI": -68.27,
                "LOS": "True"
            }
        },
        {
            "type": "Feature",
            "geometry": {
                "type": "Point",
                "coordinates": [
                    8.54650569,
                    50.10355869
                ]
            },
            "properties": {
                "RSU coordinates": [
                    8.5485433,
                    50.1017262
                ],
                "Distance": 250.57,
                "Frequency": 5.9,
                "RSSI": -68.46,
                "LOS": "True"
            }
        },
        {
            "type": "Feature",
            "geometry": {
                "type": "Point",
                "coordinates": [
                    8.5465057,
                    50.1033431
                ]
            },
            "properties": {
                "RSU coordinates": [
                    8.5485433,
                    50.1017262
                ],
                "Distance": 231.45,
                "Frequency": 5.9,
                "RSSI": -82.78,
                "LOS": "False"
            }
        },
        {
            "type": "Feature",
            "geometry": {
                "type": "Point",
                "coordinates": [
                    8.54660272,
                    50.1034509
                ]
            },
            "properties": {
                "RSU coordinates": [
                    8.5485433,
                    50.1017262
                ],
                "Distance": 236.78,
                "Frequency": 5.9,
                "RSSI": -67.98,
                "LOS": "True"
            }
        },
        {
            "type": "Feature",
            "geometry": {
                "type": "Point",
                "coordinates": [
                    8.54660273,
                    50.10323531
                ]
            },
            "properties": {
                "RSU coordinates": [
                    8.5485433,
                    50.1017262
                ],
                "Distance": 217.77,
                "Frequency": 5.9,
                "RSSI": -97.26,
                "LOS": "False"
            }
        },
        {
            "type": "Feature",
            "geometry": {
                "type": "Point",
                "coordinates": [
                    8.54669976,
                    50.1033431
                ]
            },
            "properties": {
                "RSU coordinates": [
                    8.5485433,
                    50.1017262
                ],
                "Distance": 223.0,
                "Frequency": 5.9,
                "RSSI": -67.46,
                "LOS": "True"
            }
        },
        {
            "type": "Feature",
            "geometry": {
                "type": "Point",
                "coordinates": [
                    8.54679679,
                    50.10323531
                ]
            },
            "properties": {
                "RSU coordinates": [
                    8.5485433,
                    50.1017262
                ],
                "Distance": 209.23,
                "Frequency": 5.9,
                "RSSI": -66.92,
                "LOS": "True"
            }
        },
        {
            "type": "Feature",
            "geometry": {
                "type": "Point",
                "coordinates": [
                    8.54689381,
                    50.1033431
                ]
            },
            "properties": {
                "RSU coordinates": [
                    8.5485433,
                    50.1017262
                ],
                "Distance": 215.11,
                "Frequency": 5.9,
                "RSSI": -97.15,
                "LOS": "False"
            }
        },
        {
            "type": "Feature",
            "geometry": {
                "type": "Point",
                "coordinates": [
                    8.54689382,
                    50.10312752
                ]
            },
            "properties": {
                "RSU coordinates": [
                    8.5485433,
                    50.1017262
                ],
                "Distance": 195.47,
                "Frequency": 5.9,
                "RSSI": -66.33,
                "LOS": "True"
            }
        },
        {
            "type": "Feature",
            "geometry": {
                "type": "Point",
                "coordinates": [
                    8.54699084,
                    50.10323531
                ]
            },
            "properties": {
                "RSU coordinates": [
                    8.5485433,
                    50.1017262
                ],
                "Distance": 201.28,
                "Frequency": 5.9,
                "RSSI": -81.58,
                "LOS": "False"
            }
        },
        {
            "type": "Feature",
            "geometry": {
                "type": "Point",
                "coordinates": [
                    8.54378928,
                    50.09946253
                ]
            },
            "properties": {
                "RSU coordinates": [
                    8.5485433,
                    50.1017262
                ],
                "Distance": 422.79,
                "Frequency": 5.9,
                "RSSI": -87.95,
                "LOS": "False"
            }
        },
        {
            "type": "Feature",
            "geometry": {
                "type": "Point",
                "coordinates": [
                    8.54699085,
                    50.10301972
                ]
            },
            "properties": {
                "RSU coordinates": [
                    8.5485433,
                    50.1017262
                ],
                "Distance": 181.73,
                "Frequency": 5.9,
                "RSSI": -65.71,
                "LOS": "True"
            }
        },
        {
            "type": "Feature",
            "geometry": {
                "type": "Point",
                "coordinates": [
                    8.54708788,
                    50.10312752
                ]
            },
            "properties": {
                "RSU coordinates": [
                    8.5485433,
                    50.1017262
                ],
                "Distance": 187.45,
                "Frequency": 5.9,
                "RSSI": -80.97,
                "LOS": "False"
            }
        },
        {
            "type": "Feature",
            "geometry": {
                "type": "Point",
                "coordinates": [
                    8.54408033,
                    50.09957033
                ]
            },
            "properties": {
                "RSU coordinates": [
                    8.5485433,
                    50.1017262
                ],
                "Distance": 398.96,
                "Frequency": 5.9,
                "RSSI": -87.45,
                "LOS": "False"
            }
        },
        {
            "type": "Feature",
            "geometry": {
                "type": "Point",
                "coordinates": [
                    8.54708788,
                    50.10291193
                ]
            },
            "properties": {
                "RSU coordinates": [
                    8.5485433,
                    50.1017262
                ],
                "Distance": 168.0,
                "Frequency": 5.9,
                "RSSI": -65.03,
                "LOS": "True"
            }
        },
        {
            "type": "Feature",
            "geometry": {
                "type": "Point",
                "coordinates": [
                    8.54718491,
                    50.10301972
                ]
            },
            "properties": {
                "RSU coordinates": [
                    8.5485433,
                    50.1017262
                ],
                "Distance": 173.62,
                "Frequency": 5.9,
                "RSSI": -80.32,
                "LOS": "False"
            }
        },
        {
            "type": "Feature",
            "geometry": {
                "type": "Point",
                "coordinates": [
                    8.5444684,
                    50.09978592
                ]
            },
            "properties": {
                "RSU coordinates": [
                    8.5485433,
                    50.1017262
                ],
                "Distance": 362.39,
                "Frequency": 5.9,
                "RSSI": -86.63,
                "LOS": "False"
            }
        },
        {
            "type": "Feature",
            "geometry": {
                "type": "Point",
                "coordinates": [
                    8.54718491,
                    50.10280414
                ]
            },
            "properties": {
                "RSU coordinates": [
                    8.5485433,
                    50.1017262
                ],
                "Distance": 154.3,
                "Frequency": 5.9,
                "RSSI": -79.3,
                "LOS": "False"
            }
        },
        {
            "type": "Feature",
            "geometry": {
                "type": "Point",
                "coordinates": [
                    8.54475945,
                    50.09989371
                ]
            },
            "properties": {
                "RSU coordinates": [
                    8.5485433,
                    50.1017262
                ],
                "Distance": 338.56,
                "Frequency": 5.9,
                "RSSI": -86.04,
                "LOS": "False"
            }
        },
        {
            "type": "Feature",
            "geometry": {
                "type": "Point",
                "coordinates": [
                    8.54737897,
                    50.10280414
                ]
            },
            "properties": {
                "RSU coordinates": [
                    8.5485433,
                    50.1017262
                ],
                "Distance": 145.99,
                "Frequency": 5.9,
                "RSSI": -63.83,
                "LOS": "True"
            }
        },
        {
            "type": "Feature",
            "geometry": {
                "type": "Point",
                "coordinates": [
                    8.54505051,
                    50.1000015
                ]
            },
            "properties": {
                "RSU coordinates": [
                    8.5485433,
                    50.1017262
                ],
                "Distance": 314.76,
                "Frequency": 5.9,
                "RSSI": -85.42,
                "LOS": "False"
            }
        },
        {
            "type": "Feature",
            "geometry": {
                "type": "Point",
                "coordinates": [
                    8.54514753,
                    50.1001093
                ]
            },
            "properties": {
                "RSU coordinates": [
                    8.5485433,
                    50.1017262
                ],
                "Distance": 301.99,
                "Frequency": 5.9,
                "RSSI": -85.06,
                "LOS": "False"
            }
        },
        {
            "type": "Feature",
            "geometry": {
                "type": "Point",
                "coordinates": [
                    8.547476,
                    50.10269634
                ]
            },
            "properties": {
                "RSU coordinates": [
                    8.5485433,
                    50.1017262
                ],
                "Distance": 132.18,
                "Frequency": 5.9,
                "RSSI": -62.98,
                "LOS": "True"
            }
        },
        {
            "type": "Feature",
            "geometry": {
                "type": "Point",
                "coordinates": [
                    8.54543859,
                    50.10021709
                ]
            },
            "properties": {
                "RSU coordinates": [
                    8.5485433,
                    50.1017262
                ],
                "Distance": 278.17,
                "Frequency": 5.9,
                "RSSI": -84.36,
                "LOS": "False"
            }
        },
        {
            "type": "Feature",
            "geometry": {
                "type": "Point",
                "coordinates": [
                    8.54757303,
                    50.10258855
                ]
            },
            "properties": {
                "RSU coordinates": [
                    8.5485433,
                    50.1017262
                ],
                "Distance": 118.39,
                "Frequency": 5.9,
                "RSSI": -62.03,
                "LOS": "True"
            }
        },
        {
            "type": "Feature",
            "geometry": {
                "type": "Point",
                "coordinates": [
                    8.54572965,
                    50.10032488
                ]
            },
            "properties": {
                "RSU coordinates": [
                    8.5485433,
                    50.1017262
                ],
                "Distance": 254.37,
                "Frequency": 5.9,
                "RSSI": -83.59,
                "LOS": "False"
            }
        },
        {
            "type": "Feature",
            "geometry": {
                "type": "Point",
                "coordinates": [
                    8.54582666,
                    50.10043268
                ]
            },
            "properties": {
                "RSU coordinates": [
                    8.5485433,
                    50.1017262
                ],
                "Distance": 241.59,
                "Frequency": 5.9,
                "RSSI": -83.15,
                "LOS": "False"
            }
        },
        {
            "type": "Feature",
            "geometry": {
                "type": "Point",
                "coordinates": [
                    8.54767006,
                    50.10248076
                ]
            },
            "properties": {
                "RSU coordinates": [
                    8.5485433,
                    50.1017262
                ],
                "Distance": 104.61,
                "Frequency": 5.9,
                "RSSI": -60.97,
                "LOS": "True"
            }
        },
        {
            "type": "Feature",
            "geometry": {
                "type": "Point",
                "coordinates": [
                    8.54611773,
                    50.10054047
                ]
            },
            "properties": {
                "RSU coordinates": [
                    8.5485433,
                    50.1017262
                ],
                "Distance": 217.77,
                "Frequency": 5.9,
                "RSSI": -82.26,
                "LOS": "False"
            }
        },
        {
            "type": "Feature",
            "geometry": {
                "type": "Point",
                "coordinates": [
                    8.54776709,
                    50.10237296
                ]
            },
            "properties": {
                "RSU coordinates": [
                    8.5485433,
                    50.1017262
                ],
                "Distance": 90.86,
                "Frequency": 5.9,
                "RSSI": -59.76,
                "LOS": "True"
            }
        },
        {
            "type": "Feature",
            "geometry": {
                "type": "Point",
                "coordinates": [
                    8.54786411,
                    50.10248076
                ]
            },
            "properties": {
                "RSU coordinates": [
                    8.5485433,
                    50.1017262
                ],
                "Distance": 96.99,
                "Frequency": 5.9,
                "RSSI": -75.32,
                "LOS": "False"
            }
        },
        {
            "type": "Feature",
            "geometry": {
                "type": "Point",
                "coordinates": [
                    8.54640879,
                    50.10064826
                ]
            },
            "properties": {
                "RSU coordinates": [
                    8.5485433,
                    50.1017262
                ],
                "Distance": 193.99,
                "Frequency": 5.9,
                "RSSI": -81.27,
                "LOS": "False"
            }
        },
        {
            "type": "Feature",
            "geometry": {
                "type": "Point",
                "coordinates": [
                    8.54650581,
                    50.10075606
                ]
            },
            "properties": {
                "RSU coordinates": [
                    8.5485433,
                    50.1017262
                ],
                "Distance": 181.2,
                "Frequency": 5.9,
                "RSSI": -80.68,
                "LOS": "False"
            }
        },
        {
            "type": "Feature",
            "geometry": {
                "type": "Point",
                "coordinates": [
                    8.54679687,
                    50.10086385
                ]
            },
            "properties": {
                "RSU coordinates": [
                    8.5485433,
                    50.1017262
                ],
                "Distance": 157.38,
                "Frequency": 5.9,
                "RSSI": -79.47,
                "LOS": "False"
            }
        },
        {
            "type": "Feature",
            "geometry": {
                "type": "Point",
                "coordinates": [
                    8.54805817,
                    50.10226517
                ]
            },
            "properties": {
                "RSU coordinates": [
                    8.5485433,
                    50.1017262
                ],
                "Distance": 69.28,
                "Frequency": 5.9,
                "RSSI": -57.44,
                "LOS": "True"
            }
        },
        {
            "type": "Feature",
            "geometry": {
                "type": "Point",
                "coordinates": [
                    8.54708794,
                    50.10097164
                ]
            },
            "properties": {
                "RSU coordinates": [
                    8.5485433,
                    50.1017262
                ],
                "Distance": 133.63,
                "Frequency": 5.9,
                "RSSI": -78.07,
                "LOS": "False"
            }
        },
        {
            "type": "Feature",
            "geometry": {
                "type": "Point",
                "coordinates": [
                    8.54718496,
                    50.10107944
                ]
            },
            "properties": {
                "RSU coordinates": [
                    8.5485433,
                    50.1017262
                ],
                "Distance": 120.8,
                "Frequency": 5.9,
                "RSSI": -77.2,
                "LOS": "False"
            }
        },
        {
            "type": "Feature",
            "geometry": {
                "type": "Point",
                "coordinates": [
                    8.54786412,
                    50.10183399
                ]
            },
            "properties": {
                "RSU coordinates": [
                    8.5485433,
                    50.1017262
                ],
                "Distance": 49.96,
                "Frequency": 5.9,
                "RSSI": -99.63,
                "LOS": "False"
            }
        },
        {
            "type": "Feature",
            "geometry": {
                "type": "Point",
                "coordinates": [
                    8.54815519,
                    50.10215737
                ]
            },
            "properties": {
                "RSU coordinates": [
                    8.5485433,
                    50.1017262
                ],
                "Distance": 55.43,
                "Frequency": 5.9,
                "RSSI": -55.52,
                "LOS": "True"
            }
        },
        {
            "type": "Feature",
            "geometry": {
                "type": "Point",
                "coordinates": [
                    8.54747603,
                    50.10118723
                ]
            },
            "properties": {
                "RSU coordinates": [
                    8.5485433,
                    50.1017262
                ],
                "Distance": 96.99,
                "Frequency": 5.9,
                "RSSI": -75.32,
                "LOS": "False"
            }
        },
        {
            "type": "Feature",
            "geometry": {
                "type": "Point",
                "coordinates": [
                    8.54805817,
                    50.10183399
                ]
            },
            "properties": {
                "RSU coordinates": [
                    8.5485433,
                    50.1017262
                ],
                "Distance": 36.66,
                "Frequency": 5.9,
                "RSSI": -81.97999999999999,
                "LOS": "False"
            }
        },
        {
            "type": "Feature",
            "geometry": {
                "type": "Point",
                "coordinates": [
                    8.54825222,
                    50.10204958
                ]
            },
            "properties": {
                "RSU coordinates": [
                    8.5485433,
                    50.1017262
                ],
                "Distance": 41.57,
                "Frequency": 5.9,
                "RSSI": -53.06,
                "LOS": "True"
            }
        },
        {
            "type": "Feature",
            "geometry": {
                "type": "Point",
                "coordinates": [
                    8.54844627,
                    50.10226517
                ]
            },
            "properties": {
                "RSU coordinates": [
                    8.5485433,
                    50.1017262
                ],
                "Distance": 60.4,
                "Frequency": 5.9,
                "RSSI": -86.25999999999999,
                "LOS": "False"
            }
        },
        {
            "type": "Feature",
            "geometry": {
                "type": "Point",
                "coordinates": [
                    8.5477671,
                    50.10129503
                ]
            },
            "properties": {
                "RSU coordinates": [
                    8.5485433,
                    50.1017262
                ],
                "Distance": 73.32,
                "Frequency": 5.9,
                "RSSI": -72.92,
                "LOS": "False"
            }
        },
        {
            "type": "Feature",
            "geometry": {
                "type": "Point",
                "coordinates": [
                    8.54786413,
                    50.10140282
                ]
            },
            "properties": {
                "RSU coordinates": [
                    8.5485433,
                    50.1017262
                ],
                "Distance": 60.4,
                "Frequency": 5.9,
                "RSSI": -71.25999999999999,
                "LOS": "False"
            }
        },
        {
            "type": "Feature",
            "geometry": {
                "type": "Point",
                "coordinates": [
                    8.54805817,
                    50.10161841
                ]
            },
            "properties": {
                "RSU coordinates": [
                    8.5485433,
                    50.1017262
                ],
                "Distance": 36.66,
                "Frequency": 5.9,
                "RSSI": -81.97999999999999,
                "LOS": "False"
            }
        },
        {
            "type": "Feature",
            "geometry": {
                "type": "Point",
                "coordinates": [
                    8.54834925,
                    50.10194179
                ]
            },
            "properties": {
                "RSU coordinates": [
                    8.5485433,
                    50.1017262
                ],
                "Distance": 27.71,
                "Frequency": 5.9,
                "RSSI": -49.58,
                "LOS": "True"
            }
        },
        {
            "type": "Feature",
            "geometry": {
                "type": "Point",
                "coordinates": [
                    8.5485433,
                    50.10215737
                ]
            },
            "properties": {
                "RSU coordinates": [
                    8.5485433,
                    50.1017262
                ],
                "Distance": 48.0,
                "Frequency": 5.9,
                "RSSI": -84.28999999999999,
                "LOS": "False"
            }
        },
        {
            "type": "Feature",
            "geometry": {
                "type": "Point",
                "coordinates": [
                    8.54767009,
                    50.10097164
                ]
            },
            "properties": {
                "RSU coordinates": [
                    8.5485433,
                    50.1017262
                ],
                "Distance": 104.61,
                "Frequency": 5.9,
                "RSSI": -90.97,
                "LOS": "False"
            }
        },
        {
            "type": "Feature",
            "geometry": {
                "type": "Point",
                "coordinates": [
                    8.54776711,
                    50.10107944
                ]
            },
            "properties": {
                "RSU coordinates": [
                    8.5485433,
                    50.1017262
                ],
                "Distance": 90.86,
                "Frequency": 5.9,
                "RSSI": -89.75999999999999,
                "LOS": "False"
            }
        },
        {
            "type": "Feature",
            "geometry": {
                "type": "Point",
                "coordinates": [
                    8.54805818,
                    50.10140282
                ]
            },
            "properties": {
                "RSU coordinates": [
                    8.5485433,
                    50.1017262
                ],
                "Distance": 49.96,
                "Frequency": 5.9,
                "RSSI": -54.63,
                "LOS": "True"
            }
        },
        {
            "type": "Feature",
            "geometry": {
                "type": "Point",
                "coordinates": [
                    8.5481552,
                    50.10151061
                ]
            },
            "properties": {
                "RSU coordinates": [
                    8.5485433,
                    50.1017262
                ],
                "Distance": 36.66,
                "Frequency": 5.9,
                "RSSI": -66.97999999999999,
                "LOS": "False"
            }
        },
        {
            "type": "Feature",
            "geometry": {
                "type": "Point",
                "coordinates": [
                    8.54844627,
                    50.10183399
                ]
            },
            "properties": {
                "RSU coordinates": [
                    8.5485433,
                    50.1017262
                ],
                "Distance": 13.86,
                "Frequency": 5.9,
                "RSSI": -43.63,
                "LOS": "True"
            }
        },
        {
            "type": "Feature",
            "geometry": {
                "type": "Point",
                "coordinates": [
                    8.54864033,
                    50.10204958
                ]
            },
            "properties": {
                "RSU coordinates": [
                    8.5485433,
                    50.1017262
                ],
                "Distance": 36.66,
                "Frequency": 5.9,
                "RSSI": -96.97999999999999,
                "LOS": "False"
            }
        },
        {
            "type": "Feature",
            "geometry": {
                "type": "Point",
                "coordinates": [
                    8.54873735,
                    50.10215737
                ]
            },
            "properties": {
                "RSU coordinates": [
                    8.5485433,
                    50.1017262
                ],
                "Distance": 49.96,
                "Frequency": 5.9,
                "RSSI": -99.63,
                "LOS": "False"
            }
        },
        {
            "type": "Feature",
            "geometry": {
                "type": "Point",
                "coordinates": [
                    8.54786413,
                    50.10097164
                ]
            },
            "properties": {
                "RSU coordinates": [
                    8.5485433,
                    50.1017262
                ],
                "Distance": 96.99,
                "Frequency": 5.9,
                "RSSI": -75.32,
                "LOS": "False"
            }
        },
        {
            "type": "Feature",
            "geometry": {
                "type": "Point",
                "coordinates": [
                    8.54844627,
                    50.10161841
                ]
            },
            "properties": {
                "RSU coordinates": [
                    8.5485433,
                    50.1017262
                ],
                "Distance": 13.86,
                "Frequency": 5.9,
                "RSSI": -43.63,
                "LOS": "True"
            }
        },
        {
            "type": "Feature",
            "geometry": {
                "type": "Point",
                "coordinates": [
                    8.54883438,
                    50.10204958
                ]
            },
            "properties": {
                "RSU coordinates": [
                    8.5485433,
                    50.1017262
                ],
                "Distance": 41.57,
                "Frequency": 5.9,
                "RSSI": -98.06,
                "LOS": "False"
            }
        },
        {
            "type": "Feature",
            "geometry": {
                "type": "Point",
                "coordinates": [
                    8.54864033,
                    50.10161841
                ]
            },
            "properties": {
                "RSU coordinates": [
                    8.5485433,
                    50.1017262
                ],
                "Distance": 13.86,
                "Frequency": 5.9,
                "RSSI": -43.63,
                "LOS": "True"
            }
        },
        {
            "type": "Feature",
            "geometry": {
                "type": "Point",
                "coordinates": [
                    8.54873735,
                    50.1017262
                ]
            },
            "properties": {
                "RSU coordinates": [
                    8.5485433,
                    50.1017262
                ],
                "Distance": 13.86,
                "Frequency": 5.9,
                "RSSI": -43.63,
                "LOS": "True"
            }
        },
        {
            "type": "Feature",
            "geometry": {
                "type": "Point",
                "coordinates": [
                    8.54883438,
                    50.10183399
                ]
            },
            "properties": {
                "RSU coordinates": [
                    8.5485433,
                    50.1017262
                ],
                "Distance": 24.0,
                "Frequency": 5.9,
                "RSSI": -48.34,
                "LOS": "True"
            }
        },
        {
            "type": "Feature",
            "geometry": {
                "type": "Point",
                "coordinates": [
                    8.54805818,
                    50.10075606
                ]
            },
            "properties": {
                "RSU coordinates": [
                    8.5485433,
                    50.1017262
                ],
                "Distance": 113.42,
                "Frequency": 5.9,
                "RSSI": -91.66,
                "LOS": "False"
            }
        },
        {
            "type": "Feature",
            "geometry": {
                "type": "Point",
                "coordinates": [
                    8.54873735,
                    50.10151061
                ]
            },
            "properties": {
                "RSU coordinates": [
                    8.5485433,
                    50.1017262
                ],
                "Distance": 27.71,
                "Frequency": 5.9,
                "RSSI": -49.58,
                "LOS": "True"
            }
        },
        {
            "type": "Feature",
            "geometry": {
                "type": "Point",
                "coordinates": [
                    8.54912545,
                    50.10194179
                ]
            },
            "properties": {
                "RSU coordinates": [
                    8.5485433,
                    50.1017262
                ],
                "Distance": 48.0,
                "Frequency": 5.9,
                "RSSI": -54.29,
                "LOS": "True"
            }
        },
        {
            "type": "Feature",
            "geometry": {
                "type": "Point",
                "coordinates": [
                    8.54815521,
                    50.10064826
                ]
            },
            "properties": {
                "RSU coordinates": [
                    8.5485433,
                    50.1017262
                ],
                "Distance": 123.16,
                "Frequency": 5.9,
                "RSSI": -92.37,
                "LOS": "False"
            }
        },
        {
            "type": "Feature",
            "geometry": {
                "type": "Point",
                "coordinates": [
                    8.54834925,
                    50.10086385
                ]
            },
            "properties": {
                "RSU coordinates": [
                    8.5485433,
                    50.1017262
                ],
                "Distance": 96.99,
                "Frequency": 5.9,
                "RSSI": -75.32,
                "LOS": "False"
            }
        },
        {
            "type": "Feature",
            "geometry": {
                "type": "Point",
                "coordinates": [
                    8.54883437,
                    50.10140282
                ]
            },
            "properties": {
                "RSU coordinates": [
                    8.5485433,
                    50.1017262
                ],
                "Distance": 41.57,
                "Frequency": 5.9,
                "RSSI": -53.06,
                "LOS": "True"
            }
        },
        {
            "type": "Feature",
            "geometry": {
                "type": "Point",
                "coordinates": [
                    8.54902843,
                    50.10161841
                ]
            },
            "properties": {
                "RSU coordinates": [
                    8.5485433,
                    50.1017262
                ],
                "Distance": 36.66,
                "Frequency": 5.9,
                "RSSI": -66.97999999999999,
                "LOS": "False"
            }
        },
        {
            "type": "Feature",
            "geometry": {
                "type": "Point",
                "coordinates": [
                    8.54941653,
                    50.10204958
                ]
            },
            "properties": {
                "RSU coordinates": [
                    8.5485433,
                    50.1017262
                ],
                "Distance": 72.0,
                "Frequency": 5.9,
                "RSSI": -57.77,
                "LOS": "True"
            }
        },
        {
            "type": "Feature",
            "geometry": {
                "type": "Point",
                "coordinates": [
                    8.54951356,
                    50.10215737
                ]
            },
            "properties": {
                "RSU coordinates": [
                    8.5485433,
                    50.1017262
                ],
                "Distance": 84.29,
                "Frequency": 5.9,
                "RSSI": -59.12,
                "LOS": "True"
            }
        },
        {
            "type": "Feature",
            "geometry": {
                "type": "Point",
                "coordinates": [
                    8.54825223,
                    50.10054047
                ]
            },
            "properties": {
                "RSU coordinates": [
                    8.5485433,
                    50.1017262
                ],
                "Distance": 133.63,
                "Frequency": 5.9,
                "RSSI": -93.07,
                "LOS": "False"
            }
        },
        {
            "type": "Feature",
            "geometry": {
                "type": "Point",
                "coordinates": [
                    8.54834925,
                    50.10064826
                ]
            },
            "properties": {
                "RSU coordinates": [
                    8.5485433,
                    50.1017262
                ],
                "Distance": 120.8,
                "Frequency": 5.9,
                "RSSI": -77.2,
                "LOS": "False"
            }
        },
        {
            "type": "Feature",
            "geometry": {
                "type": "Point",
                "coordinates": [
                    8.54844628,
                    50.10075606
                ]
            },
            "properties": {
                "RSU coordinates": [
                    8.5485433,
                    50.1017262
                ],
                "Distance": 108.22,
                "Frequency": 5.9,
                "RSSI": -91.25999999999999,
                "LOS": "False"
            }
        },
        {
            "type": "Feature",
            "geometry": {
                "type": "Point",
                "coordinates": [
                    8.5485433,
                    50.10086385
                ]
            },
            "properties": {
                "RSU coordinates": [
                    8.5485433,
                    50.1017262
                ],
                "Distance": 96.0,
                "Frequency": 5.9,
                "RSSI": -75.22999999999999,
                "LOS": "False"
            }
        },
        {
            "type": "Feature",
            "geometry": {
                "type": "Point",
                "coordinates": [
                    8.5489314,
                    50.10129503
                ]
            },
            "properties": {
                "RSU coordinates": [
                    8.5485433,
                    50.1017262
                ],
                "Distance": 55.43,
                "Frequency": 5.9,
                "RSSI": -55.52,
                "LOS": "True"
            }
        },
        {
            "type": "Feature",
            "geometry": {
                "type": "Point",
                "coordinates": [
                    8.54922248,
                    50.10161841
                ]
            },
            "properties": {
                "RSU coordinates": [
                    8.5485433,
                    50.1017262
                ],
                "Distance": 49.96,
                "Frequency": 5.9,
                "RSSI": -84.63,
                "LOS": "False"
            }
        },
        {
            "type": "Feature",
            "geometry": {
                "type": "Point",
                "coordinates": [
                    8.54970762,
                    50.10215737
                ]
            },
            "properties": {
                "RSU coordinates": [
                    8.5485433,
                    50.1017262
                ],
                "Distance": 96.0,
                "Frequency": 5.9,
                "RSSI": -60.23,
                "LOS": "True"
            }
        },
        {
            "type": "Feature",
            "geometry": {
                "type": "Point",
                "coordinates": [
                    8.54980464,
                    50.10226517
                ]
            },
            "properties": {
                "RSU coordinates": [
                    8.5485433,
                    50.1017262
                ],
                "Distance": 108.22,
                "Frequency": 5.9,
                "RSSI": -61.26,
                "LOS": "True"
            }
        },
        {
            "type": "Feature",
            "geometry": {
                "type": "Point",
                "coordinates": [
                    8.54834925,
                    50.10043268
                ]
            },
            "properties": {
                "RSU coordinates": [
                    8.5485433,
                    50.1017262
                ],
                "Distance": 144.67,
                "Frequency": 5.9,
                "RSSI": -93.75,
                "LOS": "False"
            }
        },
        {
            "type": "Feature",
            "geometry": {
                "type": "Point",
                "coordinates": [
                    8.54912545,
                    50.10129503
                ]
            },
            "properties": {
                "RSU coordinates": [
                    8.5485433,
                    50.1017262
                ],
                "Distance": 63.5,
                "Frequency": 5.9,
                "RSSI": -56.69,
                "LOS": "True"
            }
        },
        {
            "type": "Feature",
            "geometry": {
                "type": "Point",
                "coordinates": [
                    8.54941653,
                    50.10161841
                ]
            },
            "properties": {
                "RSU coordinates": [
                    8.5485433,
                    50.1017262
                ],
                "Distance": 63.5,
                "Frequency": 5.9,
                "RSSI": -86.69,
                "LOS": "False"
            }
        },
        {
            "type": "Feature",
            "geometry": {
                "type": "Point",
                "coordinates": [
                    8.5499987,
                    50.10226517
                ]
            },
            "properties": {
                "RSU coordinates": [
                    8.5485433,
                    50.1017262
                ],
                "Distance": 120.0,
                "Frequency": 5.9,
                "RSSI": -77.15,
                "LOS": "False"
            }
        },
        {
            "type": "Feature",
            "geometry": {
                "type": "Point",
                "coordinates": [
                    8.55009573,
                    50.10237296
                ]
            },
            "properties": {
                "RSU coordinates": [
                    8.5485433,
                    50.1017262
                ],
                "Distance": 132.18,
                "Frequency": 5.9,
                "RSSI": -62.98,
                "LOS": "True"
            }
        },
        {
            "type": "Feature",
            "geometry": {
                "type": "Point",
                "coordinates": [
                    8.55019276,
                    50.10248076
                ]
            },
            "properties": {
                "RSU coordinates": [
                    8.5485433,
                    50.1017262
                ],
                "Distance": 144.67,
                "Frequency": 5.9,
                "RSSI": -63.75,
                "LOS": "True"
            }
        },
        {
            "type": "Feature",
            "geometry": {
                "type": "Point",
                "coordinates": [
                    8.54912544,
                    50.10107944
                ]
            },
            "properties": {
                "RSU coordinates": [
                    8.5485433,
                    50.1017262
                ],
                "Distance": 83.14,
                "Frequency": 5.9,
                "RSSI": -89.0,
                "LOS": "False"
            }
        },
        {
            "type": "Feature",
            "geometry": {
                "type": "Point",
                "coordinates": [
                    8.54922247,
                    50.10118723
                ]
            },
            "properties": {
                "RSU coordinates": [
                    8.5485433,
                    50.1017262
                ],
                "Distance": 77.15,
                "Frequency": 5.9,
                "RSSI": -58.36,
                "LOS": "True"
            }
        },
        {
            "type": "Feature",
            "geometry": {
                "type": "Point",
                "coordinates": [
                    8.54951355,
                    50.10151061
                ]
            },
            "properties": {
                "RSU coordinates": [
                    8.5485433,
                    50.1017262
                ],
                "Distance": 73.32,
                "Frequency": 5.9,
                "RSSI": -87.92,
                "LOS": "False"
            }
        },
        {
            "type": "Feature",
            "geometry": {
                "type": "Point",
                "coordinates": [
                    8.54961058,
                    50.10161841
                ]
            },
            "properties": {
                "RSU coordinates": [
                    8.5485433,
                    50.1017262
                ],
                "Distance": 77.15,
                "Frequency": 5.9,
                "RSSI": -88.36,
                "LOS": "False"
            }
        },
        {
            "type": "Feature",
            "geometry": {
                "type": "Point",
                "coordinates": [
                    8.55028978,
                    50.10237296
                ]
            },
            "properties": {
                "RSU coordinates": [
                    8.5485433,
                    50.1017262
                ],
                "Distance": 144.0,
                "Frequency": 5.9,
                "RSSI": -78.71000000000001,
                "LOS": "False"
            }
        },
        {
            "type": "Feature",
            "geometry": {
                "type": "Point",
                "coordinates": [
                    8.55038681,
                    50.10248076
                ]
            },
            "properties": {
                "RSU coordinates": [
                    8.5485433,
                    50.1017262
                ],
                "Distance": 156.15,
                "Frequency": 5.9,
                "RSSI": -64.41,
                "LOS": "True"
            }
        },
        {
            "type": "Feature",
            "geometry": {
                "type": "Point",
                "coordinates": [
                    8.55048384,
                    50.10258855
                ]
            },
            "properties": {
                "RSU coordinates": [
                    8.5485433,
                    50.1017262
                ],
                "Distance": 168.57,
                "Frequency": 5.9,
                "RSSI": -65.06,
                "LOS": "True"
            }
        },
        {
            "type": "Feature",
            "geometry": {
                "type": "Point",
                "coordinates": [
                    8.54931949,
                    50.10107944
                ]
            },
            "properties": {
                "RSU coordinates": [
                    8.5485433,
                    50.1017262
                ],
                "Distance": 90.86,
                "Frequency": 5.9,
                "RSSI": -59.76,
                "LOS": "True"
            }
        },
        {
            "type": "Feature",
            "geometry": {
                "type": "Point",
                "coordinates": [
                    8.55058087,
                    50.10248076
                ]
            },
            "properties": {
                "RSU coordinates": [
                    8.5485433,
                    50.1017262
                ],
                "Distance": 168.0,
                "Frequency": 5.9,
                "RSSI": -80.03,
                "LOS": "False"
            }
        },
        {
            "type": "Feature",
            "geometry": {
                "type": "Point",
                "coordinates": [
                    8.5506779,
                    50.10258855
                ]
            },
            "properties": {
                "RSU coordinates": [
                    8.5485433,
                    50.1017262
                ],
                "Distance": 180.13,
                "Frequency": 5.9,
                "RSSI": -65.63,
                "LOS": "True"
            }
        },
        {
            "type": "Feature",
            "geometry": {
                "type": "Point",
                "coordinates": [
                    8.55077493,
                    50.10269634
                ]
            },
            "properties": {
                "RSU coordinates": [
                    8.5485433,
                    50.1017262
                ],
                "Distance": 192.5,
                "Frequency": 5.9,
                "RSSI": -81.2,
                "LOS": "False"
            }
        },
        {
            "type": "Feature",
            "geometry": {
                "type": "Point",
                "coordinates": [
                    8.55087196,
                    50.10280414
                ]
            },
            "properties": {
                "RSU coordinates": [
                    8.5485433,
                    50.1017262
                ],
                "Distance": 205.06,
                "Frequency": 5.9,
                "RSSI": -96.74,
                "LOS": "False"
            }
        },
        {
            "type": "Feature",
            "geometry": {
                "type": "Point",
                "coordinates": [
                    8.54941651,
                    50.10097164
                ]
            },
            "properties": {
                "RSU coordinates": [
                    8.5485433,
                    50.1017262
                ],
                "Distance": 104.61,
                "Frequency": 5.9,
                "RSSI": -60.97,
                "LOS": "True"
            }
        },
        {
            "type": "Feature",
            "geometry": {
                "type": "Point",
                "coordinates": [
                    8.55096898,
                    50.10269634
                ]
            },
            "properties": {
                "RSU coordinates": [
                    8.5485433,
                    50.1017262
                ],
                "Distance": 204.12,
                "Frequency": 5.9,
                "RSSI": -66.7,
                "LOS": "True"
            }
        },
        {
            "type": "Feature",
            "geometry": {
                "type": "Point",
                "coordinates": [
                    8.54951354,
                    50.10086385
                ]
            },
            "properties": {
                "RSU coordinates": [
                    8.5485433,
                    50.1017262
                ],
                "Distance": 118.39,
                "Frequency": 5.9,
                "RSSI": -62.03,
                "LOS": "True"
            }
        },
        {
            "type": "Feature",
            "geometry": {
                "type": "Point",
                "coordinates": [
                    8.55126007,
                    50.10280414
                ]
            },
            "properties": {
                "RSU coordinates": [
                    8.5485433,
                    50.1017262
                ],
                "Distance": 228.11,
                "Frequency": 5.9,
                "RSSI": -67.66,
                "LOS": "True"
            }
        },
        {
            "type": "Feature",
            "geometry": {
                "type": "Point",
                "coordinates": [
                    8.54961056,
                    50.10075606
                ]
            },
            "properties": {
                "RSU coordinates": [
                    8.5485433,
                    50.1017262
                ],
                "Distance": 132.18,
                "Frequency": 5.9,
                "RSSI": -62.98,
                "LOS": "True"
            }
        },
        {
            "type": "Feature",
            "geometry": {
                "type": "Point",
                "coordinates": [
                    8.55155116,
                    50.10291193
                ]
            },
            "properties": {
                "RSU coordinates": [
                    8.5485433,
                    50.1017262
                ],
                "Distance": 252.1,
                "Frequency": 5.9,
                "RSSI": -68.51,
                "LOS": "True"
            }
        },
        {
            "type": "Feature",
            "geometry": {
                "type": "Point",
                "coordinates": [
                    8.54970758,
                    50.10064826
                ]
            },
            "properties": {
                "RSU coordinates": [
                    8.5485433,
                    50.1017262
                ],
                "Distance": 145.99,
                "Frequency": 5.9,
                "RSSI": -63.83,
                "LOS": "True"
            }
        },
        {
            "type": "Feature",
            "geometry": {
                "type": "Point",
                "coordinates": [
                    8.55184225,
                    50.10301972
                ]
            },
            "properties": {
                "RSU coordinates": [
                    8.5485433,
                    50.1017262
                ],
                "Distance": 276.09,
                "Frequency": 5.9,
                "RSSI": -69.29,
                "LOS": "True"
            }
        },
        {
            "type": "Feature",
            "geometry": {
                "type": "Point",
                "coordinates": [
                    8.5498046,
                    50.10054047
                ]
            },
            "properties": {
                "RSU coordinates": [
                    8.5485433,
                    50.1017262
                ],
                "Distance": 159.8,
                "Frequency": 5.9,
                "RSSI": -64.6,
                "LOS": "True"
            }
        },
        {
            "type": "Feature",
            "geometry": {
                "type": "Point",
                "coordinates": [
                    8.55213334,
                    50.10312752
                ]
            },
            "properties": {
                "RSU coordinates": [
                    8.5485433,
                    50.1017262
                ],
                "Distance": 300.08,
                "Frequency": 5.9,
                "RSSI": -70.01,
                "LOS": "True"
            }
        },
        {
            "type": "Feature",
            "geometry": {
                "type": "Point",
                "coordinates": [
                    8.55242444,
                    50.10323531
                ]
            },
            "properties": {
                "RSU coordinates": [
                    8.5485433,
                    50.1017262
                ],
                "Distance": 324.07,
                "Frequency": 5.9,
                "RSSI": -70.67,
                "LOS": "True"
            }
        },
        {
            "type": "Feature",
            "geometry": {
                "type": "Point",
                "coordinates": [
                    8.55252148,
                    50.1033431
                ]
            },
            "properties": {
                "RSU coordinates": [
                    8.5485433,
                    50.1017262
                ],
                "Distance": 336.29,
                "Frequency": 5.9,
                "RSSI": -85.98,
                "LOS": "False"
            }
        },
        {
            "type": "Feature",
            "geometry": {
                "type": "Point",
                "coordinates": [
                    8.55009566,
                    50.10043268
                ]
            },
            "properties": {
                "RSU coordinates": [
                    8.5485433,
                    50.1017262
                ],
                "Distance": 181.73,
                "Frequency": 5.9,
                "RSSI": -65.71,
                "LOS": "True"
            }
        },
        {
            "type": "Feature",
            "geometry": {
                "type": "Point",
                "coordinates": [
                    8.55271553,
                    50.1033431
                ]
            },
            "properties": {
                "RSU coordinates": [
                    8.5485433,
                    50.1017262
                ],
                "Distance": 348.07,
                "Frequency": 5.9,
                "RSSI": -71.28,
                "LOS": "True"
            }
        },
        {
            "type": "Feature",
            "geometry": {
                "type": "Point",
                "coordinates": [
                    8.55281257,
                    50.1034509
                ]
            },
            "properties": {
                "RSU coordinates": [
                    8.5485433,
                    50.1017262
                ],
                "Distance": 360.27,
                "Frequency": 5.9,
                "RSSI": -86.58,
                "LOS": "False"
            }
        },
        {
            "type": "Feature",
            "geometry": {
                "type": "Point",
                "coordinates": [
                    8.55019268,
                    50.10032488
                ]
            },
            "properties": {
                "RSU coordinates": [
                    8.5485433,
                    50.1017262
                ],
                "Distance": 195.47,
                "Frequency": 5.9,
                "RSSI": -81.33,
                "LOS": "False"
            }
        },
        {
            "type": "Feature",
            "geometry": {
                "type": "Point",
                "coordinates": [
                    8.55300663,
                    50.1034509
                ]
            },
            "properties": {
                "RSU coordinates": [
                    8.5485433,
                    50.1017262
                ],
                "Distance": 372.06,
                "Frequency": 5.9,
                "RSSI": -86.85,
                "LOS": "False"
            }
        },
        {
            "type": "Feature",
            "geometry": {
                "type": "Point",
                "coordinates": [
                    8.55310367,
                    50.10355869
                ]
            },
            "properties": {
                "RSU coordinates": [
                    8.5485433,
                    50.1017262
                ],
                "Distance": 384.25,
                "Frequency": 5.9,
                "RSSI": -72.13,
                "LOS": "True"
            }
        },
        {
            "type": "Feature",
            "geometry": {
                "type": "Point",
                "coordinates": [
                    8.55329773,
                    50.10355869
                ]
            },
            "properties": {
                "RSU coordinates": [
                    8.5485433,
                    50.1017262
                ],
                "Distance": 396.06,
                "Frequency": 5.9,
                "RSSI": -87.39,
                "LOS": "False"
            }
        },
        {
            "type": "Feature",
            "geometry": {
                "type": "Point",
                "coordinates": [
                    8.55339477,
                    50.10366648
                ]
            },
            "properties": {
                "RSU coordinates": [
                    8.5485433,
                    50.1017262
                ],
                "Distance": 408.24,
                "Frequency": 5.9,
                "RSSI": -72.65,
                "LOS": "True"
            }
        },
        {
            "type": "Feature",
            "geometry": {
                "type": "Point",
                "coordinates": [
                    8.55358882,
                    50.10366648
                ]
            },
            "properties": {
                "RSU coordinates": [
                    8.5485433,
                    50.1017262
                ],
                "Distance": 420.06,
                "Frequency": 5.9,
                "RSSI": -87.89,
                "LOS": "False"
            }
        },
        {
            "type": "Feature",
            "geometry": {
                "type": "Point",
                "coordinates": [
                    8.55368587,
                    50.10377428
                ]
            },
            "properties": {
                "RSU coordinates": [
                    8.5485433,
                    50.1017262
                ],
                "Distance": 432.22,
                "Frequency": 5.9,
                "RSSI": -73.14,
                "LOS": "True"
            }
        },
        {
            "type": "Feature",
            "geometry": {
                "type": "Point",
                "coordinates": [
                    8.55387992,
                    50.10377428
                ]
            },
            "properties": {
                "RSU coordinates": [
                    8.5485433,
                    50.1017262
                ],
                "Distance": 444.05,
                "Frequency": 5.9,
                "RSSI": -88.37,
                "LOS": "False"
            }
        },
        {
            "type": "Feature",
            "geometry": {
                "type": "Point",
                "coordinates": [
                    8.55397697,
                    50.10388207
                ]
            },
            "properties": {
                "RSU coordinates": [
                    8.5485433,
                    50.1017262
                ],
                "Distance": 456.21,
                "Frequency": 5.9,
                "RSSI": -73.6,
                "LOS": "True"
            }
        },
        {
            "type": "Feature",
            "geometry": {
                "type": "Point",
                "coordinates": [
                    8.55426807,
                    50.10398987
                ]
            },
            "properties": {
                "RSU coordinates": [
                    8.5485433,
                    50.1017262
                ],
                "Distance": 480.2,
                "Frequency": 5.9,
                "RSSI": -74.04,
                "LOS": "True"
            }
        }
    ]
}