{
    "type": "FeatureCollection",
    "features": [
        {
            "type": "Feature",
            "geometry": {
                "type": "Point",
                "coordinates": [
                    9.14145424,
                    49.84122362
                ]
            },
            "properties": {
                "RSU coordinates": [
                    9.1448318,
                    49.8398223
                ],
                "Distance": 288.33,
                "Frequency": 5.9,
                "RSSI": -99.67,
                "LOS": "False"
            }
        },
        {
            "type": "Feature",
            "geometry": {
                "type": "Point",
                "coordinates": [
                    9.14155075,
                    49.84111582
                ]
            },
            "properties": {
                "RSU coordinates": [
                    9.1448318,
                    49.8398223
                ],
                "Distance": 276.09,
                "Frequency": 5.9,
                "RSSI": -99.29,
                "LOS": "False"
            }
        },
        {
            "type": "Feature",
            "geometry": {
                "type": "Point",
                "coordinates": [
                    9.14174376,
                    49.84111582
                ]
            },
            "properties": {
                "RSU coordinates": [
                    9.1448318,
                    49.8398223
                ],
                "Distance": 264.36,
                "Frequency": 5.9,
                "RSSI": -98.92,
                "LOS": "False"
            }
        },
        {
            "type": "Feature",
            "geometry": {
                "type": "Point",
                "coordinates": [
                    9.14155078,
                    49.84068465
                ]
            },
            "properties": {
                "RSU coordinates": [
                    9.1448318,
                    49.8398223
                ],
                "Distance": 254.37,
                "Frequency": 5.9,
                "RSSI": -98.59,
                "LOS": "False"
            }
        },
        {
            "type": "Feature",
            "geometry": {
                "type": "Point",
                "coordinates": [
                    9.14184026,
                    49.84100803
                ]
            },
            "properties": {
                "RSU coordinates": [
                    9.1448318,
                    49.8398223
                ],
                "Distance": 252.1,
                "Frequency": 5.9,
                "RSSI": -98.51,
                "LOS": "False"
            }
        },
        {
            "type": "Feature",
            "geometry": {
                "type": "Point",
                "coordinates": [
                    9.14203327,
                    49.84100803
                ]
            },
            "properties": {
                "RSU coordinates": [
                    9.1448318,
                    49.8398223
                ],
                "Distance": 240.4,
                "Frequency": 5.9,
                "RSSI": -98.11,
                "LOS": "False"
            }
        },
        {
            "type": "Feature",
            "geometry": {
                "type": "Point",
                "coordinates": [
                    9.14212977,
                    49.84090024
                ]
            },
            "properties": {
                "RSU coordinates": [
                    9.1448318,
                    49.8398223
                ],
                "Distance": 228.11,
                "Frequency": 5.9,
                "RSSI": -97.66,
                "LOS": "False"
            }
        },
        {
            "type": "Feature",
            "geometry": {
                "type": "Point",
                "coordinates": [
                    9.14232277,
                    49.84090024
                ]
            },
            "properties": {
                "RSU coordinates": [
                    9.1448318,
                    49.8398223
                ],
                "Distance": 216.44,
                "Frequency": 5.9,
                "RSSI": -97.21,
                "LOS": "False"
            }
        },
        {
            "type": "Feature",
            "geometry": {
                "type": "Point",
                "coordinates": [
                    9.14241928,
                    49.84079244
                ]
            },
            "properties": {
                "RSU coordinates": [
                    9.1448318,
                    49.8398223
                ],
                "Distance": 204.12,
                "Frequency": 5.9,
                "RSSI": -96.7,
                "LOS": "False"
            }
        },
        {
            "type": "Feature",
            "geometry": {
                "type": "Point",
                "coordinates": [
                    9.14270879,
                    49.84068465
                ]
            },
            "properties": {
                "RSU coordinates": [
                    9.1448318,
                    49.8398223
                ],
                "Distance": 180.13,
                "Frequency": 5.9,
                "RSSI": -95.63,
                "LOS": "False"
            }
        },
        {
            "type": "Feature",
            "geometry": {
                "type": "Point",
                "coordinates": [
                    9.1426123,
                    49.84036127
                ]
            },
            "properties": {
                "RSU coordinates": [
                    9.1448318,
                    49.8398223
                ],
                "Distance": 170.27,
                "Frequency": 5.9,
                "RSSI": -95.15,
                "LOS": "False"
            }
        },
        {
            "type": "Feature",
            "geometry": {
                "type": "Point",
                "coordinates": [
                    9.1428053,
                    49.84036127
                ]
            },
            "properties": {
                "RSU coordinates": [
                    9.1448318,
                    49.8398223
                ],
                "Distance": 157.38,
                "Frequency": 5.9,
                "RSSI": -94.47,
                "LOS": "False"
            }
        },
        {
            "type": "Feature",
            "geometry": {
                "type": "Point",
                "coordinates": [
                    9.14299829,
                    49.84057686
                ]
            },
            "properties": {
                "RSU coordinates": [
                    9.1448318,
                    49.8398223
                ],
                "Distance": 156.15,
                "Frequency": 5.9,
                "RSSI": -94.41,
                "LOS": "False"
            }
        },
        {
            "type": "Feature",
            "geometry": {
                "type": "Point",
                "coordinates": [
                    9.14290181,
                    49.84025347
                ]
            },
            "properties": {
                "RSU coordinates": [
                    9.1448318,
                    49.8398223
                ],
                "Distance": 146.64,
                "Frequency": 5.9,
                "RSSI": -93.87,
                "LOS": "False"
            }
        },
        {
            "type": "Feature",
            "geometry": {
                "type": "Point",
                "coordinates": [
                    9.14309481,
                    49.84025347
                ]
            },
            "properties": {
                "RSU coordinates": [
                    9.1448318,
                    49.8398223
                ],
                "Distance": 133.63,
                "Frequency": 5.9,
                "RSSI": -93.07,
                "LOS": "False"
            }
        },
        {
            "type": "Feature",
            "geometry": {
                "type": "Point",
                "coordinates": [
                    9.1432878,
                    49.84046906
                ]
            },
            "properties": {
                "RSU coordinates": [
                    9.1448318,
                    49.8398223
                ],
                "Distance": 132.18,
                "Frequency": 5.9,
                "RSSI": -92.97999999999999,
                "LOS": "False"
            }
        },
        {
            "type": "Feature",
            "geometry": {
                "type": "Point",
                "coordinates": [
                    9.14338431,
                    49.84014568
                ]
            },
            "properties": {
                "RSU coordinates": [
                    9.1448318,
                    49.8398223
                ],
                "Distance": 109.98,
                "Frequency": 5.9,
                "RSSI": -91.4,
                "LOS": "False"
            }
        },
        {
            "type": "Feature",
            "geometry": {
                "type": "Point",
                "coordinates": [
                    9.1435773,
                    49.84036127
                ]
            },
            "properties": {
                "RSU coordinates": [
                    9.1448318,
                    49.8398223
                ],
                "Distance": 108.22,
                "Frequency": 5.9,
                "RSSI": -91.25999999999999,
                "LOS": "False"
            }
        },
        {
            "type": "Feature",
            "geometry": {
                "type": "Point",
                "coordinates": [
                    9.14357731,
                    49.84014568
                ]
            },
            "properties": {
                "RSU coordinates": [
                    9.1448318,
                    49.8398223
                ],
                "Distance": 96.99,
                "Frequency": 5.9,
                "RSSI": -90.32,
                "LOS": "False"
            }
        },
        {
            "type": "Feature",
            "geometry": {
                "type": "Point",
                "coordinates": [
                    9.1436738,
                    49.84025347
                ]
            },
            "properties": {
                "RSU coordinates": [
                    9.1448318,
                    49.8398223
                ],
                "Distance": 96.0,
                "Frequency": 5.9,
                "RSSI": -90.22999999999999,
                "LOS": "False"
            }
        },
        {
            "type": "Feature",
            "geometry": {
                "type": "Point",
                "coordinates": [
                    9.14367381,
                    49.84003789
                ]
            },
            "properties": {
                "RSU coordinates": [
                    9.1448318,
                    49.8398223
                ],
                "Distance": 86.53,
                "Frequency": 5.9,
                "RSSI": -89.34,
                "LOS": "False"
            }
        },
        {
            "type": "Feature",
            "geometry": {
                "type": "Point",
                "coordinates": [
                    9.14386681,
                    49.84003789
                ]
            },
            "properties": {
                "RSU coordinates": [
                    9.1448318,
                    49.8398223
                ],
                "Distance": 73.32,
                "Frequency": 5.9,
                "RSSI": -87.92,
                "LOS": "False"
            }
        },
        {
            "type": "Feature",
            "geometry": {
                "type": "Point",
                "coordinates": [
                    9.1439633,
                    49.84014568
                ]
            },
            "properties": {
                "RSU coordinates": [
                    9.1448318,
                    49.8398223
                ],
                "Distance": 72.0,
                "Frequency": 5.9,
                "RSSI": -72.77000000000001,
                "LOS": "False"
            }
        },
        {
            "type": "Feature",
            "geometry": {
                "type": "Point",
                "coordinates": [
                    9.1441563,
                    49.84036127
                ]
            },
            "properties": {
                "RSU coordinates": [
                    9.1448318,
                    49.8398223
                ],
                "Distance": 77.15,
                "Frequency": 5.9,
                "RSSI": -88.36,
                "LOS": "False"
            }
        },
        {
            "type": "Feature",
            "geometry": {
                "type": "Point",
                "coordinates": [
                    9.14319135,
                    49.83906774
                ]
            },
            "properties": {
                "RSU coordinates": [
                    9.1448318,
                    49.8398223
                ],
                "Distance": 144.67,
                "Frequency": 5.9,
                "RSSI": -93.75,
                "LOS": "False"
            }
        },
        {
            "type": "Feature",
            "geometry": {
                "type": "Point",
                "coordinates": [
                    9.14348083,
                    49.83939113
                ]
            },
            "properties": {
                "RSU coordinates": [
                    9.1448318,
                    49.8398223
                ],
                "Distance": 108.22,
                "Frequency": 5.9,
                "RSSI": -91.25999999999999,
                "LOS": "False"
            }
        },
        {
            "type": "Feature",
            "geometry": {
                "type": "Point",
                "coordinates": [
                    9.14405981,
                    49.84003789
                ]
            },
            "properties": {
                "RSU coordinates": [
                    9.1448318,
                    49.8398223
                ],
                "Distance": 60.4,
                "Frequency": 5.9,
                "RSSI": -86.25999999999999,
                "LOS": "False"
            }
        },
        {
            "type": "Feature",
            "geometry": {
                "type": "Point",
                "coordinates": [
                    9.1441563,
                    49.84014568
                ]
            },
            "properties": {
                "RSU coordinates": [
                    9.1448318,
                    49.8398223
                ],
                "Distance": 60.4,
                "Frequency": 5.9,
                "RSSI": -86.25999999999999,
                "LOS": "False"
            }
        },
        {
            "type": "Feature",
            "geometry": {
                "type": "Point",
                "coordinates": [
                    9.1442528,
                    49.84025347
                ]
            },
            "properties": {
                "RSU coordinates": [
                    9.1448318,
                    49.8398223
                ],
                "Distance": 63.5,
                "Frequency": 5.9,
                "RSSI": -86.69,
                "LOS": "False"
            }
        },
        {
            "type": "Feature",
            "geometry": {
                "type": "Point",
                "coordinates": [
                    9.14357733,
                    49.83928333
                ]
            },
            "properties": {
                "RSU coordinates": [
                    9.1448318,
                    49.8398223
                ],
                "Distance": 108.22,
                "Frequency": 5.9,
                "RSSI": -91.25999999999999,
                "LOS": "False"
            }
        },
        {
            "type": "Feature",
            "geometry": {
                "type": "Point",
                "coordinates": [
                    9.14367382,
                    49.83939113
                ]
            },
            "properties": {
                "RSU coordinates": [
                    9.1448318,
                    49.8398223
                ],
                "Distance": 96.0,
                "Frequency": 5.9,
                "RSSI": -90.22999999999999,
                "LOS": "False"
            }
        },
        {
            "type": "Feature",
            "geometry": {
                "type": "Point",
                "coordinates": [
                    9.14377032,
                    49.83949892
                ]
            },
            "properties": {
                "RSU coordinates": [
                    9.1448318,
                    49.8398223
                ],
                "Distance": 84.29,
                "Frequency": 5.9,
                "RSSI": -89.12,
                "LOS": "False"
            }
        },
        {
            "type": "Feature",
            "geometry": {
                "type": "Point",
                "coordinates": [
                    9.14386682,
                    49.83960671
                ]
            },
            "properties": {
                "RSU coordinates": [
                    9.1448318,
                    49.8398223
                ],
                "Distance": 73.32,
                "Frequency": 5.9,
                "RSSI": -87.92,
                "LOS": "False"
            }
        },
        {
            "type": "Feature",
            "geometry": {
                "type": "Point",
                "coordinates": [
                    9.1442528,
                    49.84003789
                ]
            },
            "properties": {
                "RSU coordinates": [
                    9.1448318,
                    49.8398223
                ],
                "Distance": 48.0,
                "Frequency": 5.9,
                "RSSI": -69.28999999999999,
                "LOS": "False"
            }
        },
        {
            "type": "Feature",
            "geometry": {
                "type": "Point",
                "coordinates": [
                    9.14386682,
                    49.83939113
                ]
            },
            "properties": {
                "RSU coordinates": [
                    9.1448318,
                    49.8398223
                ],
                "Distance": 84.29,
                "Frequency": 5.9,
                "RSSI": -89.12,
                "LOS": "False"
            }
        },
        {
            "type": "Feature",
            "geometry": {
                "type": "Point",
                "coordinates": [
                    9.14415631,
                    49.83971451
                ]
            },
            "properties": {
                "RSU coordinates": [
                    9.1448318,
                    49.8398223
                ],
                "Distance": 49.96,
                "Frequency": 5.9,
                "RSSI": -84.63,
                "LOS": "False"
            }
        },
        {
            "type": "Feature",
            "geometry": {
                "type": "Point",
                "coordinates": [
                    9.1443493,
                    49.83993009
                ]
            },
            "properties": {
                "RSU coordinates": [
                    9.1448318,
                    49.8398223
                ],
                "Distance": 36.66,
                "Frequency": 5.9,
                "RSSI": -66.97999999999999,
                "LOS": "False"
            }
        },
        {
            "type": "Feature",
            "geometry": {
                "type": "Point",
                "coordinates": [
                    9.1444458,
                    49.84003789
                ]
            },
            "properties": {
                "RSU coordinates": [
                    9.1448318,
                    49.8398223
                ],
                "Distance": 36.66,
                "Frequency": 5.9,
                "RSSI": -66.97999999999999,
                "LOS": "False"
            }
        },
        {
            "type": "Feature",
            "geometry": {
                "type": "Point",
                "coordinates": [
                    9.14425281,
                    49.83960671
                ]
            },
            "properties": {
                "RSU coordinates": [
                    9.1448318,
                    49.8398223
                ],
                "Distance": 48.0,
                "Frequency": 5.9,
                "RSSI": -69.28999999999999,
                "LOS": "False"
            }
        },
        {
            "type": "Feature",
            "geometry": {
                "type": "Point",
                "coordinates": [
                    9.14434931,
                    49.83971451
                ]
            },
            "properties": {
                "RSU coordinates": [
                    9.1448318,
                    49.8398223
                ],
                "Distance": 36.66,
                "Frequency": 5.9,
                "RSSI": -66.97999999999999,
                "LOS": "False"
            }
        },
        {
            "type": "Feature",
            "geometry": {
                "type": "Point",
                "coordinates": [
                    9.1444458,
                    49.8398223
                ]
            },
            "properties": {
                "RSU coordinates": [
                    9.1448318,
                    49.8398223
                ],
                "Distance": 27.71,
                "Frequency": 5.9,
                "RSSI": -64.58,
                "LOS": "False"
            }
        },
        {
            "type": "Feature",
            "geometry": {
                "type": "Point",
                "coordinates": [
                    9.1445423,
                    49.83993009
                ]
            },
            "properties": {
                "RSU coordinates": [
                    9.1448318,
                    49.8398223
                ],
                "Distance": 24.0,
                "Frequency": 5.9,
                "RSSI": -63.34,
                "LOS": "False"
            }
        },
        {
            "type": "Feature",
            "geometry": {
                "type": "Point",
                "coordinates": [
                    9.1446388,
                    49.84003789
                ]
            },
            "properties": {
                "RSU coordinates": [
                    9.1448318,
                    49.8398223
                ],
                "Distance": 27.71,
                "Frequency": 5.9,
                "RSSI": -79.58,
                "LOS": "False"
            }
        },
        {
            "type": "Feature",
            "geometry": {
                "type": "Point",
                "coordinates": [
                    9.1447353,
                    49.84014568
                ]
            },
            "properties": {
                "RSU coordinates": [
                    9.1448318,
                    49.8398223
                ],
                "Distance": 36.66,
                "Frequency": 5.9,
                "RSSI": -81.97999999999999,
                "LOS": "False"
            }
        },
        {
            "type": "Feature",
            "geometry": {
                "type": "Point",
                "coordinates": [
                    9.1448318,
                    49.84025347
                ]
            },
            "properties": {
                "RSU coordinates": [
                    9.1448318,
                    49.8398223
                ],
                "Distance": 48.0,
                "Frequency": 5.9,
                "RSSI": -99.28999999999999,
                "LOS": "False"
            }
        },
        {
            "type": "Feature",
            "geometry": {
                "type": "Point",
                "coordinates": [
                    9.1445423,
                    49.83971451
                ]
            },
            "properties": {
                "RSU coordinates": [
                    9.1448318,
                    49.8398223
                ],
                "Distance": 24.0,
                "Frequency": 5.9,
                "RSSI": -63.34,
                "LOS": "False"
            }
        },
        {
            "type": "Feature",
            "geometry": {
                "type": "Point",
                "coordinates": [
                    9.1446388,
                    49.8398223
                ]
            },
            "properties": {
                "RSU coordinates": [
                    9.1448318,
                    49.8398223
                ],
                "Distance": 13.86,
                "Frequency": 5.9,
                "RSSI": -58.63,
                "LOS": "False"
            }
        },
        {
            "type": "Feature",
            "geometry": {
                "type": "Point",
                "coordinates": [
                    9.1447353,
                    49.83993009
                ]
            },
            "properties": {
                "RSU coordinates": [
                    9.1448318,
                    49.8398223
                ],
                "Distance": 13.86,
                "Frequency": 5.9,
                "RSSI": -58.63,
                "LOS": "False"
            }
        },
        {
            "type": "Feature",
            "geometry": {
                "type": "Point",
                "coordinates": [
                    9.1448318,
                    49.84003789
                ]
            },
            "properties": {
                "RSU coordinates": [
                    9.1448318,
                    49.8398223
                ],
                "Distance": 24.0,
                "Frequency": 5.9,
                "RSSI": -63.34,
                "LOS": "False"
            }
        },
        {
            "type": "Feature",
            "geometry": {
                "type": "Point",
                "coordinates": [
                    9.1450248,
                    49.84025347
                ]
            },
            "properties": {
                "RSU coordinates": [
                    9.1448318,
                    49.8398223
                ],
                "Distance": 49.96,
                "Frequency": 5.9,
                "RSSI": -99.63,
                "LOS": "False"
            }
        },
        {
            "type": "Feature",
            "geometry": {
                "type": "Point",
                "coordinates": [
                    9.14454231,
                    49.83949892
                ]
            },
            "properties": {
                "RSU coordinates": [
                    9.1448318,
                    49.8398223
                ],
                "Distance": 41.57,
                "Frequency": 5.9,
                "RSSI": -98.06,
                "LOS": "False"
            }
        },
        {
            "type": "Feature",
            "geometry": {
                "type": "Point",
                "coordinates": [
                    9.1449283,
                    49.83993009
                ]
            },
            "properties": {
                "RSU coordinates": [
                    9.1448318,
                    49.8398223
                ],
                "Distance": 13.86,
                "Frequency": 5.9,
                "RSSI": -73.63,
                "LOS": "False"
            }
        },
        {
            "type": "Feature",
            "geometry": {
                "type": "Point",
                "coordinates": [
                    9.1450248,
                    49.84003789
                ]
            },
            "properties": {
                "RSU coordinates": [
                    9.1448318,
                    49.8398223
                ],
                "Distance": 27.71,
                "Frequency": 5.9,
                "RSSI": -79.58,
                "LOS": "False"
            }
        },
        {
            "type": "Feature",
            "geometry": {
                "type": "Point",
                "coordinates": [
                    9.1451213,
                    49.84014568
                ]
            },
            "properties": {
                "RSU coordinates": [
                    9.1448318,
                    49.8398223
                ],
                "Distance": 41.57,
                "Frequency": 5.9,
                "RSSI": -83.06,
                "LOS": "False"
            }
        },
        {
            "type": "Feature",
            "geometry": {
                "type": "Point",
                "coordinates": [
                    9.1446388,
                    49.83939113
                ]
            },
            "properties": {
                "RSU coordinates": [
                    9.1448318,
                    49.8398223
                ],
                "Distance": 49.96,
                "Frequency": 5.9,
                "RSSI": -99.63,
                "LOS": "False"
            }
        },
        {
            "type": "Feature",
            "geometry": {
                "type": "Point",
                "coordinates": [
                    9.1447353,
                    49.83949892
                ]
            },
            "properties": {
                "RSU coordinates": [
                    9.1448318,
                    49.8398223
                ],
                "Distance": 36.66,
                "Frequency": 5.9,
                "RSSI": -81.97999999999999,
                "LOS": "False"
            }
        },
        {
            "type": "Feature",
            "geometry": {
                "type": "Point",
                "coordinates": [
                    9.1448318,
                    49.83960671
                ]
            },
            "properties": {
                "RSU coordinates": [
                    9.1448318,
                    49.8398223
                ],
                "Distance": 24.0,
                "Frequency": 5.9,
                "RSSI": -63.34,
                "LOS": "False"
            }
        },
        {
            "type": "Feature",
            "geometry": {
                "type": "Point",
                "coordinates": [
                    9.1450248,
                    49.8398223
                ]
            },
            "properties": {
                "RSU coordinates": [
                    9.1448318,
                    49.8398223
                ],
                "Distance": 13.86,
                "Frequency": 5.9,
                "RSSI": -58.63,
                "LOS": "False"
            }
        },
        {
            "type": "Feature",
            "geometry": {
                "type": "Point",
                "coordinates": [
                    9.1453143,
                    49.84014568
                ]
            },
            "properties": {
                "RSU coordinates": [
                    9.1448318,
                    49.8398223
                ],
                "Distance": 49.96,
                "Frequency": 5.9,
                "RSSI": -84.63,
                "LOS": "False"
            }
        },
        {
            "type": "Feature",
            "geometry": {
                "type": "Point",
                "coordinates": [
                    9.1454108,
                    49.84025347
                ]
            },
            "properties": {
                "RSU coordinates": [
                    9.1448318,
                    49.8398223
                ],
                "Distance": 63.5,
                "Frequency": 5.9,
                "RSSI": -86.69,
                "LOS": "False"
            }
        },
        {
            "type": "Feature",
            "geometry": {
                "type": "Point",
                "coordinates": [
                    9.14454231,
                    49.83906774
                ]
            },
            "properties": {
                "RSU coordinates": [
                    9.1448318,
                    49.8398223
                ],
                "Distance": 86.53,
                "Frequency": 5.9,
                "RSSI": -89.34,
                "LOS": "False"
            }
        },
        {
            "type": "Feature",
            "geometry": {
                "type": "Point",
                "coordinates": [
                    9.1446388,
                    49.83917554
                ]
            },
            "properties": {
                "RSU coordinates": [
                    9.1448318,
                    49.8398223
                ],
                "Distance": 73.32,
                "Frequency": 5.9,
                "RSSI": -87.92,
                "LOS": "False"
            }
        },
        {
            "type": "Feature",
            "geometry": {
                "type": "Point",
                "coordinates": [
                    9.1447353,
                    49.83928333
                ]
            },
            "properties": {
                "RSU coordinates": [
                    9.1448318,
                    49.8398223
                ],
                "Distance": 60.4,
                "Frequency": 5.9,
                "RSSI": -86.25999999999999,
                "LOS": "False"
            }
        },
        {
            "type": "Feature",
            "geometry": {
                "type": "Point",
                "coordinates": [
                    9.1448318,
                    49.83939113
                ]
            },
            "properties": {
                "RSU coordinates": [
                    9.1448318,
                    49.8398223
                ],
                "Distance": 48.0,
                "Frequency": 5.9,
                "RSSI": -69.28999999999999,
                "LOS": "False"
            }
        },
        {
            "type": "Feature",
            "geometry": {
                "type": "Point",
                "coordinates": [
                    9.1449283,
                    49.83949892
                ]
            },
            "properties": {
                "RSU coordinates": [
                    9.1448318,
                    49.8398223
                ],
                "Distance": 36.66,
                "Frequency": 5.9,
                "RSSI": -81.97999999999999,
                "LOS": "False"
            }
        },
        {
            "type": "Feature",
            "geometry": {
                "type": "Point",
                "coordinates": [
                    9.1450248,
                    49.83960671
                ]
            },
            "properties": {
                "RSU coordinates": [
                    9.1448318,
                    49.8398223
                ],
                "Distance": 27.71,
                "Frequency": 5.9,
                "RSSI": -94.58,
                "LOS": "False"
            }
        },
        {
            "type": "Feature",
            "geometry": {
                "type": "Point",
                "coordinates": [
                    9.1451213,
                    49.83971451
                ]
            },
            "properties": {
                "RSU coordinates": [
                    9.1448318,
                    49.8398223
                ],
                "Distance": 24.0,
                "Frequency": 5.9,
                "RSSI": -78.34,
                "LOS": "False"
            }
        },
        {
            "type": "Feature",
            "geometry": {
                "type": "Point",
                "coordinates": [
                    9.1453143,
                    49.83993009
                ]
            },
            "properties": {
                "RSU coordinates": [
                    9.1448318,
                    49.8398223
                ],
                "Distance": 36.66,
                "Frequency": 5.9,
                "RSSI": -96.97999999999999,
                "LOS": "False"
            }
        },
        {
            "type": "Feature",
            "geometry": {
                "type": "Point",
                "coordinates": [
                    9.1454108,
                    49.84003789
                ]
            },
            "properties": {
                "RSU coordinates": [
                    9.1448318,
                    49.8398223
                ],
                "Distance": 48.0,
                "Frequency": 5.9,
                "RSSI": -84.28999999999999,
                "LOS": "False"
            }
        },
        {
            "type": "Feature",
            "geometry": {
                "type": "Point",
                "coordinates": [
                    9.1455073,
                    49.84014568
                ]
            },
            "properties": {
                "RSU coordinates": [
                    9.1448318,
                    49.8398223
                ],
                "Distance": 60.4,
                "Frequency": 5.9,
                "RSSI": -86.25999999999999,
                "LOS": "False"
            }
        },
        {
            "type": "Feature",
            "geometry": {
                "type": "Point",
                "coordinates": [
                    9.1457968,
                    49.84046906
                ]
            },
            "properties": {
                "RSU coordinates": [
                    9.1448318,
                    49.8398223
                ],
                "Distance": 99.92,
                "Frequency": 5.9,
                "RSSI": -90.58,
                "LOS": "False"
            }
        },
        {
            "type": "Feature",
            "geometry": {
                "type": "Point",
                "coordinates": [
                    9.14444581,
                    49.83874436
                ]
            },
            "properties": {
                "RSU coordinates": [
                    9.1448318,
                    49.8398223
                ],
                "Distance": 123.16,
                "Frequency": 5.9,
                "RSSI": -92.37,
                "LOS": "False"
            }
        },
        {
            "type": "Feature",
            "geometry": {
                "type": "Point",
                "coordinates": [
                    9.1447353,
                    49.83906774
                ]
            },
            "properties": {
                "RSU coordinates": [
                    9.1448318,
                    49.8398223
                ],
                "Distance": 84.29,
                "Frequency": 5.9,
                "RSSI": -89.12,
                "LOS": "False"
            }
        },
        {
            "type": "Feature",
            "geometry": {
                "type": "Point",
                "coordinates": [
                    9.1448318,
                    49.83917554
                ]
            },
            "properties": {
                "RSU coordinates": [
                    9.1448318,
                    49.8398223
                ],
                "Distance": 72.0,
                "Frequency": 5.9,
                "RSSI": -72.77000000000001,
                "LOS": "False"
            }
        },
        {
            "type": "Feature",
            "geometry": {
                "type": "Point",
                "coordinates": [
                    9.1449283,
                    49.83928333
                ]
            },
            "properties": {
                "RSU coordinates": [
                    9.1448318,
                    49.8398223
                ],
                "Distance": 60.4,
                "Frequency": 5.9,
                "RSSI": -71.25999999999999,
                "LOS": "False"
            }
        },
        {
            "type": "Feature",
            "geometry": {
                "type": "Point",
                "coordinates": [
                    9.1450248,
                    49.83939113
                ]
            },
            "properties": {
                "RSU coordinates": [
                    9.1448318,
                    49.8398223
                ],
                "Distance": 49.96,
                "Frequency": 5.9,
                "RSSI": -99.63,
                "LOS": "False"
            }
        },
        {
            "type": "Feature",
            "geometry": {
                "type": "Point",
                "coordinates": [
                    9.14512129,
                    49.83949892
                ]
            },
            "properties": {
                "RSU coordinates": [
                    9.1448318,
                    49.8398223
                ],
                "Distance": 41.57,
                "Frequency": 5.9,
                "RSSI": -98.06,
                "LOS": "False"
            }
        },
        {
            "type": "Feature",
            "geometry": {
                "type": "Point",
                "coordinates": [
                    9.14531429,
                    49.83971451
                ]
            },
            "properties": {
                "RSU coordinates": [
                    9.1448318,
                    49.8398223
                ],
                "Distance": 36.66,
                "Frequency": 5.9,
                "RSSI": -66.97999999999999,
                "LOS": "False"
            }
        },
        {
            "type": "Feature",
            "geometry": {
                "type": "Point",
                "coordinates": [
                    9.14541079,
                    49.8398223
                ]
            },
            "properties": {
                "RSU coordinates": [
                    9.1448318,
                    49.8398223
                ],
                "Distance": 41.57,
                "Frequency": 5.9,
                "RSSI": -98.06,
                "LOS": "False"
            }
        },
        {
            "type": "Feature",
            "geometry": {
                "type": "Point",
                "coordinates": [
                    9.14550729,
                    49.83993009
                ]
            },
            "properties": {
                "RSU coordinates": [
                    9.1448318,
                    49.8398223
                ],
                "Distance": 49.96,
                "Frequency": 5.9,
                "RSSI": -99.63,
                "LOS": "False"
            }
        },
        {
            "type": "Feature",
            "geometry": {
                "type": "Point",
                "coordinates": [
                    9.14434932,
                    49.83842098
                ]
            },
            "properties": {
                "RSU coordinates": [
                    9.1448318,
                    49.8398223
                ],
                "Distance": 159.8,
                "Frequency": 5.9,
                "RSSI": -94.6,
                "LOS": "False"
            }
        },
        {
            "type": "Feature",
            "geometry": {
                "type": "Point",
                "coordinates": [
                    9.1447353,
                    49.83885216
                ]
            },
            "properties": {
                "RSU coordinates": [
                    9.1448318,
                    49.8398223
                ],
                "Distance": 108.22,
                "Frequency": 5.9,
                "RSSI": -76.25999999999999,
                "LOS": "False"
            }
        },
        {
            "type": "Feature",
            "geometry": {
                "type": "Point",
                "coordinates": [
                    9.1448318,
                    49.83895995
                ]
            },
            "properties": {
                "RSU coordinates": [
                    9.1448318,
                    49.8398223
                ],
                "Distance": 96.0,
                "Frequency": 5.9,
                "RSSI": -75.22999999999999,
                "LOS": "False"
            }
        },
        {
            "type": "Feature",
            "geometry": {
                "type": "Point",
                "coordinates": [
                    9.1449283,
                    49.83906774
                ]
            },
            "properties": {
                "RSU coordinates": [
                    9.1448318,
                    49.8398223
                ],
                "Distance": 84.29,
                "Frequency": 5.9,
                "RSSI": -74.12,
                "LOS": "False"
            }
        },
        {
            "type": "Feature",
            "geometry": {
                "type": "Point",
                "coordinates": [
                    9.14541079,
                    49.83960671
                ]
            },
            "properties": {
                "RSU coordinates": [
                    9.1448318,
                    49.8398223
                ],
                "Distance": 48.0,
                "Frequency": 5.9,
                "RSSI": -84.28999999999999,
                "LOS": "False"
            }
        },
        {
            "type": "Feature",
            "geometry": {
                "type": "Point",
                "coordinates": [
                    9.14425283,
                    49.8380976
                ]
            },
            "properties": {
                "RSU coordinates": [
                    9.1448318,
                    49.8398223
                ],
                "Distance": 196.45,
                "Frequency": 5.9,
                "RSSI": -96.37,
                "LOS": "False"
            }
        },
        {
            "type": "Feature",
            "geometry": {
                "type": "Point",
                "coordinates": [
                    9.1447353,
                    49.83863657
                ]
            },
            "properties": {
                "RSU coordinates": [
                    9.1448318,
                    49.8398223
                ],
                "Distance": 132.18,
                "Frequency": 5.9,
                "RSSI": -77.97999999999999,
                "LOS": "False"
            }
        },
        {
            "type": "Feature",
            "geometry": {
                "type": "Point",
                "coordinates": [
                    9.1448318,
                    49.83874436
                ]
            },
            "properties": {
                "RSU coordinates": [
                    9.1448318,
                    49.8398223
                ],
                "Distance": 120.0,
                "Frequency": 5.9,
                "RSSI": -77.15,
                "LOS": "False"
            }
        },
        {
            "type": "Feature",
            "geometry": {
                "type": "Point",
                "coordinates": [
                    9.1449283,
                    49.83885216
                ]
            },
            "properties": {
                "RSU coordinates": [
                    9.1448318,
                    49.8398223
                ],
                "Distance": 108.22,
                "Frequency": 5.9,
                "RSSI": -91.25999999999999,
                "LOS": "False"
            }
        },
        {
            "type": "Feature",
            "geometry": {
                "type": "Point",
                "coordinates": [
                    9.14405984,
                    49.83766643
                ]
            },
            "properties": {
                "RSU coordinates": [
                    9.1448318,
                    49.8398223
                ],
                "Distance": 246.32,
                "Frequency": 5.9,
                "RSSI": -98.31,
                "LOS": "False"
            }
        },
        {
            "type": "Feature",
            "geometry": {
                "type": "Point",
                "coordinates": [
                    9.14463881,
                    49.83831319
                ]
            },
            "properties": {
                "RSU coordinates": [
                    9.1448318,
                    49.8398223
                ],
                "Distance": 168.57,
                "Frequency": 5.9,
                "RSSI": -95.06,
                "LOS": "False"
            }
        },
        {
            "type": "Feature",
            "geometry": {
                "type": "Point",
                "coordinates": [
                    9.1447353,
                    49.83842098
                ]
            },
            "properties": {
                "RSU coordinates": [
                    9.1448318,
                    49.8398223
                ],
                "Distance": 156.15,
                "Frequency": 5.9,
                "RSSI": -79.41,
                "LOS": "False"
            }
        },
        {
            "type": "Feature",
            "geometry": {
                "type": "Point",
                "coordinates": [
                    9.1448318,
                    49.83852878
                ]
            },
            "properties": {
                "RSU coordinates": [
                    9.1448318,
                    49.8398223
                ],
                "Distance": 144.0,
                "Frequency": 5.9,
                "RSSI": -78.71000000000001,
                "LOS": "False"
            }
        },
        {
            "type": "Feature",
            "geometry": {
                "type": "Point",
                "coordinates": [
                    9.1449283,
                    49.83863657
                ]
            },
            "properties": {
                "RSU coordinates": [
                    9.1448318,
                    49.8398223
                ],
                "Distance": 132.18,
                "Frequency": 5.9,
                "RSSI": -92.97999999999999,
                "LOS": "False"
            }
        },
        {
            "type": "Feature",
            "geometry": {
                "type": "Point",
                "coordinates": [
                    9.14570028,
                    49.83949892
                ]
            },
            "properties": {
                "RSU coordinates": [
                    9.1448318,
                    49.8398223
                ],
                "Distance": 72.0,
                "Frequency": 5.9,
                "RSSI": -87.77000000000001,
                "LOS": "False"
            }
        },
        {
            "type": "Feature",
            "geometry": {
                "type": "Point",
                "coordinates": [
                    9.14463881,
                    49.8380976
                ]
            },
            "properties": {
                "RSU coordinates": [
                    9.1448318,
                    49.8398223
                ],
                "Distance": 192.5,
                "Frequency": 5.9,
                "RSSI": -96.2,
                "LOS": "False"
            }
        },
        {
            "type": "Feature",
            "geometry": {
                "type": "Point",
                "coordinates": [
                    9.1447353,
                    49.8382054
                ]
            },
            "properties": {
                "RSU coordinates": [
                    9.1448318,
                    49.8398223
                ],
                "Distance": 180.13,
                "Frequency": 5.9,
                "RSSI": -80.63,
                "LOS": "False"
            }
        },
        {
            "type": "Feature",
            "geometry": {
                "type": "Point",
                "coordinates": [
                    9.1448318,
                    49.83831319
                ]
            },
            "properties": {
                "RSU coordinates": [
                    9.1448318,
                    49.8398223
                ],
                "Distance": 168.0,
                "Frequency": 5.9,
                "RSSI": -80.03,
                "LOS": "False"
            }
        },
        {
            "type": "Feature",
            "geometry": {
                "type": "Point",
                "coordinates": [
                    9.1449283,
                    49.83842098
                ]
            },
            "properties": {
                "RSU coordinates": [
                    9.1448318,
                    49.8398223
                ],
                "Distance": 156.15,
                "Frequency": 5.9,
                "RSSI": -94.41,
                "LOS": "False"
            }
        },
        {
            "type": "Feature",
            "geometry": {
                "type": "Point",
                "coordinates": [
                    9.14463881,
                    49.83788202
                ]
            },
            "properties": {
                "RSU coordinates": [
                    9.1448318,
                    49.8398223
                ],
                "Distance": 216.44,
                "Frequency": 5.9,
                "RSSI": -82.21,
                "LOS": "False"
            }
        },
        {
            "type": "Feature",
            "geometry": {
                "type": "Point",
                "coordinates": [
                    9.1447353,
                    49.83798981
                ]
            },
            "properties": {
                "RSU coordinates": [
                    9.1448318,
                    49.8398223
                ],
                "Distance": 204.12,
                "Frequency": 5.9,
                "RSSI": -81.7,
                "LOS": "False"
            }
        },
        {
            "type": "Feature",
            "geometry": {
                "type": "Point",
                "coordinates": [
                    9.1448318,
                    49.8380976
                ]
            },
            "properties": {
                "RSU coordinates": [
                    9.1448318,
                    49.8398223
                ],
                "Distance": 192.0,
                "Frequency": 5.9,
                "RSSI": -81.18,
                "LOS": "False"
            }
        },
        {
            "type": "Feature",
            "geometry": {
                "type": "Point",
                "coordinates": [
                    9.1449283,
                    49.8382054
                ]
            },
            "properties": {
                "RSU coordinates": [
                    9.1448318,
                    49.8398223
                ],
                "Distance": 180.13,
                "Frequency": 5.9,
                "RSSI": -95.63,
                "LOS": "False"
            }
        },
        {
            "type": "Feature",
            "geometry": {
                "type": "Point",
                "coordinates": [
                    9.14512129,
                    49.83842098
                ]
            },
            "properties": {
                "RSU coordinates": [
                    9.1448318,
                    49.8398223
                ],
                "Distance": 157.38,
                "Frequency": 5.9,
                "RSSI": -94.47,
                "LOS": "False"
            }
        },
        {
            "type": "Feature",
            "geometry": {
                "type": "Point",
                "coordinates": [
                    9.14598978,
                    49.83939113
                ]
            },
            "properties": {
                "RSU coordinates": [
                    9.1448318,
                    49.8398223
                ],
                "Distance": 96.0,
                "Frequency": 5.9,
                "RSSI": -90.22999999999999,
                "LOS": "False"
            }
        },
        {
            "type": "Feature",
            "geometry": {
                "type": "Point",
                "coordinates": [
                    9.14454232,
                    49.83755863
                ]
            },
            "properties": {
                "RSU coordinates": [
                    9.1448318,
                    49.8398223
                ],
                "Distance": 252.86,
                "Frequency": 5.9,
                "RSSI": -98.54,
                "LOS": "False"
            }
        },
        {
            "type": "Feature",
            "geometry": {
                "type": "Point",
                "coordinates": [
                    9.14463881,
                    49.83766643
                ]
            },
            "properties": {
                "RSU coordinates": [
                    9.1448318,
                    49.8398223
                ],
                "Distance": 240.4,
                "Frequency": 5.9,
                "RSSI": -83.11,
                "LOS": "False"
            }
        },
        {
            "type": "Feature",
            "geometry": {
                "type": "Point",
                "coordinates": [
                    9.14473531,
                    49.83777422
                ]
            },
            "properties": {
                "RSU coordinates": [
                    9.1448318,
                    49.8398223
                ],
                "Distance": 228.11,
                "Frequency": 5.9,
                "RSSI": -82.66,
                "LOS": "False"
            }
        },
        {
            "type": "Feature",
            "geometry": {
                "type": "Point",
                "coordinates": [
                    9.1448318,
                    49.83788202
                ]
            },
            "properties": {
                "RSU coordinates": [
                    9.1448318,
                    49.8398223
                ],
                "Distance": 216.0,
                "Frequency": 5.9,
                "RSSI": -82.19,
                "LOS": "False"
            }
        },
        {
            "type": "Feature",
            "geometry": {
                "type": "Point",
                "coordinates": [
                    9.1449283,
                    49.83798981
                ]
            },
            "properties": {
                "RSU coordinates": [
                    9.1448318,
                    49.8398223
                ],
                "Distance": 204.12,
                "Frequency": 5.9,
                "RSSI": -96.7,
                "LOS": "False"
            }
        },
        {
            "type": "Feature",
            "geometry": {
                "type": "Point",
                "coordinates": [
                    9.14502479,
                    49.8380976
                ]
            },
            "properties": {
                "RSU coordinates": [
                    9.1448318,
                    49.8398223
                ],
                "Distance": 192.5,
                "Frequency": 5.9,
                "RSSI": -96.2,
                "LOS": "False"
            }
        },
        {
            "type": "Feature",
            "geometry": {
                "type": "Point",
                "coordinates": [
                    9.14463881,
                    49.83745084
                ]
            },
            "properties": {
                "RSU coordinates": [
                    9.1448318,
                    49.8398223
                ],
                "Distance": 264.36,
                "Frequency": 5.9,
                "RSSI": -98.92,
                "LOS": "False"
            }
        },
        {
            "type": "Feature",
            "geometry": {
                "type": "Point",
                "coordinates": [
                    9.14473531,
                    49.83755863
                ]
            },
            "properties": {
                "RSU coordinates": [
                    9.1448318,
                    49.8398223
                ],
                "Distance": 252.1,
                "Frequency": 5.9,
                "RSSI": -98.51,
                "LOS": "False"
            }
        },
        {
            "type": "Feature",
            "geometry": {
                "type": "Point",
                "coordinates": [
                    9.1448318,
                    49.83766643
                ]
            },
            "properties": {
                "RSU coordinates": [
                    9.1448318,
                    49.8398223
                ],
                "Distance": 240.0,
                "Frequency": 5.9,
                "RSSI": -83.09,
                "LOS": "False"
            }
        },
        {
            "type": "Feature",
            "geometry": {
                "type": "Point",
                "coordinates": [
                    9.14492829,
                    49.83777422
                ]
            },
            "properties": {
                "RSU coordinates": [
                    9.1448318,
                    49.8398223
                ],
                "Distance": 228.11,
                "Frequency": 5.9,
                "RSSI": -97.66,
                "LOS": "False"
            }
        },
        {
            "type": "Feature",
            "geometry": {
                "type": "Point",
                "coordinates": [
                    9.14502479,
                    49.83788202
                ]
            },
            "properties": {
                "RSU coordinates": [
                    9.1448318,
                    49.8398223
                ],
                "Distance": 216.44,
                "Frequency": 5.9,
                "RSSI": -97.21,
                "LOS": "False"
            }
        },
        {
            "type": "Feature",
            "geometry": {
                "type": "Point",
                "coordinates": [
                    9.14627927,
                    49.83928333
                ]
            },
            "properties": {
                "RSU coordinates": [
                    9.1448318,
                    49.8398223
                ],
                "Distance": 120.0,
                "Frequency": 5.9,
                "RSSI": -92.15,
                "LOS": "False"
            }
        },
        {
            "type": "Feature",
            "geometry": {
                "type": "Point",
                "coordinates": [
                    9.1448318,
                    49.83745084
                ]
            },
            "properties": {
                "RSU coordinates": [
                    9.1448318,
                    49.8398223
                ],
                "Distance": 264.0,
                "Frequency": 5.9,
                "RSSI": -83.91,
                "LOS": "False"
            }
        },
        {
            "type": "Feature",
            "geometry": {
                "type": "Point",
                "coordinates": [
                    9.14492829,
                    49.83755863
                ]
            },
            "properties": {
                "RSU coordinates": [
                    9.1448318,
                    49.8398223
                ],
                "Distance": 252.1,
                "Frequency": 5.9,
                "RSSI": -98.51,
                "LOS": "False"
            }
        },
        {
            "type": "Feature",
            "geometry": {
                "type": "Point",
                "coordinates": [
                    9.14502479,
                    49.83766643
                ]
            },
            "properties": {
                "RSU coordinates": [
                    9.1448318,
                    49.8398223
                ],
                "Distance": 240.4,
                "Frequency": 5.9,
                "RSSI": -98.11,
                "LOS": "False"
            }
        },
        {
            "type": "Feature",
            "geometry": {
                "type": "Point",
                "coordinates": [
                    9.14521778,
                    49.83788202
                ]
            },
            "properties": {
                "RSU coordinates": [
                    9.1448318,
                    49.8398223
                ],
                "Distance": 217.77,
                "Frequency": 5.9,
                "RSSI": -97.26,
                "LOS": "False"
            }
        },
        {
            "type": "Feature",
            "geometry": {
                "type": "Point",
                "coordinates": [
                    9.14647226,
                    49.83928333
                ]
            },
            "properties": {
                "RSU coordinates": [
                    9.1448318,
                    49.8398223
                ],
                "Distance": 132.18,
                "Frequency": 5.9,
                "RSSI": -92.97999999999999,
                "LOS": "False"
            }
        },
        {
            "type": "Feature",
            "geometry": {
                "type": "Point",
                "coordinates": [
                    9.14492829,
                    49.83734305
                ]
            },
            "properties": {
                "RSU coordinates": [
                    9.1448318,
                    49.8398223
                ],
                "Distance": 276.09,
                "Frequency": 5.9,
                "RSSI": -99.29,
                "LOS": "False"
            }
        },
        {
            "type": "Feature",
            "geometry": {
                "type": "Point",
                "coordinates": [
                    9.14502479,
                    49.83745084
                ]
            },
            "properties": {
                "RSU coordinates": [
                    9.1448318,
                    49.8398223
                ],
                "Distance": 264.36,
                "Frequency": 5.9,
                "RSSI": -98.92,
                "LOS": "False"
            }
        },
        {
            "type": "Feature",
            "geometry": {
                "type": "Point",
                "coordinates": [
                    9.14656876,
                    49.83917554
                ]
            },
            "properties": {
                "RSU coordinates": [
                    9.1448318,
                    49.8398223
                ],
                "Distance": 144.0,
                "Frequency": 5.9,
                "RSSI": -93.71000000000001,
                "LOS": "False"
            }
        },
        {
            "type": "Feature",
            "geometry": {
                "type": "Point",
                "coordinates": [
                    9.14502479,
                    49.83723525
                ]
            },
            "properties": {
                "RSU coordinates": [
                    9.1448318,
                    49.8398223
                ],
                "Distance": 288.33,
                "Frequency": 5.9,
                "RSSI": -99.67,
                "LOS": "False"
            }
        },
        {
            "type": "Feature",
            "geometry": {
                "type": "Point",
                "coordinates": [
                    9.14512128,
                    49.83734305
                ]
            },
            "properties": {
                "RSU coordinates": [
                    9.1448318,
                    49.8398223
                ],
                "Distance": 276.78,
                "Frequency": 5.9,
                "RSSI": -99.31,
                "LOS": "False"
            }
        },
        {
            "type": "Feature",
            "geometry": {
                "type": "Point",
                "coordinates": [
                    9.14531427,
                    49.83734305
                ]
            },
            "properties": {
                "RSU coordinates": [
                    9.1448318,
                    49.8398223
                ],
                "Distance": 278.17,
                "Frequency": 5.9,
                "RSSI": -99.36,
                "LOS": "False"
            }
        },
        {
            "type": "Feature",
            "geometry": {
                "type": "Point",
                "coordinates": [
                    9.14685824,
                    49.83906774
                ]
            },
            "properties": {
                "RSU coordinates": [
                    9.1448318,
                    49.8398223
                ],
                "Distance": 168.0,
                "Frequency": 5.9,
                "RSSI": -95.03,
                "LOS": "False"
            }
        }
    ]
}