{
    "type": "FeatureCollection",
    "features": [
        {
            "type": "Feature",
            "geometry": {
                "type": "Point",
                "coordinates": [
                    11.21265465,
                    49.08483675
                ]
            },
            "properties": {
                "RSU coordinates": [
                    11.218166,
                    49.0874238
                ],
                "Distance": 494.38,
                "Frequency": 5.9,
                "RSSI": -89.29,
                "LOS": "False"
            }
        },
        {
            "type": "Feature",
            "geometry": {
                "type": "Point",
                "coordinates": [
                    11.21293971,
                    49.08494455
                ]
            },
            "properties": {
                "RSU coordinates": [
                    11.218166,
                    49.0874238
                ],
                "Distance": 470.51,
                "Frequency": 5.9,
                "RSSI": -73.87,
                "LOS": "True"
            }
        },
        {
            "type": "Feature",
            "geometry": {
                "type": "Point",
                "coordinates": [
                    11.21436493,
                    49.08656145
                ]
            },
            "properties": {
                "RSU coordinates": [
                    11.218166,
                    49.0874238
                ],
                "Distance": 293.28,
                "Frequency": 5.9,
                "RSSI": -99.81,
                "LOS": "False"
            }
        },
        {
            "type": "Feature",
            "geometry": {
                "type": "Point",
                "coordinates": [
                    11.21569523,
                    49.08807056
                ]
            },
            "properties": {
                "RSU coordinates": [
                    11.218166,
                    49.0874238
                ],
                "Distance": 193.99,
                "Frequency": 5.9,
                "RSSI": -96.27,
                "LOS": "False"
            }
        },
        {
            "type": "Feature",
            "geometry": {
                "type": "Point",
                "coordinates": [
                    11.21693058,
                    49.08947188
                ]
            },
            "properties": {
                "RSU coordinates": [
                    11.218166,
                    49.0874238
                ],
                "Distance": 245.14,
                "Frequency": 5.9,
                "RSSI": -98.27,
                "LOS": "False"
            }
        },
        {
            "type": "Feature",
            "geometry": {
                "type": "Point",
                "coordinates": [
                    11.21322477,
                    49.08505234
                ]
            },
            "properties": {
                "RSU coordinates": [
                    11.218166,
                    49.0874238
                ],
                "Distance": 446.64,
                "Frequency": 5.9,
                "RSSI": -73.42,
                "LOS": "True"
            }
        },
        {
            "type": "Feature",
            "geometry": {
                "type": "Point",
                "coordinates": [
                    11.21455499,
                    49.08656145
                ]
            },
            "properties": {
                "RSU coordinates": [
                    11.218166,
                    49.0874238
                ],
                "Distance": 280.23,
                "Frequency": 5.9,
                "RSSI": -99.42,
                "LOS": "False"
            }
        },
        {
            "type": "Feature",
            "geometry": {
                "type": "Point",
                "coordinates": [
                    11.21360484,
                    49.08526793
                ]
            },
            "properties": {
                "RSU coordinates": [
                    11.218166,
                    49.0874238
                ],
                "Distance": 410.11,
                "Frequency": 5.9,
                "RSSI": -72.69,
                "LOS": "True"
            }
        },
        {
            "type": "Feature",
            "geometry": {
                "type": "Point",
                "coordinates": [
                    11.21484006,
                    49.08666924
                ]
            },
            "properties": {
                "RSU coordinates": [
                    11.218166,
                    49.0874238
                ],
                "Distance": 256.62,
                "Frequency": 5.9,
                "RSSI": -98.67,
                "LOS": "False"
            }
        },
        {
            "type": "Feature",
            "geometry": {
                "type": "Point",
                "coordinates": [
                    11.21693059,
                    49.0890407
                ]
            },
            "properties": {
                "RSU coordinates": [
                    11.218166,
                    49.0874238
                ],
                "Distance": 201.28,
                "Frequency": 5.9,
                "RSSI": -96.58,
                "LOS": "False"
            }
        },
        {
            "type": "Feature",
            "geometry": {
                "type": "Point",
                "coordinates": [
                    11.21712065,
                    49.08925629
                ]
            },
            "properties": {
                "RSU coordinates": [
                    11.218166,
                    49.0874238
                ],
                "Distance": 217.77,
                "Frequency": 5.9,
                "RSSI": -82.26,
                "LOS": "False"
            }
        },
        {
            "type": "Feature",
            "geometry": {
                "type": "Point",
                "coordinates": [
                    11.2138899,
                    49.08537572
                ]
            },
            "properties": {
                "RSU coordinates": [
                    11.218166,
                    49.0874238
                ],
                "Distance": 386.24,
                "Frequency": 5.9,
                "RSSI": -72.17,
                "LOS": "True"
            }
        },
        {
            "type": "Feature",
            "geometry": {
                "type": "Point",
                "coordinates": [
                    11.21503011,
                    49.08666924
                ]
            },
            "properties": {
                "RSU coordinates": [
                    11.218166,
                    49.0874238
                ],
                "Distance": 243.57,
                "Frequency": 5.9,
                "RSSI": -98.22,
                "LOS": "False"
            }
        },
        {
            "type": "Feature",
            "geometry": {
                "type": "Point",
                "coordinates": [
                    11.21617038,
                    49.08796277
                ]
            },
            "properties": {
                "RSU coordinates": [
                    11.218166,
                    49.0874238
                ],
                "Distance": 157.38,
                "Frequency": 5.9,
                "RSSI": -94.47,
                "LOS": "False"
            }
        },
        {
            "type": "Feature",
            "geometry": {
                "type": "Point",
                "coordinates": [
                    11.21702563,
                    49.08893291
                ]
            },
            "properties": {
                "RSU coordinates": [
                    11.218166,
                    49.0874238
                ],
                "Distance": 187.45,
                "Frequency": 5.9,
                "RSSI": -95.97,
                "LOS": "False"
            }
        },
        {
            "type": "Feature",
            "geometry": {
                "type": "Point",
                "coordinates": [
                    11.21721568,
                    49.0891485
                ]
            },
            "properties": {
                "RSU coordinates": [
                    11.218166,
                    49.0874238
                ],
                "Distance": 204.12,
                "Frequency": 5.9,
                "RSSI": -81.7,
                "LOS": "False"
            }
        },
        {
            "type": "Feature",
            "geometry": {
                "type": "Point",
                "coordinates": [
                    11.21426998,
                    49.08559131
                ]
            },
            "properties": {
                "RSU coordinates": [
                    11.218166,
                    49.0874238
                ],
                "Distance": 349.72,
                "Frequency": 5.9,
                "RSSI": -71.32,
                "LOS": "True"
            }
        },
        {
            "type": "Feature",
            "geometry": {
                "type": "Point",
                "coordinates": [
                    11.21531519,
                    49.08677704
                ]
            },
            "properties": {
                "RSU coordinates": [
                    11.218166,
                    49.0874238
                ],
                "Distance": 219.96,
                "Frequency": 5.9,
                "RSSI": -97.34,
                "LOS": "False"
            }
        },
        {
            "type": "Feature",
            "geometry": {
                "type": "Point",
                "coordinates": [
                    11.21712066,
                    49.08882512
                ]
            },
            "properties": {
                "RSU coordinates": [
                    11.218166,
                    49.0874238
                ],
                "Distance": 173.62,
                "Frequency": 5.9,
                "RSSI": -95.32,
                "LOS": "False"
            }
        },
        {
            "type": "Feature",
            "geometry": {
                "type": "Point",
                "coordinates": [
                    11.21731072,
                    49.0890407
                ]
            },
            "properties": {
                "RSU coordinates": [
                    11.218166,
                    49.0874238
                ],
                "Distance": 190.49,
                "Frequency": 5.9,
                "RSSI": -81.11,
                "LOS": "False"
            }
        },
        {
            "type": "Feature",
            "geometry": {
                "type": "Point",
                "coordinates": [
                    11.21446003,
                    49.08559131
                ]
            },
            "properties": {
                "RSU coordinates": [
                    11.218166,
                    49.0874238
                ],
                "Distance": 338.56,
                "Frequency": 5.9,
                "RSSI": -71.04,
                "LOS": "True"
            }
        },
        {
            "type": "Feature",
            "geometry": {
                "type": "Point",
                "coordinates": [
                    11.21455505,
                    49.0856991
                ]
            },
            "properties": {
                "RSU coordinates": [
                    11.218166,
                    49.0874238
                ],
                "Distance": 325.85,
                "Frequency": 5.9,
                "RSSI": -70.71,
                "LOS": "True"
            }
        },
        {
            "type": "Feature",
            "geometry": {
                "type": "Point",
                "coordinates": [
                    11.21550524,
                    49.08677704
                ]
            },
            "properties": {
                "RSU coordinates": [
                    11.218166,
                    49.0874238
                ],
                "Distance": 206.92,
                "Frequency": 5.9,
                "RSSI": -96.82,
                "LOS": "False"
            }
        },
        {
            "type": "Feature",
            "geometry": {
                "type": "Point",
                "coordinates": [
                    11.21645548,
                    49.08785497
                ]
            },
            "properties": {
                "RSU coordinates": [
                    11.218166,
                    49.0874238
                ],
                "Distance": 133.63,
                "Frequency": 5.9,
                "RSSI": -93.07,
                "LOS": "False"
            }
        },
        {
            "type": "Feature",
            "geometry": {
                "type": "Point",
                "coordinates": [
                    11.21731072,
                    49.08882512
                ]
            },
            "properties": {
                "RSU coordinates": [
                    11.218166,
                    49.0874238
                ],
                "Distance": 168.0,
                "Frequency": 5.9,
                "RSSI": -80.03,
                "LOS": "False"
            }
        },
        {
            "type": "Feature",
            "geometry": {
                "type": "Point",
                "coordinates": [
                    11.2147451,
                    49.0856991
                ]
            },
            "properties": {
                "RSU coordinates": [
                    11.218166,
                    49.0874238
                ],
                "Distance": 314.76,
                "Frequency": 5.9,
                "RSSI": -70.42,
                "LOS": "True"
            }
        },
        {
            "type": "Feature",
            "geometry": {
                "type": "Point",
                "coordinates": [
                    11.21484012,
                    49.0858069
                ]
            },
            "properties": {
                "RSU coordinates": [
                    11.218166,
                    49.0874238
                ],
                "Distance": 301.99,
                "Frequency": 5.9,
                "RSSI": -70.06,
                "LOS": "True"
            }
        },
        {
            "type": "Feature",
            "geometry": {
                "type": "Point",
                "coordinates": [
                    11.21503016,
                    49.08602248
                ]
            },
            "properties": {
                "RSU coordinates": [
                    11.218166,
                    49.0874238
                ],
                "Distance": 276.78,
                "Frequency": 5.9,
                "RSSI": -99.31,
                "LOS": "False"
            }
        },
        {
            "type": "Feature",
            "geometry": {
                "type": "Point",
                "coordinates": [
                    11.21579032,
                    49.08688483
                ]
            },
            "properties": {
                "RSU coordinates": [
                    11.218166,
                    49.0874238
                ],
                "Distance": 183.3,
                "Frequency": 5.9,
                "RSSI": -95.78,
                "LOS": "False"
            }
        },
        {
            "type": "Feature",
            "geometry": {
                "type": "Point",
                "coordinates": [
                    11.2172157,
                    49.08850174
                ]
            },
            "properties": {
                "RSU coordinates": [
                    11.218166,
                    49.0874238
                ],
                "Distance": 138.56,
                "Frequency": 5.9,
                "RSSI": -78.38,
                "LOS": "False"
            }
        },
        {
            "type": "Feature",
            "geometry": {
                "type": "Point",
                "coordinates": [
                    11.21731073,
                    49.08860953
                ]
            },
            "properties": {
                "RSU coordinates": [
                    11.218166,
                    49.0874238
                ],
                "Distance": 145.99,
                "Frequency": 5.9,
                "RSSI": -78.83,
                "LOS": "False"
            }
        },
        {
            "type": "Feature",
            "geometry": {
                "type": "Point",
                "coordinates": [
                    11.21740575,
                    49.08871732
                ]
            },
            "properties": {
                "RSU coordinates": [
                    11.218166,
                    49.0874238
                ],
                "Distance": 154.3,
                "Frequency": 5.9,
                "RSSI": -79.3,
                "LOS": "False"
            }
        },
        {
            "type": "Feature",
            "geometry": {
                "type": "Point",
                "coordinates": [
                    11.21503017,
                    49.0858069
                ]
            },
            "properties": {
                "RSU coordinates": [
                    11.218166,
                    49.0874238
                ],
                "Distance": 290.98,
                "Frequency": 5.9,
                "RSSI": -69.74,
                "LOS": "True"
            }
        },
        {
            "type": "Feature",
            "geometry": {
                "type": "Point",
                "coordinates": [
                    11.21512519,
                    49.08591469
                ]
            },
            "properties": {
                "RSU coordinates": [
                    11.218166,
                    49.0874238
                ],
                "Distance": 278.17,
                "Frequency": 5.9,
                "RSSI": -69.36,
                "LOS": "True"
            }
        },
        {
            "type": "Feature",
            "geometry": {
                "type": "Point",
                "coordinates": [
                    11.21522021,
                    49.08602248
                ]
            },
            "properties": {
                "RSU coordinates": [
                    11.218166,
                    49.0874238
                ],
                "Distance": 265.45,
                "Frequency": 5.9,
                "RSSI": -68.96,
                "LOS": "True"
            }
        },
        {
            "type": "Feature",
            "geometry": {
                "type": "Point",
                "coordinates": [
                    11.21531523,
                    49.08613028
                ]
            },
            "properties": {
                "RSU coordinates": [
                    11.218166,
                    49.0874238
                ],
                "Distance": 252.86,
                "Frequency": 5.9,
                "RSSI": -83.54,
                "LOS": "False"
            }
        },
        {
            "type": "Feature",
            "geometry": {
                "type": "Point",
                "coordinates": [
                    11.21598037,
                    49.08688483
                ]
            },
            "properties": {
                "RSU coordinates": [
                    11.218166,
                    49.0874238
                ],
                "Distance": 170.27,
                "Frequency": 5.9,
                "RSSI": -95.15,
                "LOS": "False"
            }
        },
        {
            "type": "Feature",
            "geometry": {
                "type": "Point",
                "coordinates": [
                    11.21731073,
                    49.08839394
                ]
            },
            "properties": {
                "RSU coordinates": [
                    11.218166,
                    49.0874238
                ],
                "Distance": 124.71,
                "Frequency": 5.9,
                "RSSI": -77.47999999999999,
                "LOS": "False"
            }
        },
        {
            "type": "Feature",
            "geometry": {
                "type": "Point",
                "coordinates": [
                    11.21750079,
                    49.08860953
                ]
            },
            "properties": {
                "RSU coordinates": [
                    11.218166,
                    49.0874238
                ],
                "Distance": 140.63,
                "Frequency": 5.9,
                "RSSI": -78.50999999999999,
                "LOS": "False"
            }
        },
        {
            "type": "Feature",
            "geometry": {
                "type": "Point",
                "coordinates": [
                    11.21541026,
                    49.08602248
                ]
            },
            "properties": {
                "RSU coordinates": [
                    11.218166,
                    49.0874238
                ],
                "Distance": 254.37,
                "Frequency": 5.9,
                "RSSI": -68.59,
                "LOS": "True"
            }
        },
        {
            "type": "Feature",
            "geometry": {
                "type": "Point",
                "coordinates": [
                    11.21550528,
                    49.08613028
                ]
            },
            "properties": {
                "RSU coordinates": [
                    11.218166,
                    49.0874238
                ],
                "Distance": 241.59,
                "Frequency": 5.9,
                "RSSI": -68.15,
                "LOS": "True"
            }
        },
        {
            "type": "Feature",
            "geometry": {
                "type": "Point",
                "coordinates": [
                    11.2156003,
                    49.08623807
                ]
            },
            "properties": {
                "RSU coordinates": [
                    11.218166,
                    49.0874238
                ],
                "Distance": 228.95,
                "Frequency": 5.9,
                "RSSI": -67.69,
                "LOS": "True"
            }
        },
        {
            "type": "Feature",
            "geometry": {
                "type": "Point",
                "coordinates": [
                    11.21569532,
                    49.08634586
                ]
            },
            "properties": {
                "RSU coordinates": [
                    11.218166,
                    49.0874238
                ],
                "Distance": 216.44,
                "Frequency": 5.9,
                "RSSI": -97.21,
                "LOS": "False"
            }
        },
        {
            "type": "Feature",
            "geometry": {
                "type": "Point",
                "coordinates": [
                    11.21626545,
                    49.08699263
                ]
            },
            "properties": {
                "RSU coordinates": [
                    11.218166,
                    49.0874238
                ],
                "Distance": 146.64,
                "Frequency": 5.9,
                "RSSI": -93.87,
                "LOS": "False"
            }
        },
        {
            "type": "Feature",
            "geometry": {
                "type": "Point",
                "coordinates": [
                    11.21693062,
                    49.08774718
                ]
            },
            "properties": {
                "RSU coordinates": [
                    11.218166,
                    49.0874238
                ],
                "Distance": 96.99,
                "Frequency": 5.9,
                "RSSI": -90.32,
                "LOS": "False"
            }
        },
        {
            "type": "Feature",
            "geometry": {
                "type": "Point",
                "coordinates": [
                    11.21740576,
                    49.08828615
                ]
            },
            "properties": {
                "RSU coordinates": [
                    11.218166,
                    49.0874238
                ],
                "Distance": 110.85,
                "Frequency": 5.9,
                "RSSI": -76.47,
                "LOS": "False"
            }
        },
        {
            "type": "Feature",
            "geometry": {
                "type": "Point",
                "coordinates": [
                    11.21750079,
                    49.08839394
                ]
            },
            "properties": {
                "RSU coordinates": [
                    11.218166,
                    49.0874238
                ],
                "Distance": 118.39,
                "Frequency": 5.9,
                "RSSI": -62.03,
                "LOS": "True"
            }
        },
        {
            "type": "Feature",
            "geometry": {
                "type": "Point",
                "coordinates": [
                    11.21569533,
                    49.08613028
                ]
            },
            "properties": {
                "RSU coordinates": [
                    11.218166,
                    49.0874238
                ],
                "Distance": 230.62,
                "Frequency": 5.9,
                "RSSI": -67.75,
                "LOS": "True"
            }
        },
        {
            "type": "Feature",
            "geometry": {
                "type": "Point",
                "coordinates": [
                    11.21579035,
                    49.08623807
                ]
            },
            "properties": {
                "RSU coordinates": [
                    11.218166,
                    49.0874238
                ],
                "Distance": 217.77,
                "Frequency": 5.9,
                "RSSI": -67.26,
                "LOS": "True"
            }
        },
        {
            "type": "Feature",
            "geometry": {
                "type": "Point",
                "coordinates": [
                    11.21588537,
                    49.08634586
                ]
            },
            "properties": {
                "RSU coordinates": [
                    11.218166,
                    49.0874238
                ],
                "Distance": 205.06,
                "Frequency": 5.9,
                "RSSI": -66.74,
                "LOS": "True"
            }
        },
        {
            "type": "Feature",
            "geometry": {
                "type": "Point",
                "coordinates": [
                    11.21598039,
                    49.08645366
                ]
            },
            "properties": {
                "RSU coordinates": [
                    11.218166,
                    49.0874238
                ],
                "Distance": 192.5,
                "Frequency": 5.9,
                "RSSI": -81.2,
                "LOS": "False"
            }
        },
        {
            "type": "Feature",
            "geometry": {
                "type": "Point",
                "coordinates": [
                    11.21645551,
                    49.08699263
                ]
            },
            "properties": {
                "RSU coordinates": [
                    11.218166,
                    49.0874238
                ],
                "Distance": 133.63,
                "Frequency": 5.9,
                "RSSI": -93.07,
                "LOS": "False"
            }
        },
        {
            "type": "Feature",
            "geometry": {
                "type": "Point",
                "coordinates": [
                    11.21655053,
                    49.08710042
                ]
            },
            "properties": {
                "RSU coordinates": [
                    11.218166,
                    49.0874238
                ],
                "Distance": 123.16,
                "Frequency": 5.9,
                "RSSI": -92.37,
                "LOS": "False"
            }
        },
        {
            "type": "Feature",
            "geometry": {
                "type": "Point",
                "coordinates": [
                    11.21750079,
                    49.08817836
                ]
            },
            "properties": {
                "RSU coordinates": [
                    11.218166,
                    49.0874238
                ],
                "Distance": 96.99,
                "Frequency": 5.9,
                "RSSI": -75.32,
                "LOS": "False"
            }
        },
        {
            "type": "Feature",
            "geometry": {
                "type": "Point",
                "coordinates": [
                    11.21759582,
                    49.08828615
                ]
            },
            "properties": {
                "RSU coordinates": [
                    11.218166,
                    49.0874238
                ],
                "Distance": 104.61,
                "Frequency": 5.9,
                "RSSI": -60.97,
                "LOS": "True"
            }
        },
        {
            "type": "Feature",
            "geometry": {
                "type": "Point",
                "coordinates": [
                    11.21769085,
                    49.08839394
                ]
            },
            "properties": {
                "RSU coordinates": [
                    11.218166,
                    49.0874238
                ],
                "Distance": 113.42,
                "Frequency": 5.9,
                "RSSI": -76.66,
                "LOS": "False"
            }
        },
        {
            "type": "Feature",
            "geometry": {
                "type": "Point",
                "coordinates": [
                    11.21607542,
                    49.08634586
                ]
            },
            "properties": {
                "RSU coordinates": [
                    11.218166,
                    49.0874238
                ],
                "Distance": 193.99,
                "Frequency": 5.9,
                "RSSI": -66.27,
                "LOS": "True"
            }
        },
        {
            "type": "Feature",
            "geometry": {
                "type": "Point",
                "coordinates": [
                    11.21617045,
                    49.08645366
                ]
            },
            "properties": {
                "RSU coordinates": [
                    11.218166,
                    49.0874238
                ],
                "Distance": 181.2,
                "Frequency": 5.9,
                "RSSI": -65.68,
                "LOS": "True"
            }
        },
        {
            "type": "Feature",
            "geometry": {
                "type": "Point",
                "coordinates": [
                    11.21626547,
                    49.08656145
                ]
            },
            "properties": {
                "RSU coordinates": [
                    11.218166,
                    49.0874238
                ],
                "Distance": 168.57,
                "Frequency": 5.9,
                "RSSI": -65.06,
                "LOS": "True"
            }
        },
        {
            "type": "Feature",
            "geometry": {
                "type": "Point",
                "coordinates": [
                    11.21636049,
                    49.08666924
                ]
            },
            "properties": {
                "RSU coordinates": [
                    11.218166,
                    49.0874238
                ],
                "Distance": 156.15,
                "Frequency": 5.9,
                "RSSI": -64.41,
                "LOS": "True"
            }
        },
        {
            "type": "Feature",
            "geometry": {
                "type": "Point",
                "coordinates": [
                    11.21645551,
                    49.08677704
                ]
            },
            "properties": {
                "RSU coordinates": [
                    11.218166,
                    49.0874238
                ],
                "Distance": 144.0,
                "Frequency": 5.9,
                "RSSI": -93.71000000000001,
                "LOS": "False"
            }
        },
        {
            "type": "Feature",
            "geometry": {
                "type": "Point",
                "coordinates": [
                    11.21664556,
                    49.08699263
                ]
            },
            "properties": {
                "RSU coordinates": [
                    11.218166,
                    49.0874238
                ],
                "Distance": 120.8,
                "Frequency": 5.9,
                "RSSI": -92.2,
                "LOS": "False"
            }
        },
        {
            "type": "Feature",
            "geometry": {
                "type": "Point",
                "coordinates": [
                    11.21721571,
                    49.08763939
                ]
            },
            "properties": {
                "RSU coordinates": [
                    11.218166,
                    49.0874238
                ],
                "Distance": 73.32,
                "Frequency": 5.9,
                "RSSI": -87.92,
                "LOS": "False"
            }
        },
        {
            "type": "Feature",
            "geometry": {
                "type": "Point",
                "coordinates": [
                    11.21759582,
                    49.08807056
                ]
            },
            "properties": {
                "RSU coordinates": [
                    11.218166,
                    49.0874238
                ],
                "Distance": 83.14,
                "Frequency": 5.9,
                "RSSI": -74.0,
                "LOS": "False"
            }
        },
        {
            "type": "Feature",
            "geometry": {
                "type": "Point",
                "coordinates": [
                    11.21769085,
                    49.08817836
                ]
            },
            "properties": {
                "RSU coordinates": [
                    11.218166,
                    49.0874238
                ],
                "Distance": 90.86,
                "Frequency": 5.9,
                "RSSI": -59.76,
                "LOS": "True"
            }
        },
        {
            "type": "Feature",
            "geometry": {
                "type": "Point",
                "coordinates": [
                    11.21645552,
                    49.08656145
                ]
            },
            "properties": {
                "RSU coordinates": [
                    11.218166,
                    49.0874238
                ],
                "Distance": 157.38,
                "Frequency": 5.9,
                "RSSI": -64.47,
                "LOS": "True"
            }
        },
        {
            "type": "Feature",
            "geometry": {
                "type": "Point",
                "coordinates": [
                    11.21655054,
                    49.08666924
                ]
            },
            "properties": {
                "RSU coordinates": [
                    11.218166,
                    49.0874238
                ],
                "Distance": 144.67,
                "Frequency": 5.9,
                "RSSI": -63.75,
                "LOS": "True"
            }
        },
        {
            "type": "Feature",
            "geometry": {
                "type": "Point",
                "coordinates": [
                    11.21664557,
                    49.08677704
                ]
            },
            "properties": {
                "RSU coordinates": [
                    11.218166,
                    49.0874238
                ],
                "Distance": 132.18,
                "Frequency": 5.9,
                "RSSI": -62.98,
                "LOS": "True"
            }
        },
        {
            "type": "Feature",
            "geometry": {
                "type": "Point",
                "coordinates": [
                    11.21674059,
                    49.08688483
                ]
            },
            "properties": {
                "RSU coordinates": [
                    11.218166,
                    49.0874238
                ],
                "Distance": 120.0,
                "Frequency": 5.9,
                "RSSI": -62.15,
                "LOS": "True"
            }
        },
        {
            "type": "Feature",
            "geometry": {
                "type": "Point",
                "coordinates": [
                    11.21683562,
                    49.08699263
                ]
            },
            "properties": {
                "RSU coordinates": [
                    11.218166,
                    49.0874238
                ],
                "Distance": 108.22,
                "Frequency": 5.9,
                "RSSI": -91.25999999999999,
                "LOS": "False"
            }
        },
        {
            "type": "Feature",
            "geometry": {
                "type": "Point",
                "coordinates": [
                    11.21693064,
                    49.08710042
                ]
            },
            "properties": {
                "RSU coordinates": [
                    11.218166,
                    49.0874238
                ],
                "Distance": 96.99,
                "Frequency": 5.9,
                "RSSI": -90.32,
                "LOS": "False"
            }
        },
        {
            "type": "Feature",
            "geometry": {
                "type": "Point",
                "coordinates": [
                    11.2175008,
                    49.08774718
                ]
            },
            "properties": {
                "RSU coordinates": [
                    11.218166,
                    49.0874238
                ],
                "Distance": 60.4,
                "Frequency": 5.9,
                "RSSI": -86.25999999999999,
                "LOS": "False"
            }
        },
        {
            "type": "Feature",
            "geometry": {
                "type": "Point",
                "coordinates": [
                    11.21759583,
                    49.08785497
                ]
            },
            "properties": {
                "RSU coordinates": [
                    11.218166,
                    49.0874238
                ],
                "Distance": 63.5,
                "Frequency": 5.9,
                "RSSI": -86.69,
                "LOS": "False"
            }
        },
        {
            "type": "Feature",
            "geometry": {
                "type": "Point",
                "coordinates": [
                    11.21778588,
                    49.08807056
                ]
            },
            "properties": {
                "RSU coordinates": [
                    11.218166,
                    49.0874238
                ],
                "Distance": 77.15,
                "Frequency": 5.9,
                "RSSI": -58.36,
                "LOS": "True"
            }
        },
        {
            "type": "Feature",
            "geometry": {
                "type": "Point",
                "coordinates": [
                    11.21788091,
                    49.08817836
                ]
            },
            "properties": {
                "RSU coordinates": [
                    11.218166,
                    49.0874238
                ],
                "Distance": 86.53,
                "Frequency": 5.9,
                "RSSI": -74.34,
                "LOS": "False"
            }
        },
        {
            "type": "Feature",
            "geometry": {
                "type": "Point",
                "coordinates": [
                    11.2167406,
                    49.08666924
                ]
            },
            "properties": {
                "RSU coordinates": [
                    11.218166,
                    49.0874238
                ],
                "Distance": 133.63,
                "Frequency": 5.9,
                "RSSI": -93.07,
                "LOS": "False"
            }
        },
        {
            "type": "Feature",
            "geometry": {
                "type": "Point",
                "coordinates": [
                    11.21683562,
                    49.08677704
                ]
            },
            "properties": {
                "RSU coordinates": [
                    11.218166,
                    49.0874238
                ],
                "Distance": 120.8,
                "Frequency": 5.9,
                "RSSI": -62.2,
                "LOS": "True"
            }
        },
        {
            "type": "Feature",
            "geometry": {
                "type": "Point",
                "coordinates": [
                    11.21693065,
                    49.08688483
                ]
            },
            "properties": {
                "RSU coordinates": [
                    11.218166,
                    49.0874238
                ],
                "Distance": 108.22,
                "Frequency": 5.9,
                "RSSI": -61.26,
                "LOS": "True"
            }
        },
        {
            "type": "Feature",
            "geometry": {
                "type": "Point",
                "coordinates": [
                    11.21702567,
                    49.08699263
                ]
            },
            "properties": {
                "RSU coordinates": [
                    11.218166,
                    49.0874238
                ],
                "Distance": 96.0,
                "Frequency": 5.9,
                "RSSI": -60.23,
                "LOS": "True"
            }
        },
        {
            "type": "Feature",
            "geometry": {
                "type": "Point",
                "coordinates": [
                    11.21759583,
                    49.08763939
                ]
            },
            "properties": {
                "RSU coordinates": [
                    11.218166,
                    49.0874238
                ],
                "Distance": 48.0,
                "Frequency": 5.9,
                "RSSI": -69.28999999999999,
                "LOS": "False"
            }
        },
        {
            "type": "Feature",
            "geometry": {
                "type": "Point",
                "coordinates": [
                    11.21778588,
                    49.08785497
                ]
            },
            "properties": {
                "RSU coordinates": [
                    11.218166,
                    49.0874238
                ],
                "Distance": 55.43,
                "Frequency": 5.9,
                "RSSI": -55.52,
                "LOS": "True"
            }
        },
        {
            "type": "Feature",
            "geometry": {
                "type": "Point",
                "coordinates": [
                    11.21788091,
                    49.08796277
                ]
            },
            "properties": {
                "RSU coordinates": [
                    11.218166,
                    49.0874238
                ],
                "Distance": 63.5,
                "Frequency": 5.9,
                "RSSI": -56.69,
                "LOS": "True"
            }
        },
        {
            "type": "Feature",
            "geometry": {
                "type": "Point",
                "coordinates": [
                    11.21598043,
                    49.08559131
                ]
            },
            "properties": {
                "RSU coordinates": [
                    11.218166,
                    49.0874238
                ],
                "Distance": 258.86,
                "Frequency": 5.9,
                "RSSI": -98.74,
                "LOS": "False"
            }
        },
        {
            "type": "Feature",
            "geometry": {
                "type": "Point",
                "coordinates": [
                    11.2171207,
                    49.08688483
                ]
            },
            "properties": {
                "RSU coordinates": [
                    11.218166,
                    49.0874238
                ],
                "Distance": 96.99,
                "Frequency": 5.9,
                "RSSI": -60.32,
                "LOS": "True"
            }
        },
        {
            "type": "Feature",
            "geometry": {
                "type": "Point",
                "coordinates": [
                    11.21721573,
                    49.08699263
                ]
            },
            "properties": {
                "RSU coordinates": [
                    11.218166,
                    49.0874238
                ],
                "Distance": 84.29,
                "Frequency": 5.9,
                "RSSI": -59.12,
                "LOS": "True"
            }
        },
        {
            "type": "Feature",
            "geometry": {
                "type": "Point",
                "coordinates": [
                    11.21731075,
                    49.08710042
                ]
            },
            "properties": {
                "RSU coordinates": [
                    11.218166,
                    49.0874238
                ],
                "Distance": 72.0,
                "Frequency": 5.9,
                "RSSI": -57.77,
                "LOS": "True"
            }
        },
        {
            "type": "Feature",
            "geometry": {
                "type": "Point",
                "coordinates": [
                    11.21759583,
                    49.0874238
                ]
            },
            "properties": {
                "RSU coordinates": [
                    11.218166,
                    49.0874238
                ],
                "Distance": 41.57,
                "Frequency": 5.9,
                "RSSI": -83.06,
                "LOS": "False"
            }
        },
        {
            "type": "Feature",
            "geometry": {
                "type": "Point",
                "coordinates": [
                    11.21769086,
                    49.08753159
                ]
            },
            "properties": {
                "RSU coordinates": [
                    11.218166,
                    49.0874238
                ],
                "Distance": 36.66,
                "Frequency": 5.9,
                "RSSI": -66.97999999999999,
                "LOS": "False"
            }
        },
        {
            "type": "Feature",
            "geometry": {
                "type": "Point",
                "coordinates": [
                    11.21778589,
                    49.08763939
                ]
            },
            "properties": {
                "RSU coordinates": [
                    11.218166,
                    49.0874238
                ],
                "Distance": 36.66,
                "Frequency": 5.9,
                "RSSI": -51.98,
                "LOS": "True"
            }
        },
        {
            "type": "Feature",
            "geometry": {
                "type": "Point",
                "coordinates": [
                    11.21788091,
                    49.08774718
                ]
            },
            "properties": {
                "RSU coordinates": [
                    11.218166,
                    49.0874238
                ],
                "Distance": 41.57,
                "Frequency": 5.9,
                "RSSI": -53.06,
                "LOS": "True"
            }
        },
        {
            "type": "Feature",
            "geometry": {
                "type": "Point",
                "coordinates": [
                    11.21797594,
                    49.08785497
                ]
            },
            "properties": {
                "RSU coordinates": [
                    11.218166,
                    49.0874238
                ],
                "Distance": 49.96,
                "Frequency": 5.9,
                "RSSI": -54.63,
                "LOS": "True"
            }
        },
        {
            "type": "Feature",
            "geometry": {
                "type": "Point",
                "coordinates": [
                    11.21740578,
                    49.08699263
                ]
            },
            "properties": {
                "RSU coordinates": [
                    11.218166,
                    49.0874238
                ],
                "Distance": 73.32,
                "Frequency": 5.9,
                "RSSI": -72.92,
                "LOS": "False"
            }
        },
        {
            "type": "Feature",
            "geometry": {
                "type": "Point",
                "coordinates": [
                    11.21750081,
                    49.08710042
                ]
            },
            "properties": {
                "RSU coordinates": [
                    11.218166,
                    49.0874238
                ],
                "Distance": 60.4,
                "Frequency": 5.9,
                "RSSI": -56.26,
                "LOS": "True"
            }
        },
        {
            "type": "Feature",
            "geometry": {
                "type": "Point",
                "coordinates": [
                    11.21759583,
                    49.08720821
                ]
            },
            "properties": {
                "RSU coordinates": [
                    11.218166,
                    49.0874238
                ],
                "Distance": 48.0,
                "Frequency": 5.9,
                "RSSI": -54.29,
                "LOS": "True"
            }
        },
        {
            "type": "Feature",
            "geometry": {
                "type": "Point",
                "coordinates": [
                    11.21788091,
                    49.08753159
                ]
            },
            "properties": {
                "RSU coordinates": [
                    11.218166,
                    49.0874238
                ],
                "Distance": 24.0,
                "Frequency": 5.9,
                "RSSI": -63.34,
                "LOS": "False"
            }
        },
        {
            "type": "Feature",
            "geometry": {
                "type": "Point",
                "coordinates": [
                    11.21797594,
                    49.08763939
                ]
            },
            "properties": {
                "RSU coordinates": [
                    11.218166,
                    49.0874238
                ],
                "Distance": 27.71,
                "Frequency": 5.9,
                "RSSI": -49.58,
                "LOS": "True"
            }
        },
        {
            "type": "Feature",
            "geometry": {
                "type": "Point",
                "coordinates": [
                    11.21807097,
                    49.08774718
                ]
            },
            "properties": {
                "RSU coordinates": [
                    11.218166,
                    49.0874238
                ],
                "Distance": 36.66,
                "Frequency": 5.9,
                "RSSI": -51.98,
                "LOS": "True"
            }
        },
        {
            "type": "Feature",
            "geometry": {
                "type": "Point",
                "coordinates": [
                    11.21740578,
                    49.08677704
                ]
            },
            "properties": {
                "RSU coordinates": [
                    11.218166,
                    49.0874238
                ],
                "Distance": 90.86,
                "Frequency": 5.9,
                "RSSI": -89.75999999999999,
                "LOS": "False"
            }
        },
        {
            "type": "Feature",
            "geometry": {
                "type": "Point",
                "coordinates": [
                    11.21750081,
                    49.08688483
                ]
            },
            "properties": {
                "RSU coordinates": [
                    11.218166,
                    49.0874238
                ],
                "Distance": 77.15,
                "Frequency": 5.9,
                "RSSI": -88.36,
                "LOS": "False"
            }
        },
        {
            "type": "Feature",
            "geometry": {
                "type": "Point",
                "coordinates": [
                    11.21769086,
                    49.08710042
                ]
            },
            "properties": {
                "RSU coordinates": [
                    11.218166,
                    49.0874238
                ],
                "Distance": 49.96,
                "Frequency": 5.9,
                "RSSI": -69.63,
                "LOS": "False"
            }
        },
        {
            "type": "Feature",
            "geometry": {
                "type": "Point",
                "coordinates": [
                    11.21778589,
                    49.08720821
                ]
            },
            "properties": {
                "RSU coordinates": [
                    11.218166,
                    49.0874238
                ],
                "Distance": 36.66,
                "Frequency": 5.9,
                "RSSI": -66.97999999999999,
                "LOS": "False"
            }
        },
        {
            "type": "Feature",
            "geometry": {
                "type": "Point",
                "coordinates": [
                    11.21788092,
                    49.08731601
                ]
            },
            "properties": {
                "RSU coordinates": [
                    11.218166,
                    49.0874238
                ],
                "Distance": 24.0,
                "Frequency": 5.9,
                "RSSI": -48.34,
                "LOS": "True"
            }
        },
        {
            "type": "Feature",
            "geometry": {
                "type": "Point",
                "coordinates": [
                    11.21807097,
                    49.08753159
                ]
            },
            "properties": {
                "RSU coordinates": [
                    11.218166,
                    49.0874238
                ],
                "Distance": 13.86,
                "Frequency": 5.9,
                "RSSI": -43.63,
                "LOS": "True"
            }
        },
        {
            "type": "Feature",
            "geometry": {
                "type": "Point",
                "coordinates": [
                    11.218166,
                    49.08763939
                ]
            },
            "properties": {
                "RSU coordinates": [
                    11.218166,
                    49.0874238
                ],
                "Distance": 24.0,
                "Frequency": 5.9,
                "RSSI": -48.34,
                "LOS": "True"
            }
        },
        {
            "type": "Feature",
            "geometry": {
                "type": "Point",
                "coordinates": [
                    11.21826103,
                    49.08774718
                ]
            },
            "properties": {
                "RSU coordinates": [
                    11.218166,
                    49.0874238
                ],
                "Distance": 36.66,
                "Frequency": 5.9,
                "RSSI": -66.97999999999999,
                "LOS": "False"
            }
        },
        {
            "type": "Feature",
            "geometry": {
                "type": "Point",
                "coordinates": [
                    11.21778589,
                    49.08699263
                ]
            },
            "properties": {
                "RSU coordinates": [
                    11.218166,
                    49.0874238
                ],
                "Distance": 55.43,
                "Frequency": 5.9,
                "RSSI": -85.52000000000001,
                "LOS": "False"
            }
        },
        {
            "type": "Feature",
            "geometry": {
                "type": "Point",
                "coordinates": [
                    11.21845109,
                    49.08774718
                ]
            },
            "properties": {
                "RSU coordinates": [
                    11.218166,
                    49.0874238
                ],
                "Distance": 41.57,
                "Frequency": 5.9,
                "RSSI": -83.06,
                "LOS": "False"
            }
        },
        {
            "type": "Feature",
            "geometry": {
                "type": "Point",
                "coordinates": [
                    11.21797595,
                    49.08699263
                ]
            },
            "properties": {
                "RSU coordinates": [
                    11.218166,
                    49.0874238
                ],
                "Distance": 49.96,
                "Frequency": 5.9,
                "RSSI": -84.63,
                "LOS": "False"
            }
        },
        {
            "type": "Feature",
            "geometry": {
                "type": "Point",
                "coordinates": [
                    11.21807097,
                    49.08710042
                ]
            },
            "properties": {
                "RSU coordinates": [
                    11.218166,
                    49.0874238
                ],
                "Distance": 36.66,
                "Frequency": 5.9,
                "RSSI": -81.97999999999999,
                "LOS": "False"
            }
        },
        {
            "type": "Feature",
            "geometry": {
                "type": "Point",
                "coordinates": [
                    11.218166,
                    49.08720821
                ]
            },
            "properties": {
                "RSU coordinates": [
                    11.218166,
                    49.0874238
                ],
                "Distance": 24.0,
                "Frequency": 5.9,
                "RSSI": -63.34,
                "LOS": "False"
            }
        },
        {
            "type": "Feature",
            "geometry": {
                "type": "Point",
                "coordinates": [
                    11.21826103,
                    49.08731601
                ]
            },
            "properties": {
                "RSU coordinates": [
                    11.218166,
                    49.0874238
                ],
                "Distance": 13.86,
                "Frequency": 5.9,
                "RSSI": -43.63,
                "LOS": "True"
            }
        },
        {
            "type": "Feature",
            "geometry": {
                "type": "Point",
                "coordinates": [
                    11.21835606,
                    49.0874238
                ]
            },
            "properties": {
                "RSU coordinates": [
                    11.218166,
                    49.0874238
                ],
                "Distance": 13.86,
                "Frequency": 5.9,
                "RSSI": -43.63,
                "LOS": "True"
            }
        },
        {
            "type": "Feature",
            "geometry": {
                "type": "Point",
                "coordinates": [
                    11.21845109,
                    49.08753159
                ]
            },
            "properties": {
                "RSU coordinates": [
                    11.218166,
                    49.0874238
                ],
                "Distance": 24.0,
                "Frequency": 5.9,
                "RSSI": -48.34,
                "LOS": "True"
            }
        },
        {
            "type": "Feature",
            "geometry": {
                "type": "Point",
                "coordinates": [
                    11.21807097,
                    49.08688483
                ]
            },
            "properties": {
                "RSU coordinates": [
                    11.218166,
                    49.0874238
                ],
                "Distance": 60.4,
                "Frequency": 5.9,
                "RSSI": -86.25999999999999,
                "LOS": "False"
            }
        },
        {
            "type": "Feature",
            "geometry": {
                "type": "Point",
                "coordinates": [
                    11.218166,
                    49.08699263
                ]
            },
            "properties": {
                "RSU coordinates": [
                    11.218166,
                    49.0874238
                ],
                "Distance": 48.0,
                "Frequency": 5.9,
                "RSSI": -84.28999999999999,
                "LOS": "False"
            }
        },
        {
            "type": "Feature",
            "geometry": {
                "type": "Point",
                "coordinates": [
                    11.21864114,
                    49.08753159
                ]
            },
            "properties": {
                "RSU coordinates": [
                    11.218166,
                    49.0874238
                ],
                "Distance": 36.66,
                "Frequency": 5.9,
                "RSSI": -51.98,
                "LOS": "True"
            }
        },
        {
            "type": "Feature",
            "geometry": {
                "type": "Point",
                "coordinates": [
                    11.21873617,
                    49.08763939
                ]
            },
            "properties": {
                "RSU coordinates": [
                    11.218166,
                    49.0874238
                ],
                "Distance": 48.0,
                "Frequency": 5.9,
                "RSSI": -54.29,
                "LOS": "True"
            }
        },
        {
            "type": "Feature",
            "geometry": {
                "type": "Point",
                "coordinates": [
                    11.2188312,
                    49.08774718
                ]
            },
            "properties": {
                "RSU coordinates": [
                    11.218166,
                    49.0874238
                ],
                "Distance": 60.4,
                "Frequency": 5.9,
                "RSSI": -71.25999999999999,
                "LOS": "False"
            }
        },
        {
            "type": "Feature",
            "geometry": {
                "type": "Point",
                "coordinates": [
                    11.21826103,
                    49.08688483
                ]
            },
            "properties": {
                "RSU coordinates": [
                    11.218166,
                    49.0874238
                ],
                "Distance": 60.4,
                "Frequency": 5.9,
                "RSSI": -86.25999999999999,
                "LOS": "False"
            }
        },
        {
            "type": "Feature",
            "geometry": {
                "type": "Point",
                "coordinates": [
                    11.21835605,
                    49.08699263
                ]
            },
            "properties": {
                "RSU coordinates": [
                    11.218166,
                    49.0874238
                ],
                "Distance": 49.96,
                "Frequency": 5.9,
                "RSSI": -84.63,
                "LOS": "False"
            }
        },
        {
            "type": "Feature",
            "geometry": {
                "type": "Point",
                "coordinates": [
                    11.21892623,
                    49.08763939
                ]
            },
            "properties": {
                "RSU coordinates": [
                    11.218166,
                    49.0874238
                ],
                "Distance": 60.4,
                "Frequency": 5.9,
                "RSSI": -56.26,
                "LOS": "True"
            }
        },
        {
            "type": "Feature",
            "geometry": {
                "type": "Point",
                "coordinates": [
                    11.21845108,
                    49.08688483
                ]
            },
            "properties": {
                "RSU coordinates": [
                    11.218166,
                    49.0874238
                ],
                "Distance": 63.5,
                "Frequency": 5.9,
                "RSSI": -86.69,
                "LOS": "False"
            }
        },
        {
            "type": "Feature",
            "geometry": {
                "type": "Point",
                "coordinates": [
                    11.21854611,
                    49.08699263
                ]
            },
            "properties": {
                "RSU coordinates": [
                    11.218166,
                    49.0874238
                ],
                "Distance": 55.43,
                "Frequency": 5.9,
                "RSSI": -85.52000000000001,
                "LOS": "False"
            }
        },
        {
            "type": "Feature",
            "geometry": {
                "type": "Point",
                "coordinates": [
                    11.21873617,
                    49.08720821
                ]
            },
            "properties": {
                "RSU coordinates": [
                    11.218166,
                    49.0874238
                ],
                "Distance": 48.0,
                "Frequency": 5.9,
                "RSSI": -99.28999999999999,
                "LOS": "False"
            }
        },
        {
            "type": "Feature",
            "geometry": {
                "type": "Point",
                "coordinates": [
                    11.2188312,
                    49.08731601
                ]
            },
            "properties": {
                "RSU coordinates": [
                    11.218166,
                    49.0874238
                ],
                "Distance": 49.96,
                "Frequency": 5.9,
                "RSSI": -84.63,
                "LOS": "False"
            }
        },
        {
            "type": "Feature",
            "geometry": {
                "type": "Point",
                "coordinates": [
                    11.21911629,
                    49.08763939
                ]
            },
            "properties": {
                "RSU coordinates": [
                    11.218166,
                    49.0874238
                ],
                "Distance": 73.32,
                "Frequency": 5.9,
                "RSSI": -57.92,
                "LOS": "True"
            }
        },
        {
            "type": "Feature",
            "geometry": {
                "type": "Point",
                "coordinates": [
                    11.21930635,
                    49.08785497
                ]
            },
            "properties": {
                "RSU coordinates": [
                    11.218166,
                    49.0874238
                ],
                "Distance": 96.0,
                "Frequency": 5.9,
                "RSSI": -90.22999999999999,
                "LOS": "False"
            }
        },
        {
            "type": "Feature",
            "geometry": {
                "type": "Point",
                "coordinates": [
                    11.21892622,
                    49.08720821
                ]
            },
            "properties": {
                "RSU coordinates": [
                    11.218166,
                    49.0874238
                ],
                "Distance": 60.4,
                "Frequency": 5.9,
                "RSSI": -86.25999999999999,
                "LOS": "False"
            }
        },
        {
            "type": "Feature",
            "geometry": {
                "type": "Point",
                "coordinates": [
                    11.21930634,
                    49.08763939
                ]
            },
            "properties": {
                "RSU coordinates": [
                    11.218166,
                    49.0874238
                ],
                "Distance": 86.53,
                "Frequency": 5.9,
                "RSSI": -89.34,
                "LOS": "False"
            }
        },
        {
            "type": "Feature",
            "geometry": {
                "type": "Point",
                "coordinates": [
                    11.21940138,
                    49.08774718
                ]
            },
            "properties": {
                "RSU coordinates": [
                    11.218166,
                    49.0874238
                ],
                "Distance": 96.99,
                "Frequency": 5.9,
                "RSSI": -90.32,
                "LOS": "False"
            }
        },
        {
            "type": "Feature",
            "geometry": {
                "type": "Point",
                "coordinates": [
                    11.21864113,
                    49.08666924
                ]
            },
            "properties": {
                "RSU coordinates": [
                    11.218166,
                    49.0874238
                ],
                "Distance": 90.86,
                "Frequency": 5.9,
                "RSSI": -74.75999999999999,
                "LOS": "False"
            }
        },
        {
            "type": "Feature",
            "geometry": {
                "type": "Point",
                "coordinates": [
                    11.21959143,
                    49.08774718
                ]
            },
            "properties": {
                "RSU coordinates": [
                    11.218166,
                    49.0874238
                ],
                "Distance": 109.98,
                "Frequency": 5.9,
                "RSSI": -61.4,
                "LOS": "True"
            }
        },
        {
            "type": "Feature",
            "geometry": {
                "type": "Point",
                "coordinates": [
                    11.21873616,
                    49.08656145
                ]
            },
            "properties": {
                "RSU coordinates": [
                    11.218166,
                    49.0874238
                ],
                "Distance": 104.61,
                "Frequency": 5.9,
                "RSSI": -75.97,
                "LOS": "False"
            }
        },
        {
            "type": "Feature",
            "geometry": {
                "type": "Point",
                "coordinates": [
                    11.2192113,
                    49.08710042
                ]
            },
            "properties": {
                "RSU coordinates": [
                    11.218166,
                    49.0874238
                ],
                "Distance": 84.29,
                "Frequency": 5.9,
                "RSSI": -89.12,
                "LOS": "False"
            }
        },
        {
            "type": "Feature",
            "geometry": {
                "type": "Point",
                "coordinates": [
                    11.21978149,
                    49.08774718
                ]
            },
            "properties": {
                "RSU coordinates": [
                    11.218166,
                    49.0874238
                ],
                "Distance": 123.16,
                "Frequency": 5.9,
                "RSSI": -77.37,
                "LOS": "False"
            }
        },
        {
            "type": "Feature",
            "geometry": {
                "type": "Point",
                "coordinates": [
                    11.21987652,
                    49.08785497
                ]
            },
            "properties": {
                "RSU coordinates": [
                    11.218166,
                    49.0874238
                ],
                "Distance": 133.63,
                "Frequency": 5.9,
                "RSSI": -93.07,
                "LOS": "False"
            }
        },
        {
            "type": "Feature",
            "geometry": {
                "type": "Point",
                "coordinates": [
                    11.22006658,
                    49.08785497
                ]
            },
            "properties": {
                "RSU coordinates": [
                    11.218166,
                    49.0874238
                ],
                "Distance": 146.64,
                "Frequency": 5.9,
                "RSSI": -63.87,
                "LOS": "True"
            }
        },
        {
            "type": "Feature",
            "geometry": {
                "type": "Point",
                "coordinates": [
                    11.21883118,
                    49.08623807
                ]
            },
            "properties": {
                "RSU coordinates": [
                    11.218166,
                    49.0874238
                ],
                "Distance": 140.63,
                "Frequency": 5.9,
                "RSSI": -93.50999999999999,
                "LOS": "False"
            }
        },
        {
            "type": "Feature",
            "geometry": {
                "type": "Point",
                "coordinates": [
                    11.22025664,
                    49.08785497
                ]
            },
            "properties": {
                "RSU coordinates": [
                    11.218166,
                    49.0874238
                ],
                "Distance": 159.8,
                "Frequency": 5.9,
                "RSSI": -79.6,
                "LOS": "False"
            }
        },
        {
            "type": "Feature",
            "geometry": {
                "type": "Point",
                "coordinates": [
                    11.22035167,
                    49.08796277
                ]
            },
            "properties": {
                "RSU coordinates": [
                    11.218166,
                    49.0874238
                ],
                "Distance": 170.27,
                "Frequency": 5.9,
                "RSSI": -95.15,
                "LOS": "False"
            }
        },
        {
            "type": "Feature",
            "geometry": {
                "type": "Point",
                "coordinates": [
                    11.2204467,
                    49.08785497
                ]
            },
            "properties": {
                "RSU coordinates": [
                    11.218166,
                    49.0874238
                ],
                "Distance": 173.07,
                "Frequency": 5.9,
                "RSSI": -95.29,
                "LOS": "False"
            }
        },
        {
            "type": "Feature",
            "geometry": {
                "type": "Point",
                "coordinates": [
                    11.22054173,
                    49.08796277
                ]
            },
            "properties": {
                "RSU coordinates": [
                    11.218166,
                    49.0874238
                ],
                "Distance": 183.3,
                "Frequency": 5.9,
                "RSSI": -65.78,
                "LOS": "True"
            }
        },
        {
            "type": "Feature",
            "geometry": {
                "type": "Point",
                "coordinates": [
                    11.22073179,
                    49.08796277
                ]
            },
            "properties": {
                "RSU coordinates": [
                    11.218166,
                    49.0874238
                ],
                "Distance": 196.45,
                "Frequency": 5.9,
                "RSSI": -66.37,
                "LOS": "True"
            }
        },
        {
            "type": "Feature",
            "geometry": {
                "type": "Point",
                "coordinates": [
                    11.22082683,
                    49.08807056
                ]
            },
            "properties": {
                "RSU coordinates": [
                    11.218166,
                    49.0874238
                ],
                "Distance": 206.92,
                "Frequency": 5.9,
                "RSSI": -96.82,
                "LOS": "False"
            }
        },
        {
            "type": "Feature",
            "geometry": {
                "type": "Point",
                "coordinates": [
                    11.21911625,
                    49.08591469
                ]
            },
            "properties": {
                "RSU coordinates": [
                    11.218166,
                    49.0874238
                ],
                "Distance": 181.73,
                "Frequency": 5.9,
                "RSSI": -95.71,
                "LOS": "False"
            }
        },
        {
            "type": "Feature",
            "geometry": {
                "type": "Point",
                "coordinates": [
                    11.22092185,
                    49.08796277
                ]
            },
            "properties": {
                "RSU coordinates": [
                    11.218166,
                    49.0874238
                ],
                "Distance": 209.69,
                "Frequency": 5.9,
                "RSSI": -81.93,
                "LOS": "False"
            }
        },
        {
            "type": "Feature",
            "geometry": {
                "type": "Point",
                "coordinates": [
                    11.22101689,
                    49.08807056
                ]
            },
            "properties": {
                "RSU coordinates": [
                    11.218166,
                    49.0874238
                ],
                "Distance": 219.96,
                "Frequency": 5.9,
                "RSSI": -67.34,
                "LOS": "True"
            }
        },
        {
            "type": "Feature",
            "geometry": {
                "type": "Point",
                "coordinates": [
                    11.22111192,
                    49.08817836
                ]
            },
            "properties": {
                "RSU coordinates": [
                    11.218166,
                    49.0874238
                ],
                "Distance": 230.62,
                "Frequency": 5.9,
                "RSSI": -97.75,
                "LOS": "False"
            }
        },
        {
            "type": "Feature",
            "geometry": {
                "type": "Point",
                "coordinates": [
                    11.22120694,
                    49.08807056
                ]
            },
            "properties": {
                "RSU coordinates": [
                    11.218166,
                    49.0874238
                ],
                "Distance": 233.1,
                "Frequency": 5.9,
                "RSSI": -67.84,
                "LOS": "True"
            }
        },
        {
            "type": "Feature",
            "geometry": {
                "type": "Point",
                "coordinates": [
                    11.22130198,
                    49.08817836
                ]
            },
            "properties": {
                "RSU coordinates": [
                    11.218166,
                    49.0874238
                ],
                "Distance": 243.57,
                "Frequency": 5.9,
                "RSSI": -98.22,
                "LOS": "False"
            }
        },
        {
            "type": "Feature",
            "geometry": {
                "type": "Point",
                "coordinates": [
                    11.221397,
                    49.08807056
                ]
            },
            "properties": {
                "RSU coordinates": [
                    11.218166,
                    49.0874238
                ],
                "Distance": 246.32,
                "Frequency": 5.9,
                "RSSI": -83.31,
                "LOS": "False"
            }
        },
        {
            "type": "Feature",
            "geometry": {
                "type": "Point",
                "coordinates": [
                    11.22149204,
                    49.08817836
                ]
            },
            "properties": {
                "RSU coordinates": [
                    11.218166,
                    49.0874238
                ],
                "Distance": 256.62,
                "Frequency": 5.9,
                "RSSI": -68.67,
                "LOS": "True"
            }
        },
        {
            "type": "Feature",
            "geometry": {
                "type": "Point",
                "coordinates": [
                    11.2216821,
                    49.08817836
                ]
            },
            "properties": {
                "RSU coordinates": [
                    11.218166,
                    49.0874238
                ],
                "Distance": 269.76,
                "Frequency": 5.9,
                "RSSI": -69.09,
                "LOS": "True"
            }
        },
        {
            "type": "Feature",
            "geometry": {
                "type": "Point",
                "coordinates": [
                    11.22187216,
                    49.08817836
                ]
            },
            "properties": {
                "RSU coordinates": [
                    11.218166,
                    49.0874238
                ],
                "Distance": 282.96,
                "Frequency": 5.9,
                "RSSI": -84.5,
                "LOS": "False"
            }
        },
        {
            "type": "Feature",
            "geometry": {
                "type": "Point",
                "coordinates": [
                    11.22206222,
                    49.08817836
                ]
            },
            "properties": {
                "RSU coordinates": [
                    11.218166,
                    49.0874238
                ],
                "Distance": 296.22,
                "Frequency": 5.9,
                "RSSI": -99.9,
                "LOS": "False"
            }
        },
        {
            "type": "Feature",
            "geometry": {
                "type": "Point",
                "coordinates": [
                    11.22215726,
                    49.08828615
                ]
            },
            "properties": {
                "RSU coordinates": [
                    11.218166,
                    49.0874238
                ],
                "Distance": 306.41,
                "Frequency": 5.9,
                "RSSI": -70.19,
                "LOS": "True"
            }
        },
        {
            "type": "Feature",
            "geometry": {
                "type": "Point",
                "coordinates": [
                    11.21959136,
                    49.08516013
                ]
            },
            "properties": {
                "RSU coordinates": [
                    11.218166,
                    49.0874238
                ],
                "Distance": 272.59,
                "Frequency": 5.9,
                "RSSI": -99.18,
                "LOS": "False"
            }
        },
        {
            "type": "Feature",
            "geometry": {
                "type": "Point",
                "coordinates": [
                    11.22234732,
                    49.08828615
                ]
            },
            "properties": {
                "RSU coordinates": [
                    11.218166,
                    49.0874238
                ],
                "Distance": 319.6,
                "Frequency": 5.9,
                "RSSI": -85.55,
                "LOS": "False"
            }
        },
        {
            "type": "Feature",
            "geometry": {
                "type": "Point",
                "coordinates": [
                    11.21968638,
                    49.08505234
                ]
            },
            "properties": {
                "RSU coordinates": [
                    11.218166,
                    49.0874238
                ],
                "Distance": 286.33,
                "Frequency": 5.9,
                "RSSI": -99.61,
                "LOS": "False"
            }
        },
        {
            "type": "Feature",
            "geometry": {
                "type": "Point",
                "coordinates": [
                    11.22253738,
                    49.08828615
                ]
            },
            "properties": {
                "RSU coordinates": [
                    11.218166,
                    49.0874238
                ],
                "Distance": 332.84,
                "Frequency": 5.9,
                "RSSI": -85.9,
                "LOS": "False"
            }
        },
        {
            "type": "Feature",
            "geometry": {
                "type": "Point",
                "coordinates": [
                    11.22301254,
                    49.08839394
                ]
            },
            "properties": {
                "RSU coordinates": [
                    11.218166,
                    49.0874238
                ],
                "Distance": 369.48,
                "Frequency": 5.9,
                "RSSI": -86.79,
                "LOS": "False"
            }
        },
        {
            "type": "Feature",
            "geometry": {
                "type": "Point",
                "coordinates": [
                    11.22329764,
                    49.08850174
                ]
            },
            "properties": {
                "RSU coordinates": [
                    11.218166,
                    49.0874238
                ],
                "Distance": 392.9,
                "Frequency": 5.9,
                "RSSI": -87.32,
                "LOS": "False"
            }
        },
        {
            "type": "Feature",
            "geometry": {
                "type": "Point",
                "coordinates": [
                    11.2234877,
                    49.08850174
                ]
            },
            "properties": {
                "RSU coordinates": [
                    11.218166,
                    49.0874238
                ],
                "Distance": 406.11,
                "Frequency": 5.9,
                "RSSI": -87.6,
                "LOS": "False"
            }
        }
    ]
}