{
    "type": "FeatureCollection",
    "features": [
        {
            "type": "Feature",
            "geometry": {
                "type": "Point",
                "coordinates": [
                    8.91351761,
                    50.10881281
                ]
            },
            "properties": {
                "RSU coordinates": [
                    8.9154584,
                    50.1073037
                ],
                "Distance": 217.77,
                "Frequency": 5.9,
                "RSSI": -97.26,
                "LOS": "False"
            }
        },
        {
            "type": "Feature",
            "geometry": {
                "type": "Point",
                "coordinates": [
                    8.91361465,
                    50.10870502
                ]
            },
            "properties": {
                "RSU coordinates": [
                    8.9154584,
                    50.1073037
                ],
                "Distance": 204.12,
                "Frequency": 5.9,
                "RSSI": -81.7,
                "LOS": "False"
            }
        },
        {
            "type": "Feature",
            "geometry": {
                "type": "Point",
                "coordinates": [
                    8.91400281,
                    50.10848943
                ]
            },
            "properties": {
                "RSU coordinates": [
                    8.9154584,
                    50.1073037
                ],
                "Distance": 168.0,
                "Frequency": 5.9,
                "RSSI": -80.03,
                "LOS": "False"
            }
        },
        {
            "type": "Feature",
            "geometry": {
                "type": "Point",
                "coordinates": [
                    8.91409986,
                    50.10838164
                ]
            },
            "properties": {
                "RSU coordinates": [
                    8.9154584,
                    50.1073037
                ],
                "Distance": 154.3,
                "Frequency": 5.9,
                "RSSI": -79.3,
                "LOS": "False"
            }
        },
        {
            "type": "Feature",
            "geometry": {
                "type": "Point",
                "coordinates": [
                    8.9141969,
                    50.10827384
                ]
            },
            "properties": {
                "RSU coordinates": [
                    8.9154584,
                    50.1073037
                ],
                "Distance": 140.63,
                "Frequency": 5.9,
                "RSSI": -78.50999999999999,
                "LOS": "False"
            }
        },
        {
            "type": "Feature",
            "geometry": {
                "type": "Point",
                "coordinates": [
                    8.91458506,
                    50.10805826
                ]
            },
            "properties": {
                "RSU coordinates": [
                    8.9154584,
                    50.1073037
                ],
                "Distance": 104.61,
                "Frequency": 5.9,
                "RSSI": -75.97,
                "LOS": "False"
            }
        },
        {
            "type": "Feature",
            "geometry": {
                "type": "Point",
                "coordinates": [
                    8.9146821,
                    50.10795046
                ]
            },
            "properties": {
                "RSU coordinates": [
                    8.9154584,
                    50.1073037
                ],
                "Distance": 90.86,
                "Frequency": 5.9,
                "RSSI": -74.75999999999999,
                "LOS": "False"
            }
        },
        {
            "type": "Feature",
            "geometry": {
                "type": "Point",
                "coordinates": [
                    8.91477914,
                    50.10784267
                ]
            },
            "properties": {
                "RSU coordinates": [
                    8.9154584,
                    50.1073037
                ],
                "Distance": 77.15,
                "Frequency": 5.9,
                "RSSI": -73.36,
                "LOS": "False"
            }
        },
        {
            "type": "Feature",
            "geometry": {
                "type": "Point",
                "coordinates": [
                    8.91507025,
                    50.10816605
                ]
            },
            "properties": {
                "RSU coordinates": [
                    8.9154584,
                    50.1073037
                ],
                "Distance": 99.92,
                "Frequency": 5.9,
                "RSSI": -90.58,
                "LOS": "False"
            }
        },
        {
            "type": "Feature",
            "geometry": {
                "type": "Point",
                "coordinates": [
                    8.91497322,
                    50.10741149
                ]
            },
            "properties": {
                "RSU coordinates": [
                    8.9154584,
                    50.1073037
                ],
                "Distance": 36.66,
                "Frequency": 5.9,
                "RSSI": -81.97999999999999,
                "LOS": "False"
            }
        },
        {
            "type": "Feature",
            "geometry": {
                "type": "Point",
                "coordinates": [
                    8.91516729,
                    50.10762708
                ]
            },
            "properties": {
                "RSU coordinates": [
                    8.9154584,
                    50.1073037
                ],
                "Distance": 41.57,
                "Frequency": 5.9,
                "RSSI": -68.06,
                "LOS": "False"
            }
        },
        {
            "type": "Feature",
            "geometry": {
                "type": "Point",
                "coordinates": [
                    8.91526432,
                    50.10773487
                ]
            },
            "properties": {
                "RSU coordinates": [
                    8.9154584,
                    50.1073037
                ],
                "Distance": 49.96,
                "Frequency": 5.9,
                "RSSI": -84.63,
                "LOS": "False"
            }
        },
        {
            "type": "Feature",
            "geometry": {
                "type": "Point",
                "coordinates": [
                    8.9154584,
                    50.10795046
                ]
            },
            "properties": {
                "RSU coordinates": [
                    8.9154584,
                    50.1073037
                ],
                "Distance": 72.0,
                "Frequency": 5.9,
                "RSSI": -87.77000000000001,
                "LOS": "False"
            }
        },
        {
            "type": "Feature",
            "geometry": {
                "type": "Point",
                "coordinates": [
                    8.91691402,
                    50.10956737
                ]
            },
            "properties": {
                "RSU coordinates": [
                    8.9154584,
                    50.1073037
                ],
                "Distance": 272.59,
                "Frequency": 5.9,
                "RSSI": -99.18,
                "LOS": "False"
            }
        },
        {
            "type": "Feature",
            "geometry": {
                "type": "Point",
                "coordinates": [
                    8.91701106,
                    50.10967516
                ]
            },
            "properties": {
                "RSU coordinates": [
                    8.9154584,
                    50.1073037
                ],
                "Distance": 286.33,
                "Frequency": 5.9,
                "RSSI": -99.61,
                "LOS": "False"
            }
        },
        {
            "type": "Feature",
            "geometry": {
                "type": "Point",
                "coordinates": [
                    8.91487618,
                    50.10708811
                ]
            },
            "properties": {
                "RSU coordinates": [
                    8.9154584,
                    50.1073037
                ],
                "Distance": 48.0,
                "Frequency": 5.9,
                "RSSI": -99.28999999999999,
                "LOS": "False"
            }
        },
        {
            "type": "Feature",
            "geometry": {
                "type": "Point",
                "coordinates": [
                    8.91526433,
                    50.10751929
                ]
            },
            "properties": {
                "RSU coordinates": [
                    8.9154584,
                    50.1073037
                ],
                "Distance": 27.71,
                "Frequency": 5.9,
                "RSSI": -64.58,
                "LOS": "False"
            }
        },
        {
            "type": "Feature",
            "geometry": {
                "type": "Point",
                "coordinates": [
                    8.9154584,
                    50.10773487
                ]
            },
            "properties": {
                "RSU coordinates": [
                    8.9154584,
                    50.1073037
                ],
                "Distance": 48.0,
                "Frequency": 5.9,
                "RSSI": -69.28999999999999,
                "LOS": "False"
            }
        },
        {
            "type": "Feature",
            "geometry": {
                "type": "Point",
                "coordinates": [
                    8.9164288,
                    50.10881281
                ]
            },
            "properties": {
                "RSU coordinates": [
                    8.9154584,
                    50.1073037
                ],
                "Distance": 181.73,
                "Frequency": 5.9,
                "RSSI": -95.71,
                "LOS": "False"
            }
        },
        {
            "type": "Feature",
            "geometry": {
                "type": "Point",
                "coordinates": [
                    8.91652584,
                    50.1089206
                ]
            },
            "properties": {
                "RSU coordinates": [
                    8.9154584,
                    50.1073037
                ],
                "Distance": 195.47,
                "Frequency": 5.9,
                "RSSI": -96.33,
                "LOS": "False"
            }
        },
        {
            "type": "Feature",
            "geometry": {
                "type": "Point",
                "coordinates": [
                    8.91662288,
                    50.1090284
                ]
            },
            "properties": {
                "RSU coordinates": [
                    8.9154584,
                    50.1073037
                ],
                "Distance": 209.23,
                "Frequency": 5.9,
                "RSSI": -96.92,
                "LOS": "False"
            }
        },
        {
            "type": "Feature",
            "geometry": {
                "type": "Point",
                "coordinates": [
                    8.91671993,
                    50.10913619
                ]
            },
            "properties": {
                "RSU coordinates": [
                    8.9154584,
                    50.1073037
                ],
                "Distance": 223.0,
                "Frequency": 5.9,
                "RSSI": -97.46,
                "LOS": "False"
            }
        },
        {
            "type": "Feature",
            "geometry": {
                "type": "Point",
                "coordinates": [
                    8.91681697,
                    50.10924398
                ]
            },
            "properties": {
                "RSU coordinates": [
                    8.9154584,
                    50.1073037
                ],
                "Distance": 236.78,
                "Frequency": 5.9,
                "RSSI": -97.98,
                "LOS": "False"
            }
        },
        {
            "type": "Feature",
            "geometry": {
                "type": "Point",
                "coordinates": [
                    8.91691401,
                    50.10935178
                ]
            },
            "properties": {
                "RSU coordinates": [
                    8.9154584,
                    50.1073037
                ],
                "Distance": 250.57,
                "Frequency": 5.9,
                "RSSI": -98.46,
                "LOS": "False"
            }
        },
        {
            "type": "Feature",
            "geometry": {
                "type": "Point",
                "coordinates": [
                    8.91701106,
                    50.10945957
                ]
            },
            "properties": {
                "RSU coordinates": [
                    8.9154584,
                    50.1073037
                ],
                "Distance": 264.36,
                "Frequency": 5.9,
                "RSSI": -98.92,
                "LOS": "False"
            }
        },
        {
            "type": "Feature",
            "geometry": {
                "type": "Point",
                "coordinates": [
                    8.9171081,
                    50.10956737
                ]
            },
            "properties": {
                "RSU coordinates": [
                    8.9154584,
                    50.1073037
                ],
                "Distance": 278.17,
                "Frequency": 5.9,
                "RSSI": -99.36,
                "LOS": "False"
            }
        },
        {
            "type": "Feature",
            "geometry": {
                "type": "Point",
                "coordinates": [
                    8.91720515,
                    50.10967516
                ]
            },
            "properties": {
                "RSU coordinates": [
                    8.9154584,
                    50.1073037
                ],
                "Distance": 291.97,
                "Frequency": 5.9,
                "RSSI": -99.77,
                "LOS": "False"
            }
        },
        {
            "type": "Feature",
            "geometry": {
                "type": "Point",
                "coordinates": [
                    8.91516729,
                    50.10719591
                ]
            },
            "properties": {
                "RSU coordinates": [
                    8.9154584,
                    50.1073037
                ],
                "Distance": 24.0,
                "Frequency": 5.9,
                "RSSI": -93.34,
                "LOS": "False"
            }
        },
        {
            "type": "Feature",
            "geometry": {
                "type": "Point",
                "coordinates": [
                    8.91526433,
                    50.1073037
                ]
            },
            "properties": {
                "RSU coordinates": [
                    8.9154584,
                    50.1073037
                ],
                "Distance": 13.86,
                "Frequency": 5.9,
                "RSSI": -58.63,
                "LOS": "False"
            }
        },
        {
            "type": "Feature",
            "geometry": {
                "type": "Point",
                "coordinates": [
                    8.91536136,
                    50.10741149
                ]
            },
            "properties": {
                "RSU coordinates": [
                    8.9154584,
                    50.1073037
                ],
                "Distance": 13.86,
                "Frequency": 5.9,
                "RSSI": -58.63,
                "LOS": "False"
            }
        },
        {
            "type": "Feature",
            "geometry": {
                "type": "Point",
                "coordinates": [
                    8.91555544,
                    50.10762708
                ]
            },
            "properties": {
                "RSU coordinates": [
                    8.9154584,
                    50.1073037
                ],
                "Distance": 36.66,
                "Frequency": 5.9,
                "RSSI": -96.97999999999999,
                "LOS": "False"
            }
        },
        {
            "type": "Feature",
            "geometry": {
                "type": "Point",
                "coordinates": [
                    8.91594359,
                    50.10805826
                ]
            },
            "properties": {
                "RSU coordinates": [
                    8.9154584,
                    50.1073037
                ],
                "Distance": 90.86,
                "Frequency": 5.9,
                "RSSI": -74.75999999999999,
                "LOS": "False"
            }
        },
        {
            "type": "Feature",
            "geometry": {
                "type": "Point",
                "coordinates": [
                    8.91604063,
                    50.10816605
                ]
            },
            "properties": {
                "RSU coordinates": [
                    8.9154584,
                    50.1073037
                ],
                "Distance": 104.61,
                "Frequency": 5.9,
                "RSSI": -75.97,
                "LOS": "False"
            }
        },
        {
            "type": "Feature",
            "geometry": {
                "type": "Point",
                "coordinates": [
                    8.91613767,
                    50.10827384
                ]
            },
            "properties": {
                "RSU coordinates": [
                    8.9154584,
                    50.1073037
                ],
                "Distance": 118.39,
                "Frequency": 5.9,
                "RSSI": -77.03,
                "LOS": "False"
            }
        },
        {
            "type": "Feature",
            "geometry": {
                "type": "Point",
                "coordinates": [
                    8.91623471,
                    50.10838164
                ]
            },
            "properties": {
                "RSU coordinates": [
                    8.9154584,
                    50.1073037
                ],
                "Distance": 132.18,
                "Frequency": 5.9,
                "RSSI": -77.97999999999999,
                "LOS": "False"
            }
        },
        {
            "type": "Feature",
            "geometry": {
                "type": "Point",
                "coordinates": [
                    8.91642879,
                    50.10859722
                ]
            },
            "properties": {
                "RSU coordinates": [
                    8.9154584,
                    50.1073037
                ],
                "Distance": 159.8,
                "Frequency": 5.9,
                "RSSI": -94.6,
                "LOS": "False"
            }
        },
        {
            "type": "Feature",
            "geometry": {
                "type": "Point",
                "coordinates": [
                    8.91652583,
                    50.10870502
                ]
            },
            "properties": {
                "RSU coordinates": [
                    8.9154584,
                    50.1073037
                ],
                "Distance": 173.62,
                "Frequency": 5.9,
                "RSSI": -95.32,
                "LOS": "False"
            }
        },
        {
            "type": "Feature",
            "geometry": {
                "type": "Point",
                "coordinates": [
                    8.91662288,
                    50.10881281
                ]
            },
            "properties": {
                "RSU coordinates": [
                    8.9154584,
                    50.1073037
                ],
                "Distance": 187.45,
                "Frequency": 5.9,
                "RSSI": -95.97,
                "LOS": "False"
            }
        },
        {
            "type": "Feature",
            "geometry": {
                "type": "Point",
                "coordinates": [
                    8.91671992,
                    50.1089206
                ]
            },
            "properties": {
                "RSU coordinates": [
                    8.9154584,
                    50.1073037
                ],
                "Distance": 201.28,
                "Frequency": 5.9,
                "RSSI": -96.58,
                "LOS": "False"
            }
        },
        {
            "type": "Feature",
            "geometry": {
                "type": "Point",
                "coordinates": [
                    8.91681696,
                    50.1090284
                ]
            },
            "properties": {
                "RSU coordinates": [
                    8.9154584,
                    50.1073037
                ],
                "Distance": 215.11,
                "Frequency": 5.9,
                "RSSI": -97.15,
                "LOS": "False"
            }
        },
        {
            "type": "Feature",
            "geometry": {
                "type": "Point",
                "coordinates": [
                    8.91691401,
                    50.10913619
                ]
            },
            "properties": {
                "RSU coordinates": [
                    8.9154584,
                    50.1073037
                ],
                "Distance": 228.95,
                "Frequency": 5.9,
                "RSSI": -97.69,
                "LOS": "False"
            }
        },
        {
            "type": "Feature",
            "geometry": {
                "type": "Point",
                "coordinates": [
                    8.91701105,
                    50.10924398
                ]
            },
            "properties": {
                "RSU coordinates": [
                    8.9154584,
                    50.1073037
                ],
                "Distance": 242.78,
                "Frequency": 5.9,
                "RSSI": -98.19,
                "LOS": "False"
            }
        },
        {
            "type": "Feature",
            "geometry": {
                "type": "Point",
                "coordinates": [
                    8.91710809,
                    50.10935178
                ]
            },
            "properties": {
                "RSU coordinates": [
                    8.9154584,
                    50.1073037
                ],
                "Distance": 256.62,
                "Frequency": 5.9,
                "RSSI": -98.67,
                "LOS": "False"
            }
        },
        {
            "type": "Feature",
            "geometry": {
                "type": "Point",
                "coordinates": [
                    8.91720514,
                    50.10945957
                ]
            },
            "properties": {
                "RSU coordinates": [
                    8.9154584,
                    50.1073037
                ],
                "Distance": 270.47,
                "Frequency": 5.9,
                "RSSI": -99.12,
                "LOS": "False"
            }
        },
        {
            "type": "Feature",
            "geometry": {
                "type": "Point",
                "coordinates": [
                    8.91507026,
                    50.10687253
                ]
            },
            "properties": {
                "RSU coordinates": [
                    8.9154584,
                    50.1073037
                ],
                "Distance": 55.43,
                "Frequency": 5.9,
                "RSSI": -85.52000000000001,
                "LOS": "False"
            }
        },
        {
            "type": "Feature",
            "geometry": {
                "type": "Point",
                "coordinates": [
                    8.91526433,
                    50.10708811
                ]
            },
            "properties": {
                "RSU coordinates": [
                    8.9154584,
                    50.1073037
                ],
                "Distance": 27.71,
                "Frequency": 5.9,
                "RSSI": -49.58,
                "LOS": "True"
            }
        },
        {
            "type": "Feature",
            "geometry": {
                "type": "Point",
                "coordinates": [
                    8.91536136,
                    50.10719591
                ]
            },
            "properties": {
                "RSU coordinates": [
                    8.9154584,
                    50.1073037
                ],
                "Distance": 13.86,
                "Frequency": 5.9,
                "RSSI": -43.63,
                "LOS": "True"
            }
        },
        {
            "type": "Feature",
            "geometry": {
                "type": "Point",
                "coordinates": [
                    8.91565247,
                    50.10751929
                ]
            },
            "properties": {
                "RSU coordinates": [
                    8.9154584,
                    50.1073037
                ],
                "Distance": 27.71,
                "Frequency": 5.9,
                "RSSI": -64.58,
                "LOS": "False"
            }
        },
        {
            "type": "Feature",
            "geometry": {
                "type": "Point",
                "coordinates": [
                    8.91584655,
                    50.10773487
                ]
            },
            "properties": {
                "RSU coordinates": [
                    8.9154584,
                    50.1073037
                ],
                "Distance": 55.43,
                "Frequency": 5.9,
                "RSSI": -85.52000000000001,
                "LOS": "False"
            }
        },
        {
            "type": "Feature",
            "geometry": {
                "type": "Point",
                "coordinates": [
                    8.91594359,
                    50.10784267
                ]
            },
            "properties": {
                "RSU coordinates": [
                    8.9154584,
                    50.1073037
                ],
                "Distance": 69.28,
                "Frequency": 5.9,
                "RSSI": -87.44,
                "LOS": "False"
            }
        },
        {
            "type": "Feature",
            "geometry": {
                "type": "Point",
                "coordinates": [
                    8.91604063,
                    50.10795046
                ]
            },
            "properties": {
                "RSU coordinates": [
                    8.9154584,
                    50.1073037
                ],
                "Distance": 83.14,
                "Frequency": 5.9,
                "RSSI": -89.0,
                "LOS": "False"
            }
        },
        {
            "type": "Feature",
            "geometry": {
                "type": "Point",
                "coordinates": [
                    8.91613767,
                    50.10805826
                ]
            },
            "properties": {
                "RSU coordinates": [
                    8.9154584,
                    50.1073037
                ],
                "Distance": 96.99,
                "Frequency": 5.9,
                "RSSI": -90.32,
                "LOS": "False"
            }
        },
        {
            "type": "Feature",
            "geometry": {
                "type": "Point",
                "coordinates": [
                    8.91623471,
                    50.10816605
                ]
            },
            "properties": {
                "RSU coordinates": [
                    8.9154584,
                    50.1073037
                ],
                "Distance": 110.85,
                "Frequency": 5.9,
                "RSSI": -91.47,
                "LOS": "False"
            }
        },
        {
            "type": "Feature",
            "geometry": {
                "type": "Point",
                "coordinates": [
                    8.91633175,
                    50.10827384
                ]
            },
            "properties": {
                "RSU coordinates": [
                    8.9154584,
                    50.1073037
                ],
                "Distance": 124.71,
                "Frequency": 5.9,
                "RSSI": -92.47999999999999,
                "LOS": "False"
            }
        },
        {
            "type": "Feature",
            "geometry": {
                "type": "Point",
                "coordinates": [
                    8.91642879,
                    50.10838164
                ]
            },
            "properties": {
                "RSU coordinates": [
                    8.9154584,
                    50.1073037
                ],
                "Distance": 138.56,
                "Frequency": 5.9,
                "RSSI": -93.38,
                "LOS": "False"
            }
        },
        {
            "type": "Feature",
            "geometry": {
                "type": "Point",
                "coordinates": [
                    8.91652583,
                    50.10848943
                ]
            },
            "properties": {
                "RSU coordinates": [
                    8.9154584,
                    50.1073037
                ],
                "Distance": 152.42,
                "Frequency": 5.9,
                "RSSI": -94.2,
                "LOS": "False"
            }
        },
        {
            "type": "Feature",
            "geometry": {
                "type": "Point",
                "coordinates": [
                    8.91662287,
                    50.10859722
                ]
            },
            "properties": {
                "RSU coordinates": [
                    8.9154584,
                    50.1073037
                ],
                "Distance": 166.28,
                "Frequency": 5.9,
                "RSSI": -94.94,
                "LOS": "False"
            }
        },
        {
            "type": "Feature",
            "geometry": {
                "type": "Point",
                "coordinates": [
                    8.91671991,
                    50.10870502
                ]
            },
            "properties": {
                "RSU coordinates": [
                    8.9154584,
                    50.1073037
                ],
                "Distance": 180.13,
                "Frequency": 5.9,
                "RSSI": -95.63,
                "LOS": "False"
            }
        },
        {
            "type": "Feature",
            "geometry": {
                "type": "Point",
                "coordinates": [
                    8.91681696,
                    50.10881281
                ]
            },
            "properties": {
                "RSU coordinates": [
                    8.9154584,
                    50.1073037
                ],
                "Distance": 193.99,
                "Frequency": 5.9,
                "RSSI": -96.27,
                "LOS": "False"
            }
        },
        {
            "type": "Feature",
            "geometry": {
                "type": "Point",
                "coordinates": [
                    8.916914,
                    50.1089206
                ]
            },
            "properties": {
                "RSU coordinates": [
                    8.9154584,
                    50.1073037
                ],
                "Distance": 207.85,
                "Frequency": 5.9,
                "RSSI": -96.86,
                "LOS": "False"
            }
        },
        {
            "type": "Feature",
            "geometry": {
                "type": "Point",
                "coordinates": [
                    8.91701104,
                    50.1090284
                ]
            },
            "properties": {
                "RSU coordinates": [
                    8.9154584,
                    50.1073037
                ],
                "Distance": 221.7,
                "Frequency": 5.9,
                "RSSI": -97.41,
                "LOS": "False"
            }
        },
        {
            "type": "Feature",
            "geometry": {
                "type": "Point",
                "coordinates": [
                    8.91710809,
                    50.10913619
                ]
            },
            "properties": {
                "RSU coordinates": [
                    8.9154584,
                    50.1073037
                ],
                "Distance": 235.56,
                "Frequency": 5.9,
                "RSSI": -97.93,
                "LOS": "False"
            }
        },
        {
            "type": "Feature",
            "geometry": {
                "type": "Point",
                "coordinates": [
                    8.91720513,
                    50.10924398
                ]
            },
            "properties": {
                "RSU coordinates": [
                    8.9154584,
                    50.1073037
                ],
                "Distance": 249.42,
                "Frequency": 5.9,
                "RSSI": -98.42,
                "LOS": "False"
            }
        },
        {
            "type": "Feature",
            "geometry": {
                "type": "Point",
                "coordinates": [
                    8.91730218,
                    50.10935178
                ]
            },
            "properties": {
                "RSU coordinates": [
                    8.9154584,
                    50.1073037
                ],
                "Distance": 263.27,
                "Frequency": 5.9,
                "RSSI": -98.89,
                "LOS": "False"
            }
        },
        {
            "type": "Feature",
            "geometry": {
                "type": "Point",
                "coordinates": [
                    8.91739922,
                    50.10945957
                ]
            },
            "properties": {
                "RSU coordinates": [
                    8.9154584,
                    50.1073037
                ],
                "Distance": 277.13,
                "Frequency": 5.9,
                "RSSI": -99.33,
                "LOS": "False"
            }
        },
        {
            "type": "Feature",
            "geometry": {
                "type": "Point",
                "coordinates": [
                    8.91749627,
                    50.10956737
                ]
            },
            "properties": {
                "RSU coordinates": [
                    8.9154584,
                    50.1073037
                ],
                "Distance": 290.98,
                "Frequency": 5.9,
                "RSSI": -99.74,
                "LOS": "False"
            }
        },
        {
            "type": "Feature",
            "geometry": {
                "type": "Point",
                "coordinates": [
                    8.9154584,
                    50.10708811
                ]
            },
            "properties": {
                "RSU coordinates": [
                    8.9154584,
                    50.1073037
                ],
                "Distance": 24.0,
                "Frequency": 5.9,
                "RSSI": -63.34,
                "LOS": "False"
            }
        },
        {
            "type": "Feature",
            "geometry": {
                "type": "Point",
                "coordinates": [
                    8.91555544,
                    50.10719591
                ]
            },
            "properties": {
                "RSU coordinates": [
                    8.9154584,
                    50.1073037
                ],
                "Distance": 13.86,
                "Frequency": 5.9,
                "RSSI": -43.63,
                "LOS": "True"
            }
        },
        {
            "type": "Feature",
            "geometry": {
                "type": "Point",
                "coordinates": [
                    8.91565247,
                    50.1073037
                ]
            },
            "properties": {
                "RSU coordinates": [
                    8.9154584,
                    50.1073037
                ],
                "Distance": 13.86,
                "Frequency": 5.9,
                "RSSI": -43.63,
                "LOS": "True"
            }
        },
        {
            "type": "Feature",
            "geometry": {
                "type": "Point",
                "coordinates": [
                    8.91555544,
                    50.10698032
                ]
            },
            "properties": {
                "RSU coordinates": [
                    8.9154584,
                    50.1073037
                ],
                "Distance": 36.66,
                "Frequency": 5.9,
                "RSSI": -81.97999999999999,
                "LOS": "False"
            }
        },
        {
            "type": "Feature",
            "geometry": {
                "type": "Point",
                "coordinates": [
                    8.91565247,
                    50.10708811
                ]
            },
            "properties": {
                "RSU coordinates": [
                    8.9154584,
                    50.1073037
                ],
                "Distance": 27.71,
                "Frequency": 5.9,
                "RSSI": -49.58,
                "LOS": "True"
            }
        },
        {
            "type": "Feature",
            "geometry": {
                "type": "Point",
                "coordinates": [
                    8.91574951,
                    50.10719591
                ]
            },
            "properties": {
                "RSU coordinates": [
                    8.9154584,
                    50.1073037
                ],
                "Distance": 24.0,
                "Frequency": 5.9,
                "RSSI": -48.34,
                "LOS": "True"
            }
        },
        {
            "type": "Feature",
            "geometry": {
                "type": "Point",
                "coordinates": [
                    8.91574951,
                    50.10698032
                ]
            },
            "properties": {
                "RSU coordinates": [
                    8.9154584,
                    50.1073037
                ],
                "Distance": 41.57,
                "Frequency": 5.9,
                "RSSI": -53.06,
                "LOS": "True"
            }
        },
        {
            "type": "Feature",
            "geometry": {
                "type": "Point",
                "coordinates": [
                    8.91594358,
                    50.10719591
                ]
            },
            "properties": {
                "RSU coordinates": [
                    8.9154584,
                    50.1073037
                ],
                "Distance": 36.66,
                "Frequency": 5.9,
                "RSSI": -66.97999999999999,
                "LOS": "False"
            }
        },
        {
            "type": "Feature",
            "geometry": {
                "type": "Point",
                "coordinates": [
                    8.91604062,
                    50.1073037
                ]
            },
            "properties": {
                "RSU coordinates": [
                    8.9154584,
                    50.1073037
                ],
                "Distance": 41.57,
                "Frequency": 5.9,
                "RSSI": -68.06,
                "LOS": "False"
            }
        },
        {
            "type": "Feature",
            "geometry": {
                "type": "Point",
                "coordinates": [
                    8.91613766,
                    50.10741149
                ]
            },
            "properties": {
                "RSU coordinates": [
                    8.9154584,
                    50.1073037
                ],
                "Distance": 49.96,
                "Frequency": 5.9,
                "RSSI": -54.63,
                "LOS": "True"
            }
        },
        {
            "type": "Feature",
            "geometry": {
                "type": "Point",
                "coordinates": [
                    8.91584654,
                    50.10687253
                ]
            },
            "properties": {
                "RSU coordinates": [
                    8.9154584,
                    50.1073037
                ],
                "Distance": 55.43,
                "Frequency": 5.9,
                "RSSI": -55.52,
                "LOS": "True"
            }
        },
        {
            "type": "Feature",
            "geometry": {
                "type": "Point",
                "coordinates": [
                    8.91613766,
                    50.10719591
                ]
            },
            "properties": {
                "RSU coordinates": [
                    8.9154584,
                    50.1073037
                ],
                "Distance": 49.96,
                "Frequency": 5.9,
                "RSSI": -69.63,
                "LOS": "False"
            }
        },
        {
            "type": "Feature",
            "geometry": {
                "type": "Point",
                "coordinates": [
                    8.91623469,
                    50.1073037
                ]
            },
            "properties": {
                "RSU coordinates": [
                    8.9154584,
                    50.1073037
                ],
                "Distance": 55.43,
                "Frequency": 5.9,
                "RSSI": -70.52000000000001,
                "LOS": "False"
            }
        },
        {
            "type": "Feature",
            "geometry": {
                "type": "Point",
                "coordinates": [
                    8.91594358,
                    50.10676473
                ]
            },
            "properties": {
                "RSU coordinates": [
                    8.9154584,
                    50.1073037
                ],
                "Distance": 69.28,
                "Frequency": 5.9,
                "RSSI": -57.44,
                "LOS": "True"
            }
        },
        {
            "type": "Feature",
            "geometry": {
                "type": "Point",
                "coordinates": [
                    8.91633173,
                    50.10719591
                ]
            },
            "properties": {
                "RSU coordinates": [
                    8.9154584,
                    50.1073037
                ],
                "Distance": 63.5,
                "Frequency": 5.9,
                "RSSI": -86.69,
                "LOS": "False"
            }
        },
        {
            "type": "Feature",
            "geometry": {
                "type": "Point",
                "coordinates": [
                    8.91642877,
                    50.1073037
                ]
            },
            "properties": {
                "RSU coordinates": [
                    8.9154584,
                    50.1073037
                ],
                "Distance": 69.28,
                "Frequency": 5.9,
                "RSSI": -72.44,
                "LOS": "False"
            }
        },
        {
            "type": "Feature",
            "geometry": {
                "type": "Point",
                "coordinates": [
                    8.91604061,
                    50.10665694
                ]
            },
            "properties": {
                "RSU coordinates": [
                    8.9154584,
                    50.1073037
                ],
                "Distance": 83.14,
                "Frequency": 5.9,
                "RSSI": -59.0,
                "LOS": "True"
            }
        },
        {
            "type": "Feature",
            "geometry": {
                "type": "Point",
                "coordinates": [
                    8.91642876,
                    50.10708811
                ]
            },
            "properties": {
                "RSU coordinates": [
                    8.9154584,
                    50.1073037
                ],
                "Distance": 73.32,
                "Frequency": 5.9,
                "RSSI": -87.92,
                "LOS": "False"
            }
        },
        {
            "type": "Feature",
            "geometry": {
                "type": "Point",
                "coordinates": [
                    8.91662284,
                    50.1073037
                ]
            },
            "properties": {
                "RSU coordinates": [
                    8.9154584,
                    50.1073037
                ],
                "Distance": 83.14,
                "Frequency": 5.9,
                "RSSI": -89.0,
                "LOS": "False"
            }
        },
        {
            "type": "Feature",
            "geometry": {
                "type": "Point",
                "coordinates": [
                    8.91613765,
                    50.10654914
                ]
            },
            "properties": {
                "RSU coordinates": [
                    8.9154584,
                    50.1073037
                ],
                "Distance": 96.99,
                "Frequency": 5.9,
                "RSSI": -60.32,
                "LOS": "True"
            }
        },
        {
            "type": "Feature",
            "geometry": {
                "type": "Point",
                "coordinates": [
                    8.91681691,
                    50.1073037
                ]
            },
            "properties": {
                "RSU coordinates": [
                    8.9154584,
                    50.1073037
                ],
                "Distance": 96.99,
                "Frequency": 5.9,
                "RSSI": -90.32,
                "LOS": "False"
            }
        },
        {
            "type": "Feature",
            "geometry": {
                "type": "Point",
                "coordinates": [
                    8.91691395,
                    50.10741149
                ]
            },
            "properties": {
                "RSU coordinates": [
                    8.9154584,
                    50.1073037
                ],
                "Distance": 104.61,
                "Frequency": 5.9,
                "RSSI": -90.97,
                "LOS": "False"
            }
        },
        {
            "type": "Feature",
            "geometry": {
                "type": "Point",
                "coordinates": [
                    8.91623468,
                    50.10644135
                ]
            },
            "properties": {
                "RSU coordinates": [
                    8.9154584,
                    50.1073037
                ],
                "Distance": 110.85,
                "Frequency": 5.9,
                "RSSI": -61.47,
                "LOS": "True"
            }
        },
        {
            "type": "Feature",
            "geometry": {
                "type": "Point",
                "coordinates": [
                    8.91701099,
                    50.1073037
                ]
            },
            "properties": {
                "RSU coordinates": [
                    8.9154584,
                    50.1073037
                ],
                "Distance": 110.85,
                "Frequency": 5.9,
                "RSSI": -91.47,
                "LOS": "False"
            }
        },
        {
            "type": "Feature",
            "geometry": {
                "type": "Point",
                "coordinates": [
                    8.91710803,
                    50.10741149
                ]
            },
            "properties": {
                "RSU coordinates": [
                    8.9154584,
                    50.1073037
                ],
                "Distance": 118.39,
                "Frequency": 5.9,
                "RSSI": -92.03,
                "LOS": "False"
            }
        },
        {
            "type": "Feature",
            "geometry": {
                "type": "Point",
                "coordinates": [
                    8.91633171,
                    50.10633356
                ]
            },
            "properties": {
                "RSU coordinates": [
                    8.9154584,
                    50.1073037
                ],
                "Distance": 124.71,
                "Frequency": 5.9,
                "RSSI": -62.48,
                "LOS": "True"
            }
        },
        {
            "type": "Feature",
            "geometry": {
                "type": "Point",
                "coordinates": [
                    8.91720506,
                    50.1073037
                ]
            },
            "properties": {
                "RSU coordinates": [
                    8.9154584,
                    50.1073037
                ],
                "Distance": 124.71,
                "Frequency": 5.9,
                "RSSI": -92.47999999999999,
                "LOS": "False"
            }
        },
        {
            "type": "Feature",
            "geometry": {
                "type": "Point",
                "coordinates": [
                    8.9173021,
                    50.10741149
                ]
            },
            "properties": {
                "RSU coordinates": [
                    8.9154584,
                    50.1073037
                ],
                "Distance": 132.18,
                "Frequency": 5.9,
                "RSSI": -92.97999999999999,
                "LOS": "False"
            }
        },
        {
            "type": "Feature",
            "geometry": {
                "type": "Point",
                "coordinates": [
                    8.91642875,
                    50.10622576
                ]
            },
            "properties": {
                "RSU coordinates": [
                    8.9154584,
                    50.1073037
                ],
                "Distance": 138.56,
                "Frequency": 5.9,
                "RSSI": -63.38,
                "LOS": "True"
            }
        },
        {
            "type": "Feature",
            "geometry": {
                "type": "Point",
                "coordinates": [
                    8.91739913,
                    50.1073037
                ]
            },
            "properties": {
                "RSU coordinates": [
                    8.9154584,
                    50.1073037
                ],
                "Distance": 138.56,
                "Frequency": 5.9,
                "RSSI": -93.38,
                "LOS": "False"
            }
        },
        {
            "type": "Feature",
            "geometry": {
                "type": "Point",
                "coordinates": [
                    8.91749618,
                    50.10741149
                ]
            },
            "properties": {
                "RSU coordinates": [
                    8.9154584,
                    50.1073037
                ],
                "Distance": 145.99,
                "Frequency": 5.9,
                "RSSI": -93.83,
                "LOS": "False"
            }
        },
        {
            "type": "Feature",
            "geometry": {
                "type": "Point",
                "coordinates": [
                    8.91759321,
                    50.1073037
                ]
            },
            "properties": {
                "RSU coordinates": [
                    8.9154584,
                    50.1073037
                ],
                "Distance": 152.42,
                "Frequency": 5.9,
                "RSSI": -94.2,
                "LOS": "False"
            }
        },
        {
            "type": "Feature",
            "geometry": {
                "type": "Point",
                "coordinates": [
                    8.91769025,
                    50.10741149
                ]
            },
            "properties": {
                "RSU coordinates": [
                    8.9154584,
                    50.1073037
                ],
                "Distance": 159.8,
                "Frequency": 5.9,
                "RSSI": -94.6,
                "LOS": "False"
            }
        },
        {
            "type": "Feature",
            "geometry": {
                "type": "Point",
                "coordinates": [
                    8.91662281,
                    50.10601018
                ]
            },
            "properties": {
                "RSU coordinates": [
                    8.9154584,
                    50.1073037
                ],
                "Distance": 166.28,
                "Frequency": 5.9,
                "RSSI": -79.94,
                "LOS": "False"
            }
        },
        {
            "type": "Feature",
            "geometry": {
                "type": "Point",
                "coordinates": [
                    8.91778728,
                    50.1073037
                ]
            },
            "properties": {
                "RSU coordinates": [
                    8.9154584,
                    50.1073037
                ],
                "Distance": 166.28,
                "Frequency": 5.9,
                "RSSI": -94.94,
                "LOS": "False"
            }
        },
        {
            "type": "Feature",
            "geometry": {
                "type": "Point",
                "coordinates": [
                    8.91788432,
                    50.10741149
                ]
            },
            "properties": {
                "RSU coordinates": [
                    8.9154584,
                    50.1073037
                ],
                "Distance": 173.62,
                "Frequency": 5.9,
                "RSSI": -80.32,
                "LOS": "False"
            }
        },
        {
            "type": "Feature",
            "geometry": {
                "type": "Point",
                "coordinates": [
                    8.91671984,
                    50.10590238
                ]
            },
            "properties": {
                "RSU coordinates": [
                    8.9154584,
                    50.1073037
                ],
                "Distance": 180.13,
                "Frequency": 5.9,
                "RSSI": -80.63,
                "LOS": "False"
            }
        },
        {
            "type": "Feature",
            "geometry": {
                "type": "Point",
                "coordinates": [
                    8.91798135,
                    50.1073037
                ]
            },
            "properties": {
                "RSU coordinates": [
                    8.9154584,
                    50.1073037
                ],
                "Distance": 180.13,
                "Frequency": 5.9,
                "RSSI": -95.63,
                "LOS": "False"
            }
        },
        {
            "type": "Feature",
            "geometry": {
                "type": "Point",
                "coordinates": [
                    8.9180784,
                    50.10741149
                ]
            },
            "properties": {
                "RSU coordinates": [
                    8.9154584,
                    50.1073037
                ],
                "Distance": 187.45,
                "Frequency": 5.9,
                "RSSI": -80.97,
                "LOS": "False"
            }
        },
        {
            "type": "Feature",
            "geometry": {
                "type": "Point",
                "coordinates": [
                    8.91817544,
                    50.10751929
                ]
            },
            "properties": {
                "RSU coordinates": [
                    8.9154584,
                    50.1073037
                ],
                "Distance": 195.47,
                "Frequency": 5.9,
                "RSSI": -96.33,
                "LOS": "False"
            }
        },
        {
            "type": "Feature",
            "geometry": {
                "type": "Point",
                "coordinates": [
                    8.91671983,
                    50.1056868
                ]
            },
            "properties": {
                "RSU coordinates": [
                    8.9154584,
                    50.1073037
                ],
                "Distance": 201.28,
                "Frequency": 5.9,
                "RSSI": -96.58,
                "LOS": "False"
            }
        },
        {
            "type": "Feature",
            "geometry": {
                "type": "Point",
                "coordinates": [
                    8.91681687,
                    50.10579459
                ]
            },
            "properties": {
                "RSU coordinates": [
                    8.9154584,
                    50.1073037
                ],
                "Distance": 193.99,
                "Frequency": 5.9,
                "RSSI": -96.27,
                "LOS": "False"
            }
        },
        {
            "type": "Feature",
            "geometry": {
                "type": "Point",
                "coordinates": [
                    8.91817543,
                    50.1073037
                ]
            },
            "properties": {
                "RSU coordinates": [
                    8.9154584,
                    50.1073037
                ],
                "Distance": 193.99,
                "Frequency": 5.9,
                "RSSI": -96.27,
                "LOS": "False"
            }
        },
        {
            "type": "Feature",
            "geometry": {
                "type": "Point",
                "coordinates": [
                    8.91827247,
                    50.10741149
                ]
            },
            "properties": {
                "RSU coordinates": [
                    8.9154584,
                    50.1073037
                ],
                "Distance": 201.28,
                "Frequency": 5.9,
                "RSSI": -96.58,
                "LOS": "False"
            }
        },
        {
            "type": "Feature",
            "geometry": {
                "type": "Point",
                "coordinates": [
                    8.91836951,
                    50.10751929
                ]
            },
            "properties": {
                "RSU coordinates": [
                    8.9154584,
                    50.1073037
                ],
                "Distance": 209.23,
                "Frequency": 5.9,
                "RSSI": -96.92,
                "LOS": "False"
            }
        },
        {
            "type": "Feature",
            "geometry": {
                "type": "Point",
                "coordinates": [
                    8.91681686,
                    50.105579
                ]
            },
            "properties": {
                "RSU coordinates": [
                    8.9154584,
                    50.1073037
                ],
                "Distance": 215.11,
                "Frequency": 5.9,
                "RSSI": -97.15,
                "LOS": "False"
            }
        },
        {
            "type": "Feature",
            "geometry": {
                "type": "Point",
                "coordinates": [
                    8.9183695,
                    50.1073037
                ]
            },
            "properties": {
                "RSU coordinates": [
                    8.9154584,
                    50.1073037
                ],
                "Distance": 207.85,
                "Frequency": 5.9,
                "RSSI": -96.86,
                "LOS": "False"
            }
        },
        {
            "type": "Feature",
            "geometry": {
                "type": "Point",
                "coordinates": [
                    8.91846654,
                    50.10741149
                ]
            },
            "properties": {
                "RSU coordinates": [
                    8.9154584,
                    50.1073037
                ],
                "Distance": 215.11,
                "Frequency": 5.9,
                "RSSI": -97.15,
                "LOS": "False"
            }
        },
        {
            "type": "Feature",
            "geometry": {
                "type": "Point",
                "coordinates": [
                    8.91856359,
                    50.10751929
                ]
            },
            "properties": {
                "RSU coordinates": [
                    8.9154584,
                    50.1073037
                ],
                "Distance": 223.0,
                "Frequency": 5.9,
                "RSSI": -97.46,
                "LOS": "False"
            }
        },
        {
            "type": "Feature",
            "geometry": {
                "type": "Point",
                "coordinates": [
                    8.91691389,
                    50.10547121
                ]
            },
            "properties": {
                "RSU coordinates": [
                    8.9154584,
                    50.1073037
                ],
                "Distance": 228.95,
                "Frequency": 5.9,
                "RSSI": -97.69,
                "LOS": "False"
            }
        },
        {
            "type": "Feature",
            "geometry": {
                "type": "Point",
                "coordinates": [
                    8.91856357,
                    50.1073037
                ]
            },
            "properties": {
                "RSU coordinates": [
                    8.9154584,
                    50.1073037
                ],
                "Distance": 221.7,
                "Frequency": 5.9,
                "RSSI": -97.41,
                "LOS": "False"
            }
        },
        {
            "type": "Feature",
            "geometry": {
                "type": "Point",
                "coordinates": [
                    8.91866062,
                    50.10741149
                ]
            },
            "properties": {
                "RSU coordinates": [
                    8.9154584,
                    50.1073037
                ],
                "Distance": 228.95,
                "Frequency": 5.9,
                "RSSI": -97.69,
                "LOS": "False"
            }
        },
        {
            "type": "Feature",
            "geometry": {
                "type": "Point",
                "coordinates": [
                    8.91875766,
                    50.10751929
                ]
            },
            "properties": {
                "RSU coordinates": [
                    8.9154584,
                    50.1073037
                ],
                "Distance": 236.78,
                "Frequency": 5.9,
                "RSSI": -97.98,
                "LOS": "False"
            }
        },
        {
            "type": "Feature",
            "geometry": {
                "type": "Point",
                "coordinates": [
                    8.91875765,
                    50.1073037
                ]
            },
            "properties": {
                "RSU coordinates": [
                    8.9154584,
                    50.1073037
                ],
                "Distance": 235.56,
                "Frequency": 5.9,
                "RSSI": -97.93,
                "LOS": "False"
            }
        },
        {
            "type": "Feature",
            "geometry": {
                "type": "Point",
                "coordinates": [
                    8.91885469,
                    50.10741149
                ]
            },
            "properties": {
                "RSU coordinates": [
                    8.9154584,
                    50.1073037
                ],
                "Distance": 242.78,
                "Frequency": 5.9,
                "RSSI": -98.19,
                "LOS": "False"
            }
        },
        {
            "type": "Feature",
            "geometry": {
                "type": "Point",
                "coordinates": [
                    8.91895174,
                    50.10751929
                ]
            },
            "properties": {
                "RSU coordinates": [
                    8.9154584,
                    50.1073037
                ],
                "Distance": 250.57,
                "Frequency": 5.9,
                "RSSI": -98.46,
                "LOS": "False"
            }
        },
        {
            "type": "Feature",
            "geometry": {
                "type": "Point",
                "coordinates": [
                    8.91895172,
                    50.1073037
                ]
            },
            "properties": {
                "RSU coordinates": [
                    8.9154584,
                    50.1073037
                ],
                "Distance": 249.42,
                "Frequency": 5.9,
                "RSSI": -98.42,
                "LOS": "False"
            }
        },
        {
            "type": "Feature",
            "geometry": {
                "type": "Point",
                "coordinates": [
                    8.91904877,
                    50.10741149
                ]
            },
            "properties": {
                "RSU coordinates": [
                    8.9154584,
                    50.1073037
                ],
                "Distance": 256.62,
                "Frequency": 5.9,
                "RSSI": -98.67,
                "LOS": "False"
            }
        },
        {
            "type": "Feature",
            "geometry": {
                "type": "Point",
                "coordinates": [
                    8.91914581,
                    50.10751929
                ]
            },
            "properties": {
                "RSU coordinates": [
                    8.9154584,
                    50.1073037
                ],
                "Distance": 264.36,
                "Frequency": 5.9,
                "RSSI": -98.92,
                "LOS": "False"
            }
        },
        {
            "type": "Feature",
            "geometry": {
                "type": "Point",
                "coordinates": [
                    8.91914579,
                    50.1073037
                ]
            },
            "properties": {
                "RSU coordinates": [
                    8.9154584,
                    50.1073037
                ],
                "Distance": 263.27,
                "Frequency": 5.9,
                "RSSI": -98.89,
                "LOS": "False"
            }
        },
        {
            "type": "Feature",
            "geometry": {
                "type": "Point",
                "coordinates": [
                    8.91924284,
                    50.10741149
                ]
            },
            "properties": {
                "RSU coordinates": [
                    8.9154584,
                    50.1073037
                ],
                "Distance": 270.47,
                "Frequency": 5.9,
                "RSSI": -99.12,
                "LOS": "False"
            }
        },
        {
            "type": "Feature",
            "geometry": {
                "type": "Point",
                "coordinates": [
                    8.91943693,
                    50.10762708
                ]
            },
            "properties": {
                "RSU coordinates": [
                    8.9154584,
                    50.1073037
                ],
                "Distance": 286.33,
                "Frequency": 5.9,
                "RSSI": -99.61,
                "LOS": "False"
            }
        },
        {
            "type": "Feature",
            "geometry": {
                "type": "Point",
                "coordinates": [
                    8.91933987,
                    50.1073037
                ]
            },
            "properties": {
                "RSU coordinates": [
                    8.9154584,
                    50.1073037
                ],
                "Distance": 277.13,
                "Frequency": 5.9,
                "RSSI": -99.33,
                "LOS": "False"
            }
        },
        {
            "type": "Feature",
            "geometry": {
                "type": "Point",
                "coordinates": [
                    8.91943691,
                    50.10741149
                ]
            },
            "properties": {
                "RSU coordinates": [
                    8.9154584,
                    50.1073037
                ],
                "Distance": 284.31,
                "Frequency": 5.9,
                "RSSI": -99.55,
                "LOS": "False"
            }
        },
        {
            "type": "Feature",
            "geometry": {
                "type": "Point",
                "coordinates": [
                    8.91953396,
                    50.10751929
                ]
            },
            "properties": {
                "RSU coordinates": [
                    8.9154584,
                    50.1073037
                ],
                "Distance": 291.97,
                "Frequency": 5.9,
                "RSSI": -99.77,
                "LOS": "False"
            }
        },
        {
            "type": "Feature",
            "geometry": {
                "type": "Point",
                "coordinates": [
                    8.91953394,
                    50.1073037
                ]
            },
            "properties": {
                "RSU coordinates": [
                    8.9154584,
                    50.1073037
                ],
                "Distance": 290.98,
                "Frequency": 5.9,
                "RSSI": -99.74,
                "LOS": "False"
            }
        },
        {
            "type": "Feature",
            "geometry": {
                "type": "Point",
                "coordinates": [
                    8.91963099,
                    50.10741149
                ]
            },
            "properties": {
                "RSU coordinates": [
                    8.9154584,
                    50.1073037
                ],
                "Distance": 298.15,
                "Frequency": 5.9,
                "RSSI": -99.95,
                "LOS": "False"
            }
        },
        {
            "type": "Feature",
            "geometry": {
                "type": "Point",
                "coordinates": [
                    8.92031026,
                    50.10751929
                ]
            },
            "properties": {
                "RSU coordinates": [
                    8.9154584,
                    50.1073037
                ],
                "Distance": 347.24,
                "Frequency": 5.9,
                "RSSI": -86.26,
                "LOS": "False"
            }
        },
        {
            "type": "Feature",
            "geometry": {
                "type": "Point",
                "coordinates": [
                    8.92050433,
                    50.10751929
                ]
            },
            "properties": {
                "RSU coordinates": [
                    8.9154584,
                    50.1073037
                ],
                "Distance": 361.07,
                "Frequency": 5.9,
                "RSSI": -86.59,
                "LOS": "False"
            }
        },
        {
            "type": "Feature",
            "geometry": {
                "type": "Point",
                "coordinates": [
                    8.9206984,
                    50.10751929
                ]
            },
            "properties": {
                "RSU coordinates": [
                    8.9154584,
                    50.1073037
                ],
                "Distance": 374.89,
                "Frequency": 5.9,
                "RSSI": -86.92,
                "LOS": "False"
            }
        },
        {
            "type": "Feature",
            "geometry": {
                "type": "Point",
                "coordinates": [
                    8.92089248,
                    50.10751929
                ]
            },
            "properties": {
                "RSU coordinates": [
                    8.9154584,
                    50.1073037
                ],
                "Distance": 388.72,
                "Frequency": 5.9,
                "RSSI": -87.23,
                "LOS": "False"
            }
        }
    ]
}