{
    "type": "FeatureCollection",
    "features": [
        {
            "type": "Feature",
            "geometry": {
                "type": "Point",
                "coordinates": [
                    11.5809972,
                    48.11771136
                ]
            },
            "properties": {
                "RSU coordinates": [
                    11.5827684,
                    48.1169568
                ],
                "Distance": 156.15,
                "Frequency": 5.9,
                "RSSI": -94.41,
                "LOS": "False"
            }
        },
        {
            "type": "Feature",
            "geometry": {
                "type": "Point",
                "coordinates": [
                    11.58109042,
                    48.11781915
                ]
            },
            "properties": {
                "RSU coordinates": [
                    11.5827684,
                    48.1169568
                ],
                "Distance": 157.38,
                "Frequency": 5.9,
                "RSSI": -94.47,
                "LOS": "False"
            }
        },
        {
            "type": "Feature",
            "geometry": {
                "type": "Point",
                "coordinates": [
                    11.58118364,
                    48.11771136
                ]
            },
            "properties": {
                "RSU coordinates": [
                    11.5827684,
                    48.1169568
                ],
                "Distance": 144.67,
                "Frequency": 5.9,
                "RSSI": -93.75,
                "LOS": "False"
            }
        },
        {
            "type": "Feature",
            "geometry": {
                "type": "Point",
                "coordinates": [
                    11.58127686,
                    48.11781915
                ]
            },
            "properties": {
                "RSU coordinates": [
                    11.5827684,
                    48.1169568
                ],
                "Distance": 146.64,
                "Frequency": 5.9,
                "RSSI": -93.87,
                "LOS": "False"
            }
        },
        {
            "type": "Feature",
            "geometry": {
                "type": "Point",
                "coordinates": [
                    11.58127686,
                    48.11760356
                ]
            },
            "properties": {
                "RSU coordinates": [
                    11.5827684,
                    48.1169568
                ],
                "Distance": 132.18,
                "Frequency": 5.9,
                "RSSI": -92.97999999999999,
                "LOS": "False"
            }
        },
        {
            "type": "Feature",
            "geometry": {
                "type": "Point",
                "coordinates": [
                    11.58137008,
                    48.11771136
                ]
            },
            "properties": {
                "RSU coordinates": [
                    11.5827684,
                    48.1169568
                ],
                "Distance": 133.63,
                "Frequency": 5.9,
                "RSSI": -93.07,
                "LOS": "False"
            }
        },
        {
            "type": "Feature",
            "geometry": {
                "type": "Point",
                "coordinates": [
                    11.58164974,
                    48.11781915
                ]
            },
            "properties": {
                "RSU coordinates": [
                    11.5827684,
                    48.1169568
                ],
                "Distance": 127.0,
                "Frequency": 5.9,
                "RSSI": -92.63,
                "LOS": "False"
            }
        },
        {
            "type": "Feature",
            "geometry": {
                "type": "Point",
                "coordinates": [
                    11.58164975,
                    48.11760356
                ]
            },
            "properties": {
                "RSU coordinates": [
                    11.5827684,
                    48.1169568
                ],
                "Distance": 109.98,
                "Frequency": 5.9,
                "RSSI": -61.4,
                "LOS": "True"
            }
        },
        {
            "type": "Feature",
            "geometry": {
                "type": "Point",
                "coordinates": [
                    11.58174297,
                    48.11771136
                ]
            },
            "properties": {
                "RSU coordinates": [
                    11.5827684,
                    48.1169568
                ],
                "Distance": 113.42,
                "Frequency": 5.9,
                "RSSI": -91.66,
                "LOS": "False"
            }
        },
        {
            "type": "Feature",
            "geometry": {
                "type": "Point",
                "coordinates": [
                    11.58174297,
                    48.11749577
                ]
            },
            "properties": {
                "RSU coordinates": [
                    11.5827684,
                    48.1169568
                ],
                "Distance": 96.99,
                "Frequency": 5.9,
                "RSSI": -60.32,
                "LOS": "True"
            }
        },
        {
            "type": "Feature",
            "geometry": {
                "type": "Point",
                "coordinates": [
                    11.58183619,
                    48.11760356
                ]
            },
            "properties": {
                "RSU coordinates": [
                    11.5827684,
                    48.1169568
                ],
                "Distance": 99.92,
                "Frequency": 5.9,
                "RSSI": -90.58,
                "LOS": "False"
            }
        },
        {
            "type": "Feature",
            "geometry": {
                "type": "Point",
                "coordinates": [
                    11.58183619,
                    48.11738797
                ]
            },
            "properties": {
                "RSU coordinates": [
                    11.5827684,
                    48.1169568
                ],
                "Distance": 84.29,
                "Frequency": 5.9,
                "RSSI": -59.12,
                "LOS": "True"
            }
        },
        {
            "type": "Feature",
            "geometry": {
                "type": "Point",
                "coordinates": [
                    11.58192941,
                    48.11749577
                ]
            },
            "properties": {
                "RSU coordinates": [
                    11.5827684,
                    48.1169568
                ],
                "Distance": 86.53,
                "Frequency": 5.9,
                "RSSI": -74.34,
                "LOS": "False"
            }
        },
        {
            "type": "Feature",
            "geometry": {
                "type": "Point",
                "coordinates": [
                    11.58202264,
                    48.11738797
                ]
            },
            "properties": {
                "RSU coordinates": [
                    11.5827684,
                    48.1169568
                ],
                "Distance": 73.32,
                "Frequency": 5.9,
                "RSSI": -57.92,
                "LOS": "True"
            }
        },
        {
            "type": "Feature",
            "geometry": {
                "type": "Point",
                "coordinates": [
                    11.58211586,
                    48.11728018
                ]
            },
            "properties": {
                "RSU coordinates": [
                    11.5827684,
                    48.1169568
                ],
                "Distance": 60.4,
                "Frequency": 5.9,
                "RSSI": -56.26,
                "LOS": "True"
            }
        },
        {
            "type": "Feature",
            "geometry": {
                "type": "Point",
                "coordinates": [
                    11.5823023,
                    48.11728018
                ]
            },
            "properties": {
                "RSU coordinates": [
                    11.5827684,
                    48.1169568
                ],
                "Distance": 49.96,
                "Frequency": 5.9,
                "RSSI": -69.63,
                "LOS": "False"
            }
        },
        {
            "type": "Feature",
            "geometry": {
                "type": "Point",
                "coordinates": [
                    11.58239552,
                    48.11738797
                ]
            },
            "properties": {
                "RSU coordinates": [
                    11.5827684,
                    48.1169568
                ],
                "Distance": 55.43,
                "Frequency": 5.9,
                "RSSI": -85.52000000000001,
                "LOS": "False"
            }
        },
        {
            "type": "Feature",
            "geometry": {
                "type": "Point",
                "coordinates": [
                    11.58220908,
                    48.1169568
                ]
            },
            "properties": {
                "RSU coordinates": [
                    11.5827684,
                    48.1169568
                ],
                "Distance": 41.57,
                "Frequency": 5.9,
                "RSSI": -83.06,
                "LOS": "False"
            }
        },
        {
            "type": "Feature",
            "geometry": {
                "type": "Point",
                "coordinates": [
                    11.58239552,
                    48.11717239
                ]
            },
            "properties": {
                "RSU coordinates": [
                    11.5827684,
                    48.1169568
                ],
                "Distance": 36.66,
                "Frequency": 5.9,
                "RSSI": -51.98,
                "LOS": "True"
            }
        },
        {
            "type": "Feature",
            "geometry": {
                "type": "Point",
                "coordinates": [
                    11.58258196,
                    48.11738797
                ]
            },
            "properties": {
                "RSU coordinates": [
                    11.5827684,
                    48.1169568
                ],
                "Distance": 49.96,
                "Frequency": 5.9,
                "RSSI": -84.63,
                "LOS": "False"
            }
        },
        {
            "type": "Feature",
            "geometry": {
                "type": "Point",
                "coordinates": [
                    11.58164978,
                    48.11609445
                ]
            },
            "properties": {
                "RSU coordinates": [
                    11.5827684,
                    48.1169568
                ],
                "Distance": 127.0,
                "Frequency": 5.9,
                "RSSI": -77.63,
                "LOS": "False"
            }
        },
        {
            "type": "Feature",
            "geometry": {
                "type": "Point",
                "coordinates": [
                    11.581743,
                    48.11620224
                ]
            },
            "properties": {
                "RSU coordinates": [
                    11.5827684,
                    48.1169568
                ],
                "Distance": 113.42,
                "Frequency": 5.9,
                "RSSI": -91.66,
                "LOS": "False"
            }
        },
        {
            "type": "Feature",
            "geometry": {
                "type": "Point",
                "coordinates": [
                    11.5823023,
                    48.11684901
                ]
            },
            "properties": {
                "RSU coordinates": [
                    11.5827684,
                    48.1169568
                ],
                "Distance": 36.66,
                "Frequency": 5.9,
                "RSSI": -81.97999999999999,
                "LOS": "False"
            }
        },
        {
            "type": "Feature",
            "geometry": {
                "type": "Point",
                "coordinates": [
                    11.58239552,
                    48.1169568
                ]
            },
            "properties": {
                "RSU coordinates": [
                    11.5827684,
                    48.1169568
                ],
                "Distance": 27.71,
                "Frequency": 5.9,
                "RSSI": -79.58,
                "LOS": "False"
            }
        },
        {
            "type": "Feature",
            "geometry": {
                "type": "Point",
                "coordinates": [
                    11.58248874,
                    48.11706459
                ]
            },
            "properties": {
                "RSU coordinates": [
                    11.5827684,
                    48.1169568
                ],
                "Distance": 24.0,
                "Frequency": 5.9,
                "RSSI": -48.34,
                "LOS": "True"
            }
        },
        {
            "type": "Feature",
            "geometry": {
                "type": "Point",
                "coordinates": [
                    11.58258196,
                    48.11717239
                ]
            },
            "properties": {
                "RSU coordinates": [
                    11.5827684,
                    48.1169568
                ],
                "Distance": 27.71,
                "Frequency": 5.9,
                "RSSI": -64.58,
                "LOS": "False"
            }
        },
        {
            "type": "Feature",
            "geometry": {
                "type": "Point",
                "coordinates": [
                    11.58267518,
                    48.11728018
                ]
            },
            "properties": {
                "RSU coordinates": [
                    11.5827684,
                    48.1169568
                ],
                "Distance": 36.66,
                "Frequency": 5.9,
                "RSSI": -81.97999999999999,
                "LOS": "False"
            }
        },
        {
            "type": "Feature",
            "geometry": {
                "type": "Point",
                "coordinates": [
                    11.58183622,
                    48.11609445
                ]
            },
            "properties": {
                "RSU coordinates": [
                    11.5827684,
                    48.1169568
                ],
                "Distance": 118.39,
                "Frequency": 5.9,
                "RSSI": -92.03,
                "LOS": "False"
            }
        },
        {
            "type": "Feature",
            "geometry": {
                "type": "Point",
                "coordinates": [
                    11.58192943,
                    48.11620224
                ]
            },
            "properties": {
                "RSU coordinates": [
                    11.5827684,
                    48.1169568
                ],
                "Distance": 104.61,
                "Frequency": 5.9,
                "RSSI": -90.97,
                "LOS": "False"
            }
        },
        {
            "type": "Feature",
            "geometry": {
                "type": "Point",
                "coordinates": [
                    11.58202265,
                    48.11631004
                ]
            },
            "properties": {
                "RSU coordinates": [
                    11.5827684,
                    48.1169568
                ],
                "Distance": 90.86,
                "Frequency": 5.9,
                "RSSI": -89.75999999999999,
                "LOS": "False"
            }
        },
        {
            "type": "Feature",
            "geometry": {
                "type": "Point",
                "coordinates": [
                    11.58220909,
                    48.11652563
                ]
            },
            "properties": {
                "RSU coordinates": [
                    11.5827684,
                    48.1169568
                ],
                "Distance": 63.5,
                "Frequency": 5.9,
                "RSSI": -71.69,
                "LOS": "False"
            }
        },
        {
            "type": "Feature",
            "geometry": {
                "type": "Point",
                "coordinates": [
                    11.5823023,
                    48.11663342
                ]
            },
            "properties": {
                "RSU coordinates": [
                    11.5827684,
                    48.1169568
                ],
                "Distance": 49.96,
                "Frequency": 5.9,
                "RSSI": -69.63,
                "LOS": "False"
            }
        },
        {
            "type": "Feature",
            "geometry": {
                "type": "Point",
                "coordinates": [
                    11.58267518,
                    48.11706459
                ]
            },
            "properties": {
                "RSU coordinates": [
                    11.5827684,
                    48.1169568
                ],
                "Distance": 13.86,
                "Frequency": 5.9,
                "RSSI": -43.63,
                "LOS": "True"
            }
        },
        {
            "type": "Feature",
            "geometry": {
                "type": "Point",
                "coordinates": [
                    11.5827684,
                    48.11717239
                ]
            },
            "properties": {
                "RSU coordinates": [
                    11.5827684,
                    48.1169568
                ],
                "Distance": 24.0,
                "Frequency": 5.9,
                "RSSI": -63.34,
                "LOS": "False"
            }
        },
        {
            "type": "Feature",
            "geometry": {
                "type": "Point",
                "coordinates": [
                    11.58295484,
                    48.11738797
                ]
            },
            "properties": {
                "RSU coordinates": [
                    11.5827684,
                    48.1169568
                ],
                "Distance": 49.96,
                "Frequency": 5.9,
                "RSSI": -99.63,
                "LOS": "False"
            }
        },
        {
            "type": "Feature",
            "geometry": {
                "type": "Point",
                "coordinates": [
                    11.58314128,
                    48.11760356
                ]
            },
            "properties": {
                "RSU coordinates": [
                    11.5827684,
                    48.1169568
                ],
                "Distance": 77.15,
                "Frequency": 5.9,
                "RSSI": -88.36,
                "LOS": "False"
            }
        },
        {
            "type": "Feature",
            "geometry": {
                "type": "Point",
                "coordinates": [
                    11.58239552,
                    48.11652563
                ]
            },
            "properties": {
                "RSU coordinates": [
                    11.5827684,
                    48.1169568
                ],
                "Distance": 55.43,
                "Frequency": 5.9,
                "RSSI": -70.52000000000001,
                "LOS": "False"
            }
        },
        {
            "type": "Feature",
            "geometry": {
                "type": "Point",
                "coordinates": [
                    11.58248874,
                    48.11663342
                ]
            },
            "properties": {
                "RSU coordinates": [
                    11.5827684,
                    48.1169568
                ],
                "Distance": 41.57,
                "Frequency": 5.9,
                "RSSI": -68.06,
                "LOS": "False"
            }
        },
        {
            "type": "Feature",
            "geometry": {
                "type": "Point",
                "coordinates": [
                    11.58258196,
                    48.11674121
                ]
            },
            "properties": {
                "RSU coordinates": [
                    11.5827684,
                    48.1169568
                ],
                "Distance": 27.71,
                "Frequency": 5.9,
                "RSSI": -64.58,
                "LOS": "False"
            }
        },
        {
            "type": "Feature",
            "geometry": {
                "type": "Point",
                "coordinates": [
                    11.58286162,
                    48.11706459
                ]
            },
            "properties": {
                "RSU coordinates": [
                    11.5827684,
                    48.1169568
                ],
                "Distance": 13.86,
                "Frequency": 5.9,
                "RSSI": -43.63,
                "LOS": "True"
            }
        },
        {
            "type": "Feature",
            "geometry": {
                "type": "Point",
                "coordinates": [
                    11.58295484,
                    48.11717239
                ]
            },
            "properties": {
                "RSU coordinates": [
                    11.5827684,
                    48.1169568
                ],
                "Distance": 27.71,
                "Frequency": 5.9,
                "RSSI": -49.58,
                "LOS": "True"
            }
        },
        {
            "type": "Feature",
            "geometry": {
                "type": "Point",
                "coordinates": [
                    11.5832345,
                    48.11749577
                ]
            },
            "properties": {
                "RSU coordinates": [
                    11.5827684,
                    48.1169568
                ],
                "Distance": 69.28,
                "Frequency": 5.9,
                "RSSI": -87.44,
                "LOS": "False"
            }
        },
        {
            "type": "Feature",
            "geometry": {
                "type": "Point",
                "coordinates": [
                    11.58258196,
                    48.11652563
                ]
            },
            "properties": {
                "RSU coordinates": [
                    11.5827684,
                    48.1169568
                ],
                "Distance": 49.96,
                "Frequency": 5.9,
                "RSSI": -84.63,
                "LOS": "False"
            }
        },
        {
            "type": "Feature",
            "geometry": {
                "type": "Point",
                "coordinates": [
                    11.58267518,
                    48.11663342
                ]
            },
            "properties": {
                "RSU coordinates": [
                    11.5827684,
                    48.1169568
                ],
                "Distance": 36.66,
                "Frequency": 5.9,
                "RSSI": -81.97999999999999,
                "LOS": "False"
            }
        },
        {
            "type": "Feature",
            "geometry": {
                "type": "Point",
                "coordinates": [
                    11.5827684,
                    48.11674121
                ]
            },
            "properties": {
                "RSU coordinates": [
                    11.5827684,
                    48.1169568
                ],
                "Distance": 24.0,
                "Frequency": 5.9,
                "RSSI": -63.34,
                "LOS": "False"
            }
        },
        {
            "type": "Feature",
            "geometry": {
                "type": "Point",
                "coordinates": [
                    11.58286162,
                    48.11684901
                ]
            },
            "properties": {
                "RSU coordinates": [
                    11.5827684,
                    48.1169568
                ],
                "Distance": 13.86,
                "Frequency": 5.9,
                "RSSI": -43.63,
                "LOS": "True"
            }
        },
        {
            "type": "Feature",
            "geometry": {
                "type": "Point",
                "coordinates": [
                    11.58304806,
                    48.11706459
                ]
            },
            "properties": {
                "RSU coordinates": [
                    11.5827684,
                    48.1169568
                ],
                "Distance": 24.0,
                "Frequency": 5.9,
                "RSSI": -63.34,
                "LOS": "False"
            }
        },
        {
            "type": "Feature",
            "geometry": {
                "type": "Point",
                "coordinates": [
                    11.5832345,
                    48.11728018
                ]
            },
            "properties": {
                "RSU coordinates": [
                    11.5827684,
                    48.1169568
                ],
                "Distance": 49.96,
                "Frequency": 5.9,
                "RSSI": -84.63,
                "LOS": "False"
            }
        },
        {
            "type": "Feature",
            "geometry": {
                "type": "Point",
                "coordinates": [
                    11.58286162,
                    48.11663342
                ]
            },
            "properties": {
                "RSU coordinates": [
                    11.5827684,
                    48.1169568
                ],
                "Distance": 36.66,
                "Frequency": 5.9,
                "RSSI": -66.97999999999999,
                "LOS": "False"
            }
        },
        {
            "type": "Feature",
            "geometry": {
                "type": "Point",
                "coordinates": [
                    11.58304806,
                    48.11684901
                ]
            },
            "properties": {
                "RSU coordinates": [
                    11.5827684,
                    48.1169568
                ],
                "Distance": 24.0,
                "Frequency": 5.9,
                "RSSI": -48.34,
                "LOS": "True"
            }
        },
        {
            "type": "Feature",
            "geometry": {
                "type": "Point",
                "coordinates": [
                    11.58314128,
                    48.1169568
                ]
            },
            "properties": {
                "RSU coordinates": [
                    11.5827684,
                    48.1169568
                ],
                "Distance": 27.71,
                "Frequency": 5.9,
                "RSSI": -79.58,
                "LOS": "False"
            }
        },
        {
            "type": "Feature",
            "geometry": {
                "type": "Point",
                "coordinates": [
                    11.5832345,
                    48.11706459
                ]
            },
            "properties": {
                "RSU coordinates": [
                    11.5827684,
                    48.1169568
                ],
                "Distance": 36.66,
                "Frequency": 5.9,
                "RSSI": -81.97999999999999,
                "LOS": "False"
            }
        },
        {
            "type": "Feature",
            "geometry": {
                "type": "Point",
                "coordinates": [
                    11.5827684,
                    48.11631004
                ]
            },
            "properties": {
                "RSU coordinates": [
                    11.5827684,
                    48.1169568
                ],
                "Distance": 72.0,
                "Frequency": 5.9,
                "RSSI": -87.77000000000001,
                "LOS": "False"
            }
        },
        {
            "type": "Feature",
            "geometry": {
                "type": "Point",
                "coordinates": [
                    11.58314128,
                    48.11674121
                ]
            },
            "properties": {
                "RSU coordinates": [
                    11.5827684,
                    48.1169568
                ],
                "Distance": 36.66,
                "Frequency": 5.9,
                "RSSI": -51.98,
                "LOS": "True"
            }
        },
        {
            "type": "Feature",
            "geometry": {
                "type": "Point",
                "coordinates": [
                    11.58342094,
                    48.11706459
                ]
            },
            "properties": {
                "RSU coordinates": [
                    11.5827684,
                    48.1169568
                ],
                "Distance": 49.96,
                "Frequency": 5.9,
                "RSSI": -99.63,
                "LOS": "False"
            }
        },
        {
            "type": "Feature",
            "geometry": {
                "type": "Point",
                "coordinates": [
                    11.58360738,
                    48.11728018
                ]
            },
            "properties": {
                "RSU coordinates": [
                    11.5827684,
                    48.1169568
                ],
                "Distance": 72.0,
                "Frequency": 5.9,
                "RSSI": -87.77000000000001,
                "LOS": "False"
            }
        },
        {
            "type": "Feature",
            "geometry": {
                "type": "Point",
                "coordinates": [
                    11.58370061,
                    48.11738797
                ]
            },
            "properties": {
                "RSU coordinates": [
                    11.5827684,
                    48.1169568
                ],
                "Distance": 84.29,
                "Frequency": 5.9,
                "RSSI": -89.12,
                "LOS": "False"
            }
        },
        {
            "type": "Feature",
            "geometry": {
                "type": "Point",
                "coordinates": [
                    11.58295484,
                    48.11631004
                ]
            },
            "properties": {
                "RSU coordinates": [
                    11.5827684,
                    48.1169568
                ],
                "Distance": 73.32,
                "Frequency": 5.9,
                "RSSI": -87.92,
                "LOS": "False"
            }
        },
        {
            "type": "Feature",
            "geometry": {
                "type": "Point",
                "coordinates": [
                    11.58332772,
                    48.11674121
                ]
            },
            "properties": {
                "RSU coordinates": [
                    11.5827684,
                    48.1169568
                ],
                "Distance": 48.0,
                "Frequency": 5.9,
                "RSSI": -54.29,
                "LOS": "True"
            }
        },
        {
            "type": "Feature",
            "geometry": {
                "type": "Point",
                "coordinates": [
                    11.58342094,
                    48.11684901
                ]
            },
            "properties": {
                "RSU coordinates": [
                    11.5827684,
                    48.1169568
                ],
                "Distance": 49.96,
                "Frequency": 5.9,
                "RSSI": -99.63,
                "LOS": "False"
            }
        },
        {
            "type": "Feature",
            "geometry": {
                "type": "Point",
                "coordinates": [
                    11.58332771,
                    48.11652563
                ]
            },
            "properties": {
                "RSU coordinates": [
                    11.5827684,
                    48.1169568
                ],
                "Distance": 63.5,
                "Frequency": 5.9,
                "RSSI": -86.69,
                "LOS": "False"
            }
        },
        {
            "type": "Feature",
            "geometry": {
                "type": "Point",
                "coordinates": [
                    11.58342093,
                    48.11663342
                ]
            },
            "properties": {
                "RSU coordinates": [
                    11.5827684,
                    48.1169568
                ],
                "Distance": 60.4,
                "Frequency": 5.9,
                "RSSI": -56.26,
                "LOS": "True"
            }
        },
        {
            "type": "Feature",
            "geometry": {
                "type": "Point",
                "coordinates": [
                    11.58342093,
                    48.11641783
                ]
            },
            "properties": {
                "RSU coordinates": [
                    11.5827684,
                    48.1169568
                ],
                "Distance": 77.15,
                "Frequency": 5.9,
                "RSSI": -88.36,
                "LOS": "False"
            }
        },
        {
            "type": "Feature",
            "geometry": {
                "type": "Point",
                "coordinates": [
                    11.58351415,
                    48.11652563
                ]
            },
            "properties": {
                "RSU coordinates": [
                    11.5827684,
                    48.1169568
                ],
                "Distance": 73.32,
                "Frequency": 5.9,
                "RSSI": -57.92,
                "LOS": "True"
            }
        },
        {
            "type": "Feature",
            "geometry": {
                "type": "Point",
                "coordinates": [
                    11.58360737,
                    48.11663342
                ]
            },
            "properties": {
                "RSU coordinates": [
                    11.5827684,
                    48.1169568
                ],
                "Distance": 72.0,
                "Frequency": 5.9,
                "RSSI": -72.77000000000001,
                "LOS": "False"
            }
        },
        {
            "type": "Feature",
            "geometry": {
                "type": "Point",
                "coordinates": [
                    11.58351415,
                    48.11631004
                ]
            },
            "properties": {
                "RSU coordinates": [
                    11.5827684,
                    48.1169568
                ],
                "Distance": 90.86,
                "Frequency": 5.9,
                "RSSI": -89.75999999999999,
                "LOS": "False"
            }
        },
        {
            "type": "Feature",
            "geometry": {
                "type": "Point",
                "coordinates": [
                    11.58360737,
                    48.11641783
                ]
            },
            "properties": {
                "RSU coordinates": [
                    11.5827684,
                    48.1169568
                ],
                "Distance": 86.53,
                "Frequency": 5.9,
                "RSSI": -74.34,
                "LOS": "False"
            }
        },
        {
            "type": "Feature",
            "geometry": {
                "type": "Point",
                "coordinates": [
                    11.58370059,
                    48.11652563
                ]
            },
            "properties": {
                "RSU coordinates": [
                    11.5827684,
                    48.1169568
                ],
                "Distance": 84.29,
                "Frequency": 5.9,
                "RSSI": -59.12,
                "LOS": "True"
            }
        },
        {
            "type": "Feature",
            "geometry": {
                "type": "Point",
                "coordinates": [
                    11.58379381,
                    48.11641783
                ]
            },
            "properties": {
                "RSU coordinates": [
                    11.5827684,
                    48.1169568
                ],
                "Distance": 96.99,
                "Frequency": 5.9,
                "RSSI": -60.32,
                "LOS": "True"
            }
        },
        {
            "type": "Feature",
            "geometry": {
                "type": "Point",
                "coordinates": [
                    11.58398024,
                    48.11641783
                ]
            },
            "properties": {
                "RSU coordinates": [
                    11.5827684,
                    48.1169568
                ],
                "Distance": 108.22,
                "Frequency": 5.9,
                "RSSI": -61.26,
                "LOS": "True"
            }
        },
        {
            "type": "Feature",
            "geometry": {
                "type": "Point",
                "coordinates": [
                    11.58416668,
                    48.11641783
                ]
            },
            "properties": {
                "RSU coordinates": [
                    11.5827684,
                    48.1169568
                ],
                "Distance": 120.0,
                "Frequency": 5.9,
                "RSSI": -92.15,
                "LOS": "False"
            }
        },
        {
            "type": "Feature",
            "geometry": {
                "type": "Point",
                "coordinates": [
                    11.58407345,
                    48.11609445
                ]
            },
            "properties": {
                "RSU coordinates": [
                    11.5827684,
                    48.1169568
                ],
                "Distance": 136.47,
                "Frequency": 5.9,
                "RSSI": -93.25,
                "LOS": "False"
            }
        },
        {
            "type": "Feature",
            "geometry": {
                "type": "Point",
                "coordinates": [
                    11.58416668,
                    48.11620224
                ]
            },
            "properties": {
                "RSU coordinates": [
                    11.5827684,
                    48.1169568
                ],
                "Distance": 133.63,
                "Frequency": 5.9,
                "RSSI": -93.07,
                "LOS": "False"
            }
        },
        {
            "type": "Feature",
            "geometry": {
                "type": "Point",
                "coordinates": [
                    11.58453955,
                    48.11620224
                ]
            },
            "properties": {
                "RSU coordinates": [
                    11.5827684,
                    48.1169568
                ],
                "Distance": 156.15,
                "Frequency": 5.9,
                "RSSI": -79.41,
                "LOS": "False"
            }
        },
        {
            "type": "Feature",
            "geometry": {
                "type": "Point",
                "coordinates": [
                    11.58463276,
                    48.11609445
                ]
            },
            "properties": {
                "RSU coordinates": [
                    11.5827684,
                    48.1169568
                ],
                "Distance": 168.57,
                "Frequency": 5.9,
                "RSSI": -95.06,
                "LOS": "False"
            }
        },
        {
            "type": "Feature",
            "geometry": {
                "type": "Point",
                "coordinates": [
                    11.58481919,
                    48.11587886
                ]
            },
            "properties": {
                "RSU coordinates": [
                    11.5827684,
                    48.1169568
                ],
                "Distance": 193.99,
                "Frequency": 5.9,
                "RSSI": -96.27,
                "LOS": "False"
            }
        },
        {
            "type": "Feature",
            "geometry": {
                "type": "Point",
                "coordinates": [
                    11.58519205,
                    48.11566328
                ]
            },
            "properties": {
                "RSU coordinates": [
                    11.5827684,
                    48.1169568
                ],
                "Distance": 230.62,
                "Frequency": 5.9,
                "RSSI": -97.75,
                "LOS": "False"
            }
        },
        {
            "type": "Feature",
            "geometry": {
                "type": "Point",
                "coordinates": [
                    11.5854717,
                    48.11555548
                ]
            },
            "properties": {
                "RSU coordinates": [
                    11.5827684,
                    48.1169568
                ],
                "Distance": 254.37,
                "Frequency": 5.9,
                "RSSI": -98.59,
                "LOS": "False"
            }
        },
        {
            "type": "Feature",
            "geometry": {
                "type": "Point",
                "coordinates": [
                    11.58575136,
                    48.11566328
                ]
            },
            "properties": {
                "RSU coordinates": [
                    11.5827684,
                    48.1169568
                ],
                "Distance": 264.36,
                "Frequency": 5.9,
                "RSSI": -98.92,
                "LOS": "False"
            }
        },
        {
            "type": "Feature",
            "geometry": {
                "type": "Point",
                "coordinates": [
                    11.58584456,
                    48.1153399
                ]
            },
            "properties": {
                "RSU coordinates": [
                    11.5827684,
                    48.1169568
                ],
                "Distance": 290.98,
                "Frequency": 5.9,
                "RSSI": -99.74,
                "LOS": "False"
            }
        },
        {
            "type": "Feature",
            "geometry": {
                "type": "Point",
                "coordinates": [
                    11.586031,
                    48.11555548
                ]
            },
            "properties": {
                "RSU coordinates": [
                    11.5827684,
                    48.1169568
                ],
                "Distance": 288.33,
                "Frequency": 5.9,
                "RSSI": -99.67,
                "LOS": "False"
            }
        }
    ]
}