{
    "type": "FeatureCollection",
    "features": [
        {
            "type": "Feature",
            "geometry": {
                "type": "Point",
                "coordinates": [
                    11.57364521,
                    48.13341299
                ]
            },
            "properties": {
                "RSU coordinates": [
                    11.5762562,
                    48.1331974
                ],
                "Distance": 195.47,
                "Frequency": 5.9,
                "RSSI": -96.33,
                "LOS": "False"
            }
        },
        {
            "type": "Feature",
            "geometry": {
                "type": "Point",
                "coordinates": [
                    11.57411146,
                    48.13330519
                ]
            },
            "properties": {
                "RSU coordinates": [
                    11.5762562,
                    48.1331974
                ],
                "Distance": 159.8,
                "Frequency": 5.9,
                "RSSI": -79.6,
                "LOS": "False"
            }
        },
        {
            "type": "Feature",
            "geometry": {
                "type": "Point",
                "coordinates": [
                    11.57420471,
                    48.13341299
                ]
            },
            "properties": {
                "RSU coordinates": [
                    11.5762562,
                    48.1331974
                ],
                "Distance": 154.3,
                "Frequency": 5.9,
                "RSSI": -94.3,
                "LOS": "False"
            }
        },
        {
            "type": "Feature",
            "geometry": {
                "type": "Point",
                "coordinates": [
                    11.57429796,
                    48.13330519
                ]
            },
            "properties": {
                "RSU coordinates": [
                    11.5762562,
                    48.1331974
                ],
                "Distance": 145.99,
                "Frequency": 5.9,
                "RSSI": -78.83,
                "LOS": "False"
            }
        },
        {
            "type": "Feature",
            "geometry": {
                "type": "Point",
                "coordinates": [
                    11.57672247,
                    48.13610783
                ]
            },
            "properties": {
                "RSU coordinates": [
                    11.5762562,
                    48.1331974
                ],
                "Distance": 325.85,
                "Frequency": 5.9,
                "RSSI": -85.71,
                "LOS": "False"
            }
        },
        {
            "type": "Feature",
            "geometry": {
                "type": "Point",
                "coordinates": [
                    11.57634945,
                    48.13546107
                ]
            },
            "properties": {
                "RSU coordinates": [
                    11.5762562,
                    48.1331974
                ],
                "Distance": 252.1,
                "Frequency": 5.9,
                "RSSI": -98.51,
                "LOS": "False"
            }
        },
        {
            "type": "Feature",
            "geometry": {
                "type": "Point",
                "coordinates": [
                    11.57644271,
                    48.13556886
                ]
            },
            "properties": {
                "RSU coordinates": [
                    11.5762562,
                    48.1331974
                ],
                "Distance": 264.36,
                "Frequency": 5.9,
                "RSSI": -98.92,
                "LOS": "False"
            }
        },
        {
            "type": "Feature",
            "geometry": {
                "type": "Point",
                "coordinates": [
                    11.57457771,
                    48.1331974
                ]
            },
            "properties": {
                "RSU coordinates": [
                    11.5762562,
                    48.1331974
                ],
                "Distance": 124.71,
                "Frequency": 5.9,
                "RSSI": -92.47999999999999,
                "LOS": "False"
            }
        },
        {
            "type": "Feature",
            "geometry": {
                "type": "Point",
                "coordinates": [
                    11.57467096,
                    48.13330519
                ]
            },
            "properties": {
                "RSU coordinates": [
                    11.5762562,
                    48.1331974
                ],
                "Distance": 118.39,
                "Frequency": 5.9,
                "RSSI": -62.03,
                "LOS": "True"
            }
        },
        {
            "type": "Feature",
            "geometry": {
                "type": "Point",
                "coordinates": [
                    11.57634945,
                    48.13524548
                ]
            },
            "properties": {
                "RSU coordinates": [
                    11.5762562,
                    48.1331974
                ],
                "Distance": 228.11,
                "Frequency": 5.9,
                "RSSI": -97.66,
                "LOS": "False"
            }
        },
        {
            "type": "Feature",
            "geometry": {
                "type": "Point",
                "coordinates": [
                    11.57644271,
                    48.13535327
                ]
            },
            "properties": {
                "RSU coordinates": [
                    11.5762562,
                    48.1331974
                ],
                "Distance": 240.4,
                "Frequency": 5.9,
                "RSSI": -68.11,
                "LOS": "True"
            }
        },
        {
            "type": "Feature",
            "geometry": {
                "type": "Point",
                "coordinates": [
                    11.57662921,
                    48.13556886
                ]
            },
            "properties": {
                "RSU coordinates": [
                    11.5762562,
                    48.1331974
                ],
                "Distance": 265.45,
                "Frequency": 5.9,
                "RSSI": -68.96,
                "LOS": "True"
            }
        },
        {
            "type": "Feature",
            "geometry": {
                "type": "Point",
                "coordinates": [
                    11.57672247,
                    48.13567665
                ]
            },
            "properties": {
                "RSU coordinates": [
                    11.5762562,
                    48.1331974
                ],
                "Distance": 278.17,
                "Frequency": 5.9,
                "RSSI": -99.36,
                "LOS": "False"
            }
        },
        {
            "type": "Feature",
            "geometry": {
                "type": "Point",
                "coordinates": [
                    11.57476421,
                    48.1331974
                ]
            },
            "properties": {
                "RSU coordinates": [
                    11.5762562,
                    48.1331974
                ],
                "Distance": 110.85,
                "Frequency": 5.9,
                "RSSI": -91.47,
                "LOS": "False"
            }
        },
        {
            "type": "Feature",
            "geometry": {
                "type": "Point",
                "coordinates": [
                    11.57485746,
                    48.13330519
                ]
            },
            "properties": {
                "RSU coordinates": [
                    11.5762562,
                    48.1331974
                ],
                "Distance": 104.61,
                "Frequency": 5.9,
                "RSSI": -60.97,
                "LOS": "True"
            }
        },
        {
            "type": "Feature",
            "geometry": {
                "type": "Point",
                "coordinates": [
                    11.57634945,
                    48.13502989
                ]
            },
            "properties": {
                "RSU coordinates": [
                    11.5762562,
                    48.1331974
                ],
                "Distance": 204.12,
                "Frequency": 5.9,
                "RSSI": -81.7,
                "LOS": "False"
            }
        },
        {
            "type": "Feature",
            "geometry": {
                "type": "Point",
                "coordinates": [
                    11.57644271,
                    48.13513768
                ]
            },
            "properties": {
                "RSU coordinates": [
                    11.5762562,
                    48.1331974
                ],
                "Distance": 216.44,
                "Frequency": 5.9,
                "RSSI": -67.21,
                "LOS": "True"
            }
        },
        {
            "type": "Feature",
            "geometry": {
                "type": "Point",
                "coordinates": [
                    11.57653596,
                    48.13524548
                ]
            },
            "properties": {
                "RSU coordinates": [
                    11.5762562,
                    48.1331974
                ],
                "Distance": 228.95,
                "Frequency": 5.9,
                "RSSI": -67.69,
                "LOS": "True"
            }
        },
        {
            "type": "Feature",
            "geometry": {
                "type": "Point",
                "coordinates": [
                    11.57662921,
                    48.13535327
                ]
            },
            "properties": {
                "RSU coordinates": [
                    11.5762562,
                    48.1331974
                ],
                "Distance": 241.59,
                "Frequency": 5.9,
                "RSSI": -83.15,
                "LOS": "False"
            }
        },
        {
            "type": "Feature",
            "geometry": {
                "type": "Point",
                "coordinates": [
                    11.57504396,
                    48.13330519
                ]
            },
            "properties": {
                "RSU coordinates": [
                    11.5762562,
                    48.1331974
                ],
                "Distance": 90.86,
                "Frequency": 5.9,
                "RSSI": -59.76,
                "LOS": "True"
            }
        },
        {
            "type": "Feature",
            "geometry": {
                "type": "Point",
                "coordinates": [
                    11.57634945,
                    48.1348143
                ]
            },
            "properties": {
                "RSU coordinates": [
                    11.5762562,
                    48.1331974
                ],
                "Distance": 180.13,
                "Frequency": 5.9,
                "RSSI": -65.63,
                "LOS": "True"
            }
        },
        {
            "type": "Feature",
            "geometry": {
                "type": "Point",
                "coordinates": [
                    11.5764427,
                    48.1349221
                ]
            },
            "properties": {
                "RSU coordinates": [
                    11.5762562,
                    48.1331974
                ],
                "Distance": 192.5,
                "Frequency": 5.9,
                "RSSI": -66.2,
                "LOS": "True"
            }
        },
        {
            "type": "Feature",
            "geometry": {
                "type": "Point",
                "coordinates": [
                    11.57653596,
                    48.13502989
                ]
            },
            "properties": {
                "RSU coordinates": [
                    11.5762562,
                    48.1331974
                ],
                "Distance": 205.06,
                "Frequency": 5.9,
                "RSSI": -66.74,
                "LOS": "True"
            }
        },
        {
            "type": "Feature",
            "geometry": {
                "type": "Point",
                "coordinates": [
                    11.57523046,
                    48.13330519
                ]
            },
            "properties": {
                "RSU coordinates": [
                    11.5762562,
                    48.1331974
                ],
                "Distance": 77.15,
                "Frequency": 5.9,
                "RSSI": -58.36,
                "LOS": "True"
            }
        },
        {
            "type": "Feature",
            "geometry": {
                "type": "Point",
                "coordinates": [
                    11.5758832,
                    48.13405975
                ]
            },
            "properties": {
                "RSU coordinates": [
                    11.5762562,
                    48.1331974
                ],
                "Distance": 99.92,
                "Frequency": 5.9,
                "RSSI": -90.58,
                "LOS": "False"
            }
        },
        {
            "type": "Feature",
            "geometry": {
                "type": "Point",
                "coordinates": [
                    11.5762562,
                    48.13449092
                ]
            },
            "properties": {
                "RSU coordinates": [
                    11.5762562,
                    48.1331974
                ],
                "Distance": 144.0,
                "Frequency": 5.9,
                "RSSI": -78.71000000000001,
                "LOS": "False"
            }
        },
        {
            "type": "Feature",
            "geometry": {
                "type": "Point",
                "coordinates": [
                    11.57634945,
                    48.13459872
                ]
            },
            "properties": {
                "RSU coordinates": [
                    11.5762562,
                    48.1331974
                ],
                "Distance": 156.15,
                "Frequency": 5.9,
                "RSSI": -64.41,
                "LOS": "True"
            }
        },
        {
            "type": "Feature",
            "geometry": {
                "type": "Point",
                "coordinates": [
                    11.5764427,
                    48.13470651
                ]
            },
            "properties": {
                "RSU coordinates": [
                    11.5762562,
                    48.1331974
                ],
                "Distance": 168.57,
                "Frequency": 5.9,
                "RSSI": -65.06,
                "LOS": "True"
            }
        },
        {
            "type": "Feature",
            "geometry": {
                "type": "Point",
                "coordinates": [
                    11.57653596,
                    48.1348143
                ]
            },
            "properties": {
                "RSU coordinates": [
                    11.5762562,
                    48.1331974
                ],
                "Distance": 181.2,
                "Frequency": 5.9,
                "RSSI": -65.68,
                "LOS": "True"
            }
        },
        {
            "type": "Feature",
            "geometry": {
                "type": "Point",
                "coordinates": [
                    11.57541695,
                    48.13330519
                ]
            },
            "properties": {
                "RSU coordinates": [
                    11.5762562,
                    48.1331974
                ],
                "Distance": 63.5,
                "Frequency": 5.9,
                "RSSI": -56.69,
                "LOS": "True"
            }
        },
        {
            "type": "Feature",
            "geometry": {
                "type": "Point",
                "coordinates": [
                    11.5756967,
                    48.13362857
                ]
            },
            "properties": {
                "RSU coordinates": [
                    11.5762562,
                    48.1331974
                ],
                "Distance": 63.5,
                "Frequency": 5.9,
                "RSSI": -86.69,
                "LOS": "False"
            }
        },
        {
            "type": "Feature",
            "geometry": {
                "type": "Point",
                "coordinates": [
                    11.57597645,
                    48.13395196
                ]
            },
            "properties": {
                "RSU coordinates": [
                    11.5762562,
                    48.1331974
                ],
                "Distance": 86.53,
                "Frequency": 5.9,
                "RSSI": -74.34,
                "LOS": "False"
            }
        },
        {
            "type": "Feature",
            "geometry": {
                "type": "Point",
                "coordinates": [
                    11.57634945,
                    48.13438313
                ]
            },
            "properties": {
                "RSU coordinates": [
                    11.5762562,
                    48.1331974
                ],
                "Distance": 132.18,
                "Frequency": 5.9,
                "RSSI": -62.98,
                "LOS": "True"
            }
        },
        {
            "type": "Feature",
            "geometry": {
                "type": "Point",
                "coordinates": [
                    11.5764427,
                    48.13449092
                ]
            },
            "properties": {
                "RSU coordinates": [
                    11.5762562,
                    48.1331974
                ],
                "Distance": 144.67,
                "Frequency": 5.9,
                "RSSI": -63.75,
                "LOS": "True"
            }
        },
        {
            "type": "Feature",
            "geometry": {
                "type": "Point",
                "coordinates": [
                    11.57653596,
                    48.13459872
                ]
            },
            "properties": {
                "RSU coordinates": [
                    11.5762562,
                    48.1331974
                ],
                "Distance": 157.38,
                "Frequency": 5.9,
                "RSSI": -79.47,
                "LOS": "False"
            }
        },
        {
            "type": "Feature",
            "geometry": {
                "type": "Point",
                "coordinates": [
                    11.57551021,
                    48.1331974
                ]
            },
            "properties": {
                "RSU coordinates": [
                    11.5762562,
                    48.1331974
                ],
                "Distance": 55.43,
                "Frequency": 5.9,
                "RSSI": -55.52,
                "LOS": "True"
            }
        },
        {
            "type": "Feature",
            "geometry": {
                "type": "Point",
                "coordinates": [
                    11.5756967,
                    48.13341299
                ]
            },
            "properties": {
                "RSU coordinates": [
                    11.5762562,
                    48.1331974
                ],
                "Distance": 48.0,
                "Frequency": 5.9,
                "RSSI": -84.28999999999999,
                "LOS": "False"
            }
        },
        {
            "type": "Feature",
            "geometry": {
                "type": "Point",
                "coordinates": [
                    11.57597645,
                    48.13373637
                ]
            },
            "properties": {
                "RSU coordinates": [
                    11.5762562,
                    48.1331974
                ],
                "Distance": 63.5,
                "Frequency": 5.9,
                "RSSI": -56.69,
                "LOS": "True"
            }
        },
        {
            "type": "Feature",
            "geometry": {
                "type": "Point",
                "coordinates": [
                    11.5762562,
                    48.13405975
                ]
            },
            "properties": {
                "RSU coordinates": [
                    11.5762562,
                    48.1331974
                ],
                "Distance": 96.0,
                "Frequency": 5.9,
                "RSSI": -60.23,
                "LOS": "True"
            }
        },
        {
            "type": "Feature",
            "geometry": {
                "type": "Point",
                "coordinates": [
                    11.57634945,
                    48.13416754
                ]
            },
            "properties": {
                "RSU coordinates": [
                    11.5762562,
                    48.1331974
                ],
                "Distance": 108.22,
                "Frequency": 5.9,
                "RSSI": -61.26,
                "LOS": "True"
            }
        },
        {
            "type": "Feature",
            "geometry": {
                "type": "Point",
                "coordinates": [
                    11.5764427,
                    48.13427534
                ]
            },
            "properties": {
                "RSU coordinates": [
                    11.5762562,
                    48.1331974
                ],
                "Distance": 120.8,
                "Frequency": 5.9,
                "RSSI": -62.2,
                "LOS": "True"
            }
        },
        {
            "type": "Feature",
            "geometry": {
                "type": "Point",
                "coordinates": [
                    11.57653595,
                    48.13438313
                ]
            },
            "properties": {
                "RSU coordinates": [
                    11.5762562,
                    48.1331974
                ],
                "Distance": 133.63,
                "Frequency": 5.9,
                "RSSI": -78.07,
                "LOS": "False"
            }
        },
        {
            "type": "Feature",
            "geometry": {
                "type": "Point",
                "coordinates": [
                    11.57551021,
                    48.13298181
                ]
            },
            "properties": {
                "RSU coordinates": [
                    11.5762562,
                    48.1331974
                ],
                "Distance": 60.4,
                "Frequency": 5.9,
                "RSSI": -86.25999999999999,
                "LOS": "False"
            }
        },
        {
            "type": "Feature",
            "geometry": {
                "type": "Point",
                "coordinates": [
                    11.5756967,
                    48.1331974
                ]
            },
            "properties": {
                "RSU coordinates": [
                    11.5762562,
                    48.1331974
                ],
                "Distance": 41.57,
                "Frequency": 5.9,
                "RSSI": -53.06,
                "LOS": "True"
            }
        },
        {
            "type": "Feature",
            "geometry": {
                "type": "Point",
                "coordinates": [
                    11.5758832,
                    48.13341299
                ]
            },
            "properties": {
                "RSU coordinates": [
                    11.5762562,
                    48.1331974
                ],
                "Distance": 36.66,
                "Frequency": 5.9,
                "RSSI": -81.97999999999999,
                "LOS": "False"
            }
        },
        {
            "type": "Feature",
            "geometry": {
                "type": "Point",
                "coordinates": [
                    11.5760697,
                    48.13362857
                ]
            },
            "properties": {
                "RSU coordinates": [
                    11.5762562,
                    48.1331974
                ],
                "Distance": 49.96,
                "Frequency": 5.9,
                "RSSI": -54.63,
                "LOS": "True"
            }
        },
        {
            "type": "Feature",
            "geometry": {
                "type": "Point",
                "coordinates": [
                    11.5762562,
                    48.13384416
                ]
            },
            "properties": {
                "RSU coordinates": [
                    11.5762562,
                    48.1331974
                ],
                "Distance": 72.0,
                "Frequency": 5.9,
                "RSSI": -57.77,
                "LOS": "True"
            }
        },
        {
            "type": "Feature",
            "geometry": {
                "type": "Point",
                "coordinates": [
                    11.57634945,
                    48.13395196
                ]
            },
            "properties": {
                "RSU coordinates": [
                    11.5762562,
                    48.1331974
                ],
                "Distance": 84.29,
                "Frequency": 5.9,
                "RSSI": -59.12,
                "LOS": "True"
            }
        },
        {
            "type": "Feature",
            "geometry": {
                "type": "Point",
                "coordinates": [
                    11.5764427,
                    48.13405975
                ]
            },
            "properties": {
                "RSU coordinates": [
                    11.5762562,
                    48.1331974
                ],
                "Distance": 96.99,
                "Frequency": 5.9,
                "RSSI": -60.32,
                "LOS": "True"
            }
        },
        {
            "type": "Feature",
            "geometry": {
                "type": "Point",
                "coordinates": [
                    11.57569671,
                    48.13298181
                ]
            },
            "properties": {
                "RSU coordinates": [
                    11.5762562,
                    48.1331974
                ],
                "Distance": 48.0,
                "Frequency": 5.9,
                "RSSI": -84.28999999999999,
                "LOS": "False"
            }
        },
        {
            "type": "Feature",
            "geometry": {
                "type": "Point",
                "coordinates": [
                    11.5758832,
                    48.1331974
                ]
            },
            "properties": {
                "RSU coordinates": [
                    11.5762562,
                    48.1331974
                ],
                "Distance": 27.71,
                "Frequency": 5.9,
                "RSSI": -49.58,
                "LOS": "True"
            }
        },
        {
            "type": "Feature",
            "geometry": {
                "type": "Point",
                "coordinates": [
                    11.57616295,
                    48.13352078
                ]
            },
            "properties": {
                "RSU coordinates": [
                    11.5762562,
                    48.1331974
                ],
                "Distance": 36.66,
                "Frequency": 5.9,
                "RSSI": -51.98,
                "LOS": "True"
            }
        },
        {
            "type": "Feature",
            "geometry": {
                "type": "Point",
                "coordinates": [
                    11.5762562,
                    48.13362857
                ]
            },
            "properties": {
                "RSU coordinates": [
                    11.5762562,
                    48.1331974
                ],
                "Distance": 48.0,
                "Frequency": 5.9,
                "RSSI": -54.29,
                "LOS": "True"
            }
        },
        {
            "type": "Feature",
            "geometry": {
                "type": "Point",
                "coordinates": [
                    11.57634945,
                    48.13373637
                ]
            },
            "properties": {
                "RSU coordinates": [
                    11.5762562,
                    48.1331974
                ],
                "Distance": 60.4,
                "Frequency": 5.9,
                "RSSI": -56.26,
                "LOS": "True"
            }
        },
        {
            "type": "Feature",
            "geometry": {
                "type": "Point",
                "coordinates": [
                    11.5764427,
                    48.13384416
                ]
            },
            "properties": {
                "RSU coordinates": [
                    11.5762562,
                    48.1331974
                ],
                "Distance": 73.32,
                "Frequency": 5.9,
                "RSSI": -57.92,
                "LOS": "True"
            }
        },
        {
            "type": "Feature",
            "geometry": {
                "type": "Point",
                "coordinates": [
                    11.57578996,
                    48.13287402
                ]
            },
            "properties": {
                "RSU coordinates": [
                    11.5762562,
                    48.1331974
                ],
                "Distance": 49.96,
                "Frequency": 5.9,
                "RSSI": -84.63,
                "LOS": "False"
            }
        },
        {
            "type": "Feature",
            "geometry": {
                "type": "Point",
                "coordinates": [
                    11.5758832,
                    48.13298181
                ]
            },
            "properties": {
                "RSU coordinates": [
                    11.5762562,
                    48.1331974
                ],
                "Distance": 36.66,
                "Frequency": 5.9,
                "RSSI": -66.97999999999999,
                "LOS": "False"
            }
        },
        {
            "type": "Feature",
            "geometry": {
                "type": "Point",
                "coordinates": [
                    11.5760697,
                    48.1331974
                ]
            },
            "properties": {
                "RSU coordinates": [
                    11.5762562,
                    48.1331974
                ],
                "Distance": 13.86,
                "Frequency": 5.9,
                "RSSI": -43.63,
                "LOS": "True"
            }
        },
        {
            "type": "Feature",
            "geometry": {
                "type": "Point",
                "coordinates": [
                    11.57616295,
                    48.13330519
                ]
            },
            "properties": {
                "RSU coordinates": [
                    11.5762562,
                    48.1331974
                ],
                "Distance": 13.86,
                "Frequency": 5.9,
                "RSSI": -43.63,
                "LOS": "True"
            }
        },
        {
            "type": "Feature",
            "geometry": {
                "type": "Point",
                "coordinates": [
                    11.5762562,
                    48.13341299
                ]
            },
            "properties": {
                "RSU coordinates": [
                    11.5762562,
                    48.1331974
                ],
                "Distance": 24.0,
                "Frequency": 5.9,
                "RSSI": -48.34,
                "LOS": "True"
            }
        },
        {
            "type": "Feature",
            "geometry": {
                "type": "Point",
                "coordinates": [
                    11.57634945,
                    48.13352078
                ]
            },
            "properties": {
                "RSU coordinates": [
                    11.5762562,
                    48.1331974
                ],
                "Distance": 36.66,
                "Frequency": 5.9,
                "RSSI": -51.98,
                "LOS": "True"
            }
        },
        {
            "type": "Feature",
            "geometry": {
                "type": "Point",
                "coordinates": [
                    11.57672245,
                    48.13395196
                ]
            },
            "properties": {
                "RSU coordinates": [
                    11.5762562,
                    48.1331974
                ],
                "Distance": 90.86,
                "Frequency": 5.9,
                "RSSI": -89.75999999999999,
                "LOS": "False"
            }
        },
        {
            "type": "Feature",
            "geometry": {
                "type": "Point",
                "coordinates": [
                    11.57616295,
                    48.13308961
                ]
            },
            "properties": {
                "RSU coordinates": [
                    11.5762562,
                    48.1331974
                ],
                "Distance": 13.86,
                "Frequency": 5.9,
                "RSSI": -43.63,
                "LOS": "True"
            }
        },
        {
            "type": "Feature",
            "geometry": {
                "type": "Point",
                "coordinates": [
                    11.57634945,
                    48.13330519
                ]
            },
            "properties": {
                "RSU coordinates": [
                    11.5762562,
                    48.1331974
                ],
                "Distance": 13.86,
                "Frequency": 5.9,
                "RSSI": -43.63,
                "LOS": "True"
            }
        },
        {
            "type": "Feature",
            "geometry": {
                "type": "Point",
                "coordinates": [
                    11.5764427,
                    48.13341299
                ]
            },
            "properties": {
                "RSU coordinates": [
                    11.5762562,
                    48.1331974
                ],
                "Distance": 27.71,
                "Frequency": 5.9,
                "RSSI": -49.58,
                "LOS": "True"
            }
        },
        {
            "type": "Feature",
            "geometry": {
                "type": "Point",
                "coordinates": [
                    11.57672245,
                    48.13373637
                ]
            },
            "properties": {
                "RSU coordinates": [
                    11.5762562,
                    48.1331974
                ],
                "Distance": 69.28,
                "Frequency": 5.9,
                "RSSI": -72.44,
                "LOS": "False"
            }
        },
        {
            "type": "Feature",
            "geometry": {
                "type": "Point",
                "coordinates": [
                    11.57690895,
                    48.13395196
                ]
            },
            "properties": {
                "RSU coordinates": [
                    11.5762562,
                    48.1331974
                ],
                "Distance": 96.99,
                "Frequency": 5.9,
                "RSSI": -90.32,
                "LOS": "False"
            }
        },
        {
            "type": "Feature",
            "geometry": {
                "type": "Point",
                "coordinates": [
                    11.57700221,
                    48.13405975
                ]
            },
            "properties": {
                "RSU coordinates": [
                    11.5762562,
                    48.1331974
                ],
                "Distance": 110.85,
                "Frequency": 5.9,
                "RSSI": -91.47,
                "LOS": "False"
            }
        },
        {
            "type": "Feature",
            "geometry": {
                "type": "Point",
                "coordinates": [
                    11.57709546,
                    48.13416754
                ]
            },
            "properties": {
                "RSU coordinates": [
                    11.5762562,
                    48.1331974
                ],
                "Distance": 124.71,
                "Frequency": 5.9,
                "RSSI": -92.47999999999999,
                "LOS": "False"
            }
        },
        {
            "type": "Feature",
            "geometry": {
                "type": "Point",
                "coordinates": [
                    11.57616295,
                    48.13287402
                ]
            },
            "properties": {
                "RSU coordinates": [
                    11.5762562,
                    48.1331974
                ],
                "Distance": 36.66,
                "Frequency": 5.9,
                "RSSI": -51.98,
                "LOS": "True"
            }
        },
        {
            "type": "Feature",
            "geometry": {
                "type": "Point",
                "coordinates": [
                    11.5762562,
                    48.13298181
                ]
            },
            "properties": {
                "RSU coordinates": [
                    11.5762562,
                    48.1331974
                ],
                "Distance": 24.0,
                "Frequency": 5.9,
                "RSSI": -48.34,
                "LOS": "True"
            }
        },
        {
            "type": "Feature",
            "geometry": {
                "type": "Point",
                "coordinates": [
                    11.57634945,
                    48.13308961
                ]
            },
            "properties": {
                "RSU coordinates": [
                    11.5762562,
                    48.1331974
                ],
                "Distance": 13.86,
                "Frequency": 5.9,
                "RSSI": -43.63,
                "LOS": "True"
            }
        },
        {
            "type": "Feature",
            "geometry": {
                "type": "Point",
                "coordinates": [
                    11.5764427,
                    48.1331974
                ]
            },
            "properties": {
                "RSU coordinates": [
                    11.5762562,
                    48.1331974
                ],
                "Distance": 13.86,
                "Frequency": 5.9,
                "RSSI": -43.63,
                "LOS": "True"
            }
        },
        {
            "type": "Feature",
            "geometry": {
                "type": "Point",
                "coordinates": [
                    11.57653595,
                    48.13330519
                ]
            },
            "properties": {
                "RSU coordinates": [
                    11.5762562,
                    48.1331974
                ],
                "Distance": 24.0,
                "Frequency": 5.9,
                "RSSI": -48.34,
                "LOS": "True"
            }
        },
        {
            "type": "Feature",
            "geometry": {
                "type": "Point",
                "coordinates": [
                    11.57672245,
                    48.13352078
                ]
            },
            "properties": {
                "RSU coordinates": [
                    11.5762562,
                    48.1331974
                ],
                "Distance": 49.96,
                "Frequency": 5.9,
                "RSSI": -69.63,
                "LOS": "False"
            }
        },
        {
            "type": "Feature",
            "geometry": {
                "type": "Point",
                "coordinates": [
                    11.5768157,
                    48.13362857
                ]
            },
            "properties": {
                "RSU coordinates": [
                    11.5762562,
                    48.1331974
                ],
                "Distance": 63.5,
                "Frequency": 5.9,
                "RSSI": -71.69,
                "LOS": "False"
            }
        },
        {
            "type": "Feature",
            "geometry": {
                "type": "Point",
                "coordinates": [
                    11.57690895,
                    48.13373637
                ]
            },
            "properties": {
                "RSU coordinates": [
                    11.5762562,
                    48.1331974
                ],
                "Distance": 77.15,
                "Frequency": 5.9,
                "RSSI": -73.36,
                "LOS": "False"
            }
        },
        {
            "type": "Feature",
            "geometry": {
                "type": "Point",
                "coordinates": [
                    11.5760697,
                    48.13255064
                ]
            },
            "properties": {
                "RSU coordinates": [
                    11.5762562,
                    48.1331974
                ],
                "Distance": 73.32,
                "Frequency": 5.9,
                "RSSI": -57.92,
                "LOS": "True"
            }
        },
        {
            "type": "Feature",
            "geometry": {
                "type": "Point",
                "coordinates": [
                    11.57616295,
                    48.13265843
                ]
            },
            "properties": {
                "RSU coordinates": [
                    11.5762562,
                    48.1331974
                ],
                "Distance": 60.4,
                "Frequency": 5.9,
                "RSSI": -56.26,
                "LOS": "True"
            }
        },
        {
            "type": "Feature",
            "geometry": {
                "type": "Point",
                "coordinates": [
                    11.5762562,
                    48.13276623
                ]
            },
            "properties": {
                "RSU coordinates": [
                    11.5762562,
                    48.1331974
                ],
                "Distance": 48.0,
                "Frequency": 5.9,
                "RSSI": -54.29,
                "LOS": "True"
            }
        },
        {
            "type": "Feature",
            "geometry": {
                "type": "Point",
                "coordinates": [
                    11.57653595,
                    48.13308961
                ]
            },
            "properties": {
                "RSU coordinates": [
                    11.5762562,
                    48.1331974
                ],
                "Distance": 24.0,
                "Frequency": 5.9,
                "RSSI": -48.34,
                "LOS": "True"
            }
        },
        {
            "type": "Feature",
            "geometry": {
                "type": "Point",
                "coordinates": [
                    11.57672245,
                    48.13330519
                ]
            },
            "properties": {
                "RSU coordinates": [
                    11.5762562,
                    48.1331974
                ],
                "Distance": 36.66,
                "Frequency": 5.9,
                "RSSI": -51.98,
                "LOS": "True"
            }
        },
        {
            "type": "Feature",
            "geometry": {
                "type": "Point",
                "coordinates": [
                    11.5770022,
                    48.13362857
                ]
            },
            "properties": {
                "RSU coordinates": [
                    11.5762562,
                    48.1331974
                ],
                "Distance": 73.32,
                "Frequency": 5.9,
                "RSSI": -87.92,
                "LOS": "False"
            }
        },
        {
            "type": "Feature",
            "geometry": {
                "type": "Point",
                "coordinates": [
                    11.5771887,
                    48.13384416
                ]
            },
            "properties": {
                "RSU coordinates": [
                    11.5762562,
                    48.1331974
                ],
                "Distance": 99.92,
                "Frequency": 5.9,
                "RSSI": -90.58,
                "LOS": "False"
            }
        },
        {
            "type": "Feature",
            "geometry": {
                "type": "Point",
                "coordinates": [
                    11.5760697,
                    48.13233505
                ]
            },
            "properties": {
                "RSU coordinates": [
                    11.5762562,
                    48.1331974
                ],
                "Distance": 96.99,
                "Frequency": 5.9,
                "RSSI": -60.32,
                "LOS": "True"
            }
        },
        {
            "type": "Feature",
            "geometry": {
                "type": "Point",
                "coordinates": [
                    11.57616295,
                    48.13244284
                ]
            },
            "properties": {
                "RSU coordinates": [
                    11.5762562,
                    48.1331974
                ],
                "Distance": 84.29,
                "Frequency": 5.9,
                "RSSI": -59.12,
                "LOS": "True"
            }
        },
        {
            "type": "Feature",
            "geometry": {
                "type": "Point",
                "coordinates": [
                    11.5766292,
                    48.13298181
                ]
            },
            "properties": {
                "RSU coordinates": [
                    11.5762562,
                    48.1331974
                ],
                "Distance": 36.66,
                "Frequency": 5.9,
                "RSSI": -51.98,
                "LOS": "True"
            }
        },
        {
            "type": "Feature",
            "geometry": {
                "type": "Point",
                "coordinates": [
                    11.57690895,
                    48.13330519
                ]
            },
            "properties": {
                "RSU coordinates": [
                    11.5762562,
                    48.1331974
                ],
                "Distance": 49.96,
                "Frequency": 5.9,
                "RSSI": -54.63,
                "LOS": "True"
            }
        },
        {
            "type": "Feature",
            "geometry": {
                "type": "Point",
                "coordinates": [
                    11.5770022,
                    48.13341299
                ]
            },
            "properties": {
                "RSU coordinates": [
                    11.5762562,
                    48.1331974
                ],
                "Distance": 60.4,
                "Frequency": 5.9,
                "RSSI": -56.26,
                "LOS": "True"
            }
        },
        {
            "type": "Feature",
            "geometry": {
                "type": "Point",
                "coordinates": [
                    11.57588321,
                    48.13190388
                ]
            },
            "properties": {
                "RSU coordinates": [
                    11.5762562,
                    48.1331974
                ],
                "Distance": 146.64,
                "Frequency": 5.9,
                "RSSI": -93.87,
                "LOS": "False"
            }
        },
        {
            "type": "Feature",
            "geometry": {
                "type": "Point",
                "coordinates": [
                    11.57597646,
                    48.13201167
                ]
            },
            "properties": {
                "RSU coordinates": [
                    11.5762562,
                    48.1331974
                ],
                "Distance": 133.63,
                "Frequency": 5.9,
                "RSSI": -63.07,
                "LOS": "True"
            }
        },
        {
            "type": "Feature",
            "geometry": {
                "type": "Point",
                "coordinates": [
                    11.57606971,
                    48.13211946
                ]
            },
            "properties": {
                "RSU coordinates": [
                    11.5762562,
                    48.1331974
                ],
                "Distance": 120.8,
                "Frequency": 5.9,
                "RSSI": -62.2,
                "LOS": "True"
            }
        },
        {
            "type": "Feature",
            "geometry": {
                "type": "Point",
                "coordinates": [
                    11.57616295,
                    48.13222726
                ]
            },
            "properties": {
                "RSU coordinates": [
                    11.5762562,
                    48.1331974
                ],
                "Distance": 108.22,
                "Frequency": 5.9,
                "RSSI": -61.26,
                "LOS": "True"
            }
        },
        {
            "type": "Feature",
            "geometry": {
                "type": "Point",
                "coordinates": [
                    11.57681569,
                    48.13298181
                ]
            },
            "properties": {
                "RSU coordinates": [
                    11.5762562,
                    48.1331974
                ],
                "Distance": 48.0,
                "Frequency": 5.9,
                "RSSI": -54.29,
                "LOS": "True"
            }
        },
        {
            "type": "Feature",
            "geometry": {
                "type": "Point",
                "coordinates": [
                    11.57690894,
                    48.13308961
                ]
            },
            "properties": {
                "RSU coordinates": [
                    11.5762562,
                    48.1331974
                ],
                "Distance": 49.96,
                "Frequency": 5.9,
                "RSSI": -69.63,
                "LOS": "False"
            }
        },
        {
            "type": "Feature",
            "geometry": {
                "type": "Point",
                "coordinates": [
                    11.57700219,
                    48.1331974
                ]
            },
            "properties": {
                "RSU coordinates": [
                    11.5762562,
                    48.1331974
                ],
                "Distance": 55.43,
                "Frequency": 5.9,
                "RSSI": -70.52000000000001,
                "LOS": "False"
            }
        },
        {
            "type": "Feature",
            "geometry": {
                "type": "Point",
                "coordinates": [
                    11.5771887,
                    48.13341299
                ]
            },
            "properties": {
                "RSU coordinates": [
                    11.5762562,
                    48.1331974
                ],
                "Distance": 73.32,
                "Frequency": 5.9,
                "RSSI": -57.92,
                "LOS": "True"
            }
        },
        {
            "type": "Feature",
            "geometry": {
                "type": "Point",
                "coordinates": [
                    11.57578997,
                    48.1315805
                ]
            },
            "properties": {
                "RSU coordinates": [
                    11.5762562,
                    48.1331974
                ],
                "Distance": 183.3,
                "Frequency": 5.9,
                "RSSI": -95.78,
                "LOS": "False"
            }
        },
        {
            "type": "Feature",
            "geometry": {
                "type": "Point",
                "coordinates": [
                    11.57588321,
                    48.13168829
                ]
            },
            "properties": {
                "RSU coordinates": [
                    11.5762562,
                    48.1331974
                ],
                "Distance": 170.27,
                "Frequency": 5.9,
                "RSSI": -80.15,
                "LOS": "False"
            }
        },
        {
            "type": "Feature",
            "geometry": {
                "type": "Point",
                "coordinates": [
                    11.57597646,
                    48.13179608
                ]
            },
            "properties": {
                "RSU coordinates": [
                    11.5762562,
                    48.1331974
                ],
                "Distance": 157.38,
                "Frequency": 5.9,
                "RSSI": -64.47,
                "LOS": "True"
            }
        },
        {
            "type": "Feature",
            "geometry": {
                "type": "Point",
                "coordinates": [
                    11.57606971,
                    48.13190388
                ]
            },
            "properties": {
                "RSU coordinates": [
                    11.5762562,
                    48.1331974
                ],
                "Distance": 144.67,
                "Frequency": 5.9,
                "RSSI": -63.75,
                "LOS": "True"
            }
        },
        {
            "type": "Feature",
            "geometry": {
                "type": "Point",
                "coordinates": [
                    11.57616295,
                    48.13201167
                ]
            },
            "properties": {
                "RSU coordinates": [
                    11.5762562,
                    48.1331974
                ],
                "Distance": 132.18,
                "Frequency": 5.9,
                "RSSI": -62.98,
                "LOS": "True"
            }
        },
        {
            "type": "Feature",
            "geometry": {
                "type": "Point",
                "coordinates": [
                    11.57690894,
                    48.13287402
                ]
            },
            "properties": {
                "RSU coordinates": [
                    11.5762562,
                    48.1331974
                ],
                "Distance": 60.4,
                "Frequency": 5.9,
                "RSSI": -56.26,
                "LOS": "True"
            }
        },
        {
            "type": "Feature",
            "geometry": {
                "type": "Point",
                "coordinates": [
                    11.5773752,
                    48.13341299
                ]
            },
            "properties": {
                "RSU coordinates": [
                    11.5762562,
                    48.1331974
                ],
                "Distance": 86.53,
                "Frequency": 5.9,
                "RSSI": -59.34,
                "LOS": "True"
            }
        },
        {
            "type": "Feature",
            "geometry": {
                "type": "Point",
                "coordinates": [
                    11.57746845,
                    48.13352078
                ]
            },
            "properties": {
                "RSU coordinates": [
                    11.5762562,
                    48.1331974
                ],
                "Distance": 96.99,
                "Frequency": 5.9,
                "RSSI": -60.32,
                "LOS": "True"
            }
        },
        {
            "type": "Feature",
            "geometry": {
                "type": "Point",
                "coordinates": [
                    11.57578997,
                    48.13136491
                ]
            },
            "properties": {
                "RSU coordinates": [
                    11.5762562,
                    48.1331974
                ],
                "Distance": 206.92,
                "Frequency": 5.9,
                "RSSI": -81.82,
                "LOS": "False"
            }
        },
        {
            "type": "Feature",
            "geometry": {
                "type": "Point",
                "coordinates": [
                    11.57588322,
                    48.1314727
                ]
            },
            "properties": {
                "RSU coordinates": [
                    11.5762562,
                    48.1331974
                ],
                "Distance": 193.99,
                "Frequency": 5.9,
                "RSSI": -66.27,
                "LOS": "True"
            }
        },
        {
            "type": "Feature",
            "geometry": {
                "type": "Point",
                "coordinates": [
                    11.57597646,
                    48.1315805
                ]
            },
            "properties": {
                "RSU coordinates": [
                    11.5762562,
                    48.1331974
                ],
                "Distance": 181.2,
                "Frequency": 5.9,
                "RSSI": -65.68,
                "LOS": "True"
            }
        },
        {
            "type": "Feature",
            "geometry": {
                "type": "Point",
                "coordinates": [
                    11.57606971,
                    48.13168829
                ]
            },
            "properties": {
                "RSU coordinates": [
                    11.5762562,
                    48.1331974
                ],
                "Distance": 168.57,
                "Frequency": 5.9,
                "RSSI": -65.06,
                "LOS": "True"
            }
        },
        {
            "type": "Feature",
            "geometry": {
                "type": "Point",
                "coordinates": [
                    11.57616295,
                    48.13179608
                ]
            },
            "properties": {
                "RSU coordinates": [
                    11.5762562,
                    48.1331974
                ],
                "Distance": 156.15,
                "Frequency": 5.9,
                "RSSI": -79.41,
                "LOS": "False"
            }
        },
        {
            "type": "Feature",
            "geometry": {
                "type": "Point",
                "coordinates": [
                    11.57709544,
                    48.13287402
                ]
            },
            "properties": {
                "RSU coordinates": [
                    11.5762562,
                    48.1331974
                ],
                "Distance": 72.0,
                "Frequency": 5.9,
                "RSSI": -57.77,
                "LOS": "True"
            }
        },
        {
            "type": "Feature",
            "geometry": {
                "type": "Point",
                "coordinates": [
                    11.57728194,
                    48.13308961
                ]
            },
            "properties": {
                "RSU coordinates": [
                    11.5762562,
                    48.1331974
                ],
                "Distance": 77.15,
                "Frequency": 5.9,
                "RSSI": -73.36,
                "LOS": "False"
            }
        },
        {
            "type": "Feature",
            "geometry": {
                "type": "Point",
                "coordinates": [
                    11.57765495,
                    48.13352078
                ]
            },
            "properties": {
                "RSU coordinates": [
                    11.5762562,
                    48.1331974
                ],
                "Distance": 109.98,
                "Frequency": 5.9,
                "RSSI": -61.4,
                "LOS": "True"
            }
        },
        {
            "type": "Feature",
            "geometry": {
                "type": "Point",
                "coordinates": [
                    11.57588322,
                    48.13125712
                ]
            },
            "properties": {
                "RSU coordinates": [
                    11.5762562,
                    48.1331974
                ],
                "Distance": 217.77,
                "Frequency": 5.9,
                "RSSI": -67.26,
                "LOS": "True"
            }
        },
        {
            "type": "Feature",
            "geometry": {
                "type": "Point",
                "coordinates": [
                    11.57597646,
                    48.13136491
                ]
            },
            "properties": {
                "RSU coordinates": [
                    11.5762562,
                    48.1331974
                ],
                "Distance": 205.06,
                "Frequency": 5.9,
                "RSSI": -66.74,
                "LOS": "True"
            }
        },
        {
            "type": "Feature",
            "geometry": {
                "type": "Point",
                "coordinates": [
                    11.57606971,
                    48.1314727
                ]
            },
            "properties": {
                "RSU coordinates": [
                    11.5762562,
                    48.1331974
                ],
                "Distance": 192.5,
                "Frequency": 5.9,
                "RSSI": -66.2,
                "LOS": "True"
            }
        },
        {
            "type": "Feature",
            "geometry": {
                "type": "Point",
                "coordinates": [
                    11.57616295,
                    48.1315805
                ]
            },
            "properties": {
                "RSU coordinates": [
                    11.5762562,
                    48.1331974
                ],
                "Distance": 180.13,
                "Frequency": 5.9,
                "RSSI": -95.63,
                "LOS": "False"
            }
        },
        {
            "type": "Feature",
            "geometry": {
                "type": "Point",
                "coordinates": [
                    11.57718868,
                    48.13276623
                ]
            },
            "properties": {
                "RSU coordinates": [
                    11.5762562,
                    48.1331974
                ],
                "Distance": 84.29,
                "Frequency": 5.9,
                "RSSI": -59.12,
                "LOS": "True"
            }
        },
        {
            "type": "Feature",
            "geometry": {
                "type": "Point",
                "coordinates": [
                    11.57784145,
                    48.13352078
                ]
            },
            "properties": {
                "RSU coordinates": [
                    11.5762562,
                    48.1331974
                ],
                "Distance": 123.16,
                "Frequency": 5.9,
                "RSSI": -62.37,
                "LOS": "True"
            }
        },
        {
            "type": "Feature",
            "geometry": {
                "type": "Point",
                "coordinates": [
                    11.5779347,
                    48.13362857
                ]
            },
            "properties": {
                "RSU coordinates": [
                    11.5762562,
                    48.1331974
                ],
                "Distance": 133.63,
                "Frequency": 5.9,
                "RSSI": -63.07,
                "LOS": "True"
            }
        },
        {
            "type": "Feature",
            "geometry": {
                "type": "Point",
                "coordinates": [
                    11.57588322,
                    48.13104153
                ]
            },
            "properties": {
                "RSU coordinates": [
                    11.5762562,
                    48.1331974
                ],
                "Distance": 241.59,
                "Frequency": 5.9,
                "RSSI": -68.15,
                "LOS": "True"
            }
        },
        {
            "type": "Feature",
            "geometry": {
                "type": "Point",
                "coordinates": [
                    11.57597646,
                    48.13114932
                ]
            },
            "properties": {
                "RSU coordinates": [
                    11.5762562,
                    48.1331974
                ],
                "Distance": 228.95,
                "Frequency": 5.9,
                "RSSI": -67.69,
                "LOS": "True"
            }
        },
        {
            "type": "Feature",
            "geometry": {
                "type": "Point",
                "coordinates": [
                    11.57616295,
                    48.13136491
                ]
            },
            "properties": {
                "RSU coordinates": [
                    11.5762562,
                    48.1331974
                ],
                "Distance": 204.12,
                "Frequency": 5.9,
                "RSSI": -96.7,
                "LOS": "False"
            }
        },
        {
            "type": "Feature",
            "geometry": {
                "type": "Point",
                "coordinates": [
                    11.57737518,
                    48.13276623
                ]
            },
            "properties": {
                "RSU coordinates": [
                    11.5762562,
                    48.1331974
                ],
                "Distance": 96.0,
                "Frequency": 5.9,
                "RSSI": -60.23,
                "LOS": "True"
            }
        },
        {
            "type": "Feature",
            "geometry": {
                "type": "Point",
                "coordinates": [
                    11.5781212,
                    48.13362857
                ]
            },
            "properties": {
                "RSU coordinates": [
                    11.5762562,
                    48.1331974
                ],
                "Distance": 146.64,
                "Frequency": 5.9,
                "RSSI": -63.87,
                "LOS": "True"
            }
        },
        {
            "type": "Feature",
            "geometry": {
                "type": "Point",
                "coordinates": [
                    11.57578998,
                    48.13071815
                ]
            },
            "properties": {
                "RSU coordinates": [
                    11.5762562,
                    48.1331974
                ],
                "Distance": 278.17,
                "Frequency": 5.9,
                "RSSI": -69.36,
                "LOS": "True"
            }
        },
        {
            "type": "Feature",
            "geometry": {
                "type": "Point",
                "coordinates": [
                    11.57588322,
                    48.13082594
                ]
            },
            "properties": {
                "RSU coordinates": [
                    11.5762562,
                    48.1331974
                ],
                "Distance": 265.45,
                "Frequency": 5.9,
                "RSSI": -68.96,
                "LOS": "True"
            }
        },
        {
            "type": "Feature",
            "geometry": {
                "type": "Point",
                "coordinates": [
                    11.57597646,
                    48.13093373
                ]
            },
            "properties": {
                "RSU coordinates": [
                    11.5762562,
                    48.1331974
                ],
                "Distance": 252.86,
                "Frequency": 5.9,
                "RSSI": -68.54,
                "LOS": "True"
            }
        },
        {
            "type": "Feature",
            "geometry": {
                "type": "Point",
                "coordinates": [
                    11.57746843,
                    48.13265843
                ]
            },
            "properties": {
                "RSU coordinates": [
                    11.5762562,
                    48.1331974
                ],
                "Distance": 108.22,
                "Frequency": 5.9,
                "RSSI": -61.26,
                "LOS": "True"
            }
        },
        {
            "type": "Feature",
            "geometry": {
                "type": "Point",
                "coordinates": [
                    11.5783077,
                    48.13362857
                ]
            },
            "properties": {
                "RSU coordinates": [
                    11.5762562,
                    48.1331974
                ],
                "Distance": 159.8,
                "Frequency": 5.9,
                "RSSI": -64.6,
                "LOS": "True"
            }
        },
        {
            "type": "Feature",
            "geometry": {
                "type": "Point",
                "coordinates": [
                    11.57840096,
                    48.13373637
                ]
            },
            "properties": {
                "RSU coordinates": [
                    11.5762562,
                    48.1331974
                ],
                "Distance": 170.27,
                "Frequency": 5.9,
                "RSSI": -65.15,
                "LOS": "True"
            }
        },
        {
            "type": "Feature",
            "geometry": {
                "type": "Point",
                "coordinates": [
                    11.57578998,
                    48.13050256
                ]
            },
            "properties": {
                "RSU coordinates": [
                    11.5762562,
                    48.1331974
                ],
                "Distance": 301.99,
                "Frequency": 5.9,
                "RSSI": -70.06,
                "LOS": "True"
            }
        },
        {
            "type": "Feature",
            "geometry": {
                "type": "Point",
                "coordinates": [
                    11.57588322,
                    48.13061035
                ]
            },
            "properties": {
                "RSU coordinates": [
                    11.5762562,
                    48.1331974
                ],
                "Distance": 289.33,
                "Frequency": 5.9,
                "RSSI": -69.7,
                "LOS": "True"
            }
        },
        {
            "type": "Feature",
            "geometry": {
                "type": "Point",
                "coordinates": [
                    11.57597647,
                    48.13071815
                ]
            },
            "properties": {
                "RSU coordinates": [
                    11.5762562,
                    48.1331974
                ],
                "Distance": 276.78,
                "Frequency": 5.9,
                "RSSI": -69.31,
                "LOS": "True"
            }
        },
        {
            "type": "Feature",
            "geometry": {
                "type": "Point",
                "coordinates": [
                    11.57765492,
                    48.13265843
                ]
            },
            "properties": {
                "RSU coordinates": [
                    11.5762562,
                    48.1331974
                ],
                "Distance": 120.0,
                "Frequency": 5.9,
                "RSSI": -62.15,
                "LOS": "True"
            }
        },
        {
            "type": "Feature",
            "geometry": {
                "type": "Point",
                "coordinates": [
                    11.57858746,
                    48.13373637
                ]
            },
            "properties": {
                "RSU coordinates": [
                    11.5762562,
                    48.1331974
                ],
                "Distance": 183.3,
                "Frequency": 5.9,
                "RSSI": -65.78,
                "LOS": "True"
            }
        },
        {
            "type": "Feature",
            "geometry": {
                "type": "Point",
                "coordinates": [
                    11.57868071,
                    48.13384416
                ]
            },
            "properties": {
                "RSU coordinates": [
                    11.5762562,
                    48.1331974
                ],
                "Distance": 193.99,
                "Frequency": 5.9,
                "RSSI": -66.27,
                "LOS": "True"
            }
        },
        {
            "type": "Feature",
            "geometry": {
                "type": "Point",
                "coordinates": [
                    11.57578998,
                    48.13028697
                ]
            },
            "properties": {
                "RSU coordinates": [
                    11.5762562,
                    48.1331974
                ],
                "Distance": 325.85,
                "Frequency": 5.9,
                "RSSI": -70.71,
                "LOS": "True"
            }
        },
        {
            "type": "Feature",
            "geometry": {
                "type": "Point",
                "coordinates": [
                    11.57588322,
                    48.13039477
                ]
            },
            "properties": {
                "RSU coordinates": [
                    11.5762562,
                    48.1331974
                ],
                "Distance": 313.23,
                "Frequency": 5.9,
                "RSSI": -70.38,
                "LOS": "True"
            }
        },
        {
            "type": "Feature",
            "geometry": {
                "type": "Point",
                "coordinates": [
                    11.57784142,
                    48.13265843
                ]
            },
            "properties": {
                "RSU coordinates": [
                    11.5762562,
                    48.1331974
                ],
                "Distance": 132.18,
                "Frequency": 5.9,
                "RSSI": -62.98,
                "LOS": "True"
            }
        },
        {
            "type": "Feature",
            "geometry": {
                "type": "Point",
                "coordinates": [
                    11.57877396,
                    48.13373637
                ]
            },
            "properties": {
                "RSU coordinates": [
                    11.5762562,
                    48.1331974
                ],
                "Distance": 196.45,
                "Frequency": 5.9,
                "RSSI": -66.37,
                "LOS": "True"
            }
        },
        {
            "type": "Feature",
            "geometry": {
                "type": "Point",
                "coordinates": [
                    11.57886721,
                    48.13384416
                ]
            },
            "properties": {
                "RSU coordinates": [
                    11.5762562,
                    48.1331974
                ],
                "Distance": 206.92,
                "Frequency": 5.9,
                "RSSI": -66.82,
                "LOS": "True"
            }
        },
        {
            "type": "Feature",
            "geometry": {
                "type": "Point",
                "coordinates": [
                    11.57569674,
                    48.12996359
                ]
            },
            "properties": {
                "RSU coordinates": [
                    11.5762562,
                    48.1331974
                ],
                "Distance": 362.39,
                "Frequency": 5.9,
                "RSSI": -71.63,
                "LOS": "True"
            }
        },
        {
            "type": "Feature",
            "geometry": {
                "type": "Point",
                "coordinates": [
                    11.57578998,
                    48.13007139
                ]
            },
            "properties": {
                "RSU coordinates": [
                    11.5762562,
                    48.1331974
                ],
                "Distance": 349.72,
                "Frequency": 5.9,
                "RSSI": -71.32,
                "LOS": "True"
            }
        },
        {
            "type": "Feature",
            "geometry": {
                "type": "Point",
                "coordinates": [
                    11.57588322,
                    48.13017918
                ]
            },
            "properties": {
                "RSU coordinates": [
                    11.5762562,
                    48.1331974
                ],
                "Distance": 337.14,
                "Frequency": 5.9,
                "RSSI": -71.01,
                "LOS": "True"
            }
        },
        {
            "type": "Feature",
            "geometry": {
                "type": "Point",
                "coordinates": [
                    11.57793467,
                    48.13255064
                ]
            },
            "properties": {
                "RSU coordinates": [
                    11.5762562,
                    48.1331974
                ],
                "Distance": 144.0,
                "Frequency": 5.9,
                "RSSI": -63.71,
                "LOS": "True"
            }
        },
        {
            "type": "Feature",
            "geometry": {
                "type": "Point",
                "coordinates": [
                    11.57905371,
                    48.13384416
                ]
            },
            "properties": {
                "RSU coordinates": [
                    11.5762562,
                    48.1331974
                ],
                "Distance": 219.96,
                "Frequency": 5.9,
                "RSSI": -67.34,
                "LOS": "True"
            }
        },
        {
            "type": "Feature",
            "geometry": {
                "type": "Point",
                "coordinates": [
                    11.57914697,
                    48.13395196
                ]
            },
            "properties": {
                "RSU coordinates": [
                    11.5762562,
                    48.1331974
                ],
                "Distance": 230.62,
                "Frequency": 5.9,
                "RSSI": -67.75,
                "LOS": "True"
            }
        },
        {
            "type": "Feature",
            "geometry": {
                "type": "Point",
                "coordinates": [
                    11.57569674,
                    48.12974801
                ]
            },
            "properties": {
                "RSU coordinates": [
                    11.5762562,
                    48.1331974
                ],
                "Distance": 386.24,
                "Frequency": 5.9,
                "RSSI": -72.17,
                "LOS": "True"
            }
        },
        {
            "type": "Feature",
            "geometry": {
                "type": "Point",
                "coordinates": [
                    11.57578998,
                    48.1298558
                ]
            },
            "properties": {
                "RSU coordinates": [
                    11.5762562,
                    48.1331974
                ],
                "Distance": 373.61,
                "Frequency": 5.9,
                "RSSI": -71.89,
                "LOS": "True"
            }
        },
        {
            "type": "Feature",
            "geometry": {
                "type": "Point",
                "coordinates": [
                    11.57812116,
                    48.13255064
                ]
            },
            "properties": {
                "RSU coordinates": [
                    11.5762562,
                    48.1331974
                ],
                "Distance": 156.15,
                "Frequency": 5.9,
                "RSSI": -64.41,
                "LOS": "True"
            }
        },
        {
            "type": "Feature",
            "geometry": {
                "type": "Point",
                "coordinates": [
                    11.57924021,
                    48.13384416
                ]
            },
            "properties": {
                "RSU coordinates": [
                    11.5762562,
                    48.1331974
                ],
                "Distance": 233.1,
                "Frequency": 5.9,
                "RSSI": -67.84,
                "LOS": "True"
            }
        },
        {
            "type": "Feature",
            "geometry": {
                "type": "Point",
                "coordinates": [
                    11.57933347,
                    48.13395196
                ]
            },
            "properties": {
                "RSU coordinates": [
                    11.5762562,
                    48.1331974
                ],
                "Distance": 243.57,
                "Frequency": 5.9,
                "RSSI": -68.22,
                "LOS": "True"
            }
        },
        {
            "type": "Feature",
            "geometry": {
                "type": "Point",
                "coordinates": [
                    11.57569674,
                    48.12953242
                ]
            },
            "properties": {
                "RSU coordinates": [
                    11.5762562,
                    48.1331974
                ],
                "Distance": 410.11,
                "Frequency": 5.9,
                "RSSI": -72.69,
                "LOS": "True"
            }
        },
        {
            "type": "Feature",
            "geometry": {
                "type": "Point",
                "coordinates": [
                    11.57578999,
                    48.12964021
                ]
            },
            "properties": {
                "RSU coordinates": [
                    11.5762562,
                    48.1331974
                ],
                "Distance": 397.51,
                "Frequency": 5.9,
                "RSSI": -72.42,
                "LOS": "True"
            }
        },
        {
            "type": "Feature",
            "geometry": {
                "type": "Point",
                "coordinates": [
                    11.57821441,
                    48.13244284
                ]
            },
            "properties": {
                "RSU coordinates": [
                    11.5762562,
                    48.1331974
                ],
                "Distance": 168.0,
                "Frequency": 5.9,
                "RSSI": -65.03,
                "LOS": "True"
            }
        },
        {
            "type": "Feature",
            "geometry": {
                "type": "Point",
                "coordinates": [
                    11.57951997,
                    48.13395196
                ]
            },
            "properties": {
                "RSU coordinates": [
                    11.5762562,
                    48.1331974
                ],
                "Distance": 256.62,
                "Frequency": 5.9,
                "RSSI": -68.67,
                "LOS": "True"
            }
        },
        {
            "type": "Feature",
            "geometry": {
                "type": "Point",
                "coordinates": [
                    11.57961323,
                    48.13405975
                ]
            },
            "properties": {
                "RSU coordinates": [
                    11.5762562,
                    48.1331974
                ],
                "Distance": 267.25,
                "Frequency": 5.9,
                "RSSI": -69.01,
                "LOS": "True"
            }
        },
        {
            "type": "Feature",
            "geometry": {
                "type": "Point",
                "coordinates": [
                    11.57560351,
                    48.12920904
                ]
            },
            "properties": {
                "RSU coordinates": [
                    11.5762562,
                    48.1331974
                ],
                "Distance": 446.64,
                "Frequency": 5.9,
                "RSSI": -73.42,
                "LOS": "True"
            }
        },
        {
            "type": "Feature",
            "geometry": {
                "type": "Point",
                "coordinates": [
                    11.57569675,
                    48.12931683
                ]
            },
            "properties": {
                "RSU coordinates": [
                    11.5762562,
                    48.1331974
                ],
                "Distance": 434.0,
                "Frequency": 5.9,
                "RSSI": -73.17,
                "LOS": "True"
            }
        },
        {
            "type": "Feature",
            "geometry": {
                "type": "Point",
                "coordinates": [
                    11.57578999,
                    48.12942462
                ]
            },
            "properties": {
                "RSU coordinates": [
                    11.5762562,
                    48.1331974
                ],
                "Distance": 421.43,
                "Frequency": 5.9,
                "RSSI": -72.92,
                "LOS": "True"
            }
        },
        {
            "type": "Feature",
            "geometry": {
                "type": "Point",
                "coordinates": [
                    11.57830765,
                    48.13233505
                ]
            },
            "properties": {
                "RSU coordinates": [
                    11.5762562,
                    48.1331974
                ],
                "Distance": 180.13,
                "Frequency": 5.9,
                "RSSI": -95.63,
                "LOS": "False"
            }
        },
        {
            "type": "Feature",
            "geometry": {
                "type": "Point",
                "coordinates": [
                    11.5784009,
                    48.13244284
                ]
            },
            "properties": {
                "RSU coordinates": [
                    11.5762562,
                    48.1331974
                ],
                "Distance": 180.13,
                "Frequency": 5.9,
                "RSSI": -65.63,
                "LOS": "True"
            }
        },
        {
            "type": "Feature",
            "geometry": {
                "type": "Point",
                "coordinates": [
                    11.57970647,
                    48.13395196
                ]
            },
            "properties": {
                "RSU coordinates": [
                    11.5762562,
                    48.1331974
                ],
                "Distance": 269.76,
                "Frequency": 5.9,
                "RSSI": -69.09,
                "LOS": "True"
            }
        },
        {
            "type": "Feature",
            "geometry": {
                "type": "Point",
                "coordinates": [
                    11.57560351,
                    48.12899345
                ]
            },
            "properties": {
                "RSU coordinates": [
                    11.5762562,
                    48.1331974
                ],
                "Distance": 470.51,
                "Frequency": 5.9,
                "RSSI": -73.87,
                "LOS": "True"
            }
        },
        {
            "type": "Feature",
            "geometry": {
                "type": "Point",
                "coordinates": [
                    11.57569675,
                    48.12910124
                ]
            },
            "properties": {
                "RSU coordinates": [
                    11.5762562,
                    48.1331974
                ],
                "Distance": 457.89,
                "Frequency": 5.9,
                "RSSI": -73.63,
                "LOS": "True"
            }
        },
        {
            "type": "Feature",
            "geometry": {
                "type": "Point",
                "coordinates": [
                    11.57849414,
                    48.13233505
                ]
            },
            "properties": {
                "RSU coordinates": [
                    11.5762562,
                    48.1331974
                ],
                "Distance": 192.0,
                "Frequency": 5.9,
                "RSSI": -66.18,
                "LOS": "True"
            }
        },
        {
            "type": "Feature",
            "geometry": {
                "type": "Point",
                "coordinates": [
                    11.58007949,
                    48.13416754
                ]
            },
            "properties": {
                "RSU coordinates": [
                    11.5762562,
                    48.1331974
                ],
                "Distance": 303.89,
                "Frequency": 5.9,
                "RSSI": -85.12,
                "LOS": "False"
            }
        },
        {
            "type": "Feature",
            "geometry": {
                "type": "Point",
                "coordinates": [
                    11.57560351,
                    48.12877786
                ]
            },
            "properties": {
                "RSU coordinates": [
                    11.5762562,
                    48.1331974
                ],
                "Distance": 494.38,
                "Frequency": 5.9,
                "RSSI": -74.29,
                "LOS": "True"
            }
        },
        {
            "type": "Feature",
            "geometry": {
                "type": "Point",
                "coordinates": [
                    11.57569675,
                    48.12888566
                ]
            },
            "properties": {
                "RSU coordinates": [
                    11.5762562,
                    48.1331974
                ],
                "Distance": 481.8,
                "Frequency": 5.9,
                "RSSI": -74.07,
                "LOS": "True"
            }
        },
        {
            "type": "Feature",
            "geometry": {
                "type": "Point",
                "coordinates": [
                    11.57868064,
                    48.13233505
                ]
            },
            "properties": {
                "RSU coordinates": [
                    11.5762562,
                    48.1331974
                ],
                "Distance": 204.12,
                "Frequency": 5.9,
                "RSSI": -66.7,
                "LOS": "True"
            }
        },
        {
            "type": "Feature",
            "geometry": {
                "type": "Point",
                "coordinates": [
                    11.57877388,
                    48.13222726
                ]
            },
            "properties": {
                "RSU coordinates": [
                    11.5762562,
                    48.1331974
                ],
                "Distance": 216.0,
                "Frequency": 5.9,
                "RSSI": -67.19,
                "LOS": "True"
            }
        },
        {
            "type": "Feature",
            "geometry": {
                "type": "Point",
                "coordinates": [
                    11.57896038,
                    48.13222726
                ]
            },
            "properties": {
                "RSU coordinates": [
                    11.5762562,
                    48.1331974
                ],
                "Distance": 228.11,
                "Frequency": 5.9,
                "RSSI": -67.66,
                "LOS": "True"
            }
        },
        {
            "type": "Feature",
            "geometry": {
                "type": "Point",
                "coordinates": [
                    11.57905362,
                    48.13211946
                ]
            },
            "properties": {
                "RSU coordinates": [
                    11.5762562,
                    48.1331974
                ],
                "Distance": 240.0,
                "Frequency": 5.9,
                "RSSI": -68.09,
                "LOS": "True"
            }
        },
        {
            "type": "Feature",
            "geometry": {
                "type": "Point",
                "coordinates": [
                    11.57924011,
                    48.13211946
                ]
            },
            "properties": {
                "RSU coordinates": [
                    11.5762562,
                    48.1331974
                ],
                "Distance": 252.1,
                "Frequency": 5.9,
                "RSSI": -68.51,
                "LOS": "True"
            }
        },
        {
            "type": "Feature",
            "geometry": {
                "type": "Point",
                "coordinates": [
                    11.57933335,
                    48.13201167
                ]
            },
            "properties": {
                "RSU coordinates": [
                    11.5762562,
                    48.1331974
                ],
                "Distance": 264.0,
                "Frequency": 5.9,
                "RSSI": -68.91,
                "LOS": "True"
            }
        },
        {
            "type": "Feature",
            "geometry": {
                "type": "Point",
                "coordinates": [
                    11.57951985,
                    48.13201167
                ]
            },
            "properties": {
                "RSU coordinates": [
                    11.5762562,
                    48.1331974
                ],
                "Distance": 276.09,
                "Frequency": 5.9,
                "RSSI": -69.29,
                "LOS": "True"
            }
        },
        {
            "type": "Feature",
            "geometry": {
                "type": "Point",
                "coordinates": [
                    11.57961309,
                    48.13190388
                ]
            },
            "properties": {
                "RSU coordinates": [
                    11.5762562,
                    48.1331974
                ],
                "Distance": 288.0,
                "Frequency": 5.9,
                "RSSI": -69.66,
                "LOS": "True"
            }
        },
        {
            "type": "Feature",
            "geometry": {
                "type": "Point",
                "coordinates": [
                    11.57979958,
                    48.13190388
                ]
            },
            "properties": {
                "RSU coordinates": [
                    11.5762562,
                    48.1331974
                ],
                "Distance": 300.08,
                "Frequency": 5.9,
                "RSSI": -70.01,
                "LOS": "True"
            }
        },
        {
            "type": "Feature",
            "geometry": {
                "type": "Point",
                "coordinates": [
                    11.58007931,
                    48.13179608
                ]
            },
            "properties": {
                "RSU coordinates": [
                    11.5762562,
                    48.1331974
                ],
                "Distance": 324.07,
                "Frequency": 5.9,
                "RSSI": -85.67,
                "LOS": "False"
            }
        },
        {
            "type": "Feature",
            "geometry": {
                "type": "Point",
                "coordinates": [
                    11.58017255,
                    48.13168829
                ]
            },
            "properties": {
                "RSU coordinates": [
                    11.5762562,
                    48.1331974
                ],
                "Distance": 336.0,
                "Frequency": 5.9,
                "RSSI": -85.98,
                "LOS": "False"
            }
        },
        {
            "type": "Feature",
            "geometry": {
                "type": "Point",
                "coordinates": [
                    11.58166445,
                    48.13125712
                ]
            },
            "properties": {
                "RSU coordinates": [
                    11.5762562,
                    48.1331974
                ],
                "Distance": 456.21,
                "Frequency": 5.9,
                "RSSI": -88.6,
                "LOS": "False"
            }
        },
        {
            "type": "Feature",
            "geometry": {
                "type": "Point",
                "coordinates": [
                    11.58194418,
                    48.13114932
                ]
            },
            "properties": {
                "RSU coordinates": [
                    11.5762562,
                    48.1331974
                ],
                "Distance": 480.2,
                "Frequency": 5.9,
                "RSSI": -89.04,
                "LOS": "False"
            }
        }
    ]
}