{
    "type": "FeatureCollection",
    "features": [
        {
            "type": "Feature",
            "geometry": {
                "type": "Point",
                "coordinates": [
                    9.68023976,
                    50.55498769
                ]
            },
            "properties": {
                "RSU coordinates": [
                    9.6847457,
                    50.5515383
                ],
                "Distance": 499.02,
                "Frequency": 5.9,
                "RSSI": -74.37,
                "LOS": "True"
            }
        },
        {
            "type": "Feature",
            "geometry": {
                "type": "Point",
                "coordinates": [
                    9.68033772,
                    50.5548799
                ]
            },
            "properties": {
                "RSU coordinates": [
                    9.6847457,
                    50.5515383
                ],
                "Distance": 485.37,
                "Frequency": 5.9,
                "RSSI": -74.13,
                "LOS": "True"
            }
        },
        {
            "type": "Feature",
            "geometry": {
                "type": "Point",
                "coordinates": [
                    9.68043567,
                    50.55498769
                ]
            },
            "properties": {
                "RSU coordinates": [
                    9.6847457,
                    50.5515383
                ],
                "Distance": 490.29,
                "Frequency": 5.9,
                "RSSI": -74.22,
                "LOS": "True"
            }
        },
        {
            "type": "Feature",
            "geometry": {
                "type": "Point",
                "coordinates": [
                    9.68043569,
                    50.55477211
                ]
            },
            "properties": {
                "RSU coordinates": [
                    9.6847457,
                    50.5515383
                ],
                "Distance": 471.73,
                "Frequency": 5.9,
                "RSSI": -73.89,
                "LOS": "True"
            }
        },
        {
            "type": "Feature",
            "geometry": {
                "type": "Point",
                "coordinates": [
                    9.68053363,
                    50.5548799
                ]
            },
            "properties": {
                "RSU coordinates": [
                    9.6847457,
                    50.5515383
                ],
                "Distance": 476.59,
                "Frequency": 5.9,
                "RSSI": -73.98,
                "LOS": "True"
            }
        },
        {
            "type": "Feature",
            "geometry": {
                "type": "Point",
                "coordinates": [
                    9.6806316,
                    50.55477211
                ]
            },
            "properties": {
                "RSU coordinates": [
                    9.6847457,
                    50.5515383
                ],
                "Distance": 462.9,
                "Frequency": 5.9,
                "RSSI": -73.73,
                "LOS": "True"
            }
        },
        {
            "type": "Feature",
            "geometry": {
                "type": "Point",
                "coordinates": [
                    9.68072956,
                    50.55466431
                ]
            },
            "properties": {
                "RSU coordinates": [
                    9.6847457,
                    50.5515383
                ],
                "Distance": 449.21,
                "Frequency": 5.9,
                "RSSI": -73.47,
                "LOS": "True"
            }
        },
        {
            "type": "Feature",
            "geometry": {
                "type": "Point",
                "coordinates": [
                    9.68082752,
                    50.55455652
                ]
            },
            "properties": {
                "RSU coordinates": [
                    9.6847457,
                    50.5515383
                ],
                "Distance": 435.54,
                "Frequency": 5.9,
                "RSSI": -73.2,
                "LOS": "True"
            }
        },
        {
            "type": "Feature",
            "geometry": {
                "type": "Point",
                "coordinates": [
                    9.68092549,
                    50.55444873
                ]
            },
            "properties": {
                "RSU coordinates": [
                    9.6847457,
                    50.5515383
                ],
                "Distance": 421.88,
                "Frequency": 5.9,
                "RSSI": -72.93,
                "LOS": "True"
            }
        },
        {
            "type": "Feature",
            "geometry": {
                "type": "Point",
                "coordinates": [
                    9.68102343,
                    50.55455652
                ]
            },
            "properties": {
                "RSU coordinates": [
                    9.6847457,
                    50.5515383
                ],
                "Distance": 426.86,
                "Frequency": 5.9,
                "RSSI": -73.03,
                "LOS": "True"
            }
        },
        {
            "type": "Feature",
            "geometry": {
                "type": "Point",
                "coordinates": [
                    9.68102345,
                    50.55434093
                ]
            },
            "properties": {
                "RSU coordinates": [
                    9.6847457,
                    50.5515383
                ],
                "Distance": 408.24,
                "Frequency": 5.9,
                "RSSI": -72.65,
                "LOS": "True"
            }
        },
        {
            "type": "Feature",
            "geometry": {
                "type": "Point",
                "coordinates": [
                    9.6811214,
                    50.55444873
                ]
            },
            "properties": {
                "RSU coordinates": [
                    9.6847457,
                    50.5515383
                ],
                "Distance": 413.14,
                "Frequency": 5.9,
                "RSSI": -72.75,
                "LOS": "True"
            }
        },
        {
            "type": "Feature",
            "geometry": {
                "type": "Point",
                "coordinates": [
                    9.68121936,
                    50.55434093
                ]
            },
            "properties": {
                "RSU coordinates": [
                    9.6847457,
                    50.5515383
                ],
                "Distance": 399.44,
                "Frequency": 5.9,
                "RSSI": -72.46,
                "LOS": "True"
            }
        },
        {
            "type": "Feature",
            "geometry": {
                "type": "Point",
                "coordinates": [
                    9.68131732,
                    50.55423314
                ]
            },
            "properties": {
                "RSU coordinates": [
                    9.6847457,
                    50.5515383
                ],
                "Distance": 385.75,
                "Frequency": 5.9,
                "RSSI": -72.16,
                "LOS": "True"
            }
        },
        {
            "type": "Feature",
            "geometry": {
                "type": "Point",
                "coordinates": [
                    9.68141528,
                    50.55412535
                ]
            },
            "properties": {
                "RSU coordinates": [
                    9.6847457,
                    50.5515383
                ],
                "Distance": 372.06,
                "Frequency": 5.9,
                "RSSI": -71.85,
                "LOS": "True"
            }
        },
        {
            "type": "Feature",
            "geometry": {
                "type": "Point",
                "coordinates": [
                    9.68151324,
                    50.55401755
                ]
            },
            "properties": {
                "RSU coordinates": [
                    9.6847457,
                    50.5515383
                ],
                "Distance": 358.4,
                "Frequency": 5.9,
                "RSSI": -71.53,
                "LOS": "True"
            }
        },
        {
            "type": "Feature",
            "geometry": {
                "type": "Point",
                "coordinates": [
                    9.6816112,
                    50.55390976
                ]
            },
            "properties": {
                "RSU coordinates": [
                    9.6847457,
                    50.5515383
                ],
                "Distance": 344.74,
                "Frequency": 5.9,
                "RSSI": -71.2,
                "LOS": "True"
            }
        },
        {
            "type": "Feature",
            "geometry": {
                "type": "Point",
                "coordinates": [
                    9.68170915,
                    50.55401755
                ]
            },
            "properties": {
                "RSU coordinates": [
                    9.6847457,
                    50.5515383
                ],
                "Distance": 349.72,
                "Frequency": 5.9,
                "RSSI": -71.32,
                "LOS": "True"
            }
        },
        {
            "type": "Feature",
            "geometry": {
                "type": "Point",
                "coordinates": [
                    9.68170916,
                    50.55380197
                ]
            },
            "properties": {
                "RSU coordinates": [
                    9.6847457,
                    50.5515383
                ],
                "Distance": 331.11,
                "Frequency": 5.9,
                "RSSI": -70.85,
                "LOS": "True"
            }
        },
        {
            "type": "Feature",
            "geometry": {
                "type": "Point",
                "coordinates": [
                    9.68180711,
                    50.55390976
                ]
            },
            "properties": {
                "RSU coordinates": [
                    9.6847457,
                    50.5515383
                ],
                "Distance": 336.0,
                "Frequency": 5.9,
                "RSSI": -70.98,
                "LOS": "True"
            }
        },
        {
            "type": "Feature",
            "geometry": {
                "type": "Point",
                "coordinates": [
                    9.68180712,
                    50.55369417
                ]
            },
            "properties": {
                "RSU coordinates": [
                    9.6847457,
                    50.5515383
                ],
                "Distance": 317.49,
                "Frequency": 5.9,
                "RSSI": -70.49,
                "LOS": "True"
            }
        },
        {
            "type": "Feature",
            "geometry": {
                "type": "Point",
                "coordinates": [
                    9.68190507,
                    50.55380197
                ]
            },
            "properties": {
                "RSU coordinates": [
                    9.6847457,
                    50.5515383
                ],
                "Distance": 322.29,
                "Frequency": 5.9,
                "RSSI": -70.62,
                "LOS": "True"
            }
        },
        {
            "type": "Feature",
            "geometry": {
                "type": "Point",
                "coordinates": [
                    9.68200303,
                    50.55369417
                ]
            },
            "properties": {
                "RSU coordinates": [
                    9.6847457,
                    50.5515383
                ],
                "Distance": 308.6,
                "Frequency": 5.9,
                "RSSI": -70.25,
                "LOS": "True"
            }
        },
        {
            "type": "Feature",
            "geometry": {
                "type": "Point",
                "coordinates": [
                    9.68210099,
                    50.55358638
                ]
            },
            "properties": {
                "RSU coordinates": [
                    9.6847457,
                    50.5515383
                ],
                "Distance": 294.92,
                "Frequency": 5.9,
                "RSSI": -69.86,
                "LOS": "True"
            }
        },
        {
            "type": "Feature",
            "geometry": {
                "type": "Point",
                "coordinates": [
                    9.68219894,
                    50.55347858
                ]
            },
            "properties": {
                "RSU coordinates": [
                    9.6847457,
                    50.5515383
                ],
                "Distance": 281.25,
                "Frequency": 5.9,
                "RSSI": -69.45,
                "LOS": "True"
            }
        },
        {
            "type": "Feature",
            "geometry": {
                "type": "Point",
                "coordinates": [
                    9.6822969,
                    50.55337079
                ]
            },
            "properties": {
                "RSU coordinates": [
                    9.6847457,
                    50.5515383
                ],
                "Distance": 267.61,
                "Frequency": 5.9,
                "RSSI": -69.03,
                "LOS": "True"
            }
        },
        {
            "type": "Feature",
            "geometry": {
                "type": "Point",
                "coordinates": [
                    9.68239485,
                    50.55347858
                ]
            },
            "properties": {
                "RSU coordinates": [
                    9.6847457,
                    50.5515383
                ],
                "Distance": 272.59,
                "Frequency": 5.9,
                "RSSI": -69.18,
                "LOS": "True"
            }
        },
        {
            "type": "Feature",
            "geometry": {
                "type": "Point",
                "coordinates": [
                    9.68239486,
                    50.553263
                ]
            },
            "properties": {
                "RSU coordinates": [
                    9.6847457,
                    50.5515383
                ],
                "Distance": 253.99,
                "Frequency": 5.9,
                "RSSI": -68.58,
                "LOS": "True"
            }
        },
        {
            "type": "Feature",
            "geometry": {
                "type": "Point",
                "coordinates": [
                    9.68249281,
                    50.55337079
                ]
            },
            "properties": {
                "RSU coordinates": [
                    9.6847457,
                    50.5515383
                ],
                "Distance": 258.86,
                "Frequency": 5.9,
                "RSSI": -68.74,
                "LOS": "True"
            }
        },
        {
            "type": "Feature",
            "geometry": {
                "type": "Point",
                "coordinates": [
                    9.68249282,
                    50.5531552
                ]
            },
            "properties": {
                "RSU coordinates": [
                    9.6847457,
                    50.5515383
                ],
                "Distance": 240.4,
                "Frequency": 5.9,
                "RSSI": -68.11,
                "LOS": "True"
            }
        },
        {
            "type": "Feature",
            "geometry": {
                "type": "Point",
                "coordinates": [
                    9.68259076,
                    50.553263
                ]
            },
            "properties": {
                "RSU coordinates": [
                    9.6847457,
                    50.5515383
                ],
                "Distance": 245.14,
                "Frequency": 5.9,
                "RSSI": -68.27,
                "LOS": "True"
            }
        },
        {
            "type": "Feature",
            "geometry": {
                "type": "Point",
                "coordinates": [
                    9.68268872,
                    50.5531552
                ]
            },
            "properties": {
                "RSU coordinates": [
                    9.6847457,
                    50.5515383
                ],
                "Distance": 231.45,
                "Frequency": 5.9,
                "RSSI": -67.78,
                "LOS": "True"
            }
        },
        {
            "type": "Feature",
            "geometry": {
                "type": "Point",
                "coordinates": [
                    9.68278667,
                    50.55304741
                ]
            },
            "properties": {
                "RSU coordinates": [
                    9.6847457,
                    50.5515383
                ],
                "Distance": 217.77,
                "Frequency": 5.9,
                "RSSI": -67.26,
                "LOS": "True"
            }
        },
        {
            "type": "Feature",
            "geometry": {
                "type": "Point",
                "coordinates": [
                    9.68288463,
                    50.55293962
                ]
            },
            "properties": {
                "RSU coordinates": [
                    9.6847457,
                    50.5515383
                ],
                "Distance": 204.12,
                "Frequency": 5.9,
                "RSSI": -66.7,
                "LOS": "True"
            }
        },
        {
            "type": "Feature",
            "geometry": {
                "type": "Point",
                "coordinates": [
                    9.68298259,
                    50.55283182
                ]
            },
            "properties": {
                "RSU coordinates": [
                    9.6847457,
                    50.5515383
                ],
                "Distance": 190.49,
                "Frequency": 5.9,
                "RSSI": -66.11,
                "LOS": "True"
            }
        },
        {
            "type": "Feature",
            "geometry": {
                "type": "Point",
                "coordinates": [
                    9.68308053,
                    50.55293962
                ]
            },
            "properties": {
                "RSU coordinates": [
                    9.6847457,
                    50.5515383
                ],
                "Distance": 195.47,
                "Frequency": 5.9,
                "RSSI": -81.33,
                "LOS": "False"
            }
        },
        {
            "type": "Feature",
            "geometry": {
                "type": "Point",
                "coordinates": [
                    9.68308054,
                    50.55272403
                ]
            },
            "properties": {
                "RSU coordinates": [
                    9.6847457,
                    50.5515383
                ],
                "Distance": 176.91,
                "Frequency": 5.9,
                "RSSI": -65.48,
                "LOS": "True"
            }
        },
        {
            "type": "Feature",
            "geometry": {
                "type": "Point",
                "coordinates": [
                    9.68317849,
                    50.55283182
                ]
            },
            "properties": {
                "RSU coordinates": [
                    9.6847457,
                    50.5515383
                ],
                "Distance": 181.73,
                "Frequency": 5.9,
                "RSSI": -65.71,
                "LOS": "True"
            }
        },
        {
            "type": "Feature",
            "geometry": {
                "type": "Point",
                "coordinates": [
                    9.68317849,
                    50.55261624
                ]
            },
            "properties": {
                "RSU coordinates": [
                    9.6847457,
                    50.5515383
                ],
                "Distance": 163.36,
                "Frequency": 5.9,
                "RSSI": -64.79,
                "LOS": "True"
            }
        },
        {
            "type": "Feature",
            "geometry": {
                "type": "Point",
                "coordinates": [
                    9.68327644,
                    50.55272403
                ]
            },
            "properties": {
                "RSU coordinates": [
                    9.6847457,
                    50.5515383
                ],
                "Distance": 168.0,
                "Frequency": 5.9,
                "RSSI": -65.03,
                "LOS": "True"
            }
        },
        {
            "type": "Feature",
            "geometry": {
                "type": "Point",
                "coordinates": [
                    9.68249289,
                    50.55164609
                ]
            },
            "properties": {
                "RSU coordinates": [
                    9.6847457,
                    50.5515383
                ],
                "Distance": 159.8,
                "Frequency": 5.9,
                "RSSI": -94.6,
                "LOS": "False"
            }
        },
        {
            "type": "Feature",
            "geometry": {
                "type": "Point",
                "coordinates": [
                    9.68337439,
                    50.55261624
                ]
            },
            "properties": {
                "RSU coordinates": [
                    9.6847457,
                    50.5515383
                ],
                "Distance": 154.3,
                "Frequency": 5.9,
                "RSSI": -64.3,
                "LOS": "True"
            }
        },
        {
            "type": "Feature",
            "geometry": {
                "type": "Point",
                "coordinates": [
                    9.68268878,
                    50.55164609
                ]
            },
            "properties": {
                "RSU coordinates": [
                    9.6847457,
                    50.5515383
                ],
                "Distance": 145.99,
                "Frequency": 5.9,
                "RSSI": -93.83,
                "LOS": "False"
            }
        },
        {
            "type": "Feature",
            "geometry": {
                "type": "Point",
                "coordinates": [
                    9.68347235,
                    50.55250844
                ]
            },
            "properties": {
                "RSU coordinates": [
                    9.6847457,
                    50.5515383
                ],
                "Distance": 140.63,
                "Frequency": 5.9,
                "RSSI": -63.51,
                "LOS": "True"
            }
        },
        {
            "type": "Feature",
            "geometry": {
                "type": "Point",
                "coordinates": [
                    9.6835703,
                    50.55261624
                ]
            },
            "properties": {
                "RSU coordinates": [
                    9.6847457,
                    50.5515383
                ],
                "Distance": 145.99,
                "Frequency": 5.9,
                "RSSI": -78.83,
                "LOS": "False"
            }
        },
        {
            "type": "Feature",
            "geometry": {
                "type": "Point",
                "coordinates": [
                    9.6835703,
                    50.55240065
                ]
            },
            "properties": {
                "RSU coordinates": [
                    9.6847457,
                    50.5515383
                ],
                "Distance": 127.0,
                "Frequency": 5.9,
                "RSSI": -62.63,
                "LOS": "True"
            }
        },
        {
            "type": "Feature",
            "geometry": {
                "type": "Point",
                "coordinates": [
                    9.68366825,
                    50.55229286
                ]
            },
            "properties": {
                "RSU coordinates": [
                    9.6847457,
                    50.5515383
                ],
                "Distance": 113.42,
                "Frequency": 5.9,
                "RSSI": -61.66,
                "LOS": "True"
            }
        },
        {
            "type": "Feature",
            "geometry": {
                "type": "Point",
                "coordinates": [
                    9.6837662,
                    50.55240065
                ]
            },
            "properties": {
                "RSU coordinates": [
                    9.6847457,
                    50.5515383
                ],
                "Distance": 118.39,
                "Frequency": 5.9,
                "RSSI": -62.03,
                "LOS": "True"
            }
        },
        {
            "type": "Feature",
            "geometry": {
                "type": "Point",
                "coordinates": [
                    9.68317853,
                    50.5515383
                ]
            },
            "properties": {
                "RSU coordinates": [
                    9.6847457,
                    50.5515383
                ],
                "Distance": 110.85,
                "Frequency": 5.9,
                "RSSI": -91.47,
                "LOS": "False"
            }
        },
        {
            "type": "Feature",
            "geometry": {
                "type": "Point",
                "coordinates": [
                    9.68376621,
                    50.55218506
                ]
            },
            "properties": {
                "RSU coordinates": [
                    9.6847457,
                    50.5515383
                ],
                "Distance": 99.92,
                "Frequency": 5.9,
                "RSSI": -60.58,
                "LOS": "True"
            }
        },
        {
            "type": "Feature",
            "geometry": {
                "type": "Point",
                "coordinates": [
                    9.68386415,
                    50.55229286
                ]
            },
            "properties": {
                "RSU coordinates": [
                    9.6847457,
                    50.5515383
                ],
                "Distance": 104.61,
                "Frequency": 5.9,
                "RSSI": -60.97,
                "LOS": "True"
            }
        },
        {
            "type": "Feature",
            "geometry": {
                "type": "Point",
                "coordinates": [
                    9.68337443,
                    50.5515383
                ]
            },
            "properties": {
                "RSU coordinates": [
                    9.6847457,
                    50.5515383
                ],
                "Distance": 96.99,
                "Frequency": 5.9,
                "RSSI": -90.32,
                "LOS": "False"
            }
        },
        {
            "type": "Feature",
            "geometry": {
                "type": "Point",
                "coordinates": [
                    9.68386416,
                    50.55207727
                ]
            },
            "properties": {
                "RSU coordinates": [
                    9.6847457,
                    50.5515383
                ],
                "Distance": 86.53,
                "Frequency": 5.9,
                "RSSI": -59.34,
                "LOS": "True"
            }
        },
        {
            "type": "Feature",
            "geometry": {
                "type": "Point",
                "coordinates": [
                    9.6839621,
                    50.55218506
                ]
            },
            "properties": {
                "RSU coordinates": [
                    9.6847457,
                    50.5515383
                ],
                "Distance": 90.86,
                "Frequency": 5.9,
                "RSSI": -59.76,
                "LOS": "True"
            }
        },
        {
            "type": "Feature",
            "geometry": {
                "type": "Point",
                "coordinates": [
                    9.68357032,
                    50.5515383
                ]
            },
            "properties": {
                "RSU coordinates": [
                    9.6847457,
                    50.5515383
                ],
                "Distance": 83.14,
                "Frequency": 5.9,
                "RSSI": -89.0,
                "LOS": "False"
            }
        },
        {
            "type": "Feature",
            "geometry": {
                "type": "Point",
                "coordinates": [
                    9.68406006,
                    50.55207727
                ]
            },
            "properties": {
                "RSU coordinates": [
                    9.6847457,
                    50.5515383
                ],
                "Distance": 77.15,
                "Frequency": 5.9,
                "RSSI": -58.36,
                "LOS": "True"
            }
        },
        {
            "type": "Feature",
            "geometry": {
                "type": "Point",
                "coordinates": [
                    9.68376622,
                    50.5515383
                ]
            },
            "properties": {
                "RSU coordinates": [
                    9.6847457,
                    50.5515383
                ],
                "Distance": 69.28,
                "Frequency": 5.9,
                "RSSI": -72.44,
                "LOS": "False"
            }
        },
        {
            "type": "Feature",
            "geometry": {
                "type": "Point",
                "coordinates": [
                    9.68415801,
                    50.55196947
                ]
            },
            "properties": {
                "RSU coordinates": [
                    9.6847457,
                    50.5515383
                ],
                "Distance": 63.5,
                "Frequency": 5.9,
                "RSSI": -56.69,
                "LOS": "True"
            }
        },
        {
            "type": "Feature",
            "geometry": {
                "type": "Point",
                "coordinates": [
                    9.68308062,
                    50.55056816
                ]
            },
            "properties": {
                "RSU coordinates": [
                    9.6847457,
                    50.5515383
                ],
                "Distance": 159.8,
                "Frequency": 5.9,
                "RSSI": -79.6,
                "LOS": "False"
            }
        },
        {
            "type": "Feature",
            "geometry": {
                "type": "Point",
                "coordinates": [
                    9.6832765,
                    50.55078374
                ]
            },
            "properties": {
                "RSU coordinates": [
                    9.6847457,
                    50.5515383
                ],
                "Distance": 133.63,
                "Frequency": 5.9,
                "RSSI": -63.07,
                "LOS": "True"
            }
        },
        {
            "type": "Feature",
            "geometry": {
                "type": "Point",
                "coordinates": [
                    9.68337445,
                    50.55089154
                ]
            },
            "properties": {
                "RSU coordinates": [
                    9.6847457,
                    50.5515383
                ],
                "Distance": 120.8,
                "Frequency": 5.9,
                "RSSI": -92.2,
                "LOS": "False"
            }
        },
        {
            "type": "Feature",
            "geometry": {
                "type": "Point",
                "coordinates": [
                    9.68396211,
                    50.5515383
                ]
            },
            "properties": {
                "RSU coordinates": [
                    9.6847457,
                    50.5515383
                ],
                "Distance": 55.43,
                "Frequency": 5.9,
                "RSSI": -70.52000000000001,
                "LOS": "False"
            }
        },
        {
            "type": "Feature",
            "geometry": {
                "type": "Point",
                "coordinates": [
                    9.68406006,
                    50.55164609
                ]
            },
            "properties": {
                "RSU coordinates": [
                    9.6847457,
                    50.5515383
                ],
                "Distance": 49.96,
                "Frequency": 5.9,
                "RSSI": -99.63,
                "LOS": "False"
            }
        },
        {
            "type": "Feature",
            "geometry": {
                "type": "Point",
                "coordinates": [
                    9.68425596,
                    50.55186168
                ]
            },
            "properties": {
                "RSU coordinates": [
                    9.6847457,
                    50.5515383
                ],
                "Distance": 49.96,
                "Frequency": 5.9,
                "RSSI": -54.63,
                "LOS": "True"
            }
        },
        {
            "type": "Feature",
            "geometry": {
                "type": "Point",
                "coordinates": [
                    9.6847457,
                    50.55240065
                ]
            },
            "properties": {
                "RSU coordinates": [
                    9.6847457,
                    50.5515383
                ],
                "Distance": 96.0,
                "Frequency": 5.9,
                "RSSI": -90.22999999999999,
                "LOS": "False"
            }
        },
        {
            "type": "Feature",
            "geometry": {
                "type": "Point",
                "coordinates": [
                    9.68347239,
                    50.55078374
                ]
            },
            "properties": {
                "RSU coordinates": [
                    9.6847457,
                    50.5515383
                ],
                "Distance": 123.16,
                "Frequency": 5.9,
                "RSSI": -62.37,
                "LOS": "True"
            }
        },
        {
            "type": "Feature",
            "geometry": {
                "type": "Point",
                "coordinates": [
                    9.68357034,
                    50.55089154
                ]
            },
            "properties": {
                "RSU coordinates": [
                    9.6847457,
                    50.5515383
                ],
                "Distance": 109.98,
                "Frequency": 5.9,
                "RSSI": -61.4,
                "LOS": "True"
            }
        },
        {
            "type": "Feature",
            "geometry": {
                "type": "Point",
                "coordinates": [
                    9.68366828,
                    50.55099933
                ]
            },
            "properties": {
                "RSU coordinates": [
                    9.6847457,
                    50.5515383
                ],
                "Distance": 96.99,
                "Frequency": 5.9,
                "RSSI": -60.32,
                "LOS": "True"
            }
        },
        {
            "type": "Feature",
            "geometry": {
                "type": "Point",
                "coordinates": [
                    9.68415801,
                    50.5515383
                ]
            },
            "properties": {
                "RSU coordinates": [
                    9.6847457,
                    50.5515383
                ],
                "Distance": 41.57,
                "Frequency": 5.9,
                "RSSI": -68.06,
                "LOS": "False"
            }
        },
        {
            "type": "Feature",
            "geometry": {
                "type": "Point",
                "coordinates": [
                    9.68435391,
                    50.55175389
                ]
            },
            "properties": {
                "RSU coordinates": [
                    9.6847457,
                    50.5515383
                ],
                "Distance": 36.66,
                "Frequency": 5.9,
                "RSSI": -51.98,
                "LOS": "True"
            }
        },
        {
            "type": "Feature",
            "geometry": {
                "type": "Point",
                "coordinates": [
                    9.68445185,
                    50.55186168
                ]
            },
            "properties": {
                "RSU coordinates": [
                    9.6847457,
                    50.5515383
                ],
                "Distance": 41.57,
                "Frequency": 5.9,
                "RSSI": -53.06,
                "LOS": "True"
            }
        },
        {
            "type": "Feature",
            "geometry": {
                "type": "Point",
                "coordinates": [
                    9.68464775,
                    50.55207727
                ]
            },
            "properties": {
                "RSU coordinates": [
                    9.6847457,
                    50.5515383
                ],
                "Distance": 60.4,
                "Frequency": 5.9,
                "RSSI": -86.25999999999999,
                "LOS": "False"
            }
        },
        {
            "type": "Feature",
            "geometry": {
                "type": "Point",
                "coordinates": [
                    9.6847457,
                    50.55218506
                ]
            },
            "properties": {
                "RSU coordinates": [
                    9.6847457,
                    50.5515383
                ],
                "Distance": 72.0,
                "Frequency": 5.9,
                "RSSI": -72.77000000000001,
                "LOS": "False"
            }
        },
        {
            "type": "Feature",
            "geometry": {
                "type": "Point",
                "coordinates": [
                    9.68484365,
                    50.55229286
                ]
            },
            "properties": {
                "RSU coordinates": [
                    9.6847457,
                    50.5515383
                ],
                "Distance": 84.29,
                "Frequency": 5.9,
                "RSSI": -74.12,
                "LOS": "False"
            }
        },
        {
            "type": "Feature",
            "geometry": {
                "type": "Point",
                "coordinates": [
                    9.68386418,
                    50.55099933
                ]
            },
            "properties": {
                "RSU coordinates": [
                    9.6847457,
                    50.5515383
                ],
                "Distance": 86.53,
                "Frequency": 5.9,
                "RSSI": -59.34,
                "LOS": "True"
            }
        },
        {
            "type": "Feature",
            "geometry": {
                "type": "Point",
                "coordinates": [
                    9.68396212,
                    50.55110713
                ]
            },
            "properties": {
                "RSU coordinates": [
                    9.6847457,
                    50.5515383
                ],
                "Distance": 73.32,
                "Frequency": 5.9,
                "RSSI": -57.92,
                "LOS": "True"
            }
        },
        {
            "type": "Feature",
            "geometry": {
                "type": "Point",
                "coordinates": [
                    9.68406007,
                    50.55121492
                ]
            },
            "properties": {
                "RSU coordinates": [
                    9.6847457,
                    50.5515383
                ],
                "Distance": 60.4,
                "Frequency": 5.9,
                "RSSI": -56.26,
                "LOS": "True"
            }
        },
        {
            "type": "Feature",
            "geometry": {
                "type": "Point",
                "coordinates": [
                    9.68445185,
                    50.55164609
                ]
            },
            "properties": {
                "RSU coordinates": [
                    9.6847457,
                    50.5515383
                ],
                "Distance": 24.0,
                "Frequency": 5.9,
                "RSSI": -48.34,
                "LOS": "True"
            }
        },
        {
            "type": "Feature",
            "geometry": {
                "type": "Point",
                "coordinates": [
                    9.6845498,
                    50.55175389
                ]
            },
            "properties": {
                "RSU coordinates": [
                    9.6847457,
                    50.5515383
                ],
                "Distance": 27.71,
                "Frequency": 5.9,
                "RSSI": -49.58,
                "LOS": "True"
            }
        },
        {
            "type": "Feature",
            "geometry": {
                "type": "Point",
                "coordinates": [
                    9.6847457,
                    50.55196947
                ]
            },
            "properties": {
                "RSU coordinates": [
                    9.6847457,
                    50.5515383
                ],
                "Distance": 48.0,
                "Frequency": 5.9,
                "RSSI": -69.28999999999999,
                "LOS": "False"
            }
        },
        {
            "type": "Feature",
            "geometry": {
                "type": "Point",
                "coordinates": [
                    9.68484365,
                    50.55207727
                ]
            },
            "properties": {
                "RSU coordinates": [
                    9.6847457,
                    50.5515383
                ],
                "Distance": 60.4,
                "Frequency": 5.9,
                "RSSI": -86.25999999999999,
                "LOS": "False"
            }
        },
        {
            "type": "Feature",
            "geometry": {
                "type": "Point",
                "coordinates": [
                    9.68435391,
                    50.55132271
                ]
            },
            "properties": {
                "RSU coordinates": [
                    9.6847457,
                    50.5515383
                ],
                "Distance": 36.66,
                "Frequency": 5.9,
                "RSSI": -51.98,
                "LOS": "True"
            }
        },
        {
            "type": "Feature",
            "geometry": {
                "type": "Point",
                "coordinates": [
                    9.68445186,
                    50.55143051
                ]
            },
            "properties": {
                "RSU coordinates": [
                    9.6847457,
                    50.5515383
                ],
                "Distance": 24.0,
                "Frequency": 5.9,
                "RSSI": -48.34,
                "LOS": "True"
            }
        },
        {
            "type": "Feature",
            "geometry": {
                "type": "Point",
                "coordinates": [
                    9.6845498,
                    50.5515383
                ]
            },
            "properties": {
                "RSU coordinates": [
                    9.6847457,
                    50.5515383
                ],
                "Distance": 13.86,
                "Frequency": 5.9,
                "RSSI": -43.63,
                "LOS": "True"
            }
        },
        {
            "type": "Feature",
            "geometry": {
                "type": "Point",
                "coordinates": [
                    9.68464775,
                    50.55164609
                ]
            },
            "properties": {
                "RSU coordinates": [
                    9.6847457,
                    50.5515383
                ],
                "Distance": 13.86,
                "Frequency": 5.9,
                "RSSI": -43.63,
                "LOS": "True"
            }
        },
        {
            "type": "Feature",
            "geometry": {
                "type": "Point",
                "coordinates": [
                    9.6849416,
                    50.55196947
                ]
            },
            "properties": {
                "RSU coordinates": [
                    9.6847457,
                    50.5515383
                ],
                "Distance": 49.96,
                "Frequency": 5.9,
                "RSSI": -84.63,
                "LOS": "False"
            }
        },
        {
            "type": "Feature",
            "geometry": {
                "type": "Point",
                "coordinates": [
                    9.6845498,
                    50.55132271
                ]
            },
            "properties": {
                "RSU coordinates": [
                    9.6847457,
                    50.5515383
                ],
                "Distance": 27.71,
                "Frequency": 5.9,
                "RSSI": -64.58,
                "LOS": "False"
            }
        },
        {
            "type": "Feature",
            "geometry": {
                "type": "Point",
                "coordinates": [
                    9.68484365,
                    50.55164609
                ]
            },
            "properties": {
                "RSU coordinates": [
                    9.6847457,
                    50.5515383
                ],
                "Distance": 13.86,
                "Frequency": 5.9,
                "RSSI": -43.63,
                "LOS": "True"
            }
        },
        {
            "type": "Feature",
            "geometry": {
                "type": "Point",
                "coordinates": [
                    9.68464775,
                    50.55121492
                ]
            },
            "properties": {
                "RSU coordinates": [
                    9.6847457,
                    50.5515383
                ],
                "Distance": 36.66,
                "Frequency": 5.9,
                "RSSI": -96.97999999999999,
                "LOS": "False"
            }
        },
        {
            "type": "Feature",
            "geometry": {
                "type": "Point",
                "coordinates": [
                    9.68484365,
                    50.55143051
                ]
            },
            "properties": {
                "RSU coordinates": [
                    9.6847457,
                    50.5515383
                ],
                "Distance": 13.86,
                "Frequency": 5.9,
                "RSSI": -43.63,
                "LOS": "True"
            }
        },
        {
            "type": "Feature",
            "geometry": {
                "type": "Point",
                "coordinates": [
                    9.68513749,
                    50.55175389
                ]
            },
            "properties": {
                "RSU coordinates": [
                    9.6847457,
                    50.5515383
                ],
                "Distance": 36.66,
                "Frequency": 5.9,
                "RSSI": -51.98,
                "LOS": "True"
            }
        },
        {
            "type": "Feature",
            "geometry": {
                "type": "Point",
                "coordinates": [
                    9.68523544,
                    50.55186168
                ]
            },
            "properties": {
                "RSU coordinates": [
                    9.6847457,
                    50.5515383
                ],
                "Distance": 49.96,
                "Frequency": 5.9,
                "RSSI": -54.63,
                "LOS": "True"
            }
        },
        {
            "type": "Feature",
            "geometry": {
                "type": "Point",
                "coordinates": [
                    9.68533339,
                    50.55196947
                ]
            },
            "properties": {
                "RSU coordinates": [
                    9.6847457,
                    50.5515383
                ],
                "Distance": 63.5,
                "Frequency": 5.9,
                "RSSI": -56.69,
                "LOS": "True"
            }
        },
        {
            "type": "Feature",
            "geometry": {
                "type": "Point",
                "coordinates": [
                    9.6847457,
                    50.55110713
                ]
            },
            "properties": {
                "RSU coordinates": [
                    9.6847457,
                    50.5515383
                ],
                "Distance": 48.0,
                "Frequency": 5.9,
                "RSSI": -84.28999999999999,
                "LOS": "False"
            }
        },
        {
            "type": "Feature",
            "geometry": {
                "type": "Point",
                "coordinates": [
                    9.6849416,
                    50.55132271
                ]
            },
            "properties": {
                "RSU coordinates": [
                    9.6847457,
                    50.5515383
                ],
                "Distance": 27.71,
                "Frequency": 5.9,
                "RSSI": -49.58,
                "LOS": "True"
            }
        },
        {
            "type": "Feature",
            "geometry": {
                "type": "Point",
                "coordinates": [
                    9.68503954,
                    50.55143051
                ]
            },
            "properties": {
                "RSU coordinates": [
                    9.6847457,
                    50.5515383
                ],
                "Distance": 24.0,
                "Frequency": 5.9,
                "RSSI": -48.34,
                "LOS": "True"
            }
        },
        {
            "type": "Feature",
            "geometry": {
                "type": "Point",
                "coordinates": [
                    9.68513749,
                    50.5515383
                ]
            },
            "properties": {
                "RSU coordinates": [
                    9.6847457,
                    50.5515383
                ],
                "Distance": 27.71,
                "Frequency": 5.9,
                "RSSI": -64.58,
                "LOS": "False"
            }
        },
        {
            "type": "Feature",
            "geometry": {
                "type": "Point",
                "coordinates": [
                    9.68523544,
                    50.55164609
                ]
            },
            "properties": {
                "RSU coordinates": [
                    9.6847457,
                    50.5515383
                ],
                "Distance": 36.66,
                "Frequency": 5.9,
                "RSSI": -81.97999999999999,
                "LOS": "False"
            }
        },
        {
            "type": "Feature",
            "geometry": {
                "type": "Point",
                "coordinates": [
                    9.68552929,
                    50.55196947
                ]
            },
            "properties": {
                "RSU coordinates": [
                    9.6847457,
                    50.5515383
                ],
                "Distance": 73.32,
                "Frequency": 5.9,
                "RSSI": -57.92,
                "LOS": "True"
            }
        },
        {
            "type": "Feature",
            "geometry": {
                "type": "Point",
                "coordinates": [
                    9.68562724,
                    50.55207727
                ]
            },
            "properties": {
                "RSU coordinates": [
                    9.6847457,
                    50.5515383
                ],
                "Distance": 86.53,
                "Frequency": 5.9,
                "RSSI": -59.34,
                "LOS": "True"
            }
        },
        {
            "type": "Feature",
            "geometry": {
                "type": "Point",
                "coordinates": [
                    9.68572519,
                    50.55218506
                ]
            },
            "properties": {
                "RSU coordinates": [
                    9.6847457,
                    50.5515383
                ],
                "Distance": 99.92,
                "Frequency": 5.9,
                "RSSI": -60.58,
                "LOS": "True"
            }
        },
        {
            "type": "Feature",
            "geometry": {
                "type": "Point",
                "coordinates": [
                    9.68484365,
                    50.55099933
                ]
            },
            "properties": {
                "RSU coordinates": [
                    9.6847457,
                    50.5515383
                ],
                "Distance": 60.4,
                "Frequency": 5.9,
                "RSSI": -86.25999999999999,
                "LOS": "False"
            }
        },
        {
            "type": "Feature",
            "geometry": {
                "type": "Point",
                "coordinates": [
                    9.68503954,
                    50.55121492
                ]
            },
            "properties": {
                "RSU coordinates": [
                    9.6847457,
                    50.5515383
                ],
                "Distance": 41.57,
                "Frequency": 5.9,
                "RSSI": -53.06,
                "LOS": "True"
            }
        },
        {
            "type": "Feature",
            "geometry": {
                "type": "Point",
                "coordinates": [
                    9.68513749,
                    50.55132271
                ]
            },
            "properties": {
                "RSU coordinates": [
                    9.6847457,
                    50.5515383
                ],
                "Distance": 36.66,
                "Frequency": 5.9,
                "RSSI": -51.98,
                "LOS": "True"
            }
        },
        {
            "type": "Feature",
            "geometry": {
                "type": "Point",
                "coordinates": [
                    9.68543134,
                    50.55164609
                ]
            },
            "properties": {
                "RSU coordinates": [
                    9.6847457,
                    50.5515383
                ],
                "Distance": 49.96,
                "Frequency": 5.9,
                "RSSI": -84.63,
                "LOS": "False"
            }
        },
        {
            "type": "Feature",
            "geometry": {
                "type": "Point",
                "coordinates": [
                    9.68582314,
                    50.55207727
                ]
            },
            "properties": {
                "RSU coordinates": [
                    9.6847457,
                    50.5515383
                ],
                "Distance": 96.99,
                "Frequency": 5.9,
                "RSSI": -90.32,
                "LOS": "False"
            }
        },
        {
            "type": "Feature",
            "geometry": {
                "type": "Point",
                "coordinates": [
                    9.68592109,
                    50.55218506
                ]
            },
            "properties": {
                "RSU coordinates": [
                    9.6847457,
                    50.5515383
                ],
                "Distance": 109.98,
                "Frequency": 5.9,
                "RSSI": -61.4,
                "LOS": "True"
            }
        },
        {
            "type": "Feature",
            "geometry": {
                "type": "Point",
                "coordinates": [
                    9.68601905,
                    50.55229286
                ]
            },
            "properties": {
                "RSU coordinates": [
                    9.6847457,
                    50.5515383
                ],
                "Distance": 123.16,
                "Frequency": 5.9,
                "RSSI": -62.37,
                "LOS": "True"
            }
        },
        {
            "type": "Feature",
            "geometry": {
                "type": "Point",
                "coordinates": [
                    9.686117,
                    50.55240065
                ]
            },
            "properties": {
                "RSU coordinates": [
                    9.6847457,
                    50.5515383
                ],
                "Distance": 136.47,
                "Frequency": 5.9,
                "RSSI": -78.25,
                "LOS": "False"
            }
        },
        {
            "type": "Feature",
            "geometry": {
                "type": "Point",
                "coordinates": [
                    9.68513749,
                    50.55110713
                ]
            },
            "properties": {
                "RSU coordinates": [
                    9.6847457,
                    50.5515383
                ],
                "Distance": 55.43,
                "Frequency": 5.9,
                "RSSI": -55.52,
                "LOS": "True"
            }
        },
        {
            "type": "Feature",
            "geometry": {
                "type": "Point",
                "coordinates": [
                    9.68523544,
                    50.55121492
                ]
            },
            "properties": {
                "RSU coordinates": [
                    9.6847457,
                    50.5515383
                ],
                "Distance": 49.96,
                "Frequency": 5.9,
                "RSSI": -54.63,
                "LOS": "True"
            }
        },
        {
            "type": "Feature",
            "geometry": {
                "type": "Point",
                "coordinates": [
                    9.68552929,
                    50.5515383
                ]
            },
            "properties": {
                "RSU coordinates": [
                    9.6847457,
                    50.5515383
                ],
                "Distance": 55.43,
                "Frequency": 5.9,
                "RSSI": -85.52000000000001,
                "LOS": "False"
            }
        },
        {
            "type": "Feature",
            "geometry": {
                "type": "Point",
                "coordinates": [
                    9.68621495,
                    50.55229286
                ]
            },
            "properties": {
                "RSU coordinates": [
                    9.6847457,
                    50.5515383
                ],
                "Distance": 133.63,
                "Frequency": 5.9,
                "RSSI": -63.07,
                "LOS": "True"
            }
        },
        {
            "type": "Feature",
            "geometry": {
                "type": "Point",
                "coordinates": [
                    9.6863129,
                    50.55240065
                ]
            },
            "properties": {
                "RSU coordinates": [
                    9.6847457,
                    50.5515383
                ],
                "Distance": 146.64,
                "Frequency": 5.9,
                "RSSI": -63.87,
                "LOS": "True"
            }
        },
        {
            "type": "Feature",
            "geometry": {
                "type": "Point",
                "coordinates": [
                    9.68513749,
                    50.55089154
                ]
            },
            "properties": {
                "RSU coordinates": [
                    9.6847457,
                    50.5515383
                ],
                "Distance": 77.15,
                "Frequency": 5.9,
                "RSSI": -88.36,
                "LOS": "False"
            }
        },
        {
            "type": "Feature",
            "geometry": {
                "type": "Point",
                "coordinates": [
                    9.68533338,
                    50.55110713
                ]
            },
            "properties": {
                "RSU coordinates": [
                    9.6847457,
                    50.5515383
                ],
                "Distance": 63.5,
                "Frequency": 5.9,
                "RSSI": -56.69,
                "LOS": "True"
            }
        },
        {
            "type": "Feature",
            "geometry": {
                "type": "Point",
                "coordinates": [
                    9.68572518,
                    50.5515383
                ]
            },
            "properties": {
                "RSU coordinates": [
                    9.6847457,
                    50.5515383
                ],
                "Distance": 69.28,
                "Frequency": 5.9,
                "RSSI": -87.44,
                "LOS": "False"
            }
        },
        {
            "type": "Feature",
            "geometry": {
                "type": "Point",
                "coordinates": [
                    9.68670471,
                    50.55261624
                ]
            },
            "properties": {
                "RSU coordinates": [
                    9.6847457,
                    50.5515383
                ],
                "Distance": 183.3,
                "Frequency": 5.9,
                "RSSI": -80.78,
                "LOS": "False"
            }
        },
        {
            "type": "Feature",
            "geometry": {
                "type": "Point",
                "coordinates": [
                    9.68680266,
                    50.55272403
                ]
            },
            "properties": {
                "RSU coordinates": [
                    9.6847457,
                    50.5515383
                ],
                "Distance": 196.45,
                "Frequency": 5.9,
                "RSSI": -81.37,
                "LOS": "False"
            }
        },
        {
            "type": "Feature",
            "geometry": {
                "type": "Point",
                "coordinates": [
                    9.68690062,
                    50.55283182
                ]
            },
            "properties": {
                "RSU coordinates": [
                    9.6847457,
                    50.5515383
                ],
                "Distance": 209.69,
                "Frequency": 5.9,
                "RSSI": -81.93,
                "LOS": "False"
            }
        },
        {
            "type": "Feature",
            "geometry": {
                "type": "Point",
                "coordinates": [
                    9.68699857,
                    50.55293962
                ]
            },
            "properties": {
                "RSU coordinates": [
                    9.6847457,
                    50.5515383
                ],
                "Distance": 223.0,
                "Frequency": 5.9,
                "RSSI": -97.46,
                "LOS": "False"
            }
        },
        {
            "type": "Feature",
            "geometry": {
                "type": "Point",
                "coordinates": [
                    9.68543133,
                    50.55099933
                ]
            },
            "properties": {
                "RSU coordinates": [
                    9.6847457,
                    50.5515383
                ],
                "Distance": 77.15,
                "Frequency": 5.9,
                "RSSI": -58.36,
                "LOS": "True"
            }
        },
        {
            "type": "Feature",
            "geometry": {
                "type": "Point",
                "coordinates": [
                    9.68699856,
                    50.55272403
                ]
            },
            "properties": {
                "RSU coordinates": [
                    9.6847457,
                    50.5515383
                ],
                "Distance": 206.92,
                "Frequency": 5.9,
                "RSSI": -81.82,
                "LOS": "False"
            }
        },
        {
            "type": "Feature",
            "geometry": {
                "type": "Point",
                "coordinates": [
                    9.68709652,
                    50.55283182
                ]
            },
            "properties": {
                "RSU coordinates": [
                    9.6847457,
                    50.5515383
                ],
                "Distance": 219.96,
                "Frequency": 5.9,
                "RSSI": -82.34,
                "LOS": "False"
            }
        },
        {
            "type": "Feature",
            "geometry": {
                "type": "Point",
                "coordinates": [
                    9.68719448,
                    50.55293962
                ]
            },
            "properties": {
                "RSU coordinates": [
                    9.6847457,
                    50.5515383
                ],
                "Distance": 233.1,
                "Frequency": 5.9,
                "RSSI": -82.84,
                "LOS": "False"
            }
        },
        {
            "type": "Feature",
            "geometry": {
                "type": "Point",
                "coordinates": [
                    9.68729243,
                    50.55304741
                ]
            },
            "properties": {
                "RSU coordinates": [
                    9.6847457,
                    50.5515383
                ],
                "Distance": 246.32,
                "Frequency": 5.9,
                "RSSI": -83.31,
                "LOS": "False"
            }
        },
        {
            "type": "Feature",
            "geometry": {
                "type": "Point",
                "coordinates": [
                    9.68739039,
                    50.5531552
                ]
            },
            "properties": {
                "RSU coordinates": [
                    9.6847457,
                    50.5515383
                ],
                "Distance": 259.6,
                "Frequency": 5.9,
                "RSSI": -98.77,
                "LOS": "False"
            }
        },
        {
            "type": "Feature",
            "geometry": {
                "type": "Point",
                "coordinates": [
                    9.68748835,
                    50.553263
                ]
            },
            "properties": {
                "RSU coordinates": [
                    9.6847457,
                    50.5515383
                ],
                "Distance": 272.94,
                "Frequency": 5.9,
                "RSSI": -99.2,
                "LOS": "False"
            }
        },
        {
            "type": "Feature",
            "geometry": {
                "type": "Point",
                "coordinates": [
                    9.68543133,
                    50.55078374
                ]
            },
            "properties": {
                "RSU coordinates": [
                    9.6847457,
                    50.5515383
                ],
                "Distance": 96.99,
                "Frequency": 5.9,
                "RSSI": -90.32,
                "LOS": "False"
            }
        },
        {
            "type": "Feature",
            "geometry": {
                "type": "Point",
                "coordinates": [
                    9.68552927,
                    50.55089154
                ]
            },
            "properties": {
                "RSU coordinates": [
                    9.6847457,
                    50.5515383
                ],
                "Distance": 90.86,
                "Frequency": 5.9,
                "RSSI": -59.76,
                "LOS": "True"
            }
        },
        {
            "type": "Feature",
            "geometry": {
                "type": "Point",
                "coordinates": [
                    9.68729242,
                    50.55283182
                ]
            },
            "properties": {
                "RSU coordinates": [
                    9.6847457,
                    50.5515383
                ],
                "Distance": 230.62,
                "Frequency": 5.9,
                "RSSI": -82.75,
                "LOS": "False"
            }
        },
        {
            "type": "Feature",
            "geometry": {
                "type": "Point",
                "coordinates": [
                    9.68739038,
                    50.55293962
                ]
            },
            "properties": {
                "RSU coordinates": [
                    9.6847457,
                    50.5515383
                ],
                "Distance": 243.57,
                "Frequency": 5.9,
                "RSSI": -83.22,
                "LOS": "False"
            }
        },
        {
            "type": "Feature",
            "geometry": {
                "type": "Point",
                "coordinates": [
                    9.68748834,
                    50.55304741
                ]
            },
            "properties": {
                "RSU coordinates": [
                    9.6847457,
                    50.5515383
                ],
                "Distance": 256.62,
                "Frequency": 5.9,
                "RSSI": -83.67,
                "LOS": "False"
            }
        },
        {
            "type": "Feature",
            "geometry": {
                "type": "Point",
                "coordinates": [
                    9.68758629,
                    50.5531552
                ]
            },
            "properties": {
                "RSU coordinates": [
                    9.6847457,
                    50.5515383
                ],
                "Distance": 269.76,
                "Frequency": 5.9,
                "RSSI": -84.09,
                "LOS": "False"
            }
        },
        {
            "type": "Feature",
            "geometry": {
                "type": "Point",
                "coordinates": [
                    9.68768425,
                    50.553263
                ]
            },
            "properties": {
                "RSU coordinates": [
                    9.6847457,
                    50.5515383
                ],
                "Distance": 282.96,
                "Frequency": 5.9,
                "RSSI": -99.5,
                "LOS": "False"
            }
        },
        {
            "type": "Feature",
            "geometry": {
                "type": "Point",
                "coordinates": [
                    9.68778221,
                    50.55337079
                ]
            },
            "properties": {
                "RSU coordinates": [
                    9.6847457,
                    50.5515383
                ],
                "Distance": 296.22,
                "Frequency": 5.9,
                "RSSI": -84.9,
                "LOS": "False"
            }
        },
        {
            "type": "Feature",
            "geometry": {
                "type": "Point",
                "coordinates": [
                    9.68562722,
                    50.55078374
                ]
            },
            "properties": {
                "RSU coordinates": [
                    9.6847457,
                    50.5515383
                ],
                "Distance": 104.61,
                "Frequency": 5.9,
                "RSSI": -60.97,
                "LOS": "True"
            }
        },
        {
            "type": "Feature",
            "geometry": {
                "type": "Point",
                "coordinates": [
                    9.68572517,
                    50.55089154
                ]
            },
            "properties": {
                "RSU coordinates": [
                    9.6847457,
                    50.5515383
                ],
                "Distance": 99.92,
                "Frequency": 5.9,
                "RSSI": -60.58,
                "LOS": "True"
            }
        },
        {
            "type": "Feature",
            "geometry": {
                "type": "Point",
                "coordinates": [
                    9.68768424,
                    50.55304741
                ]
            },
            "properties": {
                "RSU coordinates": [
                    9.6847457,
                    50.5515383
                ],
                "Distance": 267.25,
                "Frequency": 5.9,
                "RSSI": -84.01,
                "LOS": "False"
            }
        },
        {
            "type": "Feature",
            "geometry": {
                "type": "Point",
                "coordinates": [
                    9.6877822,
                    50.5531552
                ]
            },
            "properties": {
                "RSU coordinates": [
                    9.6847457,
                    50.5515383
                ],
                "Distance": 280.23,
                "Frequency": 5.9,
                "RSSI": -84.42,
                "LOS": "False"
            }
        },
        {
            "type": "Feature",
            "geometry": {
                "type": "Point",
                "coordinates": [
                    9.68788015,
                    50.553263
                ]
            },
            "properties": {
                "RSU coordinates": [
                    9.6847457,
                    50.5515383
                ],
                "Distance": 293.28,
                "Frequency": 5.9,
                "RSSI": -84.81,
                "LOS": "False"
            }
        },
        {
            "type": "Feature",
            "geometry": {
                "type": "Point",
                "coordinates": [
                    9.68797811,
                    50.55337079
                ]
            },
            "properties": {
                "RSU coordinates": [
                    9.6847457,
                    50.5515383
                ],
                "Distance": 306.41,
                "Frequency": 5.9,
                "RSSI": -85.19,
                "LOS": "False"
            }
        },
        {
            "type": "Feature",
            "geometry": {
                "type": "Point",
                "coordinates": [
                    9.68807607,
                    50.55347858
                ]
            },
            "properties": {
                "RSU coordinates": [
                    9.6847457,
                    50.5515383
                ],
                "Distance": 319.6,
                "Frequency": 5.9,
                "RSSI": -85.55,
                "LOS": "False"
            }
        },
        {
            "type": "Feature",
            "geometry": {
                "type": "Point",
                "coordinates": [
                    9.68817403,
                    50.55358638
                ]
            },
            "properties": {
                "RSU coordinates": [
                    9.6847457,
                    50.5515383
                ],
                "Distance": 332.84,
                "Frequency": 5.9,
                "RSSI": -85.9,
                "LOS": "False"
            }
        },
        {
            "type": "Feature",
            "geometry": {
                "type": "Point",
                "coordinates": [
                    9.68572516,
                    50.55067595
                ]
            },
            "properties": {
                "RSU coordinates": [
                    9.6847457,
                    50.5515383
                ],
                "Distance": 118.39,
                "Frequency": 5.9,
                "RSSI": -62.03,
                "LOS": "True"
            }
        },
        {
            "type": "Feature",
            "geometry": {
                "type": "Point",
                "coordinates": [
                    9.68582311,
                    50.55078374
                ]
            },
            "properties": {
                "RSU coordinates": [
                    9.6847457,
                    50.5515383
                ],
                "Distance": 113.42,
                "Frequency": 5.9,
                "RSSI": -61.66,
                "LOS": "True"
            }
        },
        {
            "type": "Feature",
            "geometry": {
                "type": "Point",
                "coordinates": [
                    9.68807606,
                    50.553263
                ]
            },
            "properties": {
                "RSU coordinates": [
                    9.6847457,
                    50.5515383
                ],
                "Distance": 303.89,
                "Frequency": 5.9,
                "RSSI": -85.12,
                "LOS": "False"
            }
        },
        {
            "type": "Feature",
            "geometry": {
                "type": "Point",
                "coordinates": [
                    9.68817402,
                    50.55337079
                ]
            },
            "properties": {
                "RSU coordinates": [
                    9.6847457,
                    50.5515383
                ],
                "Distance": 316.88,
                "Frequency": 5.9,
                "RSSI": -85.48,
                "LOS": "False"
            }
        },
        {
            "type": "Feature",
            "geometry": {
                "type": "Point",
                "coordinates": [
                    9.68827198,
                    50.55347858
                ]
            },
            "properties": {
                "RSU coordinates": [
                    9.6847457,
                    50.5515383
                ],
                "Distance": 329.95,
                "Frequency": 5.9,
                "RSSI": -85.82,
                "LOS": "False"
            }
        },
        {
            "type": "Feature",
            "geometry": {
                "type": "Point",
                "coordinates": [
                    9.68836994,
                    50.55358638
                ]
            },
            "properties": {
                "RSU coordinates": [
                    9.6847457,
                    50.5515383
                ],
                "Distance": 343.07,
                "Frequency": 5.9,
                "RSSI": -86.16,
                "LOS": "False"
            }
        },
        {
            "type": "Feature",
            "geometry": {
                "type": "Point",
                "coordinates": [
                    9.6884679,
                    50.55369417
                ]
            },
            "properties": {
                "RSU coordinates": [
                    9.6847457,
                    50.5515383
                ],
                "Distance": 356.25,
                "Frequency": 5.9,
                "RSSI": -86.48,
                "LOS": "False"
            }
        },
        {
            "type": "Feature",
            "geometry": {
                "type": "Point",
                "coordinates": [
                    9.68856586,
                    50.55380197
                ]
            },
            "properties": {
                "RSU coordinates": [
                    9.6847457,
                    50.5515383
                ],
                "Distance": 369.48,
                "Frequency": 5.9,
                "RSSI": -86.79,
                "LOS": "False"
            }
        },
        {
            "type": "Feature",
            "geometry": {
                "type": "Point",
                "coordinates": [
                    9.68866382,
                    50.55390976
                ]
            },
            "properties": {
                "RSU coordinates": [
                    9.6847457,
                    50.5515383
                ],
                "Distance": 382.75,
                "Frequency": 5.9,
                "RSSI": -87.09,
                "LOS": "False"
            }
        },
        {
            "type": "Feature",
            "geometry": {
                "type": "Point",
                "coordinates": [
                    9.68582311,
                    50.55056816
                ]
            },
            "properties": {
                "RSU coordinates": [
                    9.6847457,
                    50.5515383
                ],
                "Distance": 132.18,
                "Frequency": 5.9,
                "RSSI": -62.98,
                "LOS": "True"
            }
        },
        {
            "type": "Feature",
            "geometry": {
                "type": "Point",
                "coordinates": [
                    9.68836992,
                    50.55337079
                ]
            },
            "properties": {
                "RSU coordinates": [
                    9.6847457,
                    50.5515383
                ],
                "Distance": 327.61,
                "Frequency": 5.9,
                "RSSI": -85.76,
                "LOS": "False"
            }
        },
        {
            "type": "Feature",
            "geometry": {
                "type": "Point",
                "coordinates": [
                    9.68846788,
                    50.55347858
                ]
            },
            "properties": {
                "RSU coordinates": [
                    9.6847457,
                    50.5515383
                ],
                "Distance": 340.54,
                "Frequency": 5.9,
                "RSSI": -86.09,
                "LOS": "False"
            }
        },
        {
            "type": "Feature",
            "geometry": {
                "type": "Point",
                "coordinates": [
                    9.68856584,
                    50.55358638
                ]
            },
            "properties": {
                "RSU coordinates": [
                    9.6847457,
                    50.5515383
                ],
                "Distance": 353.54,
                "Frequency": 5.9,
                "RSSI": -86.41,
                "LOS": "False"
            }
        },
        {
            "type": "Feature",
            "geometry": {
                "type": "Point",
                "coordinates": [
                    9.6886638,
                    50.55369417
                ]
            },
            "properties": {
                "RSU coordinates": [
                    9.6847457,
                    50.5515383
                ],
                "Distance": 366.61,
                "Frequency": 5.9,
                "RSSI": -86.73,
                "LOS": "False"
            }
        },
        {
            "type": "Feature",
            "geometry": {
                "type": "Point",
                "coordinates": [
                    9.68876177,
                    50.55380197
                ]
            },
            "properties": {
                "RSU coordinates": [
                    9.6847457,
                    50.5515383
                ],
                "Distance": 379.73,
                "Frequency": 5.9,
                "RSSI": -87.03,
                "LOS": "False"
            }
        },
        {
            "type": "Feature",
            "geometry": {
                "type": "Point",
                "coordinates": [
                    9.68885973,
                    50.55390976
                ]
            },
            "properties": {
                "RSU coordinates": [
                    9.6847457,
                    50.5515383
                ],
                "Distance": 392.9,
                "Frequency": 5.9,
                "RSSI": -87.32,
                "LOS": "False"
            }
        },
        {
            "type": "Feature",
            "geometry": {
                "type": "Point",
                "coordinates": [
                    9.68592105,
                    50.55046036
                ]
            },
            "properties": {
                "RSU coordinates": [
                    9.6847457,
                    50.5515383
                ],
                "Distance": 145.99,
                "Frequency": 5.9,
                "RSSI": -63.83,
                "LOS": "True"
            }
        },
        {
            "type": "Feature",
            "geometry": {
                "type": "Point",
                "coordinates": [
                    9.68905563,
                    50.55390976
                ]
            },
            "properties": {
                "RSU coordinates": [
                    9.6847457,
                    50.5515383
                ],
                "Distance": 403.27,
                "Frequency": 5.9,
                "RSSI": -87.54,
                "LOS": "False"
            }
        },
        {
            "type": "Feature",
            "geometry": {
                "type": "Point",
                "coordinates": [
                    9.6891536,
                    50.55401755
                ]
            },
            "properties": {
                "RSU coordinates": [
                    9.6847457,
                    50.5515383
                ],
                "Distance": 416.38,
                "Frequency": 5.9,
                "RSSI": -87.82,
                "LOS": "False"
            }
        },
        {
            "type": "Feature",
            "geometry": {
                "type": "Point",
                "coordinates": [
                    9.68925156,
                    50.55412535
                ]
            },
            "properties": {
                "RSU coordinates": [
                    9.6847457,
                    50.5515383
                ],
                "Distance": 429.55,
                "Frequency": 5.9,
                "RSSI": -88.08,
                "LOS": "False"
            }
        },
        {
            "type": "Feature",
            "geometry": {
                "type": "Point",
                "coordinates": [
                    9.68601899,
                    50.55035257
                ]
            },
            "properties": {
                "RSU coordinates": [
                    9.6847457,
                    50.5515383
                ],
                "Distance": 159.8,
                "Frequency": 5.9,
                "RSSI": -64.6,
                "LOS": "True"
            }
        },
        {
            "type": "Feature",
            "geometry": {
                "type": "Point",
                "coordinates": [
                    9.68944747,
                    50.55412535
                ]
            },
            "properties": {
                "RSU coordinates": [
                    9.6847457,
                    50.5515383
                ],
                "Distance": 439.93,
                "Frequency": 5.9,
                "RSSI": -88.29,
                "LOS": "False"
            }
        },
        {
            "type": "Feature",
            "geometry": {
                "type": "Point",
                "coordinates": [
                    9.68611694,
                    50.55024478
                ]
            },
            "properties": {
                "RSU coordinates": [
                    9.6847457,
                    50.5515383
                ],
                "Distance": 173.62,
                "Frequency": 5.9,
                "RSSI": -65.32,
                "LOS": "True"
            }
        },
        {
            "type": "Feature",
            "geometry": {
                "type": "Point",
                "coordinates": [
                    9.68983931,
                    50.55434093
                ]
            },
            "properties": {
                "RSU coordinates": [
                    9.6847457,
                    50.5515383
                ],
                "Distance": 476.59,
                "Frequency": 5.9,
                "RSSI": -88.98,
                "LOS": "False"
            }
        },
        {
            "type": "Feature",
            "geometry": {
                "type": "Point",
                "coordinates": [
                    9.68621488,
                    50.55013698
                ]
            },
            "properties": {
                "RSU coordinates": [
                    9.6847457,
                    50.5515383
                ],
                "Distance": 187.45,
                "Frequency": 5.9,
                "RSSI": -65.97,
                "LOS": "True"
            }
        },
        {
            "type": "Feature",
            "geometry": {
                "type": "Point",
                "coordinates": [
                    9.68631282,
                    50.55002919
                ]
            },
            "properties": {
                "RSU coordinates": [
                    9.6847457,
                    50.5515383
                ],
                "Distance": 201.28,
                "Frequency": 5.9,
                "RSSI": -81.58,
                "LOS": "False"
            }
        },
        {
            "type": "Feature",
            "geometry": {
                "type": "Point",
                "coordinates": [
                    9.68641076,
                    50.5499214
                ]
            },
            "properties": {
                "RSU coordinates": [
                    9.6847457,
                    50.5515383
                ],
                "Distance": 215.11,
                "Frequency": 5.9,
                "RSSI": -82.15,
                "LOS": "False"
            }
        },
        {
            "type": "Feature",
            "geometry": {
                "type": "Point",
                "coordinates": [
                    9.68650871,
                    50.55002919
                ]
            },
            "properties": {
                "RSU coordinates": [
                    9.6847457,
                    50.5515383
                ],
                "Distance": 209.23,
                "Frequency": 5.9,
                "RSSI": -96.92,
                "LOS": "False"
            }
        },
        {
            "type": "Feature",
            "geometry": {
                "type": "Point",
                "coordinates": [
                    9.6865087,
                    50.5498136
                ]
            },
            "properties": {
                "RSU coordinates": [
                    9.6847457,
                    50.5515383
                ],
                "Distance": 228.95,
                "Frequency": 5.9,
                "RSSI": -97.69,
                "LOS": "False"
            }
        },
        {
            "type": "Feature",
            "geometry": {
                "type": "Point",
                "coordinates": [
                    9.68660665,
                    50.5499214
                ]
            },
            "properties": {
                "RSU coordinates": [
                    9.6847457,
                    50.5515383
                ],
                "Distance": 223.0,
                "Frequency": 5.9,
                "RSSI": -97.46,
                "LOS": "False"
            }
        }
    ]
}