{
    "type": "FeatureCollection",
    "features": [
        {
            "type": "Feature",
            "geometry": {
                "type": "Point",
                "coordinates": [
                    8.62128237,
                    49.67900993
                ]
            },
            "properties": {
                "RSU coordinates": [
                    8.6225327,
                    49.6778242
                ],
                "Distance": 159.8,
                "Frequency": 5.9,
                "RSSI": -94.6,
                "LOS": "False"
            }
        },
        {
            "type": "Feature",
            "geometry": {
                "type": "Point",
                "coordinates": [
                    8.62137855,
                    49.67890214
                ]
            },
            "properties": {
                "RSU coordinates": [
                    8.6225327,
                    49.6778242
                ],
                "Distance": 145.99,
                "Frequency": 5.9,
                "RSSI": -78.83,
                "LOS": "False"
            }
        },
        {
            "type": "Feature",
            "geometry": {
                "type": "Point",
                "coordinates": [
                    8.62147473,
                    49.67879434
                ]
            },
            "properties": {
                "RSU coordinates": [
                    8.6225327,
                    49.6778242
                ],
                "Distance": 132.18,
                "Frequency": 5.9,
                "RSSI": -77.97999999999999,
                "LOS": "False"
            }
        },
        {
            "type": "Feature",
            "geometry": {
                "type": "Point",
                "coordinates": [
                    8.62147474,
                    49.67857876
                ]
            },
            "properties": {
                "RSU coordinates": [
                    8.6225327,
                    49.6778242
                ],
                "Distance": 113.42,
                "Frequency": 5.9,
                "RSSI": -91.66,
                "LOS": "False"
            }
        },
        {
            "type": "Feature",
            "geometry": {
                "type": "Point",
                "coordinates": [
                    8.62157091,
                    49.67868655
                ]
            },
            "properties": {
                "RSU coordinates": [
                    8.6225327,
                    49.6778242
                ],
                "Distance": 118.39,
                "Frequency": 5.9,
                "RSSI": -62.03,
                "LOS": "True"
            }
        },
        {
            "type": "Feature",
            "geometry": {
                "type": "Point",
                "coordinates": [
                    8.62166709,
                    49.67857876
                ]
            },
            "properties": {
                "RSU coordinates": [
                    8.6225327,
                    49.6778242
                ],
                "Distance": 104.61,
                "Frequency": 5.9,
                "RSSI": -75.97,
                "LOS": "False"
            }
        },
        {
            "type": "Feature",
            "geometry": {
                "type": "Point",
                "coordinates": [
                    8.62176327,
                    49.67847096
                ]
            },
            "properties": {
                "RSU coordinates": [
                    8.6225327,
                    49.6778242
                ],
                "Distance": 90.86,
                "Frequency": 5.9,
                "RSSI": -74.75999999999999,
                "LOS": "False"
            }
        },
        {
            "type": "Feature",
            "geometry": {
                "type": "Point",
                "coordinates": [
                    8.62118623,
                    49.67760861
                ]
            },
            "properties": {
                "RSU coordinates": [
                    8.6225327,
                    49.6778242
                ],
                "Distance": 99.92,
                "Frequency": 5.9,
                "RSSI": -90.58,
                "LOS": "False"
            }
        },
        {
            "type": "Feature",
            "geometry": {
                "type": "Point",
                "coordinates": [
                    8.62176328,
                    49.67825537
                ]
            },
            "properties": {
                "RSU coordinates": [
                    8.6225327,
                    49.6778242
                ],
                "Distance": 73.32,
                "Frequency": 5.9,
                "RSSI": -87.92,
                "LOS": "False"
            }
        },
        {
            "type": "Feature",
            "geometry": {
                "type": "Point",
                "coordinates": [
                    8.62185945,
                    49.67836317
                ]
            },
            "properties": {
                "RSU coordinates": [
                    8.6225327,
                    49.6778242
                ],
                "Distance": 77.15,
                "Frequency": 5.9,
                "RSSI": -73.36,
                "LOS": "False"
            }
        },
        {
            "type": "Feature",
            "geometry": {
                "type": "Point",
                "coordinates": [
                    8.62137858,
                    49.67760861
                ]
            },
            "properties": {
                "RSU coordinates": [
                    8.6225327,
                    49.6778242
                ],
                "Distance": 86.53,
                "Frequency": 5.9,
                "RSSI": -89.34,
                "LOS": "False"
            }
        },
        {
            "type": "Feature",
            "geometry": {
                "type": "Point",
                "coordinates": [
                    8.62195563,
                    49.67825537
                ]
            },
            "properties": {
                "RSU coordinates": [
                    8.6225327,
                    49.6778242
                ],
                "Distance": 63.5,
                "Frequency": 5.9,
                "RSSI": -71.69,
                "LOS": "False"
            }
        },
        {
            "type": "Feature",
            "geometry": {
                "type": "Point",
                "coordinates": [
                    8.62205181,
                    49.67836317
                ]
            },
            "properties": {
                "RSU coordinates": [
                    8.6225327,
                    49.6778242
                ],
                "Distance": 69.28,
                "Frequency": 5.9,
                "RSSI": -72.44,
                "LOS": "False"
            }
        },
        {
            "type": "Feature",
            "geometry": {
                "type": "Point",
                "coordinates": [
                    8.62214799,
                    49.67847096
                ]
            },
            "properties": {
                "RSU coordinates": [
                    8.6225327,
                    49.6778242
                ],
                "Distance": 77.15,
                "Frequency": 5.9,
                "RSSI": -88.36,
                "LOS": "False"
            }
        },
        {
            "type": "Feature",
            "geometry": {
                "type": "Point",
                "coordinates": [
                    8.62157093,
                    49.67760861
                ]
            },
            "properties": {
                "RSU coordinates": [
                    8.6225327,
                    49.6778242
                ],
                "Distance": 73.32,
                "Frequency": 5.9,
                "RSSI": -87.92,
                "LOS": "False"
            }
        },
        {
            "type": "Feature",
            "geometry": {
                "type": "Point",
                "coordinates": [
                    8.62166711,
                    49.67771641
                ]
            },
            "properties": {
                "RSU coordinates": [
                    8.6225327,
                    49.6778242
                ],
                "Distance": 63.5,
                "Frequency": 5.9,
                "RSSI": -71.69,
                "LOS": "False"
            }
        },
        {
            "type": "Feature",
            "geometry": {
                "type": "Point",
                "coordinates": [
                    8.62185946,
                    49.67793199
                ]
            },
            "properties": {
                "RSU coordinates": [
                    8.6225327,
                    49.6778242
                ],
                "Distance": 49.96,
                "Frequency": 5.9,
                "RSSI": -84.63,
                "LOS": "False"
            }
        },
        {
            "type": "Feature",
            "geometry": {
                "type": "Point",
                "coordinates": [
                    8.62214799,
                    49.67825537
                ]
            },
            "properties": {
                "RSU coordinates": [
                    8.6225327,
                    49.6778242
                ],
                "Distance": 55.43,
                "Frequency": 5.9,
                "RSSI": -70.52000000000001,
                "LOS": "False"
            }
        },
        {
            "type": "Feature",
            "geometry": {
                "type": "Point",
                "coordinates": [
                    8.62234034,
                    49.67847096
                ]
            },
            "properties": {
                "RSU coordinates": [
                    8.6225327,
                    49.6778242
                ],
                "Distance": 73.32,
                "Frequency": 5.9,
                "RSSI": -87.92,
                "LOS": "False"
            }
        },
        {
            "type": "Feature",
            "geometry": {
                "type": "Point",
                "coordinates": [
                    8.62176329,
                    49.67760861
                ]
            },
            "properties": {
                "RSU coordinates": [
                    8.6225327,
                    49.6778242
                ],
                "Distance": 60.4,
                "Frequency": 5.9,
                "RSSI": -86.25999999999999,
                "LOS": "False"
            }
        },
        {
            "type": "Feature",
            "geometry": {
                "type": "Point",
                "coordinates": [
                    8.62205181,
                    49.67793199
                ]
            },
            "properties": {
                "RSU coordinates": [
                    8.6225327,
                    49.6778242
                ],
                "Distance": 36.66,
                "Frequency": 5.9,
                "RSSI": -81.97999999999999,
                "LOS": "False"
            }
        },
        {
            "type": "Feature",
            "geometry": {
                "type": "Point",
                "coordinates": [
                    8.62214799,
                    49.67803979
                ]
            },
            "properties": {
                "RSU coordinates": [
                    8.6225327,
                    49.6778242
                ],
                "Distance": 36.66,
                "Frequency": 5.9,
                "RSSI": -66.97999999999999,
                "LOS": "False"
            }
        },
        {
            "type": "Feature",
            "geometry": {
                "type": "Point",
                "coordinates": [
                    8.62224417,
                    49.67814758
                ]
            },
            "properties": {
                "RSU coordinates": [
                    8.6225327,
                    49.6778242
                ],
                "Distance": 41.57,
                "Frequency": 5.9,
                "RSSI": -68.06,
                "LOS": "False"
            }
        },
        {
            "type": "Feature",
            "geometry": {
                "type": "Point",
                "coordinates": [
                    8.62166712,
                    49.67728523
                ]
            },
            "properties": {
                "RSU coordinates": [
                    8.6225327,
                    49.6778242
                ],
                "Distance": 86.53,
                "Frequency": 5.9,
                "RSSI": -89.34,
                "LOS": "False"
            }
        },
        {
            "type": "Feature",
            "geometry": {
                "type": "Point",
                "coordinates": [
                    8.62176329,
                    49.67739303
                ]
            },
            "properties": {
                "RSU coordinates": [
                    8.6225327,
                    49.6778242
                ],
                "Distance": 73.32,
                "Frequency": 5.9,
                "RSSI": -87.92,
                "LOS": "False"
            }
        },
        {
            "type": "Feature",
            "geometry": {
                "type": "Point",
                "coordinates": [
                    8.62185947,
                    49.67750082
                ]
            },
            "properties": {
                "RSU coordinates": [
                    8.6225327,
                    49.6778242
                ],
                "Distance": 60.4,
                "Frequency": 5.9,
                "RSSI": -86.25999999999999,
                "LOS": "False"
            }
        },
        {
            "type": "Feature",
            "geometry": {
                "type": "Point",
                "coordinates": [
                    8.62195564,
                    49.67760861
                ]
            },
            "properties": {
                "RSU coordinates": [
                    8.6225327,
                    49.6778242
                ],
                "Distance": 48.0,
                "Frequency": 5.9,
                "RSSI": -69.28999999999999,
                "LOS": "False"
            }
        },
        {
            "type": "Feature",
            "geometry": {
                "type": "Point",
                "coordinates": [
                    8.62224417,
                    49.67793199
                ]
            },
            "properties": {
                "RSU coordinates": [
                    8.6225327,
                    49.6778242
                ],
                "Distance": 24.0,
                "Frequency": 5.9,
                "RSSI": -63.34,
                "LOS": "False"
            }
        },
        {
            "type": "Feature",
            "geometry": {
                "type": "Point",
                "coordinates": [
                    8.62234035,
                    49.67803979
                ]
            },
            "properties": {
                "RSU coordinates": [
                    8.6225327,
                    49.6778242
                ],
                "Distance": 27.71,
                "Frequency": 5.9,
                "RSSI": -49.58,
                "LOS": "True"
            }
        },
        {
            "type": "Feature",
            "geometry": {
                "type": "Point",
                "coordinates": [
                    8.62272506,
                    49.67847096
                ]
            },
            "properties": {
                "RSU coordinates": [
                    8.6225327,
                    49.6778242
                ],
                "Distance": 73.32,
                "Frequency": 5.9,
                "RSSI": -87.92,
                "LOS": "False"
            }
        },
        {
            "type": "Feature",
            "geometry": {
                "type": "Point",
                "coordinates": [
                    8.62195564,
                    49.67739303
                ]
            },
            "properties": {
                "RSU coordinates": [
                    8.6225327,
                    49.6778242
                ],
                "Distance": 63.5,
                "Frequency": 5.9,
                "RSSI": -86.69,
                "LOS": "False"
            }
        },
        {
            "type": "Feature",
            "geometry": {
                "type": "Point",
                "coordinates": [
                    8.62224417,
                    49.67771641
                ]
            },
            "properties": {
                "RSU coordinates": [
                    8.6225327,
                    49.6778242
                ],
                "Distance": 24.0,
                "Frequency": 5.9,
                "RSSI": -48.34,
                "LOS": "True"
            }
        },
        {
            "type": "Feature",
            "geometry": {
                "type": "Point",
                "coordinates": [
                    8.62243652,
                    49.67793199
                ]
            },
            "properties": {
                "RSU coordinates": [
                    8.6225327,
                    49.6778242
                ],
                "Distance": 13.86,
                "Frequency": 5.9,
                "RSSI": -43.63,
                "LOS": "True"
            }
        },
        {
            "type": "Feature",
            "geometry": {
                "type": "Point",
                "coordinates": [
                    8.6225327,
                    49.67803979
                ]
            },
            "properties": {
                "RSU coordinates": [
                    8.6225327,
                    49.6778242
                ],
                "Distance": 24.0,
                "Frequency": 5.9,
                "RSSI": -48.34,
                "LOS": "True"
            }
        },
        {
            "type": "Feature",
            "geometry": {
                "type": "Point",
                "coordinates": [
                    8.62272506,
                    49.67825537
                ]
            },
            "properties": {
                "RSU coordinates": [
                    8.6225327,
                    49.6778242
                ],
                "Distance": 49.96,
                "Frequency": 5.9,
                "RSSI": -69.63,
                "LOS": "False"
            }
        },
        {
            "type": "Feature",
            "geometry": {
                "type": "Point",
                "coordinates": [
                    8.62205182,
                    49.67728523
                ]
            },
            "properties": {
                "RSU coordinates": [
                    8.6225327,
                    49.6778242
                ],
                "Distance": 69.28,
                "Frequency": 5.9,
                "RSSI": -87.44,
                "LOS": "False"
            }
        },
        {
            "type": "Feature",
            "geometry": {
                "type": "Point",
                "coordinates": [
                    8.622148,
                    49.67739303
                ]
            },
            "properties": {
                "RSU coordinates": [
                    8.6225327,
                    49.6778242
                ],
                "Distance": 55.43,
                "Frequency": 5.9,
                "RSSI": -85.52000000000001,
                "LOS": "False"
            }
        },
        {
            "type": "Feature",
            "geometry": {
                "type": "Point",
                "coordinates": [
                    8.62224417,
                    49.67750082
                ]
            },
            "properties": {
                "RSU coordinates": [
                    8.6225327,
                    49.6778242
                ],
                "Distance": 41.57,
                "Frequency": 5.9,
                "RSSI": -83.06,
                "LOS": "False"
            }
        },
        {
            "type": "Feature",
            "geometry": {
                "type": "Point",
                "coordinates": [
                    8.62243652,
                    49.67771641
                ]
            },
            "properties": {
                "RSU coordinates": [
                    8.6225327,
                    49.6778242
                ],
                "Distance": 13.86,
                "Frequency": 5.9,
                "RSSI": -58.63,
                "LOS": "False"
            }
        },
        {
            "type": "Feature",
            "geometry": {
                "type": "Point",
                "coordinates": [
                    8.62224417,
                    49.67728523
                ]
            },
            "properties": {
                "RSU coordinates": [
                    8.6225327,
                    49.6778242
                ],
                "Distance": 63.5,
                "Frequency": 5.9,
                "RSSI": -86.69,
                "LOS": "False"
            }
        },
        {
            "type": "Feature",
            "geometry": {
                "type": "Point",
                "coordinates": [
                    8.62234035,
                    49.67739303
                ]
            },
            "properties": {
                "RSU coordinates": [
                    8.6225327,
                    49.6778242
                ],
                "Distance": 49.96,
                "Frequency": 5.9,
                "RSSI": -84.63,
                "LOS": "False"
            }
        },
        {
            "type": "Feature",
            "geometry": {
                "type": "Point",
                "coordinates": [
                    8.6225327,
                    49.67760861
                ]
            },
            "properties": {
                "RSU coordinates": [
                    8.6225327,
                    49.6778242
                ],
                "Distance": 24.0,
                "Frequency": 5.9,
                "RSSI": -48.34,
                "LOS": "True"
            }
        },
        {
            "type": "Feature",
            "geometry": {
                "type": "Point",
                "coordinates": [
                    8.62262888,
                    49.67771641
                ]
            },
            "properties": {
                "RSU coordinates": [
                    8.6225327,
                    49.6778242
                ],
                "Distance": 13.86,
                "Frequency": 5.9,
                "RSSI": -43.63,
                "LOS": "True"
            }
        },
        {
            "type": "Feature",
            "geometry": {
                "type": "Point",
                "coordinates": [
                    8.62310977,
                    49.67825537
                ]
            },
            "properties": {
                "RSU coordinates": [
                    8.6225327,
                    49.6778242
                ],
                "Distance": 63.5,
                "Frequency": 5.9,
                "RSSI": -71.69,
                "LOS": "False"
            }
        },
        {
            "type": "Feature",
            "geometry": {
                "type": "Point",
                "coordinates": [
                    8.62330213,
                    49.67847096
                ]
            },
            "properties": {
                "RSU coordinates": [
                    8.6225327,
                    49.6778242
                ],
                "Distance": 90.86,
                "Frequency": 5.9,
                "RSSI": -89.75999999999999,
                "LOS": "False"
            }
        },
        {
            "type": "Feature",
            "geometry": {
                "type": "Point",
                "coordinates": [
                    8.62339831,
                    49.67857876
                ]
            },
            "properties": {
                "RSU coordinates": [
                    8.6225327,
                    49.6778242
                ],
                "Distance": 104.61,
                "Frequency": 5.9,
                "RSSI": -90.97,
                "LOS": "False"
            }
        },
        {
            "type": "Feature",
            "geometry": {
                "type": "Point",
                "coordinates": [
                    8.62243652,
                    49.67728523
                ]
            },
            "properties": {
                "RSU coordinates": [
                    8.6225327,
                    49.6778242
                ],
                "Distance": 60.4,
                "Frequency": 5.9,
                "RSSI": -56.26,
                "LOS": "True"
            }
        },
        {
            "type": "Feature",
            "geometry": {
                "type": "Point",
                "coordinates": [
                    8.6225327,
                    49.67739303
                ]
            },
            "properties": {
                "RSU coordinates": [
                    8.6225327,
                    49.6778242
                ],
                "Distance": 48.0,
                "Frequency": 5.9,
                "RSSI": -54.29,
                "LOS": "True"
            }
        },
        {
            "type": "Feature",
            "geometry": {
                "type": "Point",
                "coordinates": [
                    8.62262888,
                    49.67750082
                ]
            },
            "properties": {
                "RSU coordinates": [
                    8.6225327,
                    49.6778242
                ],
                "Distance": 36.66,
                "Frequency": 5.9,
                "RSSI": -51.98,
                "LOS": "True"
            }
        },
        {
            "type": "Feature",
            "geometry": {
                "type": "Point",
                "coordinates": [
                    8.62320594,
                    49.67814758
                ]
            },
            "properties": {
                "RSU coordinates": [
                    8.6225327,
                    49.6778242
                ],
                "Distance": 60.4,
                "Frequency": 5.9,
                "RSSI": -86.25999999999999,
                "LOS": "False"
            }
        },
        {
            "type": "Feature",
            "geometry": {
                "type": "Point",
                "coordinates": [
                    8.62243652,
                    49.67706964
                ]
            },
            "properties": {
                "RSU coordinates": [
                    8.6225327,
                    49.6778242
                ],
                "Distance": 84.29,
                "Frequency": 5.9,
                "RSSI": -89.12,
                "LOS": "False"
            }
        },
        {
            "type": "Feature",
            "geometry": {
                "type": "Point",
                "coordinates": [
                    8.6225327,
                    49.67717744
                ]
            },
            "properties": {
                "RSU coordinates": [
                    8.6225327,
                    49.6778242
                ],
                "Distance": 72.0,
                "Frequency": 5.9,
                "RSSI": -57.77,
                "LOS": "True"
            }
        },
        {
            "type": "Feature",
            "geometry": {
                "type": "Point",
                "coordinates": [
                    8.62262888,
                    49.67728523
                ]
            },
            "properties": {
                "RSU coordinates": [
                    8.6225327,
                    49.6778242
                ],
                "Distance": 60.4,
                "Frequency": 5.9,
                "RSSI": -56.26,
                "LOS": "True"
            }
        },
        {
            "type": "Feature",
            "geometry": {
                "type": "Point",
                "coordinates": [
                    8.62291741,
                    49.67760861
                ]
            },
            "properties": {
                "RSU coordinates": [
                    8.6225327,
                    49.6778242
                ],
                "Distance": 36.66,
                "Frequency": 5.9,
                "RSSI": -81.97999999999999,
                "LOS": "False"
            }
        },
        {
            "type": "Feature",
            "geometry": {
                "type": "Point",
                "coordinates": [
                    8.62310976,
                    49.6778242
                ]
            },
            "properties": {
                "RSU coordinates": [
                    8.6225327,
                    49.6778242
                ],
                "Distance": 41.57,
                "Frequency": 5.9,
                "RSSI": -83.06,
                "LOS": "False"
            }
        },
        {
            "type": "Feature",
            "geometry": {
                "type": "Point",
                "coordinates": [
                    8.62320594,
                    49.67793199
                ]
            },
            "properties": {
                "RSU coordinates": [
                    8.6225327,
                    49.6778242
                ],
                "Distance": 49.96,
                "Frequency": 5.9,
                "RSSI": -99.63,
                "LOS": "False"
            }
        },
        {
            "type": "Feature",
            "geometry": {
                "type": "Point",
                "coordinates": [
                    8.6225327,
                    49.67696185
                ]
            },
            "properties": {
                "RSU coordinates": [
                    8.6225327,
                    49.6778242
                ],
                "Distance": 96.0,
                "Frequency": 5.9,
                "RSSI": -60.23,
                "LOS": "True"
            }
        },
        {
            "type": "Feature",
            "geometry": {
                "type": "Point",
                "coordinates": [
                    8.62262888,
                    49.67706964
                ]
            },
            "properties": {
                "RSU coordinates": [
                    8.6225327,
                    49.6778242
                ],
                "Distance": 84.29,
                "Frequency": 5.9,
                "RSSI": -59.12,
                "LOS": "True"
            }
        },
        {
            "type": "Feature",
            "geometry": {
                "type": "Point",
                "coordinates": [
                    8.62282123,
                    49.67728523
                ]
            },
            "properties": {
                "RSU coordinates": [
                    8.6225327,
                    49.6778242
                ],
                "Distance": 63.5,
                "Frequency": 5.9,
                "RSSI": -86.69,
                "LOS": "False"
            }
        },
        {
            "type": "Feature",
            "geometry": {
                "type": "Point",
                "coordinates": [
                    8.6229174,
                    49.67739303
                ]
            },
            "properties": {
                "RSU coordinates": [
                    8.6225327,
                    49.6778242
                ],
                "Distance": 55.43,
                "Frequency": 5.9,
                "RSSI": -85.52000000000001,
                "LOS": "False"
            }
        },
        {
            "type": "Feature",
            "geometry": {
                "type": "Point",
                "coordinates": [
                    8.62243653,
                    49.67663847
                ]
            },
            "properties": {
                "RSU coordinates": [
                    8.6225327,
                    49.6778242
                ],
                "Distance": 132.18,
                "Frequency": 5.9,
                "RSSI": -92.97999999999999,
                "LOS": "False"
            }
        },
        {
            "type": "Feature",
            "geometry": {
                "type": "Point",
                "coordinates": [
                    8.6225327,
                    49.67674626
                ]
            },
            "properties": {
                "RSU coordinates": [
                    8.6225327,
                    49.6778242
                ],
                "Distance": 120.0,
                "Frequency": 5.9,
                "RSSI": -62.15,
                "LOS": "True"
            }
        },
        {
            "type": "Feature",
            "geometry": {
                "type": "Point",
                "coordinates": [
                    8.62262888,
                    49.67685406
                ]
            },
            "properties": {
                "RSU coordinates": [
                    8.6225327,
                    49.6778242
                ],
                "Distance": 108.22,
                "Frequency": 5.9,
                "RSSI": -61.26,
                "LOS": "True"
            }
        },
        {
            "type": "Feature",
            "geometry": {
                "type": "Point",
                "coordinates": [
                    8.6229174,
                    49.67717744
                ]
            },
            "properties": {
                "RSU coordinates": [
                    8.6225327,
                    49.6778242
                ],
                "Distance": 77.15,
                "Frequency": 5.9,
                "RSSI": -88.36,
                "LOS": "False"
            }
        },
        {
            "type": "Feature",
            "geometry": {
                "type": "Point",
                "coordinates": [
                    8.62243653,
                    49.67642288
                ]
            },
            "properties": {
                "RSU coordinates": [
                    8.6225327,
                    49.6778242
                ],
                "Distance": 156.15,
                "Frequency": 5.9,
                "RSSI": -94.41,
                "LOS": "False"
            }
        },
        {
            "type": "Feature",
            "geometry": {
                "type": "Point",
                "coordinates": [
                    8.6225327,
                    49.67653068
                ]
            },
            "properties": {
                "RSU coordinates": [
                    8.6225327,
                    49.6778242
                ],
                "Distance": 144.0,
                "Frequency": 5.9,
                "RSSI": -63.71,
                "LOS": "True"
            }
        },
        {
            "type": "Feature",
            "geometry": {
                "type": "Point",
                "coordinates": [
                    8.62262887,
                    49.67663847
                ]
            },
            "properties": {
                "RSU coordinates": [
                    8.6225327,
                    49.6778242
                ],
                "Distance": 132.18,
                "Frequency": 5.9,
                "RSSI": -62.98,
                "LOS": "True"
            }
        },
        {
            "type": "Feature",
            "geometry": {
                "type": "Point",
                "coordinates": [
                    8.62272505,
                    49.67674626
                ]
            },
            "properties": {
                "RSU coordinates": [
                    8.6225327,
                    49.6778242
                ],
                "Distance": 120.8,
                "Frequency": 5.9,
                "RSSI": -92.2,
                "LOS": "False"
            }
        },
        {
            "type": "Feature",
            "geometry": {
                "type": "Point",
                "coordinates": [
                    8.62243653,
                    49.6762073
                ]
            },
            "properties": {
                "RSU coordinates": [
                    8.6225327,
                    49.6778242
                ],
                "Distance": 180.13,
                "Frequency": 5.9,
                "RSSI": -95.63,
                "LOS": "False"
            }
        },
        {
            "type": "Feature",
            "geometry": {
                "type": "Point",
                "coordinates": [
                    8.6225327,
                    49.67631509
                ]
            },
            "properties": {
                "RSU coordinates": [
                    8.6225327,
                    49.6778242
                ],
                "Distance": 168.0,
                "Frequency": 5.9,
                "RSSI": -65.03,
                "LOS": "True"
            }
        },
        {
            "type": "Feature",
            "geometry": {
                "type": "Point",
                "coordinates": [
                    8.62262887,
                    49.67642288
                ]
            },
            "properties": {
                "RSU coordinates": [
                    8.6225327,
                    49.6778242
                ],
                "Distance": 156.15,
                "Frequency": 5.9,
                "RSSI": -64.41,
                "LOS": "True"
            }
        },
        {
            "type": "Feature",
            "geometry": {
                "type": "Point",
                "coordinates": [
                    8.62272505,
                    49.67653068
                ]
            },
            "properties": {
                "RSU coordinates": [
                    8.6225327,
                    49.6778242
                ],
                "Distance": 144.67,
                "Frequency": 5.9,
                "RSSI": -63.75,
                "LOS": "True"
            }
        },
        {
            "type": "Feature",
            "geometry": {
                "type": "Point",
                "coordinates": [
                    8.6225327,
                    49.6760995
                ]
            },
            "properties": {
                "RSU coordinates": [
                    8.6225327,
                    49.6778242
                ],
                "Distance": 192.0,
                "Frequency": 5.9,
                "RSSI": -66.18,
                "LOS": "True"
            }
        },
        {
            "type": "Feature",
            "geometry": {
                "type": "Point",
                "coordinates": [
                    8.62262887,
                    49.6762073
                ]
            },
            "properties": {
                "RSU coordinates": [
                    8.6225327,
                    49.6778242
                ],
                "Distance": 180.13,
                "Frequency": 5.9,
                "RSSI": -65.63,
                "LOS": "True"
            }
        },
        {
            "type": "Feature",
            "geometry": {
                "type": "Point",
                "coordinates": [
                    8.62272505,
                    49.67631509
                ]
            },
            "properties": {
                "RSU coordinates": [
                    8.6225327,
                    49.6778242
                ],
                "Distance": 168.57,
                "Frequency": 5.9,
                "RSSI": -65.06,
                "LOS": "True"
            }
        },
        {
            "type": "Feature",
            "geometry": {
                "type": "Point",
                "coordinates": [
                    8.62378299,
                    49.67750082
                ]
            },
            "properties": {
                "RSU coordinates": [
                    8.6225327,
                    49.6778242
                ],
                "Distance": 96.99,
                "Frequency": 5.9,
                "RSSI": -90.32,
                "LOS": "False"
            }
        },
        {
            "type": "Feature",
            "geometry": {
                "type": "Point",
                "coordinates": [
                    8.6225327,
                    49.67588392
                ]
            },
            "properties": {
                "RSU coordinates": [
                    8.6225327,
                    49.6778242
                ],
                "Distance": 216.0,
                "Frequency": 5.9,
                "RSSI": -67.19,
                "LOS": "True"
            }
        },
        {
            "type": "Feature",
            "geometry": {
                "type": "Point",
                "coordinates": [
                    8.62262887,
                    49.67599171
                ]
            },
            "properties": {
                "RSU coordinates": [
                    8.6225327,
                    49.6778242
                ],
                "Distance": 204.12,
                "Frequency": 5.9,
                "RSSI": -66.7,
                "LOS": "True"
            }
        },
        {
            "type": "Feature",
            "geometry": {
                "type": "Point",
                "coordinates": [
                    8.62272505,
                    49.6760995
                ]
            },
            "properties": {
                "RSU coordinates": [
                    8.6225327,
                    49.6778242
                ],
                "Distance": 192.5,
                "Frequency": 5.9,
                "RSSI": -66.2,
                "LOS": "True"
            }
        },
        {
            "type": "Feature",
            "geometry": {
                "type": "Point",
                "coordinates": [
                    8.6225327,
                    49.67566833
                ]
            },
            "properties": {
                "RSU coordinates": [
                    8.6225327,
                    49.6778242
                ],
                "Distance": 240.0,
                "Frequency": 5.9,
                "RSSI": -68.09,
                "LOS": "True"
            }
        },
        {
            "type": "Feature",
            "geometry": {
                "type": "Point",
                "coordinates": [
                    8.62262887,
                    49.67577612
                ]
            },
            "properties": {
                "RSU coordinates": [
                    8.6225327,
                    49.6778242
                ],
                "Distance": 228.11,
                "Frequency": 5.9,
                "RSSI": -67.66,
                "LOS": "True"
            }
        },
        {
            "type": "Feature",
            "geometry": {
                "type": "Point",
                "coordinates": [
                    8.62272505,
                    49.67588392
                ]
            },
            "properties": {
                "RSU coordinates": [
                    8.6225327,
                    49.6778242
                ],
                "Distance": 216.44,
                "Frequency": 5.9,
                "RSSI": -67.21,
                "LOS": "True"
            }
        },
        {
            "type": "Feature",
            "geometry": {
                "type": "Point",
                "coordinates": [
                    8.6225327,
                    49.67545274
                ]
            },
            "properties": {
                "RSU coordinates": [
                    8.6225327,
                    49.6778242
                ],
                "Distance": 264.0,
                "Frequency": 5.9,
                "RSSI": -68.91,
                "LOS": "True"
            }
        },
        {
            "type": "Feature",
            "geometry": {
                "type": "Point",
                "coordinates": [
                    8.62262887,
                    49.67556053
                ]
            },
            "properties": {
                "RSU coordinates": [
                    8.6225327,
                    49.6778242
                ],
                "Distance": 252.1,
                "Frequency": 5.9,
                "RSSI": -68.51,
                "LOS": "True"
            }
        },
        {
            "type": "Feature",
            "geometry": {
                "type": "Point",
                "coordinates": [
                    8.62272505,
                    49.67566833
                ]
            },
            "properties": {
                "RSU coordinates": [
                    8.6225327,
                    49.6778242
                ],
                "Distance": 240.4,
                "Frequency": 5.9,
                "RSSI": -68.11,
                "LOS": "True"
            }
        },
        {
            "type": "Feature",
            "geometry": {
                "type": "Point",
                "coordinates": [
                    8.6225327,
                    49.67523715
                ]
            },
            "properties": {
                "RSU coordinates": [
                    8.6225327,
                    49.6778242
                ],
                "Distance": 288.0,
                "Frequency": 5.9,
                "RSSI": -84.66,
                "LOS": "False"
            }
        },
        {
            "type": "Feature",
            "geometry": {
                "type": "Point",
                "coordinates": [
                    8.62262887,
                    49.67534495
                ]
            },
            "properties": {
                "RSU coordinates": [
                    8.6225327,
                    49.6778242
                ],
                "Distance": 276.09,
                "Frequency": 5.9,
                "RSSI": -69.29,
                "LOS": "True"
            }
        },
        {
            "type": "Feature",
            "geometry": {
                "type": "Point",
                "coordinates": [
                    8.62272504,
                    49.67545274
                ]
            },
            "properties": {
                "RSU coordinates": [
                    8.6225327,
                    49.6778242
                ],
                "Distance": 264.36,
                "Frequency": 5.9,
                "RSSI": -68.92,
                "LOS": "True"
            }
        },
        {
            "type": "Feature",
            "geometry": {
                "type": "Point",
                "coordinates": [
                    8.62282122,
                    49.67556053
                ]
            },
            "properties": {
                "RSU coordinates": [
                    8.6225327,
                    49.6778242
                ],
                "Distance": 252.86,
                "Frequency": 5.9,
                "RSSI": -83.54,
                "LOS": "False"
            }
        },
        {
            "type": "Feature",
            "geometry": {
                "type": "Point",
                "coordinates": [
                    8.62262887,
                    49.67512936
                ]
            },
            "properties": {
                "RSU coordinates": [
                    8.6225327,
                    49.6778242
                ],
                "Distance": 300.08,
                "Frequency": 5.9,
                "RSSI": -70.01,
                "LOS": "True"
            }
        },
        {
            "type": "Feature",
            "geometry": {
                "type": "Point",
                "coordinates": [
                    8.62272504,
                    49.67523715
                ]
            },
            "properties": {
                "RSU coordinates": [
                    8.6225327,
                    49.6778242
                ],
                "Distance": 288.33,
                "Frequency": 5.9,
                "RSSI": -69.67,
                "LOS": "True"
            }
        },
        {
            "type": "Feature",
            "geometry": {
                "type": "Point",
                "coordinates": [
                    8.62282122,
                    49.67534495
                ]
            },
            "properties": {
                "RSU coordinates": [
                    8.6225327,
                    49.6778242
                ],
                "Distance": 276.78,
                "Frequency": 5.9,
                "RSSI": -69.31,
                "LOS": "True"
            }
        },
        {
            "type": "Feature",
            "geometry": {
                "type": "Point",
                "coordinates": [
                    8.62262887,
                    49.67491377
                ]
            },
            "properties": {
                "RSU coordinates": [
                    8.6225327,
                    49.6778242
                ],
                "Distance": 324.07,
                "Frequency": 5.9,
                "RSSI": -85.67,
                "LOS": "False"
            }
        },
        {
            "type": "Feature",
            "geometry": {
                "type": "Point",
                "coordinates": [
                    8.62272504,
                    49.67502157
                ]
            },
            "properties": {
                "RSU coordinates": [
                    8.6225327,
                    49.6778242
                ],
                "Distance": 312.31,
                "Frequency": 5.9,
                "RSSI": -70.35,
                "LOS": "True"
            }
        },
        {
            "type": "Feature",
            "geometry": {
                "type": "Point",
                "coordinates": [
                    8.62282121,
                    49.67512936
                ]
            },
            "properties": {
                "RSU coordinates": [
                    8.6225327,
                    49.6778242
                ],
                "Distance": 300.72,
                "Frequency": 5.9,
                "RSSI": -70.03,
                "LOS": "True"
            }
        },
        {
            "type": "Feature",
            "geometry": {
                "type": "Point",
                "coordinates": [
                    8.62262887,
                    49.67469819
                ]
            },
            "properties": {
                "RSU coordinates": [
                    8.6225327,
                    49.6778242
                ],
                "Distance": 348.07,
                "Frequency": 5.9,
                "RSSI": -86.28,
                "LOS": "False"
            }
        },
        {
            "type": "Feature",
            "geometry": {
                "type": "Point",
                "coordinates": [
                    8.62272504,
                    49.67480598
                ]
            },
            "properties": {
                "RSU coordinates": [
                    8.6225327,
                    49.6778242
                ],
                "Distance": 336.29,
                "Frequency": 5.9,
                "RSSI": -70.98,
                "LOS": "True"
            }
        },
        {
            "type": "Feature",
            "geometry": {
                "type": "Point",
                "coordinates": [
                    8.62282121,
                    49.67491377
                ]
            },
            "properties": {
                "RSU coordinates": [
                    8.6225327,
                    49.6778242
                ],
                "Distance": 324.67,
                "Frequency": 5.9,
                "RSSI": -70.68,
                "LOS": "True"
            }
        },
        {
            "type": "Feature",
            "geometry": {
                "type": "Point",
                "coordinates": [
                    8.62272504,
                    49.67459039
                ]
            },
            "properties": {
                "RSU coordinates": [
                    8.6225327,
                    49.6778242
                ],
                "Distance": 360.27,
                "Frequency": 5.9,
                "RSSI": -71.58,
                "LOS": "True"
            }
        },
        {
            "type": "Feature",
            "geometry": {
                "type": "Point",
                "coordinates": [
                    8.62291738,
                    49.67480598
                ]
            },
            "properties": {
                "RSU coordinates": [
                    8.6225327,
                    49.6778242
                ],
                "Distance": 337.14,
                "Frequency": 5.9,
                "RSSI": -86.01,
                "LOS": "False"
            }
        },
        {
            "type": "Feature",
            "geometry": {
                "type": "Point",
                "coordinates": [
                    8.62282121,
                    49.6744826
                ]
            },
            "properties": {
                "RSU coordinates": [
                    8.6225327,
                    49.6778242
                ],
                "Distance": 372.58,
                "Frequency": 5.9,
                "RSSI": -86.86,
                "LOS": "False"
            }
        },
        {
            "type": "Feature",
            "geometry": {
                "type": "Point",
                "coordinates": [
                    8.62291738,
                    49.67437481
                ]
            },
            "properties": {
                "RSU coordinates": [
                    8.6225327,
                    49.6778242
                ],
                "Distance": 385.0,
                "Frequency": 5.9,
                "RSSI": -87.15,
                "LOS": "False"
            }
        },
        {
            "type": "Feature",
            "geometry": {
                "type": "Point",
                "coordinates": [
                    8.62291738,
                    49.67415922
                ]
            },
            "properties": {
                "RSU coordinates": [
                    8.6225327,
                    49.6778242
                ],
                "Distance": 408.94,
                "Frequency": 5.9,
                "RSSI": -87.66,
                "LOS": "False"
            }
        }
    ]
}