{
    "type": "FeatureCollection",
    "features": [
        {
            "type": "Feature",
            "geometry": {
                "type": "Point",
                "coordinates": [
                    7.81652835,
                    48.57068137
                ]
            },
            "properties": {
                "RSU coordinates": [
                    7.819444,
                    48.5701424
                ],
                "Distance": 223.0,
                "Frequency": 5.9,
                "RSSI": -97.46,
                "LOS": "False"
            }
        },
        {
            "type": "Feature",
            "geometry": {
                "type": "Point",
                "coordinates": [
                    7.81699862,
                    48.57057357
                ]
            },
            "properties": {
                "RSU coordinates": [
                    7.819444,
                    48.5701424
                ],
                "Distance": 186.42,
                "Frequency": 5.9,
                "RSSI": -95.93,
                "LOS": "False"
            }
        },
        {
            "type": "Feature",
            "geometry": {
                "type": "Point",
                "coordinates": [
                    7.81709267,
                    48.57068137
                ]
            },
            "properties": {
                "RSU coordinates": [
                    7.819444,
                    48.5701424
                ],
                "Distance": 183.3,
                "Frequency": 5.9,
                "RSSI": -95.78,
                "LOS": "False"
            }
        },
        {
            "type": "Feature",
            "geometry": {
                "type": "Point",
                "coordinates": [
                    7.81737483,
                    48.57057357
                ]
            },
            "properties": {
                "RSU coordinates": [
                    7.819444,
                    48.5701424
                ],
                "Distance": 159.8,
                "Frequency": 5.9,
                "RSSI": -79.6,
                "LOS": "False"
            }
        },
        {
            "type": "Feature",
            "geometry": {
                "type": "Point",
                "coordinates": [
                    7.81756294,
                    48.57057357
                ]
            },
            "properties": {
                "RSU coordinates": [
                    7.819444,
                    48.5701424
                ],
                "Distance": 146.64,
                "Frequency": 5.9,
                "RSSI": -78.87,
                "LOS": "False"
            }
        },
        {
            "type": "Feature",
            "geometry": {
                "type": "Point",
                "coordinates": [
                    7.81765699,
                    48.57046578
                ]
            },
            "properties": {
                "RSU coordinates": [
                    7.819444,
                    48.5701424
                ],
                "Distance": 136.47,
                "Frequency": 5.9,
                "RSSI": -63.25,
                "LOS": "True"
            }
        },
        {
            "type": "Feature",
            "geometry": {
                "type": "Point",
                "coordinates": [
                    7.81775104,
                    48.57057357
                ]
            },
            "properties": {
                "RSU coordinates": [
                    7.819444,
                    48.5701424
                ],
                "Distance": 133.63,
                "Frequency": 5.9,
                "RSSI": -78.07,
                "LOS": "False"
            }
        },
        {
            "type": "Feature",
            "geometry": {
                "type": "Point",
                "coordinates": [
                    7.8178451,
                    48.57046578
                ]
            },
            "properties": {
                "RSU coordinates": [
                    7.819444,
                    48.5701424
                ],
                "Distance": 123.16,
                "Frequency": 5.9,
                "RSSI": -77.37,
                "LOS": "False"
            }
        },
        {
            "type": "Feature",
            "geometry": {
                "type": "Point",
                "coordinates": [
                    7.8180332,
                    48.57068137
                ]
            },
            "properties": {
                "RSU coordinates": [
                    7.819444,
                    48.5701424
                ],
                "Distance": 120.0,
                "Frequency": 5.9,
                "RSSI": -92.15,
                "LOS": "False"
            }
        },
        {
            "type": "Feature",
            "geometry": {
                "type": "Point",
                "coordinates": [
                    7.81803321,
                    48.57046578
                ]
            },
            "properties": {
                "RSU coordinates": [
                    7.819444,
                    48.5701424
                ],
                "Distance": 109.98,
                "Frequency": 5.9,
                "RSSI": -61.4,
                "LOS": "True"
            }
        },
        {
            "type": "Feature",
            "geometry": {
                "type": "Point",
                "coordinates": [
                    7.81812726,
                    48.57035799
                ]
            },
            "properties": {
                "RSU coordinates": [
                    7.819444,
                    48.5701424
                ],
                "Distance": 99.92,
                "Frequency": 5.9,
                "RSSI": -90.58,
                "LOS": "False"
            }
        },
        {
            "type": "Feature",
            "geometry": {
                "type": "Point",
                "coordinates": [
                    7.81822131,
                    48.57046578
                ]
            },
            "properties": {
                "RSU coordinates": [
                    7.819444,
                    48.5701424
                ],
                "Distance": 96.99,
                "Frequency": 5.9,
                "RSSI": -75.32,
                "LOS": "False"
            }
        },
        {
            "type": "Feature",
            "geometry": {
                "type": "Point",
                "coordinates": [
                    7.81831536,
                    48.57057357
                ]
            },
            "properties": {
                "RSU coordinates": [
                    7.819444,
                    48.5701424
                ],
                "Distance": 96.0,
                "Frequency": 5.9,
                "RSSI": -75.22999999999999,
                "LOS": "False"
            }
        },
        {
            "type": "Feature",
            "geometry": {
                "type": "Point",
                "coordinates": [
                    7.81831537,
                    48.57035799
                ]
            },
            "properties": {
                "RSU coordinates": [
                    7.819444,
                    48.5701424
                ],
                "Distance": 86.53,
                "Frequency": 5.9,
                "RSSI": -59.34,
                "LOS": "True"
            }
        },
        {
            "type": "Feature",
            "geometry": {
                "type": "Point",
                "coordinates": [
                    7.81840942,
                    48.57046578
                ]
            },
            "properties": {
                "RSU coordinates": [
                    7.819444,
                    48.5701424
                ],
                "Distance": 84.29,
                "Frequency": 5.9,
                "RSSI": -89.12,
                "LOS": "False"
            }
        },
        {
            "type": "Feature",
            "geometry": {
                "type": "Point",
                "coordinates": [
                    7.81850347,
                    48.57057357
                ]
            },
            "properties": {
                "RSU coordinates": [
                    7.819444,
                    48.5701424
                ],
                "Distance": 84.29,
                "Frequency": 5.9,
                "RSSI": -74.12,
                "LOS": "False"
            }
        },
        {
            "type": "Feature",
            "geometry": {
                "type": "Point",
                "coordinates": [
                    7.81850347,
                    48.57035799
                ]
            },
            "properties": {
                "RSU coordinates": [
                    7.819444,
                    48.5701424
                ],
                "Distance": 73.32,
                "Frequency": 5.9,
                "RSSI": -57.92,
                "LOS": "True"
            }
        },
        {
            "type": "Feature",
            "geometry": {
                "type": "Point",
                "coordinates": [
                    7.81831538,
                    48.56992681
                ]
            },
            "properties": {
                "RSU coordinates": [
                    7.819444,
                    48.5701424
                ],
                "Distance": 86.53,
                "Frequency": 5.9,
                "RSSI": -89.34,
                "LOS": "False"
            }
        },
        {
            "type": "Feature",
            "geometry": {
                "type": "Point",
                "coordinates": [
                    7.81869158,
                    48.57035799
                ]
            },
            "properties": {
                "RSU coordinates": [
                    7.819444,
                    48.5701424
                ],
                "Distance": 60.4,
                "Frequency": 5.9,
                "RSSI": -56.26,
                "LOS": "True"
            }
        },
        {
            "type": "Feature",
            "geometry": {
                "type": "Point",
                "coordinates": [
                    7.81878563,
                    48.57046578
                ]
            },
            "properties": {
                "RSU coordinates": [
                    7.819444,
                    48.5701424
                ],
                "Distance": 60.4,
                "Frequency": 5.9,
                "RSSI": -56.26,
                "LOS": "True"
            }
        },
        {
            "type": "Feature",
            "geometry": {
                "type": "Point",
                "coordinates": [
                    7.81840943,
                    48.56981902
                ]
            },
            "properties": {
                "RSU coordinates": [
                    7.819444,
                    48.5701424
                ],
                "Distance": 84.29,
                "Frequency": 5.9,
                "RSSI": -74.12,
                "LOS": "False"
            }
        },
        {
            "type": "Feature",
            "geometry": {
                "type": "Point",
                "coordinates": [
                    7.81878563,
                    48.57025019
                ]
            },
            "properties": {
                "RSU coordinates": [
                    7.819444,
                    48.5701424
                ],
                "Distance": 49.96,
                "Frequency": 5.9,
                "RSSI": -69.63,
                "LOS": "False"
            }
        },
        {
            "type": "Feature",
            "geometry": {
                "type": "Point",
                "coordinates": [
                    7.81887968,
                    48.57035799
                ]
            },
            "properties": {
                "RSU coordinates": [
                    7.819444,
                    48.5701424
                ],
                "Distance": 48.0,
                "Frequency": 5.9,
                "RSSI": -54.29,
                "LOS": "True"
            }
        },
        {
            "type": "Feature",
            "geometry": {
                "type": "Point",
                "coordinates": [
                    7.81916184,
                    48.57068137
                ]
            },
            "properties": {
                "RSU coordinates": [
                    7.819444,
                    48.5701424
                ],
                "Distance": 63.5,
                "Frequency": 5.9,
                "RSSI": -71.69,
                "LOS": "False"
            }
        },
        {
            "type": "Feature",
            "geometry": {
                "type": "Point",
                "coordinates": [
                    7.81869158,
                    48.56992681
                ]
            },
            "properties": {
                "RSU coordinates": [
                    7.819444,
                    48.5701424
                ],
                "Distance": 60.4,
                "Frequency": 5.9,
                "RSSI": -86.25999999999999,
                "LOS": "False"
            }
        },
        {
            "type": "Feature",
            "geometry": {
                "type": "Point",
                "coordinates": [
                    7.81878564,
                    48.57003461
                ]
            },
            "properties": {
                "RSU coordinates": [
                    7.819444,
                    48.5701424
                ],
                "Distance": 49.96,
                "Frequency": 5.9,
                "RSSI": -84.63,
                "LOS": "False"
            }
        },
        {
            "type": "Feature",
            "geometry": {
                "type": "Point",
                "coordinates": [
                    7.81897374,
                    48.57025019
                ]
            },
            "properties": {
                "RSU coordinates": [
                    7.819444,
                    48.5701424
                ],
                "Distance": 36.66,
                "Frequency": 5.9,
                "RSSI": -51.98,
                "LOS": "True"
            }
        },
        {
            "type": "Feature",
            "geometry": {
                "type": "Point",
                "coordinates": [
                    7.81906779,
                    48.57035799
                ]
            },
            "properties": {
                "RSU coordinates": [
                    7.819444,
                    48.5701424
                ],
                "Distance": 36.66,
                "Frequency": 5.9,
                "RSSI": -66.97999999999999,
                "LOS": "False"
            }
        },
        {
            "type": "Feature",
            "geometry": {
                "type": "Point",
                "coordinates": [
                    7.81916184,
                    48.57046578
                ]
            },
            "properties": {
                "RSU coordinates": [
                    7.819444,
                    48.5701424
                ],
                "Distance": 41.57,
                "Frequency": 5.9,
                "RSSI": -98.06,
                "LOS": "False"
            }
        },
        {
            "type": "Feature",
            "geometry": {
                "type": "Point",
                "coordinates": [
                    7.81925589,
                    48.57057357
                ]
            },
            "properties": {
                "RSU coordinates": [
                    7.819444,
                    48.5701424
                ],
                "Distance": 49.96,
                "Frequency": 5.9,
                "RSSI": -69.63,
                "LOS": "False"
            }
        },
        {
            "type": "Feature",
            "geometry": {
                "type": "Point",
                "coordinates": [
                    7.81859754,
                    48.56960343
                ]
            },
            "properties": {
                "RSU coordinates": [
                    7.819444,
                    48.5701424
                ],
                "Distance": 86.53,
                "Frequency": 5.9,
                "RSSI": -89.34,
                "LOS": "False"
            }
        },
        {
            "type": "Feature",
            "geometry": {
                "type": "Point",
                "coordinates": [
                    7.81916184,
                    48.57025019
                ]
            },
            "properties": {
                "RSU coordinates": [
                    7.819444,
                    48.5701424
                ],
                "Distance": 24.0,
                "Frequency": 5.9,
                "RSSI": -48.34,
                "LOS": "True"
            }
        },
        {
            "type": "Feature",
            "geometry": {
                "type": "Point",
                "coordinates": [
                    7.81934995,
                    48.57046578
                ]
            },
            "properties": {
                "RSU coordinates": [
                    7.819444,
                    48.5701424
                ],
                "Distance": 36.66,
                "Frequency": 5.9,
                "RSSI": -66.97999999999999,
                "LOS": "False"
            }
        },
        {
            "type": "Feature",
            "geometry": {
                "type": "Point",
                "coordinates": [
                    7.81878564,
                    48.56960343
                ]
            },
            "properties": {
                "RSU coordinates": [
                    7.819444,
                    48.5701424
                ],
                "Distance": 77.15,
                "Frequency": 5.9,
                "RSSI": -88.36,
                "LOS": "False"
            }
        },
        {
            "type": "Feature",
            "geometry": {
                "type": "Point",
                "coordinates": [
                    7.81897374,
                    48.56981902
                ]
            },
            "properties": {
                "RSU coordinates": [
                    7.819444,
                    48.5701424
                ],
                "Distance": 49.96,
                "Frequency": 5.9,
                "RSSI": -69.63,
                "LOS": "False"
            }
        },
        {
            "type": "Feature",
            "geometry": {
                "type": "Point",
                "coordinates": [
                    7.81916184,
                    48.57003461
                ]
            },
            "properties": {
                "RSU coordinates": [
                    7.819444,
                    48.5701424
                ],
                "Distance": 24.0,
                "Frequency": 5.9,
                "RSSI": -48.34,
                "LOS": "True"
            }
        },
        {
            "type": "Feature",
            "geometry": {
                "type": "Point",
                "coordinates": [
                    7.8192559,
                    48.5701424
                ]
            },
            "properties": {
                "RSU coordinates": [
                    7.819444,
                    48.5701424
                ],
                "Distance": 13.86,
                "Frequency": 5.9,
                "RSSI": -43.63,
                "LOS": "True"
            }
        },
        {
            "type": "Feature",
            "geometry": {
                "type": "Point",
                "coordinates": [
                    7.81934995,
                    48.57025019
                ]
            },
            "properties": {
                "RSU coordinates": [
                    7.819444,
                    48.5701424
                ],
                "Distance": 13.86,
                "Frequency": 5.9,
                "RSSI": -43.63,
                "LOS": "True"
            }
        },
        {
            "type": "Feature",
            "geometry": {
                "type": "Point",
                "coordinates": [
                    7.819444,
                    48.57035799
                ]
            },
            "properties": {
                "RSU coordinates": [
                    7.819444,
                    48.5701424
                ],
                "Distance": 24.0,
                "Frequency": 5.9,
                "RSSI": -63.34,
                "LOS": "False"
            }
        },
        {
            "type": "Feature",
            "geometry": {
                "type": "Point",
                "coordinates": [
                    7.81953805,
                    48.57046578
                ]
            },
            "properties": {
                "RSU coordinates": [
                    7.819444,
                    48.5701424
                ],
                "Distance": 36.66,
                "Frequency": 5.9,
                "RSSI": -51.98,
                "LOS": "True"
            }
        },
        {
            "type": "Feature",
            "geometry": {
                "type": "Point",
                "coordinates": [
                    7.81972616,
                    48.57068137
                ]
            },
            "properties": {
                "RSU coordinates": [
                    7.819444,
                    48.5701424
                ],
                "Distance": 63.5,
                "Frequency": 5.9,
                "RSSI": -86.69,
                "LOS": "False"
            }
        },
        {
            "type": "Feature",
            "geometry": {
                "type": "Point",
                "coordinates": [
                    7.82000832,
                    48.57100475
                ]
            },
            "properties": {
                "RSU coordinates": [
                    7.819444,
                    48.5701424
                ],
                "Distance": 104.61,
                "Frequency": 5.9,
                "RSSI": -90.97,
                "LOS": "False"
            }
        },
        {
            "type": "Feature",
            "geometry": {
                "type": "Point",
                "coordinates": [
                    7.82010238,
                    48.57111254
                ]
            },
            "properties": {
                "RSU coordinates": [
                    7.819444,
                    48.5701424
                ],
                "Distance": 118.39,
                "Frequency": 5.9,
                "RSSI": -92.03,
                "LOS": "False"
            }
        },
        {
            "type": "Feature",
            "geometry": {
                "type": "Point",
                "coordinates": [
                    7.82019643,
                    48.57122034
                ]
            },
            "properties": {
                "RSU coordinates": [
                    7.819444,
                    48.5701424
                ],
                "Distance": 132.18,
                "Frequency": 5.9,
                "RSSI": -92.97999999999999,
                "LOS": "False"
            }
        },
        {
            "type": "Feature",
            "geometry": {
                "type": "Point",
                "coordinates": [
                    7.82029049,
                    48.57132813
                ]
            },
            "properties": {
                "RSU coordinates": [
                    7.819444,
                    48.5701424
                ],
                "Distance": 145.99,
                "Frequency": 5.9,
                "RSSI": -93.83,
                "LOS": "False"
            }
        },
        {
            "type": "Feature",
            "geometry": {
                "type": "Point",
                "coordinates": [
                    7.82038455,
                    48.57143592
                ]
            },
            "properties": {
                "RSU coordinates": [
                    7.819444,
                    48.5701424
                ],
                "Distance": 159.8,
                "Frequency": 5.9,
                "RSSI": -79.6,
                "LOS": "False"
            }
        },
        {
            "type": "Feature",
            "geometry": {
                "type": "Point",
                "coordinates": [
                    7.82066672,
                    48.5717593
                ]
            },
            "properties": {
                "RSU coordinates": [
                    7.819444,
                    48.5701424
                ],
                "Distance": 201.28,
                "Frequency": 5.9,
                "RSSI": -81.58,
                "LOS": "False"
            }
        },
        {
            "type": "Feature",
            "geometry": {
                "type": "Point",
                "coordinates": [
                    7.82076078,
                    48.5718671
                ]
            },
            "properties": {
                "RSU coordinates": [
                    7.819444,
                    48.5701424
                ],
                "Distance": 215.11,
                "Frequency": 5.9,
                "RSSI": -82.15,
                "LOS": "False"
            }
        },
        {
            "type": "Feature",
            "geometry": {
                "type": "Point",
                "coordinates": [
                    7.82085484,
                    48.57197489
                ]
            },
            "properties": {
                "RSU coordinates": [
                    7.819444,
                    48.5701424
                ],
                "Distance": 228.95,
                "Frequency": 5.9,
                "RSSI": -82.69,
                "LOS": "False"
            }
        },
        {
            "type": "Feature",
            "geometry": {
                "type": "Point",
                "coordinates": [
                    7.82094889,
                    48.57208268
                ]
            },
            "properties": {
                "RSU coordinates": [
                    7.819444,
                    48.5701424
                ],
                "Distance": 242.78,
                "Frequency": 5.9,
                "RSSI": -98.19,
                "LOS": "False"
            }
        },
        {
            "type": "Feature",
            "geometry": {
                "type": "Point",
                "coordinates": [
                    7.81840945,
                    48.56895667
                ]
            },
            "properties": {
                "RSU coordinates": [
                    7.819444,
                    48.5701424
                ],
                "Distance": 152.42,
                "Frequency": 5.9,
                "RSSI": -94.2,
                "LOS": "False"
            }
        },
        {
            "type": "Feature",
            "geometry": {
                "type": "Point",
                "coordinates": [
                    7.8185035,
                    48.56906446
                ]
            },
            "properties": {
                "RSU coordinates": [
                    7.819444,
                    48.5701424
                ],
                "Distance": 138.56,
                "Frequency": 5.9,
                "RSSI": -93.38,
                "LOS": "False"
            }
        },
        {
            "type": "Feature",
            "geometry": {
                "type": "Point",
                "coordinates": [
                    7.81859755,
                    48.56917226
                ]
            },
            "properties": {
                "RSU coordinates": [
                    7.819444,
                    48.5701424
                ],
                "Distance": 124.71,
                "Frequency": 5.9,
                "RSSI": -92.47999999999999,
                "LOS": "False"
            }
        },
        {
            "type": "Feature",
            "geometry": {
                "type": "Point",
                "coordinates": [
                    7.81869159,
                    48.56928005
                ]
            },
            "properties": {
                "RSU coordinates": [
                    7.819444,
                    48.5701424
                ],
                "Distance": 110.85,
                "Frequency": 5.9,
                "RSSI": -91.47,
                "LOS": "False"
            }
        },
        {
            "type": "Feature",
            "geometry": {
                "type": "Point",
                "coordinates": [
                    7.81897374,
                    48.56960343
                ]
            },
            "properties": {
                "RSU coordinates": [
                    7.819444,
                    48.5701424
                ],
                "Distance": 69.28,
                "Frequency": 5.9,
                "RSSI": -57.44,
                "LOS": "True"
            }
        },
        {
            "type": "Feature",
            "geometry": {
                "type": "Point",
                "coordinates": [
                    7.81906779,
                    48.56971123
                ]
            },
            "properties": {
                "RSU coordinates": [
                    7.819444,
                    48.5701424
                ],
                "Distance": 55.43,
                "Frequency": 5.9,
                "RSSI": -55.52,
                "LOS": "True"
            }
        },
        {
            "type": "Feature",
            "geometry": {
                "type": "Point",
                "coordinates": [
                    7.81916184,
                    48.56981902
                ]
            },
            "properties": {
                "RSU coordinates": [
                    7.819444,
                    48.5701424
                ],
                "Distance": 41.57,
                "Frequency": 5.9,
                "RSSI": -53.06,
                "LOS": "True"
            }
        },
        {
            "type": "Feature",
            "geometry": {
                "type": "Point",
                "coordinates": [
                    7.8192559,
                    48.56992681
                ]
            },
            "properties": {
                "RSU coordinates": [
                    7.819444,
                    48.5701424
                ],
                "Distance": 27.71,
                "Frequency": 5.9,
                "RSSI": -49.58,
                "LOS": "True"
            }
        },
        {
            "type": "Feature",
            "geometry": {
                "type": "Point",
                "coordinates": [
                    7.81934995,
                    48.57003461
                ]
            },
            "properties": {
                "RSU coordinates": [
                    7.819444,
                    48.5701424
                ],
                "Distance": 13.86,
                "Frequency": 5.9,
                "RSSI": -43.63,
                "LOS": "True"
            }
        },
        {
            "type": "Feature",
            "geometry": {
                "type": "Point",
                "coordinates": [
                    7.81953805,
                    48.57025019
                ]
            },
            "properties": {
                "RSU coordinates": [
                    7.819444,
                    48.5701424
                ],
                "Distance": 13.86,
                "Frequency": 5.9,
                "RSSI": -43.63,
                "LOS": "True"
            }
        },
        {
            "type": "Feature",
            "geometry": {
                "type": "Point",
                "coordinates": [
                    7.81963211,
                    48.57035799
                ]
            },
            "properties": {
                "RSU coordinates": [
                    7.819444,
                    48.5701424
                ],
                "Distance": 27.71,
                "Frequency": 5.9,
                "RSSI": -49.58,
                "LOS": "True"
            }
        },
        {
            "type": "Feature",
            "geometry": {
                "type": "Point",
                "coordinates": [
                    7.81972616,
                    48.57046578
                ]
            },
            "properties": {
                "RSU coordinates": [
                    7.819444,
                    48.5701424
                ],
                "Distance": 41.57,
                "Frequency": 5.9,
                "RSSI": -53.06,
                "LOS": "True"
            }
        },
        {
            "type": "Feature",
            "geometry": {
                "type": "Point",
                "coordinates": [
                    7.81982021,
                    48.57057357
                ]
            },
            "properties": {
                "RSU coordinates": [
                    7.819444,
                    48.5701424
                ],
                "Distance": 55.43,
                "Frequency": 5.9,
                "RSSI": -55.52,
                "LOS": "True"
            }
        },
        {
            "type": "Feature",
            "geometry": {
                "type": "Point",
                "coordinates": [
                    7.81991427,
                    48.57068137
                ]
            },
            "properties": {
                "RSU coordinates": [
                    7.819444,
                    48.5701424
                ],
                "Distance": 69.28,
                "Frequency": 5.9,
                "RSSI": -57.44,
                "LOS": "True"
            }
        },
        {
            "type": "Feature",
            "geometry": {
                "type": "Point",
                "coordinates": [
                    7.82000832,
                    48.57078916
                ]
            },
            "properties": {
                "RSU coordinates": [
                    7.819444,
                    48.5701424
                ],
                "Distance": 83.14,
                "Frequency": 5.9,
                "RSSI": -59.0,
                "LOS": "True"
            }
        },
        {
            "type": "Feature",
            "geometry": {
                "type": "Point",
                "coordinates": [
                    7.82010238,
                    48.57089696
                ]
            },
            "properties": {
                "RSU coordinates": [
                    7.819444,
                    48.5701424
                ],
                "Distance": 96.99,
                "Frequency": 5.9,
                "RSSI": -60.32,
                "LOS": "True"
            }
        },
        {
            "type": "Feature",
            "geometry": {
                "type": "Point",
                "coordinates": [
                    7.82019643,
                    48.57100475
                ]
            },
            "properties": {
                "RSU coordinates": [
                    7.819444,
                    48.5701424
                ],
                "Distance": 110.85,
                "Frequency": 5.9,
                "RSSI": -61.47,
                "LOS": "True"
            }
        },
        {
            "type": "Feature",
            "geometry": {
                "type": "Point",
                "coordinates": [
                    7.82029049,
                    48.57111254
                ]
            },
            "properties": {
                "RSU coordinates": [
                    7.819444,
                    48.5701424
                ],
                "Distance": 124.71,
                "Frequency": 5.9,
                "RSSI": -62.48,
                "LOS": "True"
            }
        },
        {
            "type": "Feature",
            "geometry": {
                "type": "Point",
                "coordinates": [
                    7.82038454,
                    48.57122034
                ]
            },
            "properties": {
                "RSU coordinates": [
                    7.819444,
                    48.5701424
                ],
                "Distance": 138.56,
                "Frequency": 5.9,
                "RSSI": -63.38,
                "LOS": "True"
            }
        },
        {
            "type": "Feature",
            "geometry": {
                "type": "Point",
                "coordinates": [
                    7.8204786,
                    48.57132813
                ]
            },
            "properties": {
                "RSU coordinates": [
                    7.819444,
                    48.5701424
                ],
                "Distance": 152.42,
                "Frequency": 5.9,
                "RSSI": -64.2,
                "LOS": "True"
            }
        },
        {
            "type": "Feature",
            "geometry": {
                "type": "Point",
                "coordinates": [
                    7.82057266,
                    48.57143592
                ]
            },
            "properties": {
                "RSU coordinates": [
                    7.819444,
                    48.5701424
                ],
                "Distance": 166.28,
                "Frequency": 5.9,
                "RSSI": -64.94,
                "LOS": "True"
            }
        },
        {
            "type": "Feature",
            "geometry": {
                "type": "Point",
                "coordinates": [
                    7.82066671,
                    48.57154372
                ]
            },
            "properties": {
                "RSU coordinates": [
                    7.819444,
                    48.5701424
                ],
                "Distance": 180.13,
                "Frequency": 5.9,
                "RSSI": -65.63,
                "LOS": "True"
            }
        },
        {
            "type": "Feature",
            "geometry": {
                "type": "Point",
                "coordinates": [
                    7.82076077,
                    48.57165151
                ]
            },
            "properties": {
                "RSU coordinates": [
                    7.819444,
                    48.5701424
                ],
                "Distance": 193.99,
                "Frequency": 5.9,
                "RSSI": -66.27,
                "LOS": "True"
            }
        },
        {
            "type": "Feature",
            "geometry": {
                "type": "Point",
                "coordinates": [
                    7.82104295,
                    48.57197489
                ]
            },
            "properties": {
                "RSU coordinates": [
                    7.819444,
                    48.5701424
                ],
                "Distance": 235.56,
                "Frequency": 5.9,
                "RSSI": -97.93,
                "LOS": "False"
            }
        },
        {
            "type": "Feature",
            "geometry": {
                "type": "Point",
                "coordinates": [
                    7.81793922,
                    48.56820212
                ]
            },
            "properties": {
                "RSU coordinates": [
                    7.819444,
                    48.5701424
                ],
                "Distance": 242.78,
                "Frequency": 5.9,
                "RSSI": -98.19,
                "LOS": "False"
            }
        },
        {
            "type": "Feature",
            "geometry": {
                "type": "Point",
                "coordinates": [
                    7.81803327,
                    48.56830991
                ]
            },
            "properties": {
                "RSU coordinates": [
                    7.819444,
                    48.5701424
                ],
                "Distance": 228.95,
                "Frequency": 5.9,
                "RSSI": -97.69,
                "LOS": "False"
            }
        },
        {
            "type": "Feature",
            "geometry": {
                "type": "Point",
                "coordinates": [
                    7.81812731,
                    48.5684177
                ]
            },
            "properties": {
                "RSU coordinates": [
                    7.819444,
                    48.5701424
                ],
                "Distance": 215.11,
                "Frequency": 5.9,
                "RSSI": -97.15,
                "LOS": "False"
            }
        },
        {
            "type": "Feature",
            "geometry": {
                "type": "Point",
                "coordinates": [
                    7.81822136,
                    48.5685255
                ]
            },
            "properties": {
                "RSU coordinates": [
                    7.819444,
                    48.5701424
                ],
                "Distance": 201.28,
                "Frequency": 5.9,
                "RSSI": -96.58,
                "LOS": "False"
            }
        },
        {
            "type": "Feature",
            "geometry": {
                "type": "Point",
                "coordinates": [
                    7.81831541,
                    48.56863329
                ]
            },
            "properties": {
                "RSU coordinates": [
                    7.819444,
                    48.5701424
                ],
                "Distance": 187.45,
                "Frequency": 5.9,
                "RSSI": -95.97,
                "LOS": "False"
            }
        },
        {
            "type": "Feature",
            "geometry": {
                "type": "Point",
                "coordinates": [
                    7.81859755,
                    48.56895667
                ]
            },
            "properties": {
                "RSU coordinates": [
                    7.819444,
                    48.5701424
                ],
                "Distance": 145.99,
                "Frequency": 5.9,
                "RSSI": -93.83,
                "LOS": "False"
            }
        },
        {
            "type": "Feature",
            "geometry": {
                "type": "Point",
                "coordinates": [
                    7.81878565,
                    48.56917226
                ]
            },
            "properties": {
                "RSU coordinates": [
                    7.819444,
                    48.5701424
                ],
                "Distance": 118.39,
                "Frequency": 5.9,
                "RSSI": -62.03,
                "LOS": "True"
            }
        },
        {
            "type": "Feature",
            "geometry": {
                "type": "Point",
                "coordinates": [
                    7.8188797,
                    48.56928005
                ]
            },
            "properties": {
                "RSU coordinates": [
                    7.819444,
                    48.5701424
                ],
                "Distance": 104.61,
                "Frequency": 5.9,
                "RSSI": -60.97,
                "LOS": "True"
            }
        },
        {
            "type": "Feature",
            "geometry": {
                "type": "Point",
                "coordinates": [
                    7.81897375,
                    48.56938784
                ]
            },
            "properties": {
                "RSU coordinates": [
                    7.819444,
                    48.5701424
                ],
                "Distance": 90.86,
                "Frequency": 5.9,
                "RSSI": -59.76,
                "LOS": "True"
            }
        },
        {
            "type": "Feature",
            "geometry": {
                "type": "Point",
                "coordinates": [
                    7.8190678,
                    48.56949564
                ]
            },
            "properties": {
                "RSU coordinates": [
                    7.819444,
                    48.5701424
                ],
                "Distance": 77.15,
                "Frequency": 5.9,
                "RSSI": -58.36,
                "LOS": "True"
            }
        },
        {
            "type": "Feature",
            "geometry": {
                "type": "Point",
                "coordinates": [
                    7.81916185,
                    48.56960343
                ]
            },
            "properties": {
                "RSU coordinates": [
                    7.819444,
                    48.5701424
                ],
                "Distance": 63.5,
                "Frequency": 5.9,
                "RSSI": -56.69,
                "LOS": "True"
            }
        },
        {
            "type": "Feature",
            "geometry": {
                "type": "Point",
                "coordinates": [
                    7.8192559,
                    48.56971123
                ]
            },
            "properties": {
                "RSU coordinates": [
                    7.819444,
                    48.5701424
                ],
                "Distance": 49.96,
                "Frequency": 5.9,
                "RSSI": -54.63,
                "LOS": "True"
            }
        },
        {
            "type": "Feature",
            "geometry": {
                "type": "Point",
                "coordinates": [
                    7.81934995,
                    48.56981902
                ]
            },
            "properties": {
                "RSU coordinates": [
                    7.819444,
                    48.5701424
                ],
                "Distance": 36.66,
                "Frequency": 5.9,
                "RSSI": -51.98,
                "LOS": "True"
            }
        },
        {
            "type": "Feature",
            "geometry": {
                "type": "Point",
                "coordinates": [
                    7.819444,
                    48.56992681
                ]
            },
            "properties": {
                "RSU coordinates": [
                    7.819444,
                    48.5701424
                ],
                "Distance": 24.0,
                "Frequency": 5.9,
                "RSSI": -48.34,
                "LOS": "True"
            }
        },
        {
            "type": "Feature",
            "geometry": {
                "type": "Point",
                "coordinates": [
                    7.81953805,
                    48.57003461
                ]
            },
            "properties": {
                "RSU coordinates": [
                    7.819444,
                    48.5701424
                ],
                "Distance": 13.86,
                "Frequency": 5.9,
                "RSSI": -43.63,
                "LOS": "True"
            }
        },
        {
            "type": "Feature",
            "geometry": {
                "type": "Point",
                "coordinates": [
                    7.81972616,
                    48.57025019
                ]
            },
            "properties": {
                "RSU coordinates": [
                    7.819444,
                    48.5701424
                ],
                "Distance": 24.0,
                "Frequency": 5.9,
                "RSSI": -63.34,
                "LOS": "False"
            }
        },
        {
            "type": "Feature",
            "geometry": {
                "type": "Point",
                "coordinates": [
                    7.82000832,
                    48.57057357
                ]
            },
            "properties": {
                "RSU coordinates": [
                    7.819444,
                    48.5701424
                ],
                "Distance": 63.5,
                "Frequency": 5.9,
                "RSSI": -86.69,
                "LOS": "False"
            }
        },
        {
            "type": "Feature",
            "geometry": {
                "type": "Point",
                "coordinates": [
                    7.82010237,
                    48.57068137
                ]
            },
            "properties": {
                "RSU coordinates": [
                    7.819444,
                    48.5701424
                ],
                "Distance": 77.15,
                "Frequency": 5.9,
                "RSSI": -88.36,
                "LOS": "False"
            }
        },
        {
            "type": "Feature",
            "geometry": {
                "type": "Point",
                "coordinates": [
                    7.82019643,
                    48.57078916
                ]
            },
            "properties": {
                "RSU coordinates": [
                    7.819444,
                    48.5701424
                ],
                "Distance": 90.86,
                "Frequency": 5.9,
                "RSSI": -89.75999999999999,
                "LOS": "False"
            }
        },
        {
            "type": "Feature",
            "geometry": {
                "type": "Point",
                "coordinates": [
                    7.82029048,
                    48.57089696
                ]
            },
            "properties": {
                "RSU coordinates": [
                    7.819444,
                    48.5701424
                ],
                "Distance": 104.61,
                "Frequency": 5.9,
                "RSSI": -90.97,
                "LOS": "False"
            }
        },
        {
            "type": "Feature",
            "geometry": {
                "type": "Point",
                "coordinates": [
                    7.8188797,
                    48.56906446
                ]
            },
            "properties": {
                "RSU coordinates": [
                    7.819444,
                    48.5701424
                ],
                "Distance": 127.0,
                "Frequency": 5.9,
                "RSSI": -62.63,
                "LOS": "True"
            }
        },
        {
            "type": "Feature",
            "geometry": {
                "type": "Point",
                "coordinates": [
                    7.81897375,
                    48.56917226
                ]
            },
            "properties": {
                "RSU coordinates": [
                    7.819444,
                    48.5701424
                ],
                "Distance": 113.42,
                "Frequency": 5.9,
                "RSSI": -76.66,
                "LOS": "False"
            }
        },
        {
            "type": "Feature",
            "geometry": {
                "type": "Point",
                "coordinates": [
                    7.8190678,
                    48.56928005
                ]
            },
            "properties": {
                "RSU coordinates": [
                    7.819444,
                    48.5701424
                ],
                "Distance": 99.92,
                "Frequency": 5.9,
                "RSSI": -90.58,
                "LOS": "False"
            }
        },
        {
            "type": "Feature",
            "geometry": {
                "type": "Point",
                "coordinates": [
                    7.8192559,
                    48.56949564
                ]
            },
            "properties": {
                "RSU coordinates": [
                    7.819444,
                    48.5701424
                ],
                "Distance": 73.32,
                "Frequency": 5.9,
                "RSSI": -72.92,
                "LOS": "False"
            }
        },
        {
            "type": "Feature",
            "geometry": {
                "type": "Point",
                "coordinates": [
                    7.819444,
                    48.56971123
                ]
            },
            "properties": {
                "RSU coordinates": [
                    7.819444,
                    48.5701424
                ],
                "Distance": 48.0,
                "Frequency": 5.9,
                "RSSI": -69.28999999999999,
                "LOS": "False"
            }
        },
        {
            "type": "Feature",
            "geometry": {
                "type": "Point",
                "coordinates": [
                    7.81953805,
                    48.56981902
                ]
            },
            "properties": {
                "RSU coordinates": [
                    7.819444,
                    48.5701424
                ],
                "Distance": 36.66,
                "Frequency": 5.9,
                "RSSI": -66.97999999999999,
                "LOS": "False"
            }
        },
        {
            "type": "Feature",
            "geometry": {
                "type": "Point",
                "coordinates": [
                    7.81972616,
                    48.57003461
                ]
            },
            "properties": {
                "RSU coordinates": [
                    7.819444,
                    48.5701424
                ],
                "Distance": 24.0,
                "Frequency": 5.9,
                "RSSI": -48.34,
                "LOS": "True"
            }
        },
        {
            "type": "Feature",
            "geometry": {
                "type": "Point",
                "coordinates": [
                    7.81991426,
                    48.57025019
                ]
            },
            "properties": {
                "RSU coordinates": [
                    7.819444,
                    48.5701424
                ],
                "Distance": 36.66,
                "Frequency": 5.9,
                "RSSI": -96.97999999999999,
                "LOS": "False"
            }
        },
        {
            "type": "Feature",
            "geometry": {
                "type": "Point",
                "coordinates": [
                    7.82000832,
                    48.57035799
                ]
            },
            "properties": {
                "RSU coordinates": [
                    7.819444,
                    48.5701424
                ],
                "Distance": 48.0,
                "Frequency": 5.9,
                "RSSI": -84.28999999999999,
                "LOS": "False"
            }
        },
        {
            "type": "Feature",
            "geometry": {
                "type": "Point",
                "coordinates": [
                    7.81878565,
                    48.56874108
                ]
            },
            "properties": {
                "RSU coordinates": [
                    7.819444,
                    48.5701424
                ],
                "Distance": 163.36,
                "Frequency": 5.9,
                "RSSI": -94.79,
                "LOS": "False"
            }
        },
        {
            "type": "Feature",
            "geometry": {
                "type": "Point",
                "coordinates": [
                    7.8188797,
                    48.56884888
                ]
            },
            "properties": {
                "RSU coordinates": [
                    7.819444,
                    48.5701424
                ],
                "Distance": 149.88,
                "Frequency": 5.9,
                "RSSI": -94.05,
                "LOS": "False"
            }
        },
        {
            "type": "Feature",
            "geometry": {
                "type": "Point",
                "coordinates": [
                    7.8192559,
                    48.56928005
                ]
            },
            "properties": {
                "RSU coordinates": [
                    7.819444,
                    48.5701424
                ],
                "Distance": 96.99,
                "Frequency": 5.9,
                "RSSI": -90.32,
                "LOS": "False"
            }
        },
        {
            "type": "Feature",
            "geometry": {
                "type": "Point",
                "coordinates": [
                    7.81934995,
                    48.56938784
                ]
            },
            "properties": {
                "RSU coordinates": [
                    7.819444,
                    48.5701424
                ],
                "Distance": 84.29,
                "Frequency": 5.9,
                "RSSI": -74.12,
                "LOS": "False"
            }
        },
        {
            "type": "Feature",
            "geometry": {
                "type": "Point",
                "coordinates": [
                    7.819444,
                    48.56949564
                ]
            },
            "properties": {
                "RSU coordinates": [
                    7.819444,
                    48.5701424
                ],
                "Distance": 72.0,
                "Frequency": 5.9,
                "RSSI": -72.77000000000001,
                "LOS": "False"
            }
        },
        {
            "type": "Feature",
            "geometry": {
                "type": "Point",
                "coordinates": [
                    7.81953805,
                    48.56960343
                ]
            },
            "properties": {
                "RSU coordinates": [
                    7.819444,
                    48.5701424
                ],
                "Distance": 60.4,
                "Frequency": 5.9,
                "RSSI": -86.25999999999999,
                "LOS": "False"
            }
        },
        {
            "type": "Feature",
            "geometry": {
                "type": "Point",
                "coordinates": [
                    7.8196321,
                    48.56971123
                ]
            },
            "properties": {
                "RSU coordinates": [
                    7.819444,
                    48.5701424
                ],
                "Distance": 49.96,
                "Frequency": 5.9,
                "RSSI": -69.63,
                "LOS": "False"
            }
        },
        {
            "type": "Feature",
            "geometry": {
                "type": "Point",
                "coordinates": [
                    7.81982021,
                    48.56992681
                ]
            },
            "properties": {
                "RSU coordinates": [
                    7.819444,
                    48.5701424
                ],
                "Distance": 36.66,
                "Frequency": 5.9,
                "RSSI": -51.98,
                "LOS": "True"
            }
        },
        {
            "type": "Feature",
            "geometry": {
                "type": "Point",
                "coordinates": [
                    7.81991426,
                    48.57003461
                ]
            },
            "properties": {
                "RSU coordinates": [
                    7.819444,
                    48.5701424
                ],
                "Distance": 36.66,
                "Frequency": 5.9,
                "RSSI": -51.98,
                "LOS": "True"
            }
        },
        {
            "type": "Feature",
            "geometry": {
                "type": "Point",
                "coordinates": [
                    7.82000831,
                    48.5701424
                ]
            },
            "properties": {
                "RSU coordinates": [
                    7.819444,
                    48.5701424
                ],
                "Distance": 41.57,
                "Frequency": 5.9,
                "RSSI": -83.06,
                "LOS": "False"
            }
        },
        {
            "type": "Feature",
            "geometry": {
                "type": "Point",
                "coordinates": [
                    7.82029048,
                    48.57046578
                ]
            },
            "properties": {
                "RSU coordinates": [
                    7.819444,
                    48.5701424
                ],
                "Distance": 72.0,
                "Frequency": 5.9,
                "RSSI": -87.77000000000001,
                "LOS": "False"
            }
        },
        {
            "type": "Feature",
            "geometry": {
                "type": "Point",
                "coordinates": [
                    7.819444,
                    48.56928005
                ]
            },
            "properties": {
                "RSU coordinates": [
                    7.819444,
                    48.5701424
                ],
                "Distance": 96.0,
                "Frequency": 5.9,
                "RSSI": -75.22999999999999,
                "LOS": "False"
            }
        },
        {
            "type": "Feature",
            "geometry": {
                "type": "Point",
                "coordinates": [
                    7.81953805,
                    48.56938784
                ]
            },
            "properties": {
                "RSU coordinates": [
                    7.819444,
                    48.5701424
                ],
                "Distance": 84.29,
                "Frequency": 5.9,
                "RSSI": -89.12,
                "LOS": "False"
            }
        },
        {
            "type": "Feature",
            "geometry": {
                "type": "Point",
                "coordinates": [
                    7.8196321,
                    48.56949564
                ]
            },
            "properties": {
                "RSU coordinates": [
                    7.819444,
                    48.5701424
                ],
                "Distance": 73.32,
                "Frequency": 5.9,
                "RSSI": -72.92,
                "LOS": "False"
            }
        },
        {
            "type": "Feature",
            "geometry": {
                "type": "Point",
                "coordinates": [
                    7.81991426,
                    48.56981902
                ]
            },
            "properties": {
                "RSU coordinates": [
                    7.819444,
                    48.5701424
                ],
                "Distance": 49.96,
                "Frequency": 5.9,
                "RSSI": -84.63,
                "LOS": "False"
            }
        },
        {
            "type": "Feature",
            "geometry": {
                "type": "Point",
                "coordinates": [
                    7.82000831,
                    48.56992681
                ]
            },
            "properties": {
                "RSU coordinates": [
                    7.819444,
                    48.5701424
                ],
                "Distance": 48.0,
                "Frequency": 5.9,
                "RSSI": -54.29,
                "LOS": "True"
            }
        },
        {
            "type": "Feature",
            "geometry": {
                "type": "Point",
                "coordinates": [
                    7.82010236,
                    48.57003461
                ]
            },
            "properties": {
                "RSU coordinates": [
                    7.819444,
                    48.5701424
                ],
                "Distance": 49.96,
                "Frequency": 5.9,
                "RSSI": -84.63,
                "LOS": "False"
            }
        },
        {
            "type": "Feature",
            "geometry": {
                "type": "Point",
                "coordinates": [
                    7.819444,
                    48.56906446
                ]
            },
            "properties": {
                "RSU coordinates": [
                    7.819444,
                    48.5701424
                ],
                "Distance": 120.0,
                "Frequency": 5.9,
                "RSSI": -77.15,
                "LOS": "False"
            }
        },
        {
            "type": "Feature",
            "geometry": {
                "type": "Point",
                "coordinates": [
                    7.81953805,
                    48.56917226
                ]
            },
            "properties": {
                "RSU coordinates": [
                    7.819444,
                    48.5701424
                ],
                "Distance": 108.22,
                "Frequency": 5.9,
                "RSSI": -76.25999999999999,
                "LOS": "False"
            }
        },
        {
            "type": "Feature",
            "geometry": {
                "type": "Point",
                "coordinates": [
                    7.8196321,
                    48.56928005
                ]
            },
            "properties": {
                "RSU coordinates": [
                    7.819444,
                    48.5701424
                ],
                "Distance": 96.99,
                "Frequency": 5.9,
                "RSSI": -75.32,
                "LOS": "False"
            }
        },
        {
            "type": "Feature",
            "geometry": {
                "type": "Point",
                "coordinates": [
                    7.81972615,
                    48.56938784
                ]
            },
            "properties": {
                "RSU coordinates": [
                    7.819444,
                    48.5701424
                ],
                "Distance": 86.53,
                "Frequency": 5.9,
                "RSSI": -74.34,
                "LOS": "False"
            }
        },
        {
            "type": "Feature",
            "geometry": {
                "type": "Point",
                "coordinates": [
                    7.82010236,
                    48.56981902
                ]
            },
            "properties": {
                "RSU coordinates": [
                    7.819444,
                    48.5701424
                ],
                "Distance": 60.4,
                "Frequency": 5.9,
                "RSSI": -71.25999999999999,
                "LOS": "False"
            }
        },
        {
            "type": "Feature",
            "geometry": {
                "type": "Point",
                "coordinates": [
                    7.82019642,
                    48.56992681
                ]
            },
            "properties": {
                "RSU coordinates": [
                    7.819444,
                    48.5701424
                ],
                "Distance": 60.4,
                "Frequency": 5.9,
                "RSSI": -56.26,
                "LOS": "True"
            }
        },
        {
            "type": "Feature",
            "geometry": {
                "type": "Point",
                "coordinates": [
                    7.819444,
                    48.56884888
                ]
            },
            "properties": {
                "RSU coordinates": [
                    7.819444,
                    48.5701424
                ],
                "Distance": 144.0,
                "Frequency": 5.9,
                "RSSI": -78.71000000000001,
                "LOS": "False"
            }
        },
        {
            "type": "Feature",
            "geometry": {
                "type": "Point",
                "coordinates": [
                    7.81953805,
                    48.56895667
                ]
            },
            "properties": {
                "RSU coordinates": [
                    7.819444,
                    48.5701424
                ],
                "Distance": 132.18,
                "Frequency": 5.9,
                "RSSI": -77.97999999999999,
                "LOS": "False"
            }
        },
        {
            "type": "Feature",
            "geometry": {
                "type": "Point",
                "coordinates": [
                    7.8196321,
                    48.56906446
                ]
            },
            "properties": {
                "RSU coordinates": [
                    7.819444,
                    48.5701424
                ],
                "Distance": 120.8,
                "Frequency": 5.9,
                "RSSI": -92.2,
                "LOS": "False"
            }
        },
        {
            "type": "Feature",
            "geometry": {
                "type": "Point",
                "coordinates": [
                    7.81972615,
                    48.56917226
                ]
            },
            "properties": {
                "RSU coordinates": [
                    7.819444,
                    48.5701424
                ],
                "Distance": 109.98,
                "Frequency": 5.9,
                "RSSI": -76.4,
                "LOS": "False"
            }
        },
        {
            "type": "Feature",
            "geometry": {
                "type": "Point",
                "coordinates": [
                    7.8198202,
                    48.56928005
                ]
            },
            "properties": {
                "RSU coordinates": [
                    7.819444,
                    48.5701424
                ],
                "Distance": 99.92,
                "Frequency": 5.9,
                "RSSI": -90.58,
                "LOS": "False"
            }
        },
        {
            "type": "Feature",
            "geometry": {
                "type": "Point",
                "coordinates": [
                    7.82029047,
                    48.56981902
                ]
            },
            "properties": {
                "RSU coordinates": [
                    7.819444,
                    48.5701424
                ],
                "Distance": 72.0,
                "Frequency": 5.9,
                "RSSI": -57.77,
                "LOS": "True"
            }
        },
        {
            "type": "Feature",
            "geometry": {
                "type": "Point",
                "coordinates": [
                    7.819444,
                    48.56863329
                ]
            },
            "properties": {
                "RSU coordinates": [
                    7.819444,
                    48.5701424
                ],
                "Distance": 168.0,
                "Frequency": 5.9,
                "RSSI": -80.03,
                "LOS": "False"
            }
        },
        {
            "type": "Feature",
            "geometry": {
                "type": "Point",
                "coordinates": [
                    7.81953805,
                    48.56874108
                ]
            },
            "properties": {
                "RSU coordinates": [
                    7.819444,
                    48.5701424
                ],
                "Distance": 156.15,
                "Frequency": 5.9,
                "RSSI": -79.41,
                "LOS": "False"
            }
        },
        {
            "type": "Feature",
            "geometry": {
                "type": "Point",
                "coordinates": [
                    7.8196321,
                    48.56884888
                ]
            },
            "properties": {
                "RSU coordinates": [
                    7.819444,
                    48.5701424
                ],
                "Distance": 144.67,
                "Frequency": 5.9,
                "RSSI": -93.75,
                "LOS": "False"
            }
        },
        {
            "type": "Feature",
            "geometry": {
                "type": "Point",
                "coordinates": [
                    7.81972615,
                    48.56895667
                ]
            },
            "properties": {
                "RSU coordinates": [
                    7.819444,
                    48.5701424
                ],
                "Distance": 133.63,
                "Frequency": 5.9,
                "RSSI": -78.07,
                "LOS": "False"
            }
        },
        {
            "type": "Feature",
            "geometry": {
                "type": "Point",
                "coordinates": [
                    7.8198202,
                    48.56906446
                ]
            },
            "properties": {
                "RSU coordinates": [
                    7.819444,
                    48.5701424
                ],
                "Distance": 123.16,
                "Frequency": 5.9,
                "RSSI": -92.37,
                "LOS": "False"
            }
        },
        {
            "type": "Feature",
            "geometry": {
                "type": "Point",
                "coordinates": [
                    7.81991425,
                    48.56917226
                ]
            },
            "properties": {
                "RSU coordinates": [
                    7.819444,
                    48.5701424
                ],
                "Distance": 113.42,
                "Frequency": 5.9,
                "RSSI": -91.66,
                "LOS": "False"
            }
        },
        {
            "type": "Feature",
            "geometry": {
                "type": "Point",
                "coordinates": [
                    7.82047857,
                    48.56981902
                ]
            },
            "properties": {
                "RSU coordinates": [
                    7.819444,
                    48.5701424
                ],
                "Distance": 84.29,
                "Frequency": 5.9,
                "RSSI": -59.12,
                "LOS": "True"
            }
        },
        {
            "type": "Feature",
            "geometry": {
                "type": "Point",
                "coordinates": [
                    7.81953805,
                    48.5685255
                ]
            },
            "properties": {
                "RSU coordinates": [
                    7.819444,
                    48.5701424
                ],
                "Distance": 180.13,
                "Frequency": 5.9,
                "RSSI": -80.63,
                "LOS": "False"
            }
        },
        {
            "type": "Feature",
            "geometry": {
                "type": "Point",
                "coordinates": [
                    7.8196321,
                    48.56863329
                ]
            },
            "properties": {
                "RSU coordinates": [
                    7.819444,
                    48.5701424
                ],
                "Distance": 168.57,
                "Frequency": 5.9,
                "RSSI": -95.06,
                "LOS": "False"
            }
        },
        {
            "type": "Feature",
            "geometry": {
                "type": "Point",
                "coordinates": [
                    7.81972615,
                    48.56874108
                ]
            },
            "properties": {
                "RSU coordinates": [
                    7.819444,
                    48.5701424
                ],
                "Distance": 157.38,
                "Frequency": 5.9,
                "RSSI": -94.47,
                "LOS": "False"
            }
        },
        {
            "type": "Feature",
            "geometry": {
                "type": "Point",
                "coordinates": [
                    7.8198202,
                    48.56884888
                ]
            },
            "properties": {
                "RSU coordinates": [
                    7.819444,
                    48.5701424
                ],
                "Distance": 146.64,
                "Frequency": 5.9,
                "RSSI": -93.87,
                "LOS": "False"
            }
        },
        {
            "type": "Feature",
            "geometry": {
                "type": "Point",
                "coordinates": [
                    7.82057262,
                    48.56971123
                ]
            },
            "properties": {
                "RSU coordinates": [
                    7.819444,
                    48.5701424
                ],
                "Distance": 96.0,
                "Frequency": 5.9,
                "RSSI": -60.23,
                "LOS": "True"
            }
        },
        {
            "type": "Feature",
            "geometry": {
                "type": "Point",
                "coordinates": [
                    7.82066667,
                    48.56981902
                ]
            },
            "properties": {
                "RSU coordinates": [
                    7.819444,
                    48.5701424
                ],
                "Distance": 96.99,
                "Frequency": 5.9,
                "RSSI": -75.32,
                "LOS": "False"
            }
        },
        {
            "type": "Feature",
            "geometry": {
                "type": "Point",
                "coordinates": [
                    7.819444,
                    48.56820212
                ]
            },
            "properties": {
                "RSU coordinates": [
                    7.819444,
                    48.5701424
                ],
                "Distance": 216.0,
                "Frequency": 5.9,
                "RSSI": -97.19,
                "LOS": "False"
            }
        },
        {
            "type": "Feature",
            "geometry": {
                "type": "Point",
                "coordinates": [
                    7.81953805,
                    48.56830991
                ]
            },
            "properties": {
                "RSU coordinates": [
                    7.819444,
                    48.5701424
                ],
                "Distance": 204.12,
                "Frequency": 5.9,
                "RSSI": -96.7,
                "LOS": "False"
            }
        },
        {
            "type": "Feature",
            "geometry": {
                "type": "Point",
                "coordinates": [
                    7.8198202,
                    48.56863329
                ]
            },
            "properties": {
                "RSU coordinates": [
                    7.819444,
                    48.5701424
                ],
                "Distance": 170.27,
                "Frequency": 5.9,
                "RSSI": -95.15,
                "LOS": "False"
            }
        },
        {
            "type": "Feature",
            "geometry": {
                "type": "Point",
                "coordinates": [
                    7.82066667,
                    48.56960343
                ]
            },
            "properties": {
                "RSU coordinates": [
                    7.819444,
                    48.5701424
                ],
                "Distance": 108.22,
                "Frequency": 5.9,
                "RSSI": -91.25999999999999,
                "LOS": "False"
            }
        },
        {
            "type": "Feature",
            "geometry": {
                "type": "Point",
                "coordinates": [
                    7.82076072,
                    48.56971123
                ]
            },
            "properties": {
                "RSU coordinates": [
                    7.819444,
                    48.5701424
                ],
                "Distance": 108.22,
                "Frequency": 5.9,
                "RSSI": -61.26,
                "LOS": "True"
            }
        },
        {
            "type": "Feature",
            "geometry": {
                "type": "Point",
                "coordinates": [
                    7.82085478,
                    48.56981902
                ]
            },
            "properties": {
                "RSU coordinates": [
                    7.819444,
                    48.5701424
                ],
                "Distance": 109.98,
                "Frequency": 5.9,
                "RSSI": -91.4,
                "LOS": "False"
            }
        },
        {
            "type": "Feature",
            "geometry": {
                "type": "Point",
                "coordinates": [
                    7.82085477,
                    48.56960343
                ]
            },
            "properties": {
                "RSU coordinates": [
                    7.819444,
                    48.5701424
                ],
                "Distance": 120.0,
                "Frequency": 5.9,
                "RSSI": -62.15,
                "LOS": "True"
            }
        },
        {
            "type": "Feature",
            "geometry": {
                "type": "Point",
                "coordinates": [
                    7.82094882,
                    48.56971123
                ]
            },
            "properties": {
                "RSU coordinates": [
                    7.819444,
                    48.5701424
                ],
                "Distance": 120.8,
                "Frequency": 5.9,
                "RSSI": -77.2,
                "LOS": "False"
            }
        },
        {
            "type": "Feature",
            "geometry": {
                "type": "Point",
                "coordinates": [
                    7.82094882,
                    48.56949564
                ]
            },
            "properties": {
                "RSU coordinates": [
                    7.819444,
                    48.5701424
                ],
                "Distance": 132.18,
                "Frequency": 5.9,
                "RSSI": -92.97999999999999,
                "LOS": "False"
            }
        },
        {
            "type": "Feature",
            "geometry": {
                "type": "Point",
                "coordinates": [
                    7.82104287,
                    48.56960343
                ]
            },
            "properties": {
                "RSU coordinates": [
                    7.819444,
                    48.5701424
                ],
                "Distance": 132.18,
                "Frequency": 5.9,
                "RSSI": -62.98,
                "LOS": "True"
            }
        },
        {
            "type": "Feature",
            "geometry": {
                "type": "Point",
                "coordinates": [
                    7.82113693,
                    48.56971123
                ]
            },
            "properties": {
                "RSU coordinates": [
                    7.819444,
                    48.5701424
                ],
                "Distance": 133.63,
                "Frequency": 5.9,
                "RSSI": -93.07,
                "LOS": "False"
            }
        },
        {
            "type": "Feature",
            "geometry": {
                "type": "Point",
                "coordinates": [
                    7.82113692,
                    48.56949564
                ]
            },
            "properties": {
                "RSU coordinates": [
                    7.819444,
                    48.5701424
                ],
                "Distance": 144.0,
                "Frequency": 5.9,
                "RSSI": -63.71,
                "LOS": "True"
            }
        },
        {
            "type": "Feature",
            "geometry": {
                "type": "Point",
                "coordinates": [
                    7.82123097,
                    48.56938784
                ]
            },
            "properties": {
                "RSU coordinates": [
                    7.819444,
                    48.5701424
                ],
                "Distance": 156.15,
                "Frequency": 5.9,
                "RSSI": -94.41,
                "LOS": "False"
            }
        },
        {
            "type": "Feature",
            "geometry": {
                "type": "Point",
                "coordinates": [
                    7.82132502,
                    48.56949564
                ]
            },
            "properties": {
                "RSU coordinates": [
                    7.819444,
                    48.5701424
                ],
                "Distance": 156.15,
                "Frequency": 5.9,
                "RSSI": -64.41,
                "LOS": "True"
            }
        },
        {
            "type": "Feature",
            "geometry": {
                "type": "Point",
                "coordinates": [
                    7.82141908,
                    48.56960343
                ]
            },
            "properties": {
                "RSU coordinates": [
                    7.819444,
                    48.5701424
                ],
                "Distance": 157.38,
                "Frequency": 5.9,
                "RSSI": -94.47,
                "LOS": "False"
            }
        },
        {
            "type": "Feature",
            "geometry": {
                "type": "Point",
                "coordinates": [
                    7.82141907,
                    48.56938784
                ]
            },
            "properties": {
                "RSU coordinates": [
                    7.819444,
                    48.5701424
                ],
                "Distance": 168.0,
                "Frequency": 5.9,
                "RSSI": -65.03,
                "LOS": "True"
            }
        },
        {
            "type": "Feature",
            "geometry": {
                "type": "Point",
                "coordinates": [
                    7.82151312,
                    48.56928005
                ]
            },
            "properties": {
                "RSU coordinates": [
                    7.819444,
                    48.5701424
                ],
                "Distance": 180.13,
                "Frequency": 5.9,
                "RSSI": -95.63,
                "LOS": "False"
            }
        },
        {
            "type": "Feature",
            "geometry": {
                "type": "Point",
                "coordinates": [
                    7.82160717,
                    48.56938784
                ]
            },
            "properties": {
                "RSU coordinates": [
                    7.819444,
                    48.5701424
                ],
                "Distance": 180.13,
                "Frequency": 5.9,
                "RSSI": -80.63,
                "LOS": "False"
            }
        },
        {
            "type": "Feature",
            "geometry": {
                "type": "Point",
                "coordinates": [
                    7.82170123,
                    48.56949564
                ]
            },
            "properties": {
                "RSU coordinates": [
                    7.819444,
                    48.5701424
                ],
                "Distance": 181.2,
                "Frequency": 5.9,
                "RSSI": -95.68,
                "LOS": "False"
            }
        },
        {
            "type": "Feature",
            "geometry": {
                "type": "Point",
                "coordinates": [
                    7.82179526,
                    48.56917226
                ]
            },
            "properties": {
                "RSU coordinates": [
                    7.819444,
                    48.5701424
                ],
                "Distance": 204.12,
                "Frequency": 5.9,
                "RSSI": -96.7,
                "LOS": "False"
            }
        },
        {
            "type": "Feature",
            "geometry": {
                "type": "Point",
                "coordinates": [
                    7.82188932,
                    48.56928005
                ]
            },
            "properties": {
                "RSU coordinates": [
                    7.819444,
                    48.5701424
                ],
                "Distance": 204.12,
                "Frequency": 5.9,
                "RSSI": -96.7,
                "LOS": "False"
            }
        },
        {
            "type": "Feature",
            "geometry": {
                "type": "Point",
                "coordinates": [
                    7.82207741,
                    48.56906446
                ]
            },
            "properties": {
                "RSU coordinates": [
                    7.819444,
                    48.5701424
                ],
                "Distance": 228.11,
                "Frequency": 5.9,
                "RSSI": -97.66,
                "LOS": "False"
            }
        },
        {
            "type": "Feature",
            "geometry": {
                "type": "Point",
                "coordinates": [
                    7.82217145,
                    48.56895667
                ]
            },
            "properties": {
                "RSU coordinates": [
                    7.819444,
                    48.5701424
                ],
                "Distance": 240.4,
                "Frequency": 5.9,
                "RSSI": -98.11,
                "LOS": "False"
            }
        }
    ]
}