{
    "type": "FeatureCollection",
    "features": [
        {
            "type": "Feature",
            "geometry": {
                "type": "Point",
                "coordinates": [
                    7.86774545,
                    48.33977487
                ]
            },
            "properties": {
                "RSU coordinates": [
                    7.871116,
                    48.3393437
                ],
                "Distance": 253.99,
                "Frequency": 5.9,
                "RSSI": -98.58,
                "LOS": "False"
            }
        },
        {
            "type": "Feature",
            "geometry": {
                "type": "Point",
                "coordinates": [
                    7.86783906,
                    48.33988267
                ]
            },
            "properties": {
                "RSU coordinates": [
                    7.871116,
                    48.3393437
                ],
                "Distance": 249.8,
                "Frequency": 5.9,
                "RSSI": -98.44,
                "LOS": "False"
            }
        },
        {
            "type": "Feature",
            "geometry": {
                "type": "Point",
                "coordinates": [
                    7.8679327,
                    48.33977487
                ]
            },
            "properties": {
                "RSU coordinates": [
                    7.871116,
                    48.3393437
                ],
                "Distance": 240.4,
                "Frequency": 5.9,
                "RSSI": -98.11,
                "LOS": "False"
            }
        },
        {
            "type": "Feature",
            "geometry": {
                "type": "Point",
                "coordinates": [
                    7.86811995,
                    48.33977487
                ]
            },
            "properties": {
                "RSU coordinates": [
                    7.871116,
                    48.3393437
                ],
                "Distance": 226.84,
                "Frequency": 5.9,
                "RSSI": -97.61,
                "LOS": "False"
            }
        },
        {
            "type": "Feature",
            "geometry": {
                "type": "Point",
                "coordinates": [
                    7.8683072,
                    48.33977487
                ]
            },
            "properties": {
                "RSU coordinates": [
                    7.871116,
                    48.3393437
                ],
                "Distance": 213.32,
                "Frequency": 5.9,
                "RSSI": -97.08,
                "LOS": "False"
            }
        },
        {
            "type": "Feature",
            "geometry": {
                "type": "Point",
                "coordinates": [
                    7.86858809,
                    48.33966708
                ]
            },
            "properties": {
                "RSU coordinates": [
                    7.871116,
                    48.3393437
                ],
                "Distance": 190.49,
                "Frequency": 5.9,
                "RSSI": -96.11,
                "LOS": "False"
            }
        },
        {
            "type": "Feature",
            "geometry": {
                "type": "Point",
                "coordinates": [
                    7.86877533,
                    48.33988267
                ]
            },
            "properties": {
                "RSU coordinates": [
                    7.871116,
                    48.3393437
                ],
                "Distance": 183.3,
                "Frequency": 5.9,
                "RSSI": -95.78,
                "LOS": "False"
            }
        },
        {
            "type": "Feature",
            "geometry": {
                "type": "Point",
                "coordinates": [
                    7.86868172,
                    48.33955929
                ]
            },
            "properties": {
                "RSU coordinates": [
                    7.871116,
                    48.3393437
                ],
                "Distance": 181.73,
                "Frequency": 5.9,
                "RSSI": -95.71,
                "LOS": "False"
            }
        },
        {
            "type": "Feature",
            "geometry": {
                "type": "Point",
                "coordinates": [
                    7.86877534,
                    48.33966708
                ]
            },
            "properties": {
                "RSU coordinates": [
                    7.871116,
                    48.3393437
                ],
                "Distance": 176.91,
                "Frequency": 5.9,
                "RSSI": -95.48,
                "LOS": "False"
            }
        },
        {
            "type": "Feature",
            "geometry": {
                "type": "Point",
                "coordinates": [
                    7.86896259,
                    48.33988267
                ]
            },
            "properties": {
                "RSU coordinates": [
                    7.871116,
                    48.3393437
                ],
                "Distance": 170.27,
                "Frequency": 5.9,
                "RSSI": -95.15,
                "LOS": "False"
            }
        },
        {
            "type": "Feature",
            "geometry": {
                "type": "Point",
                "coordinates": [
                    7.86896259,
                    48.33966708
                ]
            },
            "properties": {
                "RSU coordinates": [
                    7.871116,
                    48.3393437
                ],
                "Distance": 163.36,
                "Frequency": 5.9,
                "RSSI": -79.79,
                "LOS": "False"
            }
        },
        {
            "type": "Feature",
            "geometry": {
                "type": "Point",
                "coordinates": [
                    7.86905622,
                    48.33977487
                ]
            },
            "properties": {
                "RSU coordinates": [
                    7.871116,
                    48.3393437
                ],
                "Distance": 159.8,
                "Frequency": 5.9,
                "RSSI": -94.6,
                "LOS": "False"
            }
        },
        {
            "type": "Feature",
            "geometry": {
                "type": "Point",
                "coordinates": [
                    7.86905623,
                    48.33955929
                ]
            },
            "properties": {
                "RSU coordinates": [
                    7.871116,
                    48.3393437
                ],
                "Distance": 154.3,
                "Frequency": 5.9,
                "RSSI": -94.3,
                "LOS": "False"
            }
        },
        {
            "type": "Feature",
            "geometry": {
                "type": "Point",
                "coordinates": [
                    7.86914985,
                    48.33966708
                ]
            },
            "properties": {
                "RSU coordinates": [
                    7.871116,
                    48.3393437
                ],
                "Distance": 149.88,
                "Frequency": 5.9,
                "RSSI": -79.05,
                "LOS": "False"
            }
        },
        {
            "type": "Feature",
            "geometry": {
                "type": "Point",
                "coordinates": [
                    7.86943072,
                    48.33999046
                ]
            },
            "properties": {
                "RSU coordinates": [
                    7.871116,
                    48.3393437
                ],
                "Distance": 144.0,
                "Frequency": 5.9,
                "RSSI": -93.71000000000001,
                "LOS": "False"
            }
        },
        {
            "type": "Feature",
            "geometry": {
                "type": "Point",
                "coordinates": [
                    7.86961796,
                    48.34020605
                ]
            },
            "properties": {
                "RSU coordinates": [
                    7.871116,
                    48.3393437
                ],
                "Distance": 146.64,
                "Frequency": 5.9,
                "RSSI": -93.87,
                "LOS": "False"
            }
        },
        {
            "type": "Feature",
            "geometry": {
                "type": "Point",
                "coordinates": [
                    7.86924348,
                    48.33955929
                ]
            },
            "properties": {
                "RSU coordinates": [
                    7.871116,
                    48.3393437
                ],
                "Distance": 140.63,
                "Frequency": 5.9,
                "RSSI": -93.50999999999999,
                "LOS": "False"
            }
        },
        {
            "type": "Feature",
            "geometry": {
                "type": "Point",
                "coordinates": [
                    7.8693371,
                    48.33966708
                ]
            },
            "properties": {
                "RSU coordinates": [
                    7.871116,
                    48.3393437
                ],
                "Distance": 136.47,
                "Frequency": 5.9,
                "RSSI": -78.25,
                "LOS": "False"
            }
        },
        {
            "type": "Feature",
            "geometry": {
                "type": "Point",
                "coordinates": [
                    7.86943072,
                    48.33977487
                ]
            },
            "properties": {
                "RSU coordinates": [
                    7.871116,
                    48.3393437
                ],
                "Distance": 133.63,
                "Frequency": 5.9,
                "RSSI": -78.07,
                "LOS": "False"
            }
        },
        {
            "type": "Feature",
            "geometry": {
                "type": "Point",
                "coordinates": [
                    7.86971159,
                    48.34009826
                ]
            },
            "properties": {
                "RSU coordinates": [
                    7.871116,
                    48.3393437
                ],
                "Distance": 133.63,
                "Frequency": 5.9,
                "RSSI": -93.07,
                "LOS": "False"
            }
        },
        {
            "type": "Feature",
            "geometry": {
                "type": "Point",
                "coordinates": [
                    7.86980522,
                    48.34020605
                ]
            },
            "properties": {
                "RSU coordinates": [
                    7.871116,
                    48.3393437
                ],
                "Distance": 136.47,
                "Frequency": 5.9,
                "RSSI": -93.25,
                "LOS": "False"
            }
        },
        {
            "type": "Feature",
            "geometry": {
                "type": "Point",
                "coordinates": [
                    7.86943073,
                    48.33955929
                ]
            },
            "properties": {
                "RSU coordinates": [
                    7.871116,
                    48.3393437
                ],
                "Distance": 127.0,
                "Frequency": 5.9,
                "RSSI": -77.63,
                "LOS": "False"
            }
        },
        {
            "type": "Feature",
            "geometry": {
                "type": "Point",
                "coordinates": [
                    7.86952435,
                    48.33966708
                ]
            },
            "properties": {
                "RSU coordinates": [
                    7.871116,
                    48.3393437
                ],
                "Distance": 123.16,
                "Frequency": 5.9,
                "RSSI": -77.37,
                "LOS": "False"
            }
        },
        {
            "type": "Feature",
            "geometry": {
                "type": "Point",
                "coordinates": [
                    7.86961798,
                    48.33977487
                ]
            },
            "properties": {
                "RSU coordinates": [
                    7.871116,
                    48.3393437
                ],
                "Distance": 120.8,
                "Frequency": 5.9,
                "RSSI": -77.2,
                "LOS": "False"
            }
        },
        {
            "type": "Feature",
            "geometry": {
                "type": "Point",
                "coordinates": [
                    7.8697116,
                    48.33988267
                ]
            },
            "properties": {
                "RSU coordinates": [
                    7.871116,
                    48.3393437
                ],
                "Distance": 120.0,
                "Frequency": 5.9,
                "RSSI": -92.15,
                "LOS": "False"
            }
        },
        {
            "type": "Feature",
            "geometry": {
                "type": "Point",
                "coordinates": [
                    7.86989885,
                    48.34009826
                ]
            },
            "properties": {
                "RSU coordinates": [
                    7.871116,
                    48.3393437
                ],
                "Distance": 123.16,
                "Frequency": 5.9,
                "RSSI": -92.37,
                "LOS": "False"
            }
        },
        {
            "type": "Feature",
            "geometry": {
                "type": "Point",
                "coordinates": [
                    7.86961798,
                    48.33955929
                ]
            },
            "properties": {
                "RSU coordinates": [
                    7.871116,
                    48.3393437
                ],
                "Distance": 113.42,
                "Frequency": 5.9,
                "RSSI": -76.66,
                "LOS": "False"
            }
        },
        {
            "type": "Feature",
            "geometry": {
                "type": "Point",
                "coordinates": [
                    7.86971161,
                    48.33966708
                ]
            },
            "properties": {
                "RSU coordinates": [
                    7.871116,
                    48.3393437
                ],
                "Distance": 109.98,
                "Frequency": 5.9,
                "RSSI": -76.4,
                "LOS": "False"
            }
        },
        {
            "type": "Feature",
            "geometry": {
                "type": "Point",
                "coordinates": [
                    7.87036698,
                    48.34042164
                ]
            },
            "properties": {
                "RSU coordinates": [
                    7.871116,
                    48.3393437
                ],
                "Distance": 132.18,
                "Frequency": 5.9,
                "RSSI": -92.97999999999999,
                "LOS": "False"
            }
        },
        {
            "type": "Feature",
            "geometry": {
                "type": "Point",
                "coordinates": [
                    7.8704606,
                    48.34052943
                ]
            },
            "properties": {
                "RSU coordinates": [
                    7.871116,
                    48.3393437
                ],
                "Distance": 140.63,
                "Frequency": 5.9,
                "RSSI": -93.50999999999999,
                "LOS": "False"
            }
        },
        {
            "type": "Feature",
            "geometry": {
                "type": "Point",
                "coordinates": [
                    7.86961799,
                    48.3393437
                ]
            },
            "properties": {
                "RSU coordinates": [
                    7.871116,
                    48.3393437
                ],
                "Distance": 110.85,
                "Frequency": 5.9,
                "RSSI": -91.47,
                "LOS": "False"
            }
        },
        {
            "type": "Feature",
            "geometry": {
                "type": "Point",
                "coordinates": [
                    7.86971161,
                    48.33945149
                ]
            },
            "properties": {
                "RSU coordinates": [
                    7.871116,
                    48.3393437
                ],
                "Distance": 104.61,
                "Frequency": 5.9,
                "RSSI": -75.97,
                "LOS": "False"
            }
        },
        {
            "type": "Feature",
            "geometry": {
                "type": "Point",
                "coordinates": [
                    7.86980523,
                    48.33955929
                ]
            },
            "properties": {
                "RSU coordinates": [
                    7.871116,
                    48.3393437
                ],
                "Distance": 99.92,
                "Frequency": 5.9,
                "RSSI": -75.58,
                "LOS": "False"
            }
        },
        {
            "type": "Feature",
            "geometry": {
                "type": "Point",
                "coordinates": [
                    7.86989886,
                    48.33966708
                ]
            },
            "properties": {
                "RSU coordinates": [
                    7.871116,
                    48.3393437
                ],
                "Distance": 96.99,
                "Frequency": 5.9,
                "RSSI": -75.32,
                "LOS": "False"
            }
        },
        {
            "type": "Feature",
            "geometry": {
                "type": "Point",
                "coordinates": [
                    7.87036698,
                    48.34020605
                ]
            },
            "properties": {
                "RSU coordinates": [
                    7.871116,
                    48.3393437
                ],
                "Distance": 110.85,
                "Frequency": 5.9,
                "RSSI": -91.47,
                "LOS": "False"
            }
        },
        {
            "type": "Feature",
            "geometry": {
                "type": "Point",
                "coordinates": [
                    7.87046061,
                    48.34031384
                ]
            },
            "properties": {
                "RSU coordinates": [
                    7.871116,
                    48.3393437
                ],
                "Distance": 118.39,
                "Frequency": 5.9,
                "RSSI": -92.03,
                "LOS": "False"
            }
        },
        {
            "type": "Feature",
            "geometry": {
                "type": "Point",
                "coordinates": [
                    7.87055423,
                    48.34042164
                ]
            },
            "properties": {
                "RSU coordinates": [
                    7.871116,
                    48.3393437
                ],
                "Distance": 127.0,
                "Frequency": 5.9,
                "RSSI": -92.63,
                "LOS": "False"
            }
        },
        {
            "type": "Feature",
            "geometry": {
                "type": "Point",
                "coordinates": [
                    7.86971162,
                    48.33923591
                ]
            },
            "properties": {
                "RSU coordinates": [
                    7.871116,
                    48.3393437
                ],
                "Distance": 104.61,
                "Frequency": 5.9,
                "RSSI": -75.97,
                "LOS": "False"
            }
        },
        {
            "type": "Feature",
            "geometry": {
                "type": "Point",
                "coordinates": [
                    7.86980524,
                    48.3393437
                ]
            },
            "properties": {
                "RSU coordinates": [
                    7.871116,
                    48.3393437
                ],
                "Distance": 96.99,
                "Frequency": 5.9,
                "RSSI": -90.32,
                "LOS": "False"
            }
        },
        {
            "type": "Feature",
            "geometry": {
                "type": "Point",
                "coordinates": [
                    7.86989886,
                    48.33945149
                ]
            },
            "properties": {
                "RSU coordinates": [
                    7.871116,
                    48.3393437
                ],
                "Distance": 90.86,
                "Frequency": 5.9,
                "RSSI": -74.75999999999999,
                "LOS": "False"
            }
        },
        {
            "type": "Feature",
            "geometry": {
                "type": "Point",
                "coordinates": [
                    7.86999249,
                    48.33955929
                ]
            },
            "properties": {
                "RSU coordinates": [
                    7.871116,
                    48.3393437
                ],
                "Distance": 86.53,
                "Frequency": 5.9,
                "RSSI": -74.34,
                "LOS": "False"
            }
        },
        {
            "type": "Feature",
            "geometry": {
                "type": "Point",
                "coordinates": [
                    7.87008611,
                    48.33966708
                ]
            },
            "properties": {
                "RSU coordinates": [
                    7.871116,
                    48.3393437
                ],
                "Distance": 84.29,
                "Frequency": 5.9,
                "RSSI": -74.12,
                "LOS": "False"
            }
        },
        {
            "type": "Feature",
            "geometry": {
                "type": "Point",
                "coordinates": [
                    7.87017973,
                    48.33977487
                ]
            },
            "properties": {
                "RSU coordinates": [
                    7.871116,
                    48.3393437
                ],
                "Distance": 84.29,
                "Frequency": 5.9,
                "RSSI": -74.12,
                "LOS": "False"
            }
        },
        {
            "type": "Feature",
            "geometry": {
                "type": "Point",
                "coordinates": [
                    7.87027336,
                    48.33988267
                ]
            },
            "properties": {
                "RSU coordinates": [
                    7.871116,
                    48.3393437
                ],
                "Distance": 86.53,
                "Frequency": 5.9,
                "RSSI": -74.34,
                "LOS": "False"
            }
        },
        {
            "type": "Feature",
            "geometry": {
                "type": "Point",
                "coordinates": [
                    7.87074149,
                    48.34042164
                ]
            },
            "properties": {
                "RSU coordinates": [
                    7.871116,
                    48.3393437
                ],
                "Distance": 123.16,
                "Frequency": 5.9,
                "RSSI": -92.37,
                "LOS": "False"
            }
        },
        {
            "type": "Feature",
            "geometry": {
                "type": "Point",
                "coordinates": [
                    7.87102237,
                    48.34074502
                ]
            },
            "properties": {
                "RSU coordinates": [
                    7.871116,
                    48.3393437
                ],
                "Distance": 156.15,
                "Frequency": 5.9,
                "RSSI": -94.41,
                "LOS": "False"
            }
        },
        {
            "type": "Feature",
            "geometry": {
                "type": "Point",
                "coordinates": [
                    7.86980525,
                    48.33912811
                ]
            },
            "properties": {
                "RSU coordinates": [
                    7.871116,
                    48.3393437
                ],
                "Distance": 99.92,
                "Frequency": 5.9,
                "RSSI": -90.58,
                "LOS": "False"
            }
        },
        {
            "type": "Feature",
            "geometry": {
                "type": "Point",
                "coordinates": [
                    7.87008611,
                    48.33945149
                ]
            },
            "properties": {
                "RSU coordinates": [
                    7.871116,
                    48.3393437
                ],
                "Distance": 77.15,
                "Frequency": 5.9,
                "RSSI": -73.36,
                "LOS": "False"
            }
        },
        {
            "type": "Feature",
            "geometry": {
                "type": "Point",
                "coordinates": [
                    7.87017974,
                    48.33955929
                ]
            },
            "properties": {
                "RSU coordinates": [
                    7.871116,
                    48.3393437
                ],
                "Distance": 73.32,
                "Frequency": 5.9,
                "RSSI": -72.92,
                "LOS": "False"
            }
        },
        {
            "type": "Feature",
            "geometry": {
                "type": "Point",
                "coordinates": [
                    7.87027336,
                    48.33966708
                ]
            },
            "properties": {
                "RSU coordinates": [
                    7.871116,
                    48.3393437
                ],
                "Distance": 72.0,
                "Frequency": 5.9,
                "RSSI": -72.77000000000001,
                "LOS": "False"
            }
        },
        {
            "type": "Feature",
            "geometry": {
                "type": "Point",
                "coordinates": [
                    7.87046061,
                    48.33988267
                ]
            },
            "properties": {
                "RSU coordinates": [
                    7.871116,
                    48.3393437
                ],
                "Distance": 77.15,
                "Frequency": 5.9,
                "RSSI": -73.36,
                "LOS": "False"
            }
        },
        {
            "type": "Feature",
            "geometry": {
                "type": "Point",
                "coordinates": [
                    7.87092874,
                    48.34042164
                ]
            },
            "properties": {
                "RSU coordinates": [
                    7.871116,
                    48.3393437
                ],
                "Distance": 120.8,
                "Frequency": 5.9,
                "RSSI": -92.2,
                "LOS": "False"
            }
        },
        {
            "type": "Feature",
            "geometry": {
                "type": "Point",
                "coordinates": [
                    7.87102237,
                    48.34052943
                ]
            },
            "properties": {
                "RSU coordinates": [
                    7.871116,
                    48.3393437
                ],
                "Distance": 132.18,
                "Frequency": 5.9,
                "RSSI": -92.97999999999999,
                "LOS": "False"
            }
        },
        {
            "type": "Feature",
            "geometry": {
                "type": "Point",
                "coordinates": [
                    7.871116,
                    48.34063722
                ]
            },
            "properties": {
                "RSU coordinates": [
                    7.871116,
                    48.3393437
                ],
                "Distance": 144.0,
                "Frequency": 5.9,
                "RSSI": -93.71000000000001,
                "LOS": "False"
            }
        },
        {
            "type": "Feature",
            "geometry": {
                "type": "Point",
                "coordinates": [
                    7.8699925,
                    48.33912811
                ]
            },
            "properties": {
                "RSU coordinates": [
                    7.871116,
                    48.3393437
                ],
                "Distance": 86.53,
                "Frequency": 5.9,
                "RSSI": -89.34,
                "LOS": "False"
            }
        },
        {
            "type": "Feature",
            "geometry": {
                "type": "Point",
                "coordinates": [
                    7.87008612,
                    48.33923591
                ]
            },
            "properties": {
                "RSU coordinates": [
                    7.871116,
                    48.3393437
                ],
                "Distance": 77.15,
                "Frequency": 5.9,
                "RSSI": -58.36,
                "LOS": "True"
            }
        },
        {
            "type": "Feature",
            "geometry": {
                "type": "Point",
                "coordinates": [
                    7.87017974,
                    48.3393437
                ]
            },
            "properties": {
                "RSU coordinates": [
                    7.871116,
                    48.3393437
                ],
                "Distance": 69.28,
                "Frequency": 5.9,
                "RSSI": -72.44,
                "LOS": "False"
            }
        },
        {
            "type": "Feature",
            "geometry": {
                "type": "Point",
                "coordinates": [
                    7.87055424,
                    48.33977487
                ]
            },
            "properties": {
                "RSU coordinates": [
                    7.871116,
                    48.3393437
                ],
                "Distance": 63.5,
                "Frequency": 5.9,
                "RSSI": -71.69,
                "LOS": "False"
            }
        },
        {
            "type": "Feature",
            "geometry": {
                "type": "Point",
                "coordinates": [
                    7.87064787,
                    48.33988267
                ]
            },
            "properties": {
                "RSU coordinates": [
                    7.871116,
                    48.3393437
                ],
                "Distance": 69.28,
                "Frequency": 5.9,
                "RSSI": -72.44,
                "LOS": "False"
            }
        },
        {
            "type": "Feature",
            "geometry": {
                "type": "Point",
                "coordinates": [
                    7.871116,
                    48.34042164
                ]
            },
            "properties": {
                "RSU coordinates": [
                    7.871116,
                    48.3393437
                ],
                "Distance": 120.0,
                "Frequency": 5.9,
                "RSSI": -92.15,
                "LOS": "False"
            }
        },
        {
            "type": "Feature",
            "geometry": {
                "type": "Point",
                "coordinates": [
                    7.87186503,
                    48.34128398
                ]
            },
            "properties": {
                "RSU coordinates": [
                    7.871116,
                    48.3393437
                ],
                "Distance": 223.0,
                "Frequency": 5.9,
                "RSSI": -97.46,
                "LOS": "False"
            }
        },
        {
            "type": "Feature",
            "geometry": {
                "type": "Point",
                "coordinates": [
                    7.87008612,
                    48.33902032
                ]
            },
            "properties": {
                "RSU coordinates": [
                    7.871116,
                    48.3393437
                ],
                "Distance": 84.29,
                "Frequency": 5.9,
                "RSSI": -89.12,
                "LOS": "False"
            }
        },
        {
            "type": "Feature",
            "geometry": {
                "type": "Point",
                "coordinates": [
                    7.87027337,
                    48.33923591
                ]
            },
            "properties": {
                "RSU coordinates": [
                    7.871116,
                    48.3393437
                ],
                "Distance": 63.5,
                "Frequency": 5.9,
                "RSSI": -56.69,
                "LOS": "True"
            }
        },
        {
            "type": "Feature",
            "geometry": {
                "type": "Point",
                "coordinates": [
                    7.87074149,
                    48.33977487
                ]
            },
            "properties": {
                "RSU coordinates": [
                    7.871116,
                    48.3393437
                ],
                "Distance": 55.43,
                "Frequency": 5.9,
                "RSSI": -70.52000000000001,
                "LOS": "False"
            }
        },
        {
            "type": "Feature",
            "geometry": {
                "type": "Point",
                "coordinates": [
                    7.87083512,
                    48.33988267
                ]
            },
            "properties": {
                "RSU coordinates": [
                    7.871116,
                    48.3393437
                ],
                "Distance": 63.5,
                "Frequency": 5.9,
                "RSSI": -71.69,
                "LOS": "False"
            }
        },
        {
            "type": "Feature",
            "geometry": {
                "type": "Point",
                "coordinates": [
                    7.87102237,
                    48.34009826
                ]
            },
            "properties": {
                "RSU coordinates": [
                    7.871116,
                    48.3393437
                ],
                "Distance": 84.29,
                "Frequency": 5.9,
                "RSSI": -74.12,
                "LOS": "False"
            }
        },
        {
            "type": "Feature",
            "geometry": {
                "type": "Point",
                "coordinates": [
                    7.871116,
                    48.34020605
                ]
            },
            "properties": {
                "RSU coordinates": [
                    7.871116,
                    48.3393437
                ],
                "Distance": 96.0,
                "Frequency": 5.9,
                "RSSI": -75.22999999999999,
                "LOS": "False"
            }
        },
        {
            "type": "Feature",
            "geometry": {
                "type": "Point",
                "coordinates": [
                    7.87158414,
                    48.34074502
                ]
            },
            "properties": {
                "RSU coordinates": [
                    7.871116,
                    48.3393437
                ],
                "Distance": 159.8,
                "Frequency": 5.9,
                "RSSI": -94.6,
                "LOS": "False"
            }
        },
        {
            "type": "Feature",
            "geometry": {
                "type": "Point",
                "coordinates": [
                    7.87167777,
                    48.34085281
                ]
            },
            "properties": {
                "RSU coordinates": [
                    7.871116,
                    48.3393437
                ],
                "Distance": 173.07,
                "Frequency": 5.9,
                "RSSI": -95.29,
                "LOS": "False"
            }
        },
        {
            "type": "Feature",
            "geometry": {
                "type": "Point",
                "coordinates": [
                    7.87046062,
                    48.33923591
                ]
            },
            "properties": {
                "RSU coordinates": [
                    7.871116,
                    48.3393437
                ],
                "Distance": 49.96,
                "Frequency": 5.9,
                "RSSI": -54.63,
                "LOS": "True"
            }
        },
        {
            "type": "Feature",
            "geometry": {
                "type": "Point",
                "coordinates": [
                    7.87092875,
                    48.33977487
                ]
            },
            "properties": {
                "RSU coordinates": [
                    7.871116,
                    48.3393437
                ],
                "Distance": 49.96,
                "Frequency": 5.9,
                "RSSI": -69.63,
                "LOS": "False"
            }
        },
        {
            "type": "Feature",
            "geometry": {
                "type": "Point",
                "coordinates": [
                    7.87102237,
                    48.33988267
                ]
            },
            "properties": {
                "RSU coordinates": [
                    7.871116,
                    48.3393437
                ],
                "Distance": 60.4,
                "Frequency": 5.9,
                "RSSI": -71.25999999999999,
                "LOS": "False"
            }
        },
        {
            "type": "Feature",
            "geometry": {
                "type": "Point",
                "coordinates": [
                    7.871116,
                    48.33999046
                ]
            },
            "properties": {
                "RSU coordinates": [
                    7.871116,
                    48.3393437
                ],
                "Distance": 72.0,
                "Frequency": 5.9,
                "RSSI": -72.77000000000001,
                "LOS": "False"
            }
        },
        {
            "type": "Feature",
            "geometry": {
                "type": "Point",
                "coordinates": [
                    7.87149051,
                    48.34042164
                ]
            },
            "properties": {
                "RSU coordinates": [
                    7.871116,
                    48.3393437
                ],
                "Distance": 123.16,
                "Frequency": 5.9,
                "RSSI": -92.37,
                "LOS": "False"
            }
        },
        {
            "type": "Feature",
            "geometry": {
                "type": "Point",
                "coordinates": [
                    7.87158414,
                    48.34052943
                ]
            },
            "properties": {
                "RSU coordinates": [
                    7.871116,
                    48.3393437
                ],
                "Distance": 136.47,
                "Frequency": 5.9,
                "RSSI": -78.25,
                "LOS": "False"
            }
        },
        {
            "type": "Feature",
            "geometry": {
                "type": "Point",
                "coordinates": [
                    7.87167777,
                    48.34063722
                ]
            },
            "properties": {
                "RSU coordinates": [
                    7.871116,
                    48.3393437
                ],
                "Distance": 149.88,
                "Frequency": 5.9,
                "RSSI": -94.05,
                "LOS": "False"
            }
        },
        {
            "type": "Feature",
            "geometry": {
                "type": "Point",
                "coordinates": [
                    7.8717714,
                    48.34074502
                ]
            },
            "properties": {
                "RSU coordinates": [
                    7.871116,
                    48.3393437
                ],
                "Distance": 163.36,
                "Frequency": 5.9,
                "RSSI": -94.79,
                "LOS": "False"
            }
        },
        {
            "type": "Feature",
            "geometry": {
                "type": "Point",
                "coordinates": [
                    7.87046062,
                    48.33902032
                ]
            },
            "properties": {
                "RSU coordinates": [
                    7.871116,
                    48.3393437
                ],
                "Distance": 60.4,
                "Frequency": 5.9,
                "RSSI": -71.25999999999999,
                "LOS": "False"
            }
        },
        {
            "type": "Feature",
            "geometry": {
                "type": "Point",
                "coordinates": [
                    7.8707415,
                    48.3393437
                ]
            },
            "properties": {
                "RSU coordinates": [
                    7.871116,
                    48.3393437
                ],
                "Distance": 27.71,
                "Frequency": 5.9,
                "RSSI": -49.58,
                "LOS": "True"
            }
        },
        {
            "type": "Feature",
            "geometry": {
                "type": "Point",
                "coordinates": [
                    7.871116,
                    48.33977487
                ]
            },
            "properties": {
                "RSU coordinates": [
                    7.871116,
                    48.3393437
                ],
                "Distance": 48.0,
                "Frequency": 5.9,
                "RSSI": -69.28999999999999,
                "LOS": "False"
            }
        },
        {
            "type": "Feature",
            "geometry": {
                "type": "Point",
                "coordinates": [
                    7.87139688,
                    48.34009826
                ]
            },
            "properties": {
                "RSU coordinates": [
                    7.871116,
                    48.3393437
                ],
                "Distance": 86.53,
                "Frequency": 5.9,
                "RSSI": -89.34,
                "LOS": "False"
            }
        },
        {
            "type": "Feature",
            "geometry": {
                "type": "Point",
                "coordinates": [
                    7.87167777,
                    48.34042164
                ]
            },
            "properties": {
                "RSU coordinates": [
                    7.871116,
                    48.3393437
                ],
                "Distance": 127.0,
                "Frequency": 5.9,
                "RSSI": -92.63,
                "LOS": "False"
            }
        },
        {
            "type": "Feature",
            "geometry": {
                "type": "Point",
                "coordinates": [
                    7.86989889,
                    48.33815797
                ]
            },
            "properties": {
                "RSU coordinates": [
                    7.871116,
                    48.3393437
                ],
                "Distance": 159.8,
                "Frequency": 5.9,
                "RSSI": -94.6,
                "LOS": "False"
            }
        },
        {
            "type": "Feature",
            "geometry": {
                "type": "Point",
                "coordinates": [
                    7.86999252,
                    48.33826576
                ]
            },
            "properties": {
                "RSU coordinates": [
                    7.871116,
                    48.3393437
                ],
                "Distance": 145.99,
                "Frequency": 5.9,
                "RSSI": -93.83,
                "LOS": "False"
            }
        },
        {
            "type": "Feature",
            "geometry": {
                "type": "Point",
                "coordinates": [
                    7.87008614,
                    48.33837356
                ]
            },
            "properties": {
                "RSU coordinates": [
                    7.871116,
                    48.3393437
                ],
                "Distance": 132.18,
                "Frequency": 5.9,
                "RSSI": -92.97999999999999,
                "LOS": "False"
            }
        },
        {
            "type": "Feature",
            "geometry": {
                "type": "Point",
                "coordinates": [
                    7.870367,
                    48.33869694
                ]
            },
            "properties": {
                "RSU coordinates": [
                    7.871116,
                    48.3393437
                ],
                "Distance": 90.86,
                "Frequency": 5.9,
                "RSSI": -89.75999999999999,
                "LOS": "False"
            }
        },
        {
            "type": "Feature",
            "geometry": {
                "type": "Point",
                "coordinates": [
                    7.87046063,
                    48.33880473
                ]
            },
            "properties": {
                "RSU coordinates": [
                    7.871116,
                    48.3393437
                ],
                "Distance": 77.15,
                "Frequency": 5.9,
                "RSSI": -88.36,
                "LOS": "False"
            }
        },
        {
            "type": "Feature",
            "geometry": {
                "type": "Point",
                "coordinates": [
                    7.87092875,
                    48.3393437
                ]
            },
            "properties": {
                "RSU coordinates": [
                    7.871116,
                    48.3393437
                ],
                "Distance": 13.86,
                "Frequency": 5.9,
                "RSSI": -43.63,
                "LOS": "True"
            }
        },
        {
            "type": "Feature",
            "geometry": {
                "type": "Point",
                "coordinates": [
                    7.871116,
                    48.33955929
                ]
            },
            "properties": {
                "RSU coordinates": [
                    7.871116,
                    48.3393437
                ],
                "Distance": 24.0,
                "Frequency": 5.9,
                "RSSI": -63.34,
                "LOS": "False"
            }
        },
        {
            "type": "Feature",
            "geometry": {
                "type": "Point",
                "coordinates": [
                    7.87120963,
                    48.33966708
                ]
            },
            "properties": {
                "RSU coordinates": [
                    7.871116,
                    48.3393437
                ],
                "Distance": 36.66,
                "Frequency": 5.9,
                "RSSI": -66.97999999999999,
                "LOS": "False"
            }
        },
        {
            "type": "Feature",
            "geometry": {
                "type": "Point",
                "coordinates": [
                    7.87149051,
                    48.33999046
                ]
            },
            "properties": {
                "RSU coordinates": [
                    7.871116,
                    48.3393437
                ],
                "Distance": 77.15,
                "Frequency": 5.9,
                "RSSI": -73.36,
                "LOS": "False"
            }
        },
        {
            "type": "Feature",
            "geometry": {
                "type": "Point",
                "coordinates": [
                    7.87158414,
                    48.34009826
                ]
            },
            "properties": {
                "RSU coordinates": [
                    7.871116,
                    48.3393437
                ],
                "Distance": 90.86,
                "Frequency": 5.9,
                "RSSI": -74.75999999999999,
                "LOS": "False"
            }
        },
        {
            "type": "Feature",
            "geometry": {
                "type": "Point",
                "coordinates": [
                    7.87046063,
                    48.33858914
                ]
            },
            "properties": {
                "RSU coordinates": [
                    7.871116,
                    48.3393437
                ],
                "Distance": 96.99,
                "Frequency": 5.9,
                "RSSI": -90.32,
                "LOS": "False"
            }
        },
        {
            "type": "Feature",
            "geometry": {
                "type": "Point",
                "coordinates": [
                    7.87055425,
                    48.33869694
                ]
            },
            "properties": {
                "RSU coordinates": [
                    7.871116,
                    48.3393437
                ],
                "Distance": 83.14,
                "Frequency": 5.9,
                "RSSI": -89.0,
                "LOS": "False"
            }
        },
        {
            "type": "Feature",
            "geometry": {
                "type": "Point",
                "coordinates": [
                    7.87064788,
                    48.33880473
                ]
            },
            "properties": {
                "RSU coordinates": [
                    7.871116,
                    48.3393437
                ],
                "Distance": 69.28,
                "Frequency": 5.9,
                "RSSI": -87.44,
                "LOS": "False"
            }
        },
        {
            "type": "Feature",
            "geometry": {
                "type": "Point",
                "coordinates": [
                    7.87102237,
                    48.33923591
                ]
            },
            "properties": {
                "RSU coordinates": [
                    7.871116,
                    48.3393437
                ],
                "Distance": 13.86,
                "Frequency": 5.9,
                "RSSI": -43.63,
                "LOS": "True"
            }
        },
        {
            "type": "Feature",
            "geometry": {
                "type": "Point",
                "coordinates": [
                    7.87120963,
                    48.33945149
                ]
            },
            "properties": {
                "RSU coordinates": [
                    7.871116,
                    48.3393437
                ],
                "Distance": 13.86,
                "Frequency": 5.9,
                "RSSI": -43.63,
                "LOS": "True"
            }
        },
        {
            "type": "Feature",
            "geometry": {
                "type": "Point",
                "coordinates": [
                    7.87130325,
                    48.33955929
                ]
            },
            "properties": {
                "RSU coordinates": [
                    7.871116,
                    48.3393437
                ],
                "Distance": 27.71,
                "Frequency": 5.9,
                "RSSI": -49.58,
                "LOS": "True"
            }
        },
        {
            "type": "Feature",
            "geometry": {
                "type": "Point",
                "coordinates": [
                    7.87167776,
                    48.33999046
                ]
            },
            "properties": {
                "RSU coordinates": [
                    7.871116,
                    48.3393437
                ],
                "Distance": 83.14,
                "Frequency": 5.9,
                "RSSI": -74.0,
                "LOS": "False"
            }
        },
        {
            "type": "Feature",
            "geometry": {
                "type": "Point",
                "coordinates": [
                    7.87177139,
                    48.34009826
                ]
            },
            "properties": {
                "RSU coordinates": [
                    7.871116,
                    48.3393437
                ],
                "Distance": 96.99,
                "Frequency": 5.9,
                "RSSI": -75.32,
                "LOS": "False"
            }
        },
        {
            "type": "Feature",
            "geometry": {
                "type": "Point",
                "coordinates": [
                    7.87064788,
                    48.33858914
                ]
            },
            "properties": {
                "RSU coordinates": [
                    7.871116,
                    48.3393437
                ],
                "Distance": 90.86,
                "Frequency": 5.9,
                "RSSI": -89.75999999999999,
                "LOS": "False"
            }
        },
        {
            "type": "Feature",
            "geometry": {
                "type": "Point",
                "coordinates": [
                    7.871116,
                    48.33912811
                ]
            },
            "properties": {
                "RSU coordinates": [
                    7.871116,
                    48.3393437
                ],
                "Distance": 24.0,
                "Frequency": 5.9,
                "RSSI": -48.34,
                "LOS": "True"
            }
        },
        {
            "type": "Feature",
            "geometry": {
                "type": "Point",
                "coordinates": [
                    7.87120963,
                    48.33923591
                ]
            },
            "properties": {
                "RSU coordinates": [
                    7.871116,
                    48.3393437
                ],
                "Distance": 13.86,
                "Frequency": 5.9,
                "RSSI": -43.63,
                "LOS": "True"
            }
        },
        {
            "type": "Feature",
            "geometry": {
                "type": "Point",
                "coordinates": [
                    7.87130325,
                    48.3393437
                ]
            },
            "properties": {
                "RSU coordinates": [
                    7.871116,
                    48.3393437
                ],
                "Distance": 13.86,
                "Frequency": 5.9,
                "RSSI": -43.63,
                "LOS": "True"
            }
        },
        {
            "type": "Feature",
            "geometry": {
                "type": "Point",
                "coordinates": [
                    7.87139688,
                    48.33945149
                ]
            },
            "properties": {
                "RSU coordinates": [
                    7.871116,
                    48.3393437
                ],
                "Distance": 24.0,
                "Frequency": 5.9,
                "RSSI": -48.34,
                "LOS": "True"
            }
        },
        {
            "type": "Feature",
            "geometry": {
                "type": "Point",
                "coordinates": [
                    7.87177139,
                    48.33988267
                ]
            },
            "properties": {
                "RSU coordinates": [
                    7.871116,
                    48.3393437
                ],
                "Distance": 77.15,
                "Frequency": 5.9,
                "RSSI": -73.36,
                "LOS": "False"
            }
        },
        {
            "type": "Feature",
            "geometry": {
                "type": "Point",
                "coordinates": [
                    7.87195864,
                    48.34009826
                ]
            },
            "properties": {
                "RSU coordinates": [
                    7.871116,
                    48.3393437
                ],
                "Distance": 104.61,
                "Frequency": 5.9,
                "RSSI": -90.97,
                "LOS": "False"
            }
        },
        {
            "type": "Feature",
            "geometry": {
                "type": "Point",
                "coordinates": [
                    7.87083513,
                    48.33858914
                ]
            },
            "properties": {
                "RSU coordinates": [
                    7.871116,
                    48.3393437
                ],
                "Distance": 86.53,
                "Frequency": 5.9,
                "RSSI": -89.34,
                "LOS": "False"
            }
        },
        {
            "type": "Feature",
            "geometry": {
                "type": "Point",
                "coordinates": [
                    7.871116,
                    48.33891253
                ]
            },
            "properties": {
                "RSU coordinates": [
                    7.871116,
                    48.3393437
                ],
                "Distance": 48.0,
                "Frequency": 5.9,
                "RSSI": -54.29,
                "LOS": "True"
            }
        },
        {
            "type": "Feature",
            "geometry": {
                "type": "Point",
                "coordinates": [
                    7.87130325,
                    48.33912811
                ]
            },
            "properties": {
                "RSU coordinates": [
                    7.871116,
                    48.3393437
                ],
                "Distance": 27.71,
                "Frequency": 5.9,
                "RSSI": -49.58,
                "LOS": "True"
            }
        },
        {
            "type": "Feature",
            "geometry": {
                "type": "Point",
                "coordinates": [
                    7.87139688,
                    48.33923591
                ]
            },
            "properties": {
                "RSU coordinates": [
                    7.871116,
                    48.3393437
                ],
                "Distance": 24.0,
                "Frequency": 5.9,
                "RSSI": -48.34,
                "LOS": "True"
            }
        },
        {
            "type": "Feature",
            "geometry": {
                "type": "Point",
                "coordinates": [
                    7.8714905,
                    48.3393437
                ]
            },
            "properties": {
                "RSU coordinates": [
                    7.871116,
                    48.3393437
                ],
                "Distance": 27.71,
                "Frequency": 5.9,
                "RSSI": -49.58,
                "LOS": "True"
            }
        },
        {
            "type": "Feature",
            "geometry": {
                "type": "Point",
                "coordinates": [
                    7.87158413,
                    48.33945149
                ]
            },
            "properties": {
                "RSU coordinates": [
                    7.871116,
                    48.3393437
                ],
                "Distance": 36.66,
                "Frequency": 5.9,
                "RSSI": -51.98,
                "LOS": "True"
            }
        },
        {
            "type": "Feature",
            "geometry": {
                "type": "Point",
                "coordinates": [
                    7.87167776,
                    48.33955929
                ]
            },
            "properties": {
                "RSU coordinates": [
                    7.871116,
                    48.3393437
                ],
                "Distance": 48.0,
                "Frequency": 5.9,
                "RSSI": -69.28999999999999,
                "LOS": "False"
            }
        },
        {
            "type": "Feature",
            "geometry": {
                "type": "Point",
                "coordinates": [
                    7.87177138,
                    48.33966708
                ]
            },
            "properties": {
                "RSU coordinates": [
                    7.871116,
                    48.3393437
                ],
                "Distance": 60.4,
                "Frequency": 5.9,
                "RSSI": -71.25999999999999,
                "LOS": "False"
            }
        },
        {
            "type": "Feature",
            "geometry": {
                "type": "Point",
                "coordinates": [
                    7.87186501,
                    48.33977487
                ]
            },
            "properties": {
                "RSU coordinates": [
                    7.871116,
                    48.3393437
                ],
                "Distance": 73.32,
                "Frequency": 5.9,
                "RSSI": -72.92,
                "LOS": "False"
            }
        },
        {
            "type": "Feature",
            "geometry": {
                "type": "Point",
                "coordinates": [
                    7.87102238,
                    48.33858914
                ]
            },
            "properties": {
                "RSU coordinates": [
                    7.871116,
                    48.3393437
                ],
                "Distance": 84.29,
                "Frequency": 5.9,
                "RSSI": -74.12,
                "LOS": "False"
            }
        },
        {
            "type": "Feature",
            "geometry": {
                "type": "Point",
                "coordinates": [
                    7.871116,
                    48.33869694
                ]
            },
            "properties": {
                "RSU coordinates": [
                    7.871116,
                    48.3393437
                ],
                "Distance": 72.0,
                "Frequency": 5.9,
                "RSSI": -57.77,
                "LOS": "True"
            }
        },
        {
            "type": "Feature",
            "geometry": {
                "type": "Point",
                "coordinates": [
                    7.87158413,
                    48.33923591
                ]
            },
            "properties": {
                "RSU coordinates": [
                    7.871116,
                    48.3393437
                ],
                "Distance": 36.66,
                "Frequency": 5.9,
                "RSSI": -51.98,
                "LOS": "True"
            }
        },
        {
            "type": "Feature",
            "geometry": {
                "type": "Point",
                "coordinates": [
                    7.87186501,
                    48.33955929
                ]
            },
            "properties": {
                "RSU coordinates": [
                    7.871116,
                    48.3393437
                ],
                "Distance": 60.4,
                "Frequency": 5.9,
                "RSSI": -71.25999999999999,
                "LOS": "False"
            }
        },
        {
            "type": "Feature",
            "geometry": {
                "type": "Point",
                "coordinates": [
                    7.87195864,
                    48.33966708
                ]
            },
            "properties": {
                "RSU coordinates": [
                    7.871116,
                    48.3393437
                ],
                "Distance": 72.0,
                "Frequency": 5.9,
                "RSSI": -72.77000000000001,
                "LOS": "False"
            }
        },
        {
            "type": "Feature",
            "geometry": {
                "type": "Point",
                "coordinates": [
                    7.871116,
                    48.33848135
                ]
            },
            "properties": {
                "RSU coordinates": [
                    7.871116,
                    48.3393437
                ],
                "Distance": 96.0,
                "Frequency": 5.9,
                "RSSI": -75.22999999999999,
                "LOS": "False"
            }
        },
        {
            "type": "Feature",
            "geometry": {
                "type": "Point",
                "coordinates": [
                    7.87130325,
                    48.33869694
                ]
            },
            "properties": {
                "RSU coordinates": [
                    7.871116,
                    48.3393437
                ],
                "Distance": 73.32,
                "Frequency": 5.9,
                "RSSI": -72.92,
                "LOS": "False"
            }
        },
        {
            "type": "Feature",
            "geometry": {
                "type": "Point",
                "coordinates": [
                    7.87205226,
                    48.33955929
                ]
            },
            "properties": {
                "RSU coordinates": [
                    7.871116,
                    48.3393437
                ],
                "Distance": 73.32,
                "Frequency": 5.9,
                "RSSI": -72.92,
                "LOS": "False"
            }
        },
        {
            "type": "Feature",
            "geometry": {
                "type": "Point",
                "coordinates": [
                    7.87214589,
                    48.33966708
                ]
            },
            "properties": {
                "RSU coordinates": [
                    7.871116,
                    48.3393437
                ],
                "Distance": 84.29,
                "Frequency": 5.9,
                "RSSI": -74.12,
                "LOS": "False"
            }
        },
        {
            "type": "Feature",
            "geometry": {
                "type": "Point",
                "coordinates": [
                    7.87102238,
                    48.33815797
                ]
            },
            "properties": {
                "RSU coordinates": [
                    7.871116,
                    48.3393437
                ],
                "Distance": 132.18,
                "Frequency": 5.9,
                "RSSI": -92.97999999999999,
                "LOS": "False"
            }
        },
        {
            "type": "Feature",
            "geometry": {
                "type": "Point",
                "coordinates": [
                    7.87120962,
                    48.33837356
                ]
            },
            "properties": {
                "RSU coordinates": [
                    7.871116,
                    48.3393437
                ],
                "Distance": 108.22,
                "Frequency": 5.9,
                "RSSI": -91.25999999999999,
                "LOS": "False"
            }
        },
        {
            "type": "Feature",
            "geometry": {
                "type": "Point",
                "coordinates": [
                    7.87130325,
                    48.33848135
                ]
            },
            "properties": {
                "RSU coordinates": [
                    7.871116,
                    48.3393437
                ],
                "Distance": 96.99,
                "Frequency": 5.9,
                "RSSI": -90.32,
                "LOS": "False"
            }
        },
        {
            "type": "Feature",
            "geometry": {
                "type": "Point",
                "coordinates": [
                    7.871865,
                    48.33912811
                ]
            },
            "properties": {
                "RSU coordinates": [
                    7.871116,
                    48.3393437
                ],
                "Distance": 60.4,
                "Frequency": 5.9,
                "RSSI": -56.26,
                "LOS": "True"
            }
        },
        {
            "type": "Feature",
            "geometry": {
                "type": "Point",
                "coordinates": [
                    7.87214589,
                    48.33945149
                ]
            },
            "properties": {
                "RSU coordinates": [
                    7.871116,
                    48.3393437
                ],
                "Distance": 77.15,
                "Frequency": 5.9,
                "RSSI": -88.36,
                "LOS": "False"
            }
        },
        {
            "type": "Feature",
            "geometry": {
                "type": "Point",
                "coordinates": [
                    7.87223951,
                    48.33955929
                ]
            },
            "properties": {
                "RSU coordinates": [
                    7.871116,
                    48.3393437
                ],
                "Distance": 86.53,
                "Frequency": 5.9,
                "RSSI": -74.34,
                "LOS": "False"
            }
        },
        {
            "type": "Feature",
            "geometry": {
                "type": "Point",
                "coordinates": [
                    7.87120962,
                    48.33815797
                ]
            },
            "properties": {
                "RSU coordinates": [
                    7.871116,
                    48.3393437
                ],
                "Distance": 132.18,
                "Frequency": 5.9,
                "RSSI": -92.97999999999999,
                "LOS": "False"
            }
        },
        {
            "type": "Feature",
            "geometry": {
                "type": "Point",
                "coordinates": [
                    7.87158412,
                    48.33858914
                ]
            },
            "properties": {
                "RSU coordinates": [
                    7.871116,
                    48.3393437
                ],
                "Distance": 90.86,
                "Frequency": 5.9,
                "RSSI": -74.75999999999999,
                "LOS": "False"
            }
        },
        {
            "type": "Feature",
            "geometry": {
                "type": "Point",
                "coordinates": [
                    7.87233314,
                    48.33945149
                ]
            },
            "properties": {
                "RSU coordinates": [
                    7.871116,
                    48.3393437
                ],
                "Distance": 90.86,
                "Frequency": 5.9,
                "RSSI": -89.75999999999999,
                "LOS": "False"
            }
        },
        {
            "type": "Feature",
            "geometry": {
                "type": "Point",
                "coordinates": [
                    7.87242677,
                    48.33955929
                ]
            },
            "properties": {
                "RSU coordinates": [
                    7.871116,
                    48.3393437
                ],
                "Distance": 99.92,
                "Frequency": 5.9,
                "RSSI": -90.58,
                "LOS": "False"
            }
        },
        {
            "type": "Feature",
            "geometry": {
                "type": "Point",
                "coordinates": [
                    7.87252039,
                    48.33966708
                ]
            },
            "properties": {
                "RSU coordinates": [
                    7.871116,
                    48.3393437
                ],
                "Distance": 109.98,
                "Frequency": 5.9,
                "RSSI": -91.4,
                "LOS": "False"
            }
        },
        {
            "type": "Feature",
            "geometry": {
                "type": "Point",
                "coordinates": [
                    7.87130325,
                    48.33805018
                ]
            },
            "properties": {
                "RSU coordinates": [
                    7.871116,
                    48.3393437
                ],
                "Distance": 144.67,
                "Frequency": 5.9,
                "RSSI": -93.75,
                "LOS": "False"
            }
        },
        {
            "type": "Feature",
            "geometry": {
                "type": "Point",
                "coordinates": [
                    7.87139687,
                    48.33815797
                ]
            },
            "properties": {
                "RSU coordinates": [
                    7.871116,
                    48.3393437
                ],
                "Distance": 133.63,
                "Frequency": 5.9,
                "RSSI": -93.07,
                "LOS": "False"
            }
        },
        {
            "type": "Feature",
            "geometry": {
                "type": "Point",
                "coordinates": [
                    7.87149049,
                    48.33826576
                ]
            },
            "properties": {
                "RSU coordinates": [
                    7.871116,
                    48.3393437
                ],
                "Distance": 123.16,
                "Frequency": 5.9,
                "RSSI": -92.37,
                "LOS": "False"
            }
        },
        {
            "type": "Feature",
            "geometry": {
                "type": "Point",
                "coordinates": [
                    7.87158412,
                    48.33837356
                ]
            },
            "properties": {
                "RSU coordinates": [
                    7.871116,
                    48.3393437
                ],
                "Distance": 113.42,
                "Frequency": 5.9,
                "RSSI": -91.66,
                "LOS": "False"
            }
        },
        {
            "type": "Feature",
            "geometry": {
                "type": "Point",
                "coordinates": [
                    7.87167774,
                    48.33848135
                ]
            },
            "properties": {
                "RSU coordinates": [
                    7.871116,
                    48.3393437
                ],
                "Distance": 104.61,
                "Frequency": 5.9,
                "RSSI": -75.97,
                "LOS": "False"
            }
        },
        {
            "type": "Feature",
            "geometry": {
                "type": "Point",
                "coordinates": [
                    7.87177137,
                    48.33858914
                ]
            },
            "properties": {
                "RSU coordinates": [
                    7.871116,
                    48.3393437
                ],
                "Distance": 96.99,
                "Frequency": 5.9,
                "RSSI": -75.32,
                "LOS": "False"
            }
        },
        {
            "type": "Feature",
            "geometry": {
                "type": "Point",
                "coordinates": [
                    7.871865,
                    48.33869694
                ]
            },
            "properties": {
                "RSU coordinates": [
                    7.871116,
                    48.3393437
                ],
                "Distance": 90.86,
                "Frequency": 5.9,
                "RSSI": -89.75999999999999,
                "LOS": "False"
            }
        },
        {
            "type": "Feature",
            "geometry": {
                "type": "Point",
                "coordinates": [
                    7.87214588,
                    48.33902032
                ]
            },
            "properties": {
                "RSU coordinates": [
                    7.871116,
                    48.3393437
                ],
                "Distance": 84.29,
                "Frequency": 5.9,
                "RSSI": -74.12,
                "LOS": "False"
            }
        },
        {
            "type": "Feature",
            "geometry": {
                "type": "Point",
                "coordinates": [
                    7.87252039,
                    48.33945149
                ]
            },
            "properties": {
                "RSU coordinates": [
                    7.871116,
                    48.3393437
                ],
                "Distance": 104.61,
                "Frequency": 5.9,
                "RSSI": -90.97,
                "LOS": "False"
            }
        },
        {
            "type": "Feature",
            "geometry": {
                "type": "Point",
                "coordinates": [
                    7.87261402,
                    48.33955929
                ]
            },
            "properties": {
                "RSU coordinates": [
                    7.871116,
                    48.3393437
                ],
                "Distance": 113.42,
                "Frequency": 5.9,
                "RSSI": -91.66,
                "LOS": "False"
            }
        },
        {
            "type": "Feature",
            "geometry": {
                "type": "Point",
                "coordinates": [
                    7.87139687,
                    48.33794238
                ]
            },
            "properties": {
                "RSU coordinates": [
                    7.871116,
                    48.3393437
                ],
                "Distance": 157.38,
                "Frequency": 5.9,
                "RSSI": -94.47,
                "LOS": "False"
            }
        },
        {
            "type": "Feature",
            "geometry": {
                "type": "Point",
                "coordinates": [
                    7.87158412,
                    48.33815797
                ]
            },
            "properties": {
                "RSU coordinates": [
                    7.871116,
                    48.3393437
                ],
                "Distance": 136.47,
                "Frequency": 5.9,
                "RSSI": -93.25,
                "LOS": "False"
            }
        },
        {
            "type": "Feature",
            "geometry": {
                "type": "Point",
                "coordinates": [
                    7.87167774,
                    48.33826576
                ]
            },
            "properties": {
                "RSU coordinates": [
                    7.871116,
                    48.3393437
                ],
                "Distance": 127.0,
                "Frequency": 5.9,
                "RSSI": -92.63,
                "LOS": "False"
            }
        },
        {
            "type": "Feature",
            "geometry": {
                "type": "Point",
                "coordinates": [
                    7.87177137,
                    48.33837356
                ]
            },
            "properties": {
                "RSU coordinates": [
                    7.871116,
                    48.3393437
                ],
                "Distance": 118.39,
                "Frequency": 5.9,
                "RSSI": -77.03,
                "LOS": "False"
            }
        },
        {
            "type": "Feature",
            "geometry": {
                "type": "Point",
                "coordinates": [
                    7.87186499,
                    48.33848135
                ]
            },
            "properties": {
                "RSU coordinates": [
                    7.871116,
                    48.3393437
                ],
                "Distance": 110.85,
                "Frequency": 5.9,
                "RSSI": -76.47,
                "LOS": "False"
            }
        },
        {
            "type": "Feature",
            "geometry": {
                "type": "Point",
                "coordinates": [
                    7.87233313,
                    48.33902032
                ]
            },
            "properties": {
                "RSU coordinates": [
                    7.871116,
                    48.3393437
                ],
                "Distance": 96.99,
                "Frequency": 5.9,
                "RSSI": -75.32,
                "LOS": "False"
            }
        },
        {
            "type": "Feature",
            "geometry": {
                "type": "Point",
                "coordinates": [
                    7.87139687,
                    48.3377268
                ]
            },
            "properties": {
                "RSU coordinates": [
                    7.871116,
                    48.3393437
                ],
                "Distance": 181.2,
                "Frequency": 5.9,
                "RSSI": -95.68,
                "LOS": "False"
            }
        },
        {
            "type": "Feature",
            "geometry": {
                "type": "Point",
                "coordinates": [
                    7.87167774,
                    48.33805018
                ]
            },
            "properties": {
                "RSU coordinates": [
                    7.871116,
                    48.3393437
                ],
                "Distance": 149.88,
                "Frequency": 5.9,
                "RSSI": -94.05,
                "LOS": "False"
            }
        },
        {
            "type": "Feature",
            "geometry": {
                "type": "Point",
                "coordinates": [
                    7.87177136,
                    48.33815797
                ]
            },
            "properties": {
                "RSU coordinates": [
                    7.871116,
                    48.3393437
                ],
                "Distance": 140.63,
                "Frequency": 5.9,
                "RSSI": -93.50999999999999,
                "LOS": "False"
            }
        },
        {
            "type": "Feature",
            "geometry": {
                "type": "Point",
                "coordinates": [
                    7.87186499,
                    48.33826576
                ]
            },
            "properties": {
                "RSU coordinates": [
                    7.871116,
                    48.3393437
                ],
                "Distance": 132.18,
                "Frequency": 5.9,
                "RSSI": -77.97999999999999,
                "LOS": "False"
            }
        },
        {
            "type": "Feature",
            "geometry": {
                "type": "Point",
                "coordinates": [
                    7.87195862,
                    48.33837356
                ]
            },
            "properties": {
                "RSU coordinates": [
                    7.871116,
                    48.3393437
                ],
                "Distance": 124.71,
                "Frequency": 5.9,
                "RSSI": -77.47999999999999,
                "LOS": "False"
            }
        },
        {
            "type": "Feature",
            "geometry": {
                "type": "Point",
                "coordinates": [
                    7.87242675,
                    48.33891253
                ]
            },
            "properties": {
                "RSU coordinates": [
                    7.871116,
                    48.3393437
                ],
                "Distance": 108.22,
                "Frequency": 5.9,
                "RSSI": -76.25999999999999,
                "LOS": "False"
            }
        },
        {
            "type": "Feature",
            "geometry": {
                "type": "Point",
                "coordinates": [
                    7.87298852,
                    48.33955929
                ]
            },
            "properties": {
                "RSU coordinates": [
                    7.871116,
                    48.3393437
                ],
                "Distance": 140.63,
                "Frequency": 5.9,
                "RSSI": -93.50999999999999,
                "LOS": "False"
            }
        },
        {
            "type": "Feature",
            "geometry": {
                "type": "Point",
                "coordinates": [
                    7.87139687,
                    48.33751121
                ]
            },
            "properties": {
                "RSU coordinates": [
                    7.871116,
                    48.3393437
                ],
                "Distance": 205.06,
                "Frequency": 5.9,
                "RSSI": -96.74,
                "LOS": "False"
            }
        },
        {
            "type": "Feature",
            "geometry": {
                "type": "Point",
                "coordinates": [
                    7.87149049,
                    48.337619
                ]
            },
            "properties": {
                "RSU coordinates": [
                    7.871116,
                    48.3393437
                ],
                "Distance": 193.99,
                "Frequency": 5.9,
                "RSSI": -96.27,
                "LOS": "False"
            }
        },
        {
            "type": "Feature",
            "geometry": {
                "type": "Point",
                "coordinates": [
                    7.87186499,
                    48.33805018
                ]
            },
            "properties": {
                "RSU coordinates": [
                    7.871116,
                    48.3393437
                ],
                "Distance": 154.3,
                "Frequency": 5.9,
                "RSSI": -94.3,
                "LOS": "False"
            }
        },
        {
            "type": "Feature",
            "geometry": {
                "type": "Point",
                "coordinates": [
                    7.87195861,
                    48.33815797
                ]
            },
            "properties": {
                "RSU coordinates": [
                    7.871116,
                    48.3393437
                ],
                "Distance": 145.99,
                "Frequency": 5.9,
                "RSSI": -78.83,
                "LOS": "False"
            }
        },
        {
            "type": "Feature",
            "geometry": {
                "type": "Point",
                "coordinates": [
                    7.87205224,
                    48.33826576
                ]
            },
            "properties": {
                "RSU coordinates": [
                    7.871116,
                    48.3393437
                ],
                "Distance": 138.56,
                "Frequency": 5.9,
                "RSSI": -78.38,
                "LOS": "False"
            }
        },
        {
            "type": "Feature",
            "geometry": {
                "type": "Point",
                "coordinates": [
                    7.872614,
                    48.33891253
                ]
            },
            "properties": {
                "RSU coordinates": [
                    7.871116,
                    48.3393437
                ],
                "Distance": 120.8,
                "Frequency": 5.9,
                "RSSI": -77.2,
                "LOS": "False"
            }
        },
        {
            "type": "Feature",
            "geometry": {
                "type": "Point",
                "coordinates": [
                    7.87139687,
                    48.33729562
                ]
            },
            "properties": {
                "RSU coordinates": [
                    7.871116,
                    48.3393437
                ],
                "Distance": 228.95,
                "Frequency": 5.9,
                "RSSI": -97.69,
                "LOS": "False"
            }
        },
        {
            "type": "Feature",
            "geometry": {
                "type": "Point",
                "coordinates": [
                    7.87149049,
                    48.33740342
                ]
            },
            "properties": {
                "RSU coordinates": [
                    7.871116,
                    48.3393437
                ],
                "Distance": 217.77,
                "Frequency": 5.9,
                "RSSI": -97.26,
                "LOS": "False"
            }
        },
        {
            "type": "Feature",
            "geometry": {
                "type": "Point",
                "coordinates": [
                    7.87205223,
                    48.33805018
                ]
            },
            "properties": {
                "RSU coordinates": [
                    7.871116,
                    48.3393437
                ],
                "Distance": 159.8,
                "Frequency": 5.9,
                "RSSI": -79.6,
                "LOS": "False"
            }
        },
        {
            "type": "Feature",
            "geometry": {
                "type": "Point",
                "coordinates": [
                    7.87214586,
                    48.33815797
                ]
            },
            "properties": {
                "RSU coordinates": [
                    7.871116,
                    48.3393437
                ],
                "Distance": 152.42,
                "Frequency": 5.9,
                "RSSI": -79.2,
                "LOS": "False"
            }
        },
        {
            "type": "Feature",
            "geometry": {
                "type": "Point",
                "coordinates": [
                    7.87270762,
                    48.33880473
                ]
            },
            "properties": {
                "RSU coordinates": [
                    7.871116,
                    48.3393437
                ],
                "Distance": 132.18,
                "Frequency": 5.9,
                "RSSI": -92.97999999999999,
                "LOS": "False"
            }
        },
        {
            "type": "Feature",
            "geometry": {
                "type": "Point",
                "coordinates": [
                    7.87149049,
                    48.33718783
                ]
            },
            "properties": {
                "RSU coordinates": [
                    7.871116,
                    48.3393437
                ],
                "Distance": 241.59,
                "Frequency": 5.9,
                "RSSI": -98.15,
                "LOS": "False"
            }
        },
        {
            "type": "Feature",
            "geometry": {
                "type": "Point",
                "coordinates": [
                    7.87205223,
                    48.33783459
                ]
            },
            "properties": {
                "RSU coordinates": [
                    7.871116,
                    48.3393437
                ],
                "Distance": 181.73,
                "Frequency": 5.9,
                "RSSI": -95.71,
                "LOS": "False"
            }
        },
        {
            "type": "Feature",
            "geometry": {
                "type": "Point",
                "coordinates": [
                    7.87223948,
                    48.33805018
                ]
            },
            "properties": {
                "RSU coordinates": [
                    7.871116,
                    48.3393437
                ],
                "Distance": 166.28,
                "Frequency": 5.9,
                "RSSI": -79.94,
                "LOS": "False"
            }
        },
        {
            "type": "Feature",
            "geometry": {
                "type": "Point",
                "coordinates": [
                    7.87149049,
                    48.33697224
                ]
            },
            "properties": {
                "RSU coordinates": [
                    7.871116,
                    48.3393437
                ],
                "Distance": 265.45,
                "Frequency": 5.9,
                "RSSI": -98.96,
                "LOS": "False"
            }
        },
        {
            "type": "Feature",
            "geometry": {
                "type": "Point",
                "coordinates": [
                    7.87158411,
                    48.33708003
                ]
            },
            "properties": {
                "RSU coordinates": [
                    7.871116,
                    48.3393437
                ],
                "Distance": 254.37,
                "Frequency": 5.9,
                "RSSI": -98.59,
                "LOS": "False"
            }
        },
        {
            "type": "Feature",
            "geometry": {
                "type": "Point",
                "coordinates": [
                    7.87214585,
                    48.3377268
                ]
            },
            "properties": {
                "RSU coordinates": [
                    7.871116,
                    48.3393437
                ],
                "Distance": 195.47,
                "Frequency": 5.9,
                "RSSI": -96.33,
                "LOS": "False"
            }
        },
        {
            "type": "Feature",
            "geometry": {
                "type": "Point",
                "coordinates": [
                    7.87223948,
                    48.33783459
                ]
            },
            "properties": {
                "RSU coordinates": [
                    7.871116,
                    48.3393437
                ],
                "Distance": 187.45,
                "Frequency": 5.9,
                "RSSI": -95.97,
                "LOS": "False"
            }
        },
        {
            "type": "Feature",
            "geometry": {
                "type": "Point",
                "coordinates": [
                    7.87149048,
                    48.33675665
                ]
            },
            "properties": {
                "RSU coordinates": [
                    7.871116,
                    48.3393437
                ],
                "Distance": 289.33,
                "Frequency": 5.9,
                "RSSI": -99.7,
                "LOS": "False"
            }
        },
        {
            "type": "Feature",
            "geometry": {
                "type": "Point",
                "coordinates": [
                    7.87158411,
                    48.33686445
                ]
            },
            "properties": {
                "RSU coordinates": [
                    7.871116,
                    48.3393437
                ],
                "Distance": 278.17,
                "Frequency": 5.9,
                "RSSI": -99.36,
                "LOS": "False"
            }
        },
        {
            "type": "Feature",
            "geometry": {
                "type": "Point",
                "coordinates": [
                    7.87223947,
                    48.337619
                ]
            },
            "properties": {
                "RSU coordinates": [
                    7.871116,
                    48.3393437
                ],
                "Distance": 209.23,
                "Frequency": 5.9,
                "RSSI": -96.92,
                "LOS": "False"
            }
        },
        {
            "type": "Feature",
            "geometry": {
                "type": "Point",
                "coordinates": [
                    7.8723331,
                    48.3377268
                ]
            },
            "properties": {
                "RSU coordinates": [
                    7.871116,
                    48.3393437
                ],
                "Distance": 201.28,
                "Frequency": 5.9,
                "RSSI": -96.58,
                "LOS": "False"
            }
        },
        {
            "type": "Feature",
            "geometry": {
                "type": "Point",
                "coordinates": [
                    7.87242672,
                    48.33783459
                ]
            },
            "properties": {
                "RSU coordinates": [
                    7.871116,
                    48.3393437
                ],
                "Distance": 193.99,
                "Frequency": 5.9,
                "RSSI": -96.27,
                "LOS": "False"
            }
        },
        {
            "type": "Feature",
            "geometry": {
                "type": "Point",
                "coordinates": [
                    7.87167773,
                    48.33675665
                ]
            },
            "properties": {
                "RSU coordinates": [
                    7.871116,
                    48.3393437
                ],
                "Distance": 290.98,
                "Frequency": 5.9,
                "RSSI": -99.74,
                "LOS": "False"
            }
        },
        {
            "type": "Feature",
            "geometry": {
                "type": "Point",
                "coordinates": [
                    7.87242672,
                    48.337619
                ]
            },
            "properties": {
                "RSU coordinates": [
                    7.871116,
                    48.3393437
                ],
                "Distance": 215.11,
                "Frequency": 5.9,
                "RSSI": -97.15,
                "LOS": "False"
            }
        },
        {
            "type": "Feature",
            "geometry": {
                "type": "Point",
                "coordinates": [
                    7.87242671,
                    48.33740342
                ]
            },
            "properties": {
                "RSU coordinates": [
                    7.871116,
                    48.3393437
                ],
                "Distance": 236.78,
                "Frequency": 5.9,
                "RSSI": -97.98,
                "LOS": "False"
            }
        },
        {
            "type": "Feature",
            "geometry": {
                "type": "Point",
                "coordinates": [
                    7.87252033,
                    48.33729562
                ]
            },
            "properties": {
                "RSU coordinates": [
                    7.871116,
                    48.3393437
                ],
                "Distance": 250.57,
                "Frequency": 5.9,
                "RSSI": -98.46,
                "LOS": "False"
            }
        },
        {
            "type": "Feature",
            "geometry": {
                "type": "Point",
                "coordinates": [
                    7.87261395,
                    48.33718783
                ]
            },
            "properties": {
                "RSU coordinates": [
                    7.871116,
                    48.3393437
                ],
                "Distance": 264.36,
                "Frequency": 5.9,
                "RSSI": -98.92,
                "LOS": "False"
            }
        }
    ]
}