{
    "type": "FeatureCollection",
    "features": [
        {
            "type": "Feature",
            "geometry": {
                "type": "Point",
                "coordinates": [
                    9.34025683,
                    48.62431832
                ]
            },
            "properties": {
                "RSU coordinates": [
                    9.3437405,
                    48.6246417
                ],
                "Distance": 258.86,
                "Frequency": 5.9,
                "RSSI": -98.74,
                "LOS": "False"
            }
        },
        {
            "type": "Feature",
            "geometry": {
                "type": "Point",
                "coordinates": [
                    9.34035099,
                    48.62421053
                ]
            },
            "properties": {
                "RSU coordinates": [
                    9.3437405,
                    48.6246417
                ],
                "Distance": 253.99,
                "Frequency": 5.9,
                "RSSI": -98.58,
                "LOS": "False"
            }
        },
        {
            "type": "Feature",
            "geometry": {
                "type": "Point",
                "coordinates": [
                    9.34044514,
                    48.62431832
                ]
            },
            "properties": {
                "RSU coordinates": [
                    9.3437405,
                    48.6246417
                ],
                "Distance": 245.14,
                "Frequency": 5.9,
                "RSSI": -98.27,
                "LOS": "False"
            }
        },
        {
            "type": "Feature",
            "geometry": {
                "type": "Point",
                "coordinates": [
                    9.34053928,
                    48.62442611
                ]
            },
            "properties": {
                "RSU coordinates": [
                    9.3437405,
                    48.6246417
                ],
                "Distance": 236.78,
                "Frequency": 5.9,
                "RSSI": -97.98,
                "LOS": "False"
            }
        },
        {
            "type": "Feature",
            "geometry": {
                "type": "Point",
                "coordinates": [
                    9.34063343,
                    48.62453391
                ]
            },
            "properties": {
                "RSU coordinates": [
                    9.3437405,
                    48.6246417
                ],
                "Distance": 228.95,
                "Frequency": 5.9,
                "RSSI": -97.69,
                "LOS": "False"
            }
        },
        {
            "type": "Feature",
            "geometry": {
                "type": "Point",
                "coordinates": [
                    9.34072759,
                    48.62442611
                ]
            },
            "properties": {
                "RSU coordinates": [
                    9.3437405,
                    48.6246417
                ],
                "Distance": 223.0,
                "Frequency": 5.9,
                "RSSI": -82.46,
                "LOS": "False"
            }
        },
        {
            "type": "Feature",
            "geometry": {
                "type": "Point",
                "coordinates": [
                    9.34082174,
                    48.62453391
                ]
            },
            "properties": {
                "RSU coordinates": [
                    9.3437405,
                    48.6246417
                ],
                "Distance": 215.11,
                "Frequency": 5.9,
                "RSSI": -82.15,
                "LOS": "False"
            }
        },
        {
            "type": "Feature",
            "geometry": {
                "type": "Point",
                "coordinates": [
                    9.34082175,
                    48.62431832
                ]
            },
            "properties": {
                "RSU coordinates": [
                    9.3437405,
                    48.6246417
                ],
                "Distance": 217.77,
                "Frequency": 5.9,
                "RSSI": -97.26,
                "LOS": "False"
            }
        },
        {
            "type": "Feature",
            "geometry": {
                "type": "Point",
                "coordinates": [
                    9.3409159,
                    48.62442611
                ]
            },
            "properties": {
                "RSU coordinates": [
                    9.3437405,
                    48.6246417
                ],
                "Distance": 209.23,
                "Frequency": 5.9,
                "RSSI": -66.92,
                "LOS": "True"
            }
        },
        {
            "type": "Feature",
            "geometry": {
                "type": "Point",
                "coordinates": [
                    9.34101004,
                    48.62453391
                ]
            },
            "properties": {
                "RSU coordinates": [
                    9.3437405,
                    48.6246417
                ],
                "Distance": 201.28,
                "Frequency": 5.9,
                "RSSI": -66.58,
                "LOS": "True"
            }
        },
        {
            "type": "Feature",
            "geometry": {
                "type": "Point",
                "coordinates": [
                    9.34101006,
                    48.62431832
                ]
            },
            "properties": {
                "RSU coordinates": [
                    9.3437405,
                    48.6246417
                ],
                "Distance": 204.12,
                "Frequency": 5.9,
                "RSSI": -96.7,
                "LOS": "False"
            }
        },
        {
            "type": "Feature",
            "geometry": {
                "type": "Point",
                "coordinates": [
                    9.3411042,
                    48.62442611
                ]
            },
            "properties": {
                "RSU coordinates": [
                    9.3437405,
                    48.6246417
                ],
                "Distance": 195.47,
                "Frequency": 5.9,
                "RSSI": -66.33,
                "LOS": "True"
            }
        },
        {
            "type": "Feature",
            "geometry": {
                "type": "Point",
                "coordinates": [
                    9.34119835,
                    48.62453391
                ]
            },
            "properties": {
                "RSU coordinates": [
                    9.3437405,
                    48.6246417
                ],
                "Distance": 187.45,
                "Frequency": 5.9,
                "RSSI": -65.97,
                "LOS": "True"
            }
        },
        {
            "type": "Feature",
            "geometry": {
                "type": "Point",
                "coordinates": [
                    9.34119836,
                    48.62431832
                ]
            },
            "properties": {
                "RSU coordinates": [
                    9.3437405,
                    48.6246417
                ],
                "Distance": 190.49,
                "Frequency": 5.9,
                "RSSI": -96.11,
                "LOS": "False"
            }
        },
        {
            "type": "Feature",
            "geometry": {
                "type": "Point",
                "coordinates": [
                    9.34129251,
                    48.62442611
                ]
            },
            "properties": {
                "RSU coordinates": [
                    9.3437405,
                    48.6246417
                ],
                "Distance": 181.73,
                "Frequency": 5.9,
                "RSSI": -65.71,
                "LOS": "True"
            }
        },
        {
            "type": "Feature",
            "geometry": {
                "type": "Point",
                "coordinates": [
                    9.34138666,
                    48.62453391
                ]
            },
            "properties": {
                "RSU coordinates": [
                    9.3437405,
                    48.6246417
                ],
                "Distance": 173.62,
                "Frequency": 5.9,
                "RSSI": -65.32,
                "LOS": "True"
            }
        },
        {
            "type": "Feature",
            "geometry": {
                "type": "Point",
                "coordinates": [
                    9.34148082,
                    48.62442611
                ]
            },
            "properties": {
                "RSU coordinates": [
                    9.3437405,
                    48.6246417
                ],
                "Distance": 168.0,
                "Frequency": 5.9,
                "RSSI": -65.03,
                "LOS": "True"
            }
        },
        {
            "type": "Feature",
            "geometry": {
                "type": "Point",
                "coordinates": [
                    9.34157497,
                    48.62453391
                ]
            },
            "properties": {
                "RSU coordinates": [
                    9.3437405,
                    48.6246417
                ],
                "Distance": 159.8,
                "Frequency": 5.9,
                "RSSI": -64.6,
                "LOS": "True"
            }
        },
        {
            "type": "Feature",
            "geometry": {
                "type": "Point",
                "coordinates": [
                    9.34166912,
                    48.62442611
                ]
            },
            "properties": {
                "RSU coordinates": [
                    9.3437405,
                    48.6246417
                ],
                "Distance": 154.3,
                "Frequency": 5.9,
                "RSSI": -94.3,
                "LOS": "False"
            }
        },
        {
            "type": "Feature",
            "geometry": {
                "type": "Point",
                "coordinates": [
                    9.34176327,
                    48.62453391
                ]
            },
            "properties": {
                "RSU coordinates": [
                    9.3437405,
                    48.6246417
                ],
                "Distance": 145.99,
                "Frequency": 5.9,
                "RSSI": -63.83,
                "LOS": "True"
            }
        },
        {
            "type": "Feature",
            "geometry": {
                "type": "Point",
                "coordinates": [
                    9.34195158,
                    48.62453391
                ]
            },
            "properties": {
                "RSU coordinates": [
                    9.3437405,
                    48.6246417
                ],
                "Distance": 132.18,
                "Frequency": 5.9,
                "RSSI": -62.98,
                "LOS": "True"
            }
        },
        {
            "type": "Feature",
            "geometry": {
                "type": "Point",
                "coordinates": [
                    9.34213989,
                    48.62453391
                ]
            },
            "properties": {
                "RSU coordinates": [
                    9.3437405,
                    48.6246417
                ],
                "Distance": 118.39,
                "Frequency": 5.9,
                "RSSI": -62.03,
                "LOS": "True"
            }
        },
        {
            "type": "Feature",
            "geometry": {
                "type": "Point",
                "coordinates": [
                    9.34223405,
                    48.62442611
                ]
            },
            "properties": {
                "RSU coordinates": [
                    9.3437405,
                    48.6246417
                ],
                "Distance": 113.42,
                "Frequency": 5.9,
                "RSSI": -76.66,
                "LOS": "False"
            }
        },
        {
            "type": "Feature",
            "geometry": {
                "type": "Point",
                "coordinates": [
                    9.3423282,
                    48.62453391
                ]
            },
            "properties": {
                "RSU coordinates": [
                    9.3437405,
                    48.6246417
                ],
                "Distance": 104.61,
                "Frequency": 5.9,
                "RSSI": -60.97,
                "LOS": "True"
            }
        },
        {
            "type": "Feature",
            "geometry": {
                "type": "Point",
                "coordinates": [
                    9.34223405,
                    48.62421053
                ]
            },
            "properties": {
                "RSU coordinates": [
                    9.3437405,
                    48.6246417
                ],
                "Distance": 120.8,
                "Frequency": 5.9,
                "RSSI": -92.2,
                "LOS": "False"
            }
        },
        {
            "type": "Feature",
            "geometry": {
                "type": "Point",
                "coordinates": [
                    9.34242235,
                    48.62442611
                ]
            },
            "properties": {
                "RSU coordinates": [
                    9.3437405,
                    48.6246417
                ],
                "Distance": 99.92,
                "Frequency": 5.9,
                "RSSI": -90.58,
                "LOS": "False"
            }
        },
        {
            "type": "Feature",
            "geometry": {
                "type": "Point",
                "coordinates": [
                    9.3425165,
                    48.62453391
                ]
            },
            "properties": {
                "RSU coordinates": [
                    9.3437405,
                    48.6246417
                ],
                "Distance": 90.86,
                "Frequency": 5.9,
                "RSSI": -59.76,
                "LOS": "True"
            }
        },
        {
            "type": "Feature",
            "geometry": {
                "type": "Point",
                "coordinates": [
                    9.34270481,
                    48.62453391
                ]
            },
            "properties": {
                "RSU coordinates": [
                    9.3437405,
                    48.6246417
                ],
                "Distance": 77.15,
                "Frequency": 5.9,
                "RSSI": -58.36,
                "LOS": "True"
            }
        },
        {
            "type": "Feature",
            "geometry": {
                "type": "Point",
                "coordinates": [
                    9.34345803,
                    48.62539626
                ]
            },
            "properties": {
                "RSU coordinates": [
                    9.3437405,
                    48.6246417
                ],
                "Distance": 86.53,
                "Frequency": 5.9,
                "RSSI": -89.34,
                "LOS": "False"
            }
        },
        {
            "type": "Feature",
            "geometry": {
                "type": "Point",
                "coordinates": [
                    9.34289312,
                    48.62453391
                ]
            },
            "properties": {
                "RSU coordinates": [
                    9.3437405,
                    48.6246417
                ],
                "Distance": 63.5,
                "Frequency": 5.9,
                "RSSI": -56.69,
                "LOS": "True"
            }
        },
        {
            "type": "Feature",
            "geometry": {
                "type": "Point",
                "coordinates": [
                    9.34326973,
                    48.62496508
                ]
            },
            "properties": {
                "RSU coordinates": [
                    9.3437405,
                    48.6246417
                ],
                "Distance": 49.96,
                "Frequency": 5.9,
                "RSSI": -99.63,
                "LOS": "False"
            }
        },
        {
            "type": "Feature",
            "geometry": {
                "type": "Point",
                "coordinates": [
                    9.34345804,
                    48.62518067
                ]
            },
            "properties": {
                "RSU coordinates": [
                    9.3437405,
                    48.6246417
                ],
                "Distance": 63.5,
                "Frequency": 5.9,
                "RSSI": -86.69,
                "LOS": "False"
            }
        },
        {
            "type": "Feature",
            "geometry": {
                "type": "Point",
                "coordinates": [
                    9.34364634,
                    48.62539626
                ]
            },
            "properties": {
                "RSU coordinates": [
                    9.3437405,
                    48.6246417
                ],
                "Distance": 84.29,
                "Frequency": 5.9,
                "RSSI": -59.12,
                "LOS": "True"
            }
        },
        {
            "type": "Feature",
            "geometry": {
                "type": "Point",
                "coordinates": [
                    9.3437405,
                    48.62550405
                ]
            },
            "properties": {
                "RSU coordinates": [
                    9.3437405,
                    48.6246417
                ],
                "Distance": 96.0,
                "Frequency": 5.9,
                "RSSI": -90.22999999999999,
                "LOS": "False"
            }
        },
        {
            "type": "Feature",
            "geometry": {
                "type": "Point",
                "coordinates": [
                    9.34298727,
                    48.62442611
                ]
            },
            "properties": {
                "RSU coordinates": [
                    9.3437405,
                    48.6246417
                ],
                "Distance": 60.4,
                "Frequency": 5.9,
                "RSSI": -86.25999999999999,
                "LOS": "False"
            }
        },
        {
            "type": "Feature",
            "geometry": {
                "type": "Point",
                "coordinates": [
                    9.34317558,
                    48.6246417
                ]
            },
            "properties": {
                "RSU coordinates": [
                    9.3437405,
                    48.6246417
                ],
                "Distance": 41.57,
                "Frequency": 5.9,
                "RSSI": -53.06,
                "LOS": "True"
            }
        },
        {
            "type": "Feature",
            "geometry": {
                "type": "Point",
                "coordinates": [
                    9.34336388,
                    48.62485729
                ]
            },
            "properties": {
                "RSU coordinates": [
                    9.3437405,
                    48.6246417
                ],
                "Distance": 36.66,
                "Frequency": 5.9,
                "RSSI": -81.97999999999999,
                "LOS": "False"
            }
        },
        {
            "type": "Feature",
            "geometry": {
                "type": "Point",
                "coordinates": [
                    9.34364635,
                    48.62518067
                ]
            },
            "properties": {
                "RSU coordinates": [
                    9.3437405,
                    48.6246417
                ],
                "Distance": 60.4,
                "Frequency": 5.9,
                "RSSI": -56.26,
                "LOS": "True"
            }
        },
        {
            "type": "Feature",
            "geometry": {
                "type": "Point",
                "coordinates": [
                    9.34317558,
                    48.62442611
                ]
            },
            "properties": {
                "RSU coordinates": [
                    9.3437405,
                    48.6246417
                ],
                "Distance": 48.0,
                "Frequency": 5.9,
                "RSSI": -99.28999999999999,
                "LOS": "False"
            }
        },
        {
            "type": "Feature",
            "geometry": {
                "type": "Point",
                "coordinates": [
                    9.34326973,
                    48.62453391
                ]
            },
            "properties": {
                "RSU coordinates": [
                    9.3437405,
                    48.6246417
                ],
                "Distance": 36.66,
                "Frequency": 5.9,
                "RSSI": -66.97999999999999,
                "LOS": "False"
            }
        },
        {
            "type": "Feature",
            "geometry": {
                "type": "Point",
                "coordinates": [
                    9.34336388,
                    48.6246417
                ]
            },
            "properties": {
                "RSU coordinates": [
                    9.3437405,
                    48.6246417
                ],
                "Distance": 27.71,
                "Frequency": 5.9,
                "RSSI": -49.58,
                "LOS": "True"
            }
        },
        {
            "type": "Feature",
            "geometry": {
                "type": "Point",
                "coordinates": [
                    9.34364635,
                    48.62496508
                ]
            },
            "properties": {
                "RSU coordinates": [
                    9.3437405,
                    48.6246417
                ],
                "Distance": 36.66,
                "Frequency": 5.9,
                "RSSI": -51.98,
                "LOS": "True"
            }
        },
        {
            "type": "Feature",
            "geometry": {
                "type": "Point",
                "coordinates": [
                    9.3437405,
                    48.62507287
                ]
            },
            "properties": {
                "RSU coordinates": [
                    9.3437405,
                    48.6246417
                ],
                "Distance": 48.0,
                "Frequency": 5.9,
                "RSSI": -54.29,
                "LOS": "True"
            }
        },
        {
            "type": "Feature",
            "geometry": {
                "type": "Point",
                "coordinates": [
                    9.34326973,
                    48.62431832
                ]
            },
            "properties": {
                "RSU coordinates": [
                    9.3437405,
                    48.6246417
                ],
                "Distance": 49.96,
                "Frequency": 5.9,
                "RSSI": -99.63,
                "LOS": "False"
            }
        },
        {
            "type": "Feature",
            "geometry": {
                "type": "Point",
                "coordinates": [
                    9.34355219,
                    48.6246417
                ]
            },
            "properties": {
                "RSU coordinates": [
                    9.3437405,
                    48.6246417
                ],
                "Distance": 13.86,
                "Frequency": 5.9,
                "RSSI": -43.63,
                "LOS": "True"
            }
        },
        {
            "type": "Feature",
            "geometry": {
                "type": "Point",
                "coordinates": [
                    9.3437405,
                    48.62485729
                ]
            },
            "properties": {
                "RSU coordinates": [
                    9.3437405,
                    48.6246417
                ],
                "Distance": 24.0,
                "Frequency": 5.9,
                "RSSI": -48.34,
                "LOS": "True"
            }
        },
        {
            "type": "Feature",
            "geometry": {
                "type": "Point",
                "coordinates": [
                    9.34392881,
                    48.62507287
                ]
            },
            "properties": {
                "RSU coordinates": [
                    9.3437405,
                    48.6246417
                ],
                "Distance": 49.96,
                "Frequency": 5.9,
                "RSSI": -99.63,
                "LOS": "False"
            }
        },
        {
            "type": "Feature",
            "geometry": {
                "type": "Point",
                "coordinates": [
                    9.34345804,
                    48.62431832
                ]
            },
            "properties": {
                "RSU coordinates": [
                    9.3437405,
                    48.6246417
                ],
                "Distance": 41.57,
                "Frequency": 5.9,
                "RSSI": -98.06,
                "LOS": "False"
            }
        },
        {
            "type": "Feature",
            "geometry": {
                "type": "Point",
                "coordinates": [
                    9.34355219,
                    48.62442611
                ]
            },
            "properties": {
                "RSU coordinates": [
                    9.3437405,
                    48.6246417
                ],
                "Distance": 27.71,
                "Frequency": 5.9,
                "RSSI": -79.58,
                "LOS": "False"
            }
        },
        {
            "type": "Feature",
            "geometry": {
                "type": "Point",
                "coordinates": [
                    9.34392881,
                    48.62485729
                ]
            },
            "properties": {
                "RSU coordinates": [
                    9.3437405,
                    48.6246417
                ],
                "Distance": 27.71,
                "Frequency": 5.9,
                "RSSI": -64.58,
                "LOS": "False"
            }
        },
        {
            "type": "Feature",
            "geometry": {
                "type": "Point",
                "coordinates": [
                    9.34402296,
                    48.62496508
                ]
            },
            "properties": {
                "RSU coordinates": [
                    9.3437405,
                    48.6246417
                ],
                "Distance": 41.57,
                "Frequency": 5.9,
                "RSSI": -68.06,
                "LOS": "False"
            }
        },
        {
            "type": "Feature",
            "geometry": {
                "type": "Point",
                "coordinates": [
                    9.3437405,
                    48.62442611
                ]
            },
            "properties": {
                "RSU coordinates": [
                    9.3437405,
                    48.6246417
                ],
                "Distance": 24.0,
                "Frequency": 5.9,
                "RSSI": -48.34,
                "LOS": "True"
            }
        },
        {
            "type": "Feature",
            "geometry": {
                "type": "Point",
                "coordinates": [
                    9.34383465,
                    48.62453391
                ]
            },
            "properties": {
                "RSU coordinates": [
                    9.3437405,
                    48.6246417
                ],
                "Distance": 13.86,
                "Frequency": 5.9,
                "RSSI": -43.63,
                "LOS": "True"
            }
        },
        {
            "type": "Feature",
            "geometry": {
                "type": "Point",
                "coordinates": [
                    9.34392881,
                    48.6246417
                ]
            },
            "properties": {
                "RSU coordinates": [
                    9.3437405,
                    48.6246417
                ],
                "Distance": 13.86,
                "Frequency": 5.9,
                "RSSI": -43.63,
                "LOS": "True"
            }
        },
        {
            "type": "Feature",
            "geometry": {
                "type": "Point",
                "coordinates": [
                    9.34411712,
                    48.62485729
                ]
            },
            "properties": {
                "RSU coordinates": [
                    9.3437405,
                    48.6246417
                ],
                "Distance": 36.66,
                "Frequency": 5.9,
                "RSSI": -81.97999999999999,
                "LOS": "False"
            }
        },
        {
            "type": "Feature",
            "geometry": {
                "type": "Point",
                "coordinates": [
                    9.34421127,
                    48.62496508
                ]
            },
            "properties": {
                "RSU coordinates": [
                    9.3437405,
                    48.6246417
                ],
                "Distance": 49.96,
                "Frequency": 5.9,
                "RSSI": -99.63,
                "LOS": "False"
            }
        },
        {
            "type": "Feature",
            "geometry": {
                "type": "Point",
                "coordinates": [
                    9.34383465,
                    48.62431832
                ]
            },
            "properties": {
                "RSU coordinates": [
                    9.3437405,
                    48.6246417
                ],
                "Distance": 36.66,
                "Frequency": 5.9,
                "RSSI": -51.98,
                "LOS": "True"
            }
        },
        {
            "type": "Feature",
            "geometry": {
                "type": "Point",
                "coordinates": [
                    9.34402296,
                    48.62453391
                ]
            },
            "properties": {
                "RSU coordinates": [
                    9.3437405,
                    48.6246417
                ],
                "Distance": 24.0,
                "Frequency": 5.9,
                "RSSI": -63.34,
                "LOS": "False"
            }
        },
        {
            "type": "Feature",
            "geometry": {
                "type": "Point",
                "coordinates": [
                    9.3437405,
                    48.62399494
                ]
            },
            "properties": {
                "RSU coordinates": [
                    9.3437405,
                    48.6246417
                ],
                "Distance": 72.0,
                "Frequency": 5.9,
                "RSSI": -87.77000000000001,
                "LOS": "False"
            }
        },
        {
            "type": "Feature",
            "geometry": {
                "type": "Point",
                "coordinates": [
                    9.34383465,
                    48.62410273
                ]
            },
            "properties": {
                "RSU coordinates": [
                    9.3437405,
                    48.6246417
                ],
                "Distance": 60.4,
                "Frequency": 5.9,
                "RSSI": -56.26,
                "LOS": "True"
            }
        },
        {
            "type": "Feature",
            "geometry": {
                "type": "Point",
                "coordinates": [
                    9.34392881,
                    48.62421053
                ]
            },
            "properties": {
                "RSU coordinates": [
                    9.3437405,
                    48.6246417
                ],
                "Distance": 49.96,
                "Frequency": 5.9,
                "RSSI": -69.63,
                "LOS": "False"
            }
        },
        {
            "type": "Feature",
            "geometry": {
                "type": "Point",
                "coordinates": [
                    9.34421127,
                    48.62453391
                ]
            },
            "properties": {
                "RSU coordinates": [
                    9.3437405,
                    48.6246417
                ],
                "Distance": 36.66,
                "Frequency": 5.9,
                "RSSI": -81.97999999999999,
                "LOS": "False"
            }
        },
        {
            "type": "Feature",
            "geometry": {
                "type": "Point",
                "coordinates": [
                    9.34439958,
                    48.62474949
                ]
            },
            "properties": {
                "RSU coordinates": [
                    9.3437405,
                    48.6246417
                ],
                "Distance": 49.96,
                "Frequency": 5.9,
                "RSSI": -54.63,
                "LOS": "True"
            }
        },
        {
            "type": "Feature",
            "geometry": {
                "type": "Point",
                "coordinates": [
                    9.34383465,
                    48.62388714
                ]
            },
            "properties": {
                "RSU coordinates": [
                    9.3437405,
                    48.6246417
                ],
                "Distance": 84.29,
                "Frequency": 5.9,
                "RSSI": -59.12,
                "LOS": "True"
            }
        },
        {
            "type": "Feature",
            "geometry": {
                "type": "Point",
                "coordinates": [
                    9.34392881,
                    48.62399494
                ]
            },
            "properties": {
                "RSU coordinates": [
                    9.3437405,
                    48.6246417
                ],
                "Distance": 73.32,
                "Frequency": 5.9,
                "RSSI": -57.92,
                "LOS": "True"
            }
        },
        {
            "type": "Feature",
            "geometry": {
                "type": "Point",
                "coordinates": [
                    9.34430542,
                    48.62442611
                ]
            },
            "properties": {
                "RSU coordinates": [
                    9.3437405,
                    48.6246417
                ],
                "Distance": 48.0,
                "Frequency": 5.9,
                "RSSI": -99.28999999999999,
                "LOS": "False"
            }
        },
        {
            "type": "Feature",
            "geometry": {
                "type": "Point",
                "coordinates": [
                    9.34439958,
                    48.62453391
                ]
            },
            "properties": {
                "RSU coordinates": [
                    9.3437405,
                    48.6246417
                ],
                "Distance": 49.96,
                "Frequency": 5.9,
                "RSSI": -99.63,
                "LOS": "False"
            }
        },
        {
            "type": "Feature",
            "geometry": {
                "type": "Point",
                "coordinates": [
                    9.34458789,
                    48.62474949
                ]
            },
            "properties": {
                "RSU coordinates": [
                    9.3437405,
                    48.6246417
                ],
                "Distance": 63.5,
                "Frequency": 5.9,
                "RSSI": -56.69,
                "LOS": "True"
            }
        },
        {
            "type": "Feature",
            "geometry": {
                "type": "Point",
                "coordinates": [
                    9.3439288,
                    48.62377935
                ]
            },
            "properties": {
                "RSU coordinates": [
                    9.3437405,
                    48.6246417
                ],
                "Distance": 96.99,
                "Frequency": 5.9,
                "RSSI": -60.32,
                "LOS": "True"
            }
        },
        {
            "type": "Feature",
            "geometry": {
                "type": "Point",
                "coordinates": [
                    9.34477619,
                    48.62474949
                ]
            },
            "properties": {
                "RSU coordinates": [
                    9.3437405,
                    48.6246417
                ],
                "Distance": 77.15,
                "Frequency": 5.9,
                "RSSI": -58.36,
                "LOS": "True"
            }
        },
        {
            "type": "Feature",
            "geometry": {
                "type": "Point",
                "coordinates": [
                    9.3439288,
                    48.62356376
                ]
            },
            "properties": {
                "RSU coordinates": [
                    9.3437405,
                    48.6246417
                ],
                "Distance": 120.8,
                "Frequency": 5.9,
                "RSSI": -62.2,
                "LOS": "True"
            }
        },
        {
            "type": "Feature",
            "geometry": {
                "type": "Point",
                "coordinates": [
                    9.34402296,
                    48.62367156
                ]
            },
            "properties": {
                "RSU coordinates": [
                    9.3437405,
                    48.6246417
                ],
                "Distance": 109.98,
                "Frequency": 5.9,
                "RSSI": -61.4,
                "LOS": "True"
            }
        },
        {
            "type": "Feature",
            "geometry": {
                "type": "Point",
                "coordinates": [
                    9.3449645,
                    48.62474949
                ]
            },
            "properties": {
                "RSU coordinates": [
                    9.3437405,
                    48.6246417
                ],
                "Distance": 90.86,
                "Frequency": 5.9,
                "RSSI": -59.76,
                "LOS": "True"
            }
        },
        {
            "type": "Feature",
            "geometry": {
                "type": "Point",
                "coordinates": [
                    9.34402295,
                    48.62345597
                ]
            },
            "properties": {
                "RSU coordinates": [
                    9.3437405,
                    48.6246417
                ],
                "Distance": 133.63,
                "Frequency": 5.9,
                "RSSI": -63.07,
                "LOS": "True"
            }
        },
        {
            "type": "Feature",
            "geometry": {
                "type": "Point",
                "coordinates": [
                    9.34411711,
                    48.62356376
                ]
            },
            "properties": {
                "RSU coordinates": [
                    9.3437405,
                    48.6246417
                ],
                "Distance": 123.16,
                "Frequency": 5.9,
                "RSSI": -77.37,
                "LOS": "False"
            }
        },
        {
            "type": "Feature",
            "geometry": {
                "type": "Point",
                "coordinates": [
                    9.34515281,
                    48.62474949
                ]
            },
            "properties": {
                "RSU coordinates": [
                    9.3437405,
                    48.6246417
                ],
                "Distance": 104.61,
                "Frequency": 5.9,
                "RSSI": -60.97,
                "LOS": "True"
            }
        },
        {
            "type": "Feature",
            "geometry": {
                "type": "Point",
                "coordinates": [
                    9.34402295,
                    48.62324038
                ]
            },
            "properties": {
                "RSU coordinates": [
                    9.3437405,
                    48.6246417
                ],
                "Distance": 157.38,
                "Frequency": 5.9,
                "RSSI": -64.47,
                "LOS": "True"
            }
        },
        {
            "type": "Feature",
            "geometry": {
                "type": "Point",
                "coordinates": [
                    9.34534112,
                    48.62474949
                ]
            },
            "properties": {
                "RSU coordinates": [
                    9.3437405,
                    48.6246417
                ],
                "Distance": 118.39,
                "Frequency": 5.9,
                "RSSI": -62.03,
                "LOS": "True"
            }
        },
        {
            "type": "Feature",
            "geometry": {
                "type": "Point",
                "coordinates": [
                    9.34543528,
                    48.62485729
                ]
            },
            "properties": {
                "RSU coordinates": [
                    9.3437405,
                    48.6246417
                ],
                "Distance": 127.0,
                "Frequency": 5.9,
                "RSSI": -77.63,
                "LOS": "False"
            }
        },
        {
            "type": "Feature",
            "geometry": {
                "type": "Point",
                "coordinates": [
                    9.34402295,
                    48.6230248
                ]
            },
            "properties": {
                "RSU coordinates": [
                    9.3437405,
                    48.6246417
                ],
                "Distance": 181.2,
                "Frequency": 5.9,
                "RSSI": -65.68,
                "LOS": "True"
            }
        },
        {
            "type": "Feature",
            "geometry": {
                "type": "Point",
                "coordinates": [
                    9.3441171,
                    48.62313259
                ]
            },
            "properties": {
                "RSU coordinates": [
                    9.3437405,
                    48.6246417
                ],
                "Distance": 170.27,
                "Frequency": 5.9,
                "RSSI": -65.15,
                "LOS": "True"
            }
        },
        {
            "type": "Feature",
            "geometry": {
                "type": "Point",
                "coordinates": [
                    9.34552943,
                    48.62474949
                ]
            },
            "properties": {
                "RSU coordinates": [
                    9.3437405,
                    48.6246417
                ],
                "Distance": 132.18,
                "Frequency": 5.9,
                "RSSI": -92.97999999999999,
                "LOS": "False"
            }
        },
        {
            "type": "Feature",
            "geometry": {
                "type": "Point",
                "coordinates": [
                    9.3441171,
                    48.622917
                ]
            },
            "properties": {
                "RSU coordinates": [
                    9.3437405,
                    48.6246417
                ],
                "Distance": 193.99,
                "Frequency": 5.9,
                "RSSI": -66.27,
                "LOS": "True"
            }
        },
        {
            "type": "Feature",
            "geometry": {
                "type": "Point",
                "coordinates": [
                    9.3441171,
                    48.62270142
                ]
            },
            "properties": {
                "RSU coordinates": [
                    9.3437405,
                    48.6246417
                ],
                "Distance": 217.77,
                "Frequency": 5.9,
                "RSSI": -67.26,
                "LOS": "True"
            }
        },
        {
            "type": "Feature",
            "geometry": {
                "type": "Point",
                "coordinates": [
                    9.34421125,
                    48.62280921
                ]
            },
            "properties": {
                "RSU coordinates": [
                    9.3437405,
                    48.6246417
                ],
                "Distance": 206.92,
                "Frequency": 5.9,
                "RSSI": -81.82,
                "LOS": "False"
            }
        },
        {
            "type": "Feature",
            "geometry": {
                "type": "Point",
                "coordinates": [
                    9.3441171,
                    48.62248583
                ]
            },
            "properties": {
                "RSU coordinates": [
                    9.3437405,
                    48.6246417
                ],
                "Distance": 241.59,
                "Frequency": 5.9,
                "RSSI": -68.15,
                "LOS": "True"
            }
        },
        {
            "type": "Feature",
            "geometry": {
                "type": "Point",
                "coordinates": [
                    9.34421125,
                    48.62259362
                ]
            },
            "properties": {
                "RSU coordinates": [
                    9.3437405,
                    48.6246417
                ],
                "Distance": 230.62,
                "Frequency": 5.9,
                "RSSI": -67.75,
                "LOS": "True"
            }
        },
        {
            "type": "Feature",
            "geometry": {
                "type": "Point",
                "coordinates": [
                    9.34421125,
                    48.62237803
                ]
            },
            "properties": {
                "RSU coordinates": [
                    9.3437405,
                    48.6246417
                ],
                "Distance": 254.37,
                "Frequency": 5.9,
                "RSSI": -68.59,
                "LOS": "True"
            }
        },
        {
            "type": "Feature",
            "geometry": {
                "type": "Point",
                "coordinates": [
                    9.34637682,
                    48.62485729
                ]
            },
            "properties": {
                "RSU coordinates": [
                    9.3437405,
                    48.6246417
                ],
                "Distance": 195.47,
                "Frequency": 5.9,
                "RSSI": -96.33,
                "LOS": "False"
            }
        },
        {
            "type": "Feature",
            "geometry": {
                "type": "Point",
                "coordinates": [
                    9.34421125,
                    48.62216245
                ]
            },
            "properties": {
                "RSU coordinates": [
                    9.3437405,
                    48.6246417
                ],
                "Distance": 278.17,
                "Frequency": 5.9,
                "RSSI": -69.36,
                "LOS": "True"
            }
        },
        {
            "type": "Feature",
            "geometry": {
                "type": "Point",
                "coordinates": [
                    9.3443054,
                    48.62227024
                ]
            },
            "properties": {
                "RSU coordinates": [
                    9.3437405,
                    48.6246417
                ],
                "Distance": 267.25,
                "Frequency": 5.9,
                "RSSI": -69.01,
                "LOS": "True"
            }
        },
        {
            "type": "Feature",
            "geometry": {
                "type": "Point",
                "coordinates": [
                    9.34421124,
                    48.62194686
                ]
            },
            "properties": {
                "RSU coordinates": [
                    9.3437405,
                    48.6246417
                ],
                "Distance": 301.99,
                "Frequency": 5.9,
                "RSSI": -85.06,
                "LOS": "False"
            }
        },
        {
            "type": "Feature",
            "geometry": {
                "type": "Point",
                "coordinates": [
                    9.34430539,
                    48.62205465
                ]
            },
            "properties": {
                "RSU coordinates": [
                    9.3437405,
                    48.6246417
                ],
                "Distance": 290.98,
                "Frequency": 5.9,
                "RSSI": -69.74,
                "LOS": "True"
            }
        },
        {
            "type": "Feature",
            "geometry": {
                "type": "Point",
                "coordinates": [
                    9.34430539,
                    48.62183907
                ]
            },
            "properties": {
                "RSU coordinates": [
                    9.3437405,
                    48.6246417
                ],
                "Distance": 314.76,
                "Frequency": 5.9,
                "RSSI": -70.42,
                "LOS": "True"
            }
        },
        {
            "type": "Feature",
            "geometry": {
                "type": "Point",
                "coordinates": [
                    9.34430539,
                    48.62162348
                ]
            },
            "properties": {
                "RSU coordinates": [
                    9.3437405,
                    48.6246417
                ],
                "Distance": 338.56,
                "Frequency": 5.9,
                "RSSI": -71.04,
                "LOS": "True"
            }
        },
        {
            "type": "Feature",
            "geometry": {
                "type": "Point",
                "coordinates": [
                    9.34439954,
                    48.62173127
                ]
            },
            "properties": {
                "RSU coordinates": [
                    9.3437405,
                    48.6246417
                ],
                "Distance": 327.61,
                "Frequency": 5.9,
                "RSSI": -70.76,
                "LOS": "True"
            }
        },
        {
            "type": "Feature",
            "geometry": {
                "type": "Point",
                "coordinates": [
                    9.34439954,
                    48.62151569
                ]
            },
            "properties": {
                "RSU coordinates": [
                    9.3437405,
                    48.6246417
                ],
                "Distance": 351.36,
                "Frequency": 5.9,
                "RSSI": -71.36,
                "LOS": "True"
            }
        },
        {
            "type": "Feature",
            "geometry": {
                "type": "Point",
                "coordinates": [
                    9.34439953,
                    48.6213001
                ]
            },
            "properties": {
                "RSU coordinates": [
                    9.3437405,
                    48.6246417
                ],
                "Distance": 375.15,
                "Frequency": 5.9,
                "RSSI": -71.92,
                "LOS": "True"
            }
        },
        {
            "type": "Feature",
            "geometry": {
                "type": "Point",
                "coordinates": [
                    9.34449368,
                    48.62140789
                ]
            },
            "properties": {
                "RSU coordinates": [
                    9.3437405,
                    48.6246417
                ],
                "Distance": 364.24,
                "Frequency": 5.9,
                "RSSI": -71.67,
                "LOS": "True"
            }
        },
        {
            "type": "Feature",
            "geometry": {
                "type": "Point",
                "coordinates": [
                    9.34439953,
                    48.62108451
                ]
            },
            "properties": {
                "RSU coordinates": [
                    9.3437405,
                    48.6246417
                ],
                "Distance": 398.96,
                "Frequency": 5.9,
                "RSSI": -72.45,
                "LOS": "True"
            }
        },
        {
            "type": "Feature",
            "geometry": {
                "type": "Point",
                "coordinates": [
                    9.34449368,
                    48.62119231
                ]
            },
            "properties": {
                "RSU coordinates": [
                    9.3437405,
                    48.6246417
                ],
                "Distance": 387.98,
                "Frequency": 5.9,
                "RSSI": -72.21,
                "LOS": "True"
            }
        },
        {
            "type": "Feature",
            "geometry": {
                "type": "Point",
                "coordinates": [
                    9.34449368,
                    48.62097672
                ]
            },
            "properties": {
                "RSU coordinates": [
                    9.3437405,
                    48.6246417
                ],
                "Distance": 411.75,
                "Frequency": 5.9,
                "RSSI": -72.72,
                "LOS": "True"
            }
        },
        {
            "type": "Feature",
            "geometry": {
                "type": "Point",
                "coordinates": [
                    9.34449367,
                    48.62076113
                ]
            },
            "properties": {
                "RSU coordinates": [
                    9.3437405,
                    48.6246417
                ],
                "Distance": 435.54,
                "Frequency": 5.9,
                "RSSI": -73.2,
                "LOS": "True"
            }
        },
        {
            "type": "Feature",
            "geometry": {
                "type": "Point",
                "coordinates": [
                    9.34458782,
                    48.62086892
                ]
            },
            "properties": {
                "RSU coordinates": [
                    9.3437405,
                    48.6246417
                ],
                "Distance": 424.6,
                "Frequency": 5.9,
                "RSSI": -72.98,
                "LOS": "True"
            }
        },
        {
            "type": "Feature",
            "geometry": {
                "type": "Point",
                "coordinates": [
                    9.34449367,
                    48.62054554
                ]
            },
            "properties": {
                "RSU coordinates": [
                    9.3437405,
                    48.6246417
                ],
                "Distance": 459.36,
                "Frequency": 5.9,
                "RSSI": -88.66,
                "LOS": "False"
            }
        },
        {
            "type": "Feature",
            "geometry": {
                "type": "Point",
                "coordinates": [
                    9.34458781,
                    48.62022216
                ]
            },
            "properties": {
                "RSU coordinates": [
                    9.3437405,
                    48.6246417
                ],
                "Distance": 495.94,
                "Frequency": 5.9,
                "RSSI": -89.32,
                "LOS": "False"
            }
        }
    ]
}