{
    "type": "FeatureCollection",
    "features": [
        {
            "type": "Feature",
            "geometry": {
                "type": "Point",
                "coordinates": [
                    9.34205576,
                    48.62679167
                ]
            },
            "properties": {
                "RSU coordinates": [
                    9.3455396,
                    48.6262527
                ],
                "Distance": 263.27,
                "Frequency": 5.9,
                "RSSI": -98.89,
                "LOS": "False"
            }
        },
        {
            "type": "Feature",
            "geometry": {
                "type": "Point",
                "coordinates": [
                    9.34224408,
                    48.62679167
                ]
            },
            "properties": {
                "RSU coordinates": [
                    9.3455396,
                    48.6262527
                ],
                "Distance": 249.8,
                "Frequency": 5.9,
                "RSSI": -98.44,
                "LOS": "False"
            }
        },
        {
            "type": "Feature",
            "geometry": {
                "type": "Point",
                "coordinates": [
                    9.34243239,
                    48.62679167
                ]
            },
            "properties": {
                "RSU coordinates": [
                    9.3455396,
                    48.6262527
                ],
                "Distance": 236.37,
                "Frequency": 5.9,
                "RSSI": -97.96,
                "LOS": "False"
            }
        },
        {
            "type": "Feature",
            "geometry": {
                "type": "Point",
                "coordinates": [
                    9.34252656,
                    48.62668387
                ]
            },
            "properties": {
                "RSU coordinates": [
                    9.3455396,
                    48.6262527
                ],
                "Distance": 226.84,
                "Frequency": 5.9,
                "RSSI": -97.61,
                "LOS": "False"
            }
        },
        {
            "type": "Feature",
            "geometry": {
                "type": "Point",
                "coordinates": [
                    9.34262071,
                    48.62679167
                ]
            },
            "properties": {
                "RSU coordinates": [
                    9.3455396,
                    48.6262527
                ],
                "Distance": 223.0,
                "Frequency": 5.9,
                "RSSI": -97.46,
                "LOS": "False"
            }
        },
        {
            "type": "Feature",
            "geometry": {
                "type": "Point",
                "coordinates": [
                    9.34271487,
                    48.62668387
                ]
            },
            "properties": {
                "RSU coordinates": [
                    9.3455396,
                    48.6262527
                ],
                "Distance": 213.32,
                "Frequency": 5.9,
                "RSSI": -82.08,
                "LOS": "False"
            }
        },
        {
            "type": "Feature",
            "geometry": {
                "type": "Point",
                "coordinates": [
                    9.3430915,
                    48.62668387
                ]
            },
            "properties": {
                "RSU coordinates": [
                    9.3455396,
                    48.6262527
                ],
                "Distance": 186.42,
                "Frequency": 5.9,
                "RSSI": -65.93,
                "LOS": "True"
            }
        },
        {
            "type": "Feature",
            "geometry": {
                "type": "Point",
                "coordinates": [
                    9.34327982,
                    48.62668387
                ]
            },
            "properties": {
                "RSU coordinates": [
                    9.3455396,
                    48.6262527
                ],
                "Distance": 173.07,
                "Frequency": 5.9,
                "RSSI": -65.29,
                "LOS": "True"
            }
        },
        {
            "type": "Feature",
            "geometry": {
                "type": "Point",
                "coordinates": [
                    9.34356229,
                    48.62657608
                ]
            },
            "properties": {
                "RSU coordinates": [
                    9.3455396,
                    48.6262527
                ],
                "Distance": 149.88,
                "Frequency": 5.9,
                "RSSI": -64.05,
                "LOS": "True"
            }
        },
        {
            "type": "Feature",
            "geometry": {
                "type": "Point",
                "coordinates": [
                    9.34375061,
                    48.62657608
                ]
            },
            "properties": {
                "RSU coordinates": [
                    9.3455396,
                    48.6262527
                ],
                "Distance": 136.47,
                "Frequency": 5.9,
                "RSSI": -63.25,
                "LOS": "True"
            }
        },
        {
            "type": "Feature",
            "geometry": {
                "type": "Point",
                "coordinates": [
                    9.34393892,
                    48.62657608
                ]
            },
            "properties": {
                "RSU coordinates": [
                    9.3455396,
                    48.6262527
                ],
                "Distance": 123.16,
                "Frequency": 5.9,
                "RSSI": -62.37,
                "LOS": "True"
            }
        },
        {
            "type": "Feature",
            "geometry": {
                "type": "Point",
                "coordinates": [
                    9.34666955,
                    48.62948651
                ]
            },
            "properties": {
                "RSU coordinates": [
                    9.3455396,
                    48.6262527
                ],
                "Distance": 369.48,
                "Frequency": 5.9,
                "RSSI": -86.79,
                "LOS": "False"
            }
        },
        {
            "type": "Feature",
            "geometry": {
                "type": "Point",
                "coordinates": [
                    9.34676372,
                    48.6295943
                ]
            },
            "properties": {
                "RSU coordinates": [
                    9.3455396,
                    48.6262527
                ],
                "Distance": 382.75,
                "Frequency": 5.9,
                "RSSI": -72.09,
                "LOS": "True"
            }
        },
        {
            "type": "Feature",
            "geometry": {
                "type": "Point",
                "coordinates": [
                    9.34685789,
                    48.62970209
                ]
            },
            "properties": {
                "RSU coordinates": [
                    9.3455396,
                    48.6262527
                ],
                "Distance": 396.06,
                "Frequency": 5.9,
                "RSSI": -72.39,
                "LOS": "True"
            }
        },
        {
            "type": "Feature",
            "geometry": {
                "type": "Point",
                "coordinates": [
                    9.3442214,
                    48.62646829
                ]
            },
            "properties": {
                "RSU coordinates": [
                    9.3455396,
                    48.6262527
                ],
                "Distance": 99.92,
                "Frequency": 5.9,
                "RSSI": -60.58,
                "LOS": "True"
            }
        },
        {
            "type": "Feature",
            "geometry": {
                "type": "Point",
                "coordinates": [
                    9.34657538,
                    48.62916313
                ]
            },
            "properties": {
                "RSU coordinates": [
                    9.3455396,
                    48.6262527
                ],
                "Distance": 332.84,
                "Frequency": 5.9,
                "RSSI": -70.9,
                "LOS": "True"
            }
        },
        {
            "type": "Feature",
            "geometry": {
                "type": "Point",
                "coordinates": [
                    9.34666955,
                    48.62927092
                ]
            },
            "properties": {
                "RSU coordinates": [
                    9.3455396,
                    48.6262527
                ],
                "Distance": 346.13,
                "Frequency": 5.9,
                "RSSI": -71.23,
                "LOS": "True"
            }
        },
        {
            "type": "Feature",
            "geometry": {
                "type": "Point",
                "coordinates": [
                    9.34676371,
                    48.62937871
                ]
            },
            "properties": {
                "RSU coordinates": [
                    9.3455396,
                    48.6262527
                ],
                "Distance": 359.47,
                "Frequency": 5.9,
                "RSSI": -86.56,
                "LOS": "False"
            }
        },
        {
            "type": "Feature",
            "geometry": {
                "type": "Point",
                "coordinates": [
                    9.34685788,
                    48.62948651
                ]
            },
            "properties": {
                "RSU coordinates": [
                    9.3455396,
                    48.6262527
                ],
                "Distance": 372.84,
                "Frequency": 5.9,
                "RSSI": -86.87,
                "LOS": "False"
            }
        },
        {
            "type": "Feature",
            "geometry": {
                "type": "Point",
                "coordinates": [
                    9.34440971,
                    48.62646829
                ]
            },
            "properties": {
                "RSU coordinates": [
                    9.3455396,
                    48.6262527
                ],
                "Distance": 86.53,
                "Frequency": 5.9,
                "RSSI": -59.34,
                "LOS": "True"
            }
        },
        {
            "type": "Feature",
            "geometry": {
                "type": "Point",
                "coordinates": [
                    9.34638705,
                    48.62873195
                ]
            },
            "properties": {
                "RSU coordinates": [
                    9.3455396,
                    48.6262527
                ],
                "Distance": 282.96,
                "Frequency": 5.9,
                "RSSI": -84.5,
                "LOS": "False"
            }
        },
        {
            "type": "Feature",
            "geometry": {
                "type": "Point",
                "coordinates": [
                    9.34648122,
                    48.62883975
                ]
            },
            "properties": {
                "RSU coordinates": [
                    9.3455396,
                    48.6262527
                ],
                "Distance": 296.22,
                "Frequency": 5.9,
                "RSSI": -69.9,
                "LOS": "True"
            }
        },
        {
            "type": "Feature",
            "geometry": {
                "type": "Point",
                "coordinates": [
                    9.34657538,
                    48.62894754
                ]
            },
            "properties": {
                "RSU coordinates": [
                    9.3455396,
                    48.6262527
                ],
                "Distance": 309.53,
                "Frequency": 5.9,
                "RSSI": -70.27,
                "LOS": "True"
            }
        },
        {
            "type": "Feature",
            "geometry": {
                "type": "Point",
                "coordinates": [
                    9.34666954,
                    48.62905533
                ]
            },
            "properties": {
                "RSU coordinates": [
                    9.3455396,
                    48.6262527
                ],
                "Distance": 322.89,
                "Frequency": 5.9,
                "RSSI": -70.64,
                "LOS": "True"
            }
        },
        {
            "type": "Feature",
            "geometry": {
                "type": "Point",
                "coordinates": [
                    9.34676371,
                    48.62916313
                ]
            },
            "properties": {
                "RSU coordinates": [
                    9.3455396,
                    48.6262527
                ],
                "Distance": 336.29,
                "Frequency": 5.9,
                "RSSI": -70.98,
                "LOS": "True"
            }
        },
        {
            "type": "Feature",
            "geometry": {
                "type": "Point",
                "coordinates": [
                    9.34431556,
                    48.62614491
                ]
            },
            "properties": {
                "RSU coordinates": [
                    9.3455396,
                    48.6262527
                ],
                "Distance": 90.86,
                "Frequency": 5.9,
                "RSSI": -89.75999999999999,
                "LOS": "False"
            }
        },
        {
            "type": "Feature",
            "geometry": {
                "type": "Point",
                "coordinates": [
                    9.34440972,
                    48.6262527
                ]
            },
            "properties": {
                "RSU coordinates": [
                    9.3455396,
                    48.6262527
                ],
                "Distance": 83.14,
                "Frequency": 5.9,
                "RSSI": -89.0,
                "LOS": "False"
            }
        },
        {
            "type": "Feature",
            "geometry": {
                "type": "Point",
                "coordinates": [
                    9.34459803,
                    48.62646829
                ]
            },
            "properties": {
                "RSU coordinates": [
                    9.3455396,
                    48.6262527
                ],
                "Distance": 73.32,
                "Frequency": 5.9,
                "RSSI": -57.92,
                "LOS": "True"
            }
        },
        {
            "type": "Feature",
            "geometry": {
                "type": "Point",
                "coordinates": [
                    9.34629289,
                    48.62840857
                ]
            },
            "properties": {
                "RSU coordinates": [
                    9.3455396,
                    48.6262527
                ],
                "Distance": 246.32,
                "Frequency": 5.9,
                "RSSI": -83.31,
                "LOS": "False"
            }
        },
        {
            "type": "Feature",
            "geometry": {
                "type": "Point",
                "coordinates": [
                    9.34638705,
                    48.62851637
                ]
            },
            "properties": {
                "RSU coordinates": [
                    9.3455396,
                    48.6262527
                ],
                "Distance": 259.6,
                "Frequency": 5.9,
                "RSSI": -68.77,
                "LOS": "True"
            }
        },
        {
            "type": "Feature",
            "geometry": {
                "type": "Point",
                "coordinates": [
                    9.34648121,
                    48.62862416
                ]
            },
            "properties": {
                "RSU coordinates": [
                    9.3455396,
                    48.6262527
                ],
                "Distance": 272.94,
                "Frequency": 5.9,
                "RSSI": -69.2,
                "LOS": "True"
            }
        },
        {
            "type": "Feature",
            "geometry": {
                "type": "Point",
                "coordinates": [
                    9.34657538,
                    48.62873195
                ]
            },
            "properties": {
                "RSU coordinates": [
                    9.3455396,
                    48.6262527
                ],
                "Distance": 286.33,
                "Frequency": 5.9,
                "RSSI": -69.61,
                "LOS": "True"
            }
        },
        {
            "type": "Feature",
            "geometry": {
                "type": "Point",
                "coordinates": [
                    9.34666954,
                    48.62883975
                ]
            },
            "properties": {
                "RSU coordinates": [
                    9.3455396,
                    48.6262527
                ],
                "Distance": 299.76,
                "Frequency": 5.9,
                "RSSI": -70.0,
                "LOS": "True"
            }
        },
        {
            "type": "Feature",
            "geometry": {
                "type": "Point",
                "coordinates": [
                    9.3467637,
                    48.62894754
                ]
            },
            "properties": {
                "RSU coordinates": [
                    9.3455396,
                    48.6262527
                ],
                "Distance": 313.23,
                "Frequency": 5.9,
                "RSSI": -70.38,
                "LOS": "True"
            }
        },
        {
            "type": "Feature",
            "geometry": {
                "type": "Point",
                "coordinates": [
                    9.34685787,
                    48.62905533
                ]
            },
            "properties": {
                "RSU coordinates": [
                    9.3455396,
                    48.6262527
                ],
                "Distance": 326.73,
                "Frequency": 5.9,
                "RSSI": -70.74,
                "LOS": "True"
            }
        },
        {
            "type": "Feature",
            "geometry": {
                "type": "Point",
                "coordinates": [
                    9.34450388,
                    48.62614491
                ]
            },
            "properties": {
                "RSU coordinates": [
                    9.3455396,
                    48.6262527
                ],
                "Distance": 77.15,
                "Frequency": 5.9,
                "RSSI": -88.36,
                "LOS": "False"
            }
        },
        {
            "type": "Feature",
            "geometry": {
                "type": "Point",
                "coordinates": [
                    9.34459803,
                    48.6262527
                ]
            },
            "properties": {
                "RSU coordinates": [
                    9.3455396,
                    48.6262527
                ],
                "Distance": 69.28,
                "Frequency": 5.9,
                "RSSI": -87.44,
                "LOS": "False"
            }
        },
        {
            "type": "Feature",
            "geometry": {
                "type": "Point",
                "coordinates": [
                    9.34469219,
                    48.62636049
                ]
            },
            "properties": {
                "RSU coordinates": [
                    9.3455396,
                    48.6262527
                ],
                "Distance": 63.5,
                "Frequency": 5.9,
                "RSSI": -56.69,
                "LOS": "True"
            }
        },
        {
            "type": "Feature",
            "geometry": {
                "type": "Point",
                "coordinates": [
                    9.34497465,
                    48.62668387
                ]
            },
            "properties": {
                "RSU coordinates": [
                    9.3455396,
                    48.6262527
                ],
                "Distance": 63.5,
                "Frequency": 5.9,
                "RSSI": -86.69,
                "LOS": "False"
            }
        },
        {
            "type": "Feature",
            "geometry": {
                "type": "Point",
                "coordinates": [
                    9.34610456,
                    48.6279774
                ]
            },
            "properties": {
                "RSU coordinates": [
                    9.3455396,
                    48.6262527
                ],
                "Distance": 196.45,
                "Frequency": 5.9,
                "RSSI": -96.37,
                "LOS": "False"
            }
        },
        {
            "type": "Feature",
            "geometry": {
                "type": "Point",
                "coordinates": [
                    9.34619872,
                    48.62808519
                ]
            },
            "properties": {
                "RSU coordinates": [
                    9.3455396,
                    48.6262527
                ],
                "Distance": 209.69,
                "Frequency": 5.9,
                "RSSI": -66.93,
                "LOS": "True"
            }
        },
        {
            "type": "Feature",
            "geometry": {
                "type": "Point",
                "coordinates": [
                    9.34629288,
                    48.62819298
                ]
            },
            "properties": {
                "RSU coordinates": [
                    9.3455396,
                    48.6262527
                ],
                "Distance": 223.0,
                "Frequency": 5.9,
                "RSSI": -67.46,
                "LOS": "True"
            }
        },
        {
            "type": "Feature",
            "geometry": {
                "type": "Point",
                "coordinates": [
                    9.34638705,
                    48.62830078
                ]
            },
            "properties": {
                "RSU coordinates": [
                    9.3455396,
                    48.6262527
                ],
                "Distance": 236.37,
                "Frequency": 5.9,
                "RSSI": -67.96,
                "LOS": "True"
            }
        },
        {
            "type": "Feature",
            "geometry": {
                "type": "Point",
                "coordinates": [
                    9.34648121,
                    48.62840857
                ]
            },
            "properties": {
                "RSU coordinates": [
                    9.3455396,
                    48.6262527
                ],
                "Distance": 249.8,
                "Frequency": 5.9,
                "RSSI": -68.44,
                "LOS": "True"
            }
        },
        {
            "type": "Feature",
            "geometry": {
                "type": "Point",
                "coordinates": [
                    9.34657537,
                    48.62851637
                ]
            },
            "properties": {
                "RSU coordinates": [
                    9.3455396,
                    48.6262527
                ],
                "Distance": 263.27,
                "Frequency": 5.9,
                "RSSI": -68.89,
                "LOS": "True"
            }
        },
        {
            "type": "Feature",
            "geometry": {
                "type": "Point",
                "coordinates": [
                    9.34666954,
                    48.62862416
                ]
            },
            "properties": {
                "RSU coordinates": [
                    9.3455396,
                    48.6262527
                ],
                "Distance": 276.78,
                "Frequency": 5.9,
                "RSSI": -69.31,
                "LOS": "True"
            }
        },
        {
            "type": "Feature",
            "geometry": {
                "type": "Point",
                "coordinates": [
                    9.34469219,
                    48.62614491
                ]
            },
            "properties": {
                "RSU coordinates": [
                    9.3455396,
                    48.6262527
                ],
                "Distance": 63.5,
                "Frequency": 5.9,
                "RSSI": -86.69,
                "LOS": "False"
            }
        },
        {
            "type": "Feature",
            "geometry": {
                "type": "Point",
                "coordinates": [
                    9.3448805,
                    48.62636049
                ]
            },
            "properties": {
                "RSU coordinates": [
                    9.3455396,
                    48.6262527
                ],
                "Distance": 49.96,
                "Frequency": 5.9,
                "RSSI": -54.63,
                "LOS": "True"
            }
        },
        {
            "type": "Feature",
            "geometry": {
                "type": "Point",
                "coordinates": [
                    9.34506881,
                    48.62657608
                ]
            },
            "properties": {
                "RSU coordinates": [
                    9.3455396,
                    48.6262527
                ],
                "Distance": 49.96,
                "Frequency": 5.9,
                "RSSI": -84.63,
                "LOS": "False"
            }
        },
        {
            "type": "Feature",
            "geometry": {
                "type": "Point",
                "coordinates": [
                    9.3460104,
                    48.62765402
                ]
            },
            "properties": {
                "RSU coordinates": [
                    9.3455396,
                    48.6262527
                ],
                "Distance": 159.8,
                "Frequency": 5.9,
                "RSSI": -79.6,
                "LOS": "False"
            }
        },
        {
            "type": "Feature",
            "geometry": {
                "type": "Point",
                "coordinates": [
                    9.34610456,
                    48.62776181
                ]
            },
            "properties": {
                "RSU coordinates": [
                    9.3455396,
                    48.6262527
                ],
                "Distance": 173.07,
                "Frequency": 5.9,
                "RSSI": -65.29,
                "LOS": "True"
            }
        },
        {
            "type": "Feature",
            "geometry": {
                "type": "Point",
                "coordinates": [
                    9.34619872,
                    48.6278696
                ]
            },
            "properties": {
                "RSU coordinates": [
                    9.3455396,
                    48.6262527
                ],
                "Distance": 186.42,
                "Frequency": 5.9,
                "RSSI": -65.93,
                "LOS": "True"
            }
        },
        {
            "type": "Feature",
            "geometry": {
                "type": "Point",
                "coordinates": [
                    9.34629288,
                    48.6279774
                ]
            },
            "properties": {
                "RSU coordinates": [
                    9.3455396,
                    48.6262527
                ],
                "Distance": 199.84,
                "Frequency": 5.9,
                "RSSI": -66.52,
                "LOS": "True"
            }
        },
        {
            "type": "Feature",
            "geometry": {
                "type": "Point",
                "coordinates": [
                    9.34638704,
                    48.62808519
                ]
            },
            "properties": {
                "RSU coordinates": [
                    9.3455396,
                    48.6262527
                ],
                "Distance": 213.32,
                "Frequency": 5.9,
                "RSSI": -67.08,
                "LOS": "True"
            }
        },
        {
            "type": "Feature",
            "geometry": {
                "type": "Point",
                "coordinates": [
                    9.3464812,
                    48.62819298
                ]
            },
            "properties": {
                "RSU coordinates": [
                    9.3455396,
                    48.6262527
                ],
                "Distance": 226.84,
                "Frequency": 5.9,
                "RSSI": -97.61,
                "LOS": "False"
            }
        },
        {
            "type": "Feature",
            "geometry": {
                "type": "Point",
                "coordinates": [
                    9.3448805,
                    48.62614491
                ]
            },
            "properties": {
                "RSU coordinates": [
                    9.3455396,
                    48.6262527
                ],
                "Distance": 49.96,
                "Frequency": 5.9,
                "RSSI": -84.63,
                "LOS": "False"
            }
        },
        {
            "type": "Feature",
            "geometry": {
                "type": "Point",
                "coordinates": [
                    9.34497466,
                    48.6262527
                ]
            },
            "properties": {
                "RSU coordinates": [
                    9.3455396,
                    48.6262527
                ],
                "Distance": 41.57,
                "Frequency": 5.9,
                "RSSI": -68.06,
                "LOS": "False"
            }
        },
        {
            "type": "Feature",
            "geometry": {
                "type": "Point",
                "coordinates": [
                    9.34506881,
                    48.62636049
                ]
            },
            "properties": {
                "RSU coordinates": [
                    9.3455396,
                    48.6262527
                ],
                "Distance": 36.66,
                "Frequency": 5.9,
                "RSSI": -51.98,
                "LOS": "True"
            }
        },
        {
            "type": "Feature",
            "geometry": {
                "type": "Point",
                "coordinates": [
                    9.34516297,
                    48.62646829
                ]
            },
            "properties": {
                "RSU coordinates": [
                    9.3455396,
                    48.6262527
                ],
                "Distance": 36.66,
                "Frequency": 5.9,
                "RSSI": -81.97999999999999,
                "LOS": "False"
            }
        },
        {
            "type": "Feature",
            "geometry": {
                "type": "Point",
                "coordinates": [
                    9.34525713,
                    48.62657608
                ]
            },
            "properties": {
                "RSU coordinates": [
                    9.3455396,
                    48.6262527
                ],
                "Distance": 41.57,
                "Frequency": 5.9,
                "RSSI": -68.06,
                "LOS": "False"
            }
        },
        {
            "type": "Feature",
            "geometry": {
                "type": "Point",
                "coordinates": [
                    9.34591624,
                    48.62733064
                ]
            },
            "properties": {
                "RSU coordinates": [
                    9.3455396,
                    48.6262527
                ],
                "Distance": 123.16,
                "Frequency": 5.9,
                "RSSI": -62.37,
                "LOS": "True"
            }
        },
        {
            "type": "Feature",
            "geometry": {
                "type": "Point",
                "coordinates": [
                    9.3460104,
                    48.62743843
                ]
            },
            "properties": {
                "RSU coordinates": [
                    9.3455396,
                    48.6262527
                ],
                "Distance": 136.47,
                "Frequency": 5.9,
                "RSSI": -63.25,
                "LOS": "True"
            }
        },
        {
            "type": "Feature",
            "geometry": {
                "type": "Point",
                "coordinates": [
                    9.34610456,
                    48.62754622
                ]
            },
            "properties": {
                "RSU coordinates": [
                    9.3455396,
                    48.6262527
                ],
                "Distance": 149.88,
                "Frequency": 5.9,
                "RSSI": -64.05,
                "LOS": "True"
            }
        },
        {
            "type": "Feature",
            "geometry": {
                "type": "Point",
                "coordinates": [
                    9.34619872,
                    48.62765402
                ]
            },
            "properties": {
                "RSU coordinates": [
                    9.3455396,
                    48.6262527
                ],
                "Distance": 163.36,
                "Frequency": 5.9,
                "RSSI": -64.79,
                "LOS": "True"
            }
        },
        {
            "type": "Feature",
            "geometry": {
                "type": "Point",
                "coordinates": [
                    9.34506882,
                    48.62614491
                ]
            },
            "properties": {
                "RSU coordinates": [
                    9.3455396,
                    48.6262527
                ],
                "Distance": 36.66,
                "Frequency": 5.9,
                "RSSI": -81.97999999999999,
                "LOS": "False"
            }
        },
        {
            "type": "Feature",
            "geometry": {
                "type": "Point",
                "coordinates": [
                    9.34525713,
                    48.62636049
                ]
            },
            "properties": {
                "RSU coordinates": [
                    9.3455396,
                    48.6262527
                ],
                "Distance": 24.0,
                "Frequency": 5.9,
                "RSSI": -63.34,
                "LOS": "False"
            }
        },
        {
            "type": "Feature",
            "geometry": {
                "type": "Point",
                "coordinates": [
                    9.34535129,
                    48.62646829
                ]
            },
            "properties": {
                "RSU coordinates": [
                    9.3455396,
                    48.6262527
                ],
                "Distance": 27.71,
                "Frequency": 5.9,
                "RSSI": -64.58,
                "LOS": "False"
            }
        },
        {
            "type": "Feature",
            "geometry": {
                "type": "Point",
                "coordinates": [
                    9.3455396,
                    48.62668387
                ]
            },
            "properties": {
                "RSU coordinates": [
                    9.3455396,
                    48.6262527
                ],
                "Distance": 48.0,
                "Frequency": 5.9,
                "RSSI": -84.28999999999999,
                "LOS": "False"
            }
        },
        {
            "type": "Feature",
            "geometry": {
                "type": "Point",
                "coordinates": [
                    9.34572792,
                    48.62689946
                ]
            },
            "properties": {
                "RSU coordinates": [
                    9.3455396,
                    48.6262527
                ],
                "Distance": 73.32,
                "Frequency": 5.9,
                "RSSI": -57.92,
                "LOS": "True"
            }
        },
        {
            "type": "Feature",
            "geometry": {
                "type": "Point",
                "coordinates": [
                    9.34582207,
                    48.62700726
                ]
            },
            "properties": {
                "RSU coordinates": [
                    9.3455396,
                    48.6262527
                ],
                "Distance": 86.53,
                "Frequency": 5.9,
                "RSSI": -59.34,
                "LOS": "True"
            }
        },
        {
            "type": "Feature",
            "geometry": {
                "type": "Point",
                "coordinates": [
                    9.34591623,
                    48.62711505
                ]
            },
            "properties": {
                "RSU coordinates": [
                    9.3455396,
                    48.6262527
                ],
                "Distance": 99.92,
                "Frequency": 5.9,
                "RSSI": -60.58,
                "LOS": "True"
            }
        },
        {
            "type": "Feature",
            "geometry": {
                "type": "Point",
                "coordinates": [
                    9.34601039,
                    48.62722284
                ]
            },
            "properties": {
                "RSU coordinates": [
                    9.3455396,
                    48.6262527
                ],
                "Distance": 113.42,
                "Frequency": 5.9,
                "RSSI": -61.66,
                "LOS": "True"
            }
        },
        {
            "type": "Feature",
            "geometry": {
                "type": "Point",
                "coordinates": [
                    9.34516297,
                    48.62603711
                ]
            },
            "properties": {
                "RSU coordinates": [
                    9.3455396,
                    48.6262527
                ],
                "Distance": 36.66,
                "Frequency": 5.9,
                "RSSI": -96.97999999999999,
                "LOS": "False"
            }
        },
        {
            "type": "Feature",
            "geometry": {
                "type": "Point",
                "coordinates": [
                    9.34525713,
                    48.62614491
                ]
            },
            "properties": {
                "RSU coordinates": [
                    9.3455396,
                    48.6262527
                ],
                "Distance": 24.0,
                "Frequency": 5.9,
                "RSSI": -63.34,
                "LOS": "False"
            }
        },
        {
            "type": "Feature",
            "geometry": {
                "type": "Point",
                "coordinates": [
                    9.34535129,
                    48.6262527
                ]
            },
            "properties": {
                "RSU coordinates": [
                    9.3455396,
                    48.6262527
                ],
                "Distance": 13.86,
                "Frequency": 5.9,
                "RSSI": -43.63,
                "LOS": "True"
            }
        },
        {
            "type": "Feature",
            "geometry": {
                "type": "Point",
                "coordinates": [
                    9.34563376,
                    48.62657608
                ]
            },
            "properties": {
                "RSU coordinates": [
                    9.3455396,
                    48.6262527
                ],
                "Distance": 36.66,
                "Frequency": 5.9,
                "RSSI": -51.98,
                "LOS": "True"
            }
        },
        {
            "type": "Feature",
            "geometry": {
                "type": "Point",
                "coordinates": [
                    9.34572792,
                    48.62668387
                ]
            },
            "properties": {
                "RSU coordinates": [
                    9.3455396,
                    48.6262527
                ],
                "Distance": 49.96,
                "Frequency": 5.9,
                "RSSI": -54.63,
                "LOS": "True"
            }
        },
        {
            "type": "Feature",
            "geometry": {
                "type": "Point",
                "coordinates": [
                    9.34582207,
                    48.62679167
                ]
            },
            "properties": {
                "RSU coordinates": [
                    9.3455396,
                    48.6262527
                ],
                "Distance": 63.5,
                "Frequency": 5.9,
                "RSSI": -56.69,
                "LOS": "True"
            }
        },
        {
            "type": "Feature",
            "geometry": {
                "type": "Point",
                "coordinates": [
                    9.34544544,
                    48.62614491
                ]
            },
            "properties": {
                "RSU coordinates": [
                    9.3455396,
                    48.6262527
                ],
                "Distance": 13.86,
                "Frequency": 5.9,
                "RSSI": -43.63,
                "LOS": "True"
            }
        },
        {
            "type": "Feature",
            "geometry": {
                "type": "Point",
                "coordinates": [
                    9.34563376,
                    48.62636049
                ]
            },
            "properties": {
                "RSU coordinates": [
                    9.3455396,
                    48.6262527
                ],
                "Distance": 13.86,
                "Frequency": 5.9,
                "RSSI": -43.63,
                "LOS": "True"
            }
        },
        {
            "type": "Feature",
            "geometry": {
                "type": "Point",
                "coordinates": [
                    9.34591623,
                    48.62668387
                ]
            },
            "properties": {
                "RSU coordinates": [
                    9.3455396,
                    48.6262527
                ],
                "Distance": 55.43,
                "Frequency": 5.9,
                "RSSI": -85.52000000000001,
                "LOS": "False"
            }
        },
        {
            "type": "Feature",
            "geometry": {
                "type": "Point",
                "coordinates": [
                    9.34525713,
                    48.62571373
                ]
            },
            "properties": {
                "RSU coordinates": [
                    9.3455396,
                    48.6262527
                ],
                "Distance": 63.5,
                "Frequency": 5.9,
                "RSSI": -56.69,
                "LOS": "True"
            }
        },
        {
            "type": "Feature",
            "geometry": {
                "type": "Point",
                "coordinates": [
                    9.34535129,
                    48.62582153
                ]
            },
            "properties": {
                "RSU coordinates": [
                    9.3455396,
                    48.6262527
                ],
                "Distance": 49.96,
                "Frequency": 5.9,
                "RSSI": -54.63,
                "LOS": "True"
            }
        },
        {
            "type": "Feature",
            "geometry": {
                "type": "Point",
                "coordinates": [
                    9.34544544,
                    48.62592932
                ]
            },
            "properties": {
                "RSU coordinates": [
                    9.3455396,
                    48.6262527
                ],
                "Distance": 36.66,
                "Frequency": 5.9,
                "RSSI": -51.98,
                "LOS": "True"
            }
        },
        {
            "type": "Feature",
            "geometry": {
                "type": "Point",
                "coordinates": [
                    9.34572791,
                    48.6262527
                ]
            },
            "properties": {
                "RSU coordinates": [
                    9.3455396,
                    48.6262527
                ],
                "Distance": 13.86,
                "Frequency": 5.9,
                "RSSI": -58.63,
                "LOS": "False"
            }
        },
        {
            "type": "Feature",
            "geometry": {
                "type": "Point",
                "coordinates": [
                    9.34506882,
                    48.62528256
                ]
            },
            "properties": {
                "RSU coordinates": [
                    9.3455396,
                    48.6262527
                ],
                "Distance": 113.42,
                "Frequency": 5.9,
                "RSSI": -61.66,
                "LOS": "True"
            }
        },
        {
            "type": "Feature",
            "geometry": {
                "type": "Point",
                "coordinates": [
                    9.34516298,
                    48.62539035
                ]
            },
            "properties": {
                "RSU coordinates": [
                    9.3455396,
                    48.6262527
                ],
                "Distance": 99.92,
                "Frequency": 5.9,
                "RSSI": -60.58,
                "LOS": "True"
            }
        },
        {
            "type": "Feature",
            "geometry": {
                "type": "Point",
                "coordinates": [
                    9.34525713,
                    48.62549814
                ]
            },
            "properties": {
                "RSU coordinates": [
                    9.3455396,
                    48.6262527
                ],
                "Distance": 86.53,
                "Frequency": 5.9,
                "RSSI": -59.34,
                "LOS": "True"
            }
        },
        {
            "type": "Feature",
            "geometry": {
                "type": "Point",
                "coordinates": [
                    9.34535129,
                    48.62560594
                ]
            },
            "properties": {
                "RSU coordinates": [
                    9.3455396,
                    48.6262527
                ],
                "Distance": 73.32,
                "Frequency": 5.9,
                "RSSI": -72.92,
                "LOS": "False"
            }
        },
        {
            "type": "Feature",
            "geometry": {
                "type": "Point",
                "coordinates": [
                    9.34563376,
                    48.62592932
                ]
            },
            "properties": {
                "RSU coordinates": [
                    9.3455396,
                    48.6262527
                ],
                "Distance": 36.66,
                "Frequency": 5.9,
                "RSSI": -81.97999999999999,
                "LOS": "False"
            }
        },
        {
            "type": "Feature",
            "geometry": {
                "type": "Point",
                "coordinates": [
                    9.34572791,
                    48.62603711
                ]
            },
            "properties": {
                "RSU coordinates": [
                    9.3455396,
                    48.6262527
                ],
                "Distance": 27.71,
                "Frequency": 5.9,
                "RSSI": -79.58,
                "LOS": "False"
            }
        },
        {
            "type": "Feature",
            "geometry": {
                "type": "Point",
                "coordinates": [
                    9.34582207,
                    48.62614491
                ]
            },
            "properties": {
                "RSU coordinates": [
                    9.3455396,
                    48.6262527
                ],
                "Distance": 24.0,
                "Frequency": 5.9,
                "RSSI": -78.34,
                "LOS": "False"
            }
        },
        {
            "type": "Feature",
            "geometry": {
                "type": "Point",
                "coordinates": [
                    9.34591623,
                    48.6262527
                ]
            },
            "properties": {
                "RSU coordinates": [
                    9.3455396,
                    48.6262527
                ],
                "Distance": 27.71,
                "Frequency": 5.9,
                "RSSI": -64.58,
                "LOS": "False"
            }
        },
        {
            "type": "Feature",
            "geometry": {
                "type": "Point",
                "coordinates": [
                    9.34601039,
                    48.62636049
                ]
            },
            "properties": {
                "RSU coordinates": [
                    9.3455396,
                    48.6262527
                ],
                "Distance": 36.66,
                "Frequency": 5.9,
                "RSSI": -81.97999999999999,
                "LOS": "False"
            }
        },
        {
            "type": "Feature",
            "geometry": {
                "type": "Point",
                "coordinates": [
                    9.34506883,
                    48.62506697
                ]
            },
            "properties": {
                "RSU coordinates": [
                    9.3455396,
                    48.6262527
                ],
                "Distance": 136.47,
                "Frequency": 5.9,
                "RSSI": -63.25,
                "LOS": "True"
            }
        },
        {
            "type": "Feature",
            "geometry": {
                "type": "Point",
                "coordinates": [
                    9.34516298,
                    48.62517476
                ]
            },
            "properties": {
                "RSU coordinates": [
                    9.3455396,
                    48.6262527
                ],
                "Distance": 123.16,
                "Frequency": 5.9,
                "RSSI": -62.37,
                "LOS": "True"
            }
        },
        {
            "type": "Feature",
            "geometry": {
                "type": "Point",
                "coordinates": [
                    9.34525713,
                    48.62528256
                ]
            },
            "properties": {
                "RSU coordinates": [
                    9.3455396,
                    48.6262527
                ],
                "Distance": 109.98,
                "Frequency": 5.9,
                "RSSI": -76.4,
                "LOS": "False"
            }
        },
        {
            "type": "Feature",
            "geometry": {
                "type": "Point",
                "coordinates": [
                    9.34563376,
                    48.62571373
                ]
            },
            "properties": {
                "RSU coordinates": [
                    9.3455396,
                    48.6262527
                ],
                "Distance": 60.4,
                "Frequency": 5.9,
                "RSSI": -86.25999999999999,
                "LOS": "False"
            }
        },
        {
            "type": "Feature",
            "geometry": {
                "type": "Point",
                "coordinates": [
                    9.34582207,
                    48.62592932
                ]
            },
            "properties": {
                "RSU coordinates": [
                    9.3455396,
                    48.6262527
                ],
                "Distance": 41.57,
                "Frequency": 5.9,
                "RSSI": -83.06,
                "LOS": "False"
            }
        },
        {
            "type": "Feature",
            "geometry": {
                "type": "Point",
                "coordinates": [
                    9.34591623,
                    48.62603711
                ]
            },
            "properties": {
                "RSU coordinates": [
                    9.3455396,
                    48.6262527
                ],
                "Distance": 36.66,
                "Frequency": 5.9,
                "RSSI": -81.97999999999999,
                "LOS": "False"
            }
        },
        {
            "type": "Feature",
            "geometry": {
                "type": "Point",
                "coordinates": [
                    9.34601038,
                    48.62614491
                ]
            },
            "properties": {
                "RSU coordinates": [
                    9.3455396,
                    48.6262527
                ],
                "Distance": 36.66,
                "Frequency": 5.9,
                "RSSI": -66.97999999999999,
                "LOS": "False"
            }
        },
        {
            "type": "Feature",
            "geometry": {
                "type": "Point",
                "coordinates": [
                    9.34610454,
                    48.6262527
                ]
            },
            "properties": {
                "RSU coordinates": [
                    9.3455396,
                    48.6262527
                ],
                "Distance": 41.57,
                "Frequency": 5.9,
                "RSSI": -68.06,
                "LOS": "False"
            }
        },
        {
            "type": "Feature",
            "geometry": {
                "type": "Point",
                "coordinates": [
                    9.34497468,
                    48.62474359
                ]
            },
            "properties": {
                "RSU coordinates": [
                    9.3455396,
                    48.6262527
                ],
                "Distance": 173.07,
                "Frequency": 5.9,
                "RSSI": -95.29,
                "LOS": "False"
            }
        },
        {
            "type": "Feature",
            "geometry": {
                "type": "Point",
                "coordinates": [
                    9.34516298,
                    48.62495918
                ]
            },
            "properties": {
                "RSU coordinates": [
                    9.3455396,
                    48.6262527
                ],
                "Distance": 146.64,
                "Frequency": 5.9,
                "RSSI": -78.87,
                "LOS": "False"
            }
        },
        {
            "type": "Feature",
            "geometry": {
                "type": "Point",
                "coordinates": [
                    9.34648117,
                    48.6262527
                ]
            },
            "properties": {
                "RSU coordinates": [
                    9.3455396,
                    48.6262527
                ],
                "Distance": 69.28,
                "Frequency": 5.9,
                "RSSI": -87.44,
                "LOS": "False"
            }
        },
        {
            "type": "Feature",
            "geometry": {
                "type": "Point",
                "coordinates": [
                    9.34695195,
                    48.62614491
                ]
            },
            "properties": {
                "RSU coordinates": [
                    9.3455396,
                    48.6262527
                ],
                "Distance": 104.61,
                "Frequency": 5.9,
                "RSSI": -90.97,
                "LOS": "False"
            }
        }
    ]
}